{
  "fold_id": 0,
  "test": {
    "accuracy": 0.9098765432098765,
    "confusion_matrix": [
      [
        372,
        33
      ],
      [
        40,
        365
      ]
    ],
    "f1_macro": 0.9098698119505952,
    "f1_micro": 0.9098765432098765,
    "f1_weighted": 0.9098698119505952,
    "per_class": {
      "y=0": {
        "accuracy": 0.9098765432098765,
        "confusion_matrix": [
          [
            365,
            40
          ],
          [
            33,
            372
          ]
        ],
        "f1": 0.9106487148102815,
        "precision": 0.9029126213592233,
        "recall": 0.9185185185185185
      },
      "y=1": {
        "accuracy": 0.9098765432098765,
        "confusion_matrix": [
          [
            372,
            33
          ],
          [
            40,
            365
          ]
        ],
        "f1": 0.9090909090909091,
        "precision": 0.9170854271356784,
        "recall": 0.9012345679012346
      }
    },
    "precision_macro": 0.9099990242474509,
    "precision_micro": 0.9098765432098765,
    "precision_weighted": 0.9099990242474509,
    "recall_macro": 0.9098765432098765,
    "recall_micro": 0.9098765432098765,
    "recall_weighted": 0.9098765432098765
  },
  "train": {
    "accuracy": 0.9862928348909658,
    "confusion_matrix": [
      [
        1582,
        23
      ],
      [
        21,
        1584
      ]
    ],
    "f1_macro": 0.9862928295699108,
    "f1_micro": 0.9862928348909658,
    "f1_weighted": 0.9862928295699109,
    "per_class": {
      "y=0": {
        "accuracy": 0.9862928348909658,
        "confusion_matrix": [
          [
            1584,
            21
          ],
          [
            23,
            1582
          ]
        ],
        "f1": 0.986284289276808,
        "precision": 0.9868995633187773,
        "recall": 0.9856697819314642
      },
      "y=1": {
        "accuracy": 0.9862928348909658,
        "confusion_matrix": [
          [
            1582,
            23
          ],
          [
            21,
            1584
          ]
        ],
        "f1": 0.9863013698630136,
        "precision": 0.985687616677038,
        "recall": 0.9869158878504672
      }
    },
    "precision_macro": 0.9862935899979076,
    "precision_micro": 0.9862928348909658,
    "precision_weighted": 0.9862935899979076,
    "recall_macro": 0.9862928348909656,
    "recall_micro": 0.9862928348909658,
    "recall_weighted": 0.9862928348909658
  },
  "xval": {
    "mean_fit_time": [
      6.092251896858215,
      6.057052195072174,
      5.30698823928833,
      5.105811178684235,
      6.671744763851166,
      4.731559574604034,
      5.544157564640045,
      4.870123505592346,
      4.713679909706116,
      4.666676223278046,
      4.718120098114014,
      4.6573357582092285,
      4.981074213981628,
      4.680211246013641,
      4.688847899436951,
      4.602429032325745,
      4.76623922586441,
      4.824126720428467,
      4.655113935470581,
      4.660956978797913,
      4.652962625026703,
      4.540671765804291,
      4.691003203392029,
      4.62502247095108,
      4.522933125495911,
      4.56612628698349,
      4.679897665977478,
      4.569357872009277,
      4.444763243198395,
      4.5399540066719055,
      4.517513573169708,
      5.63505232334137,
      4.700460731983185,
      4.49932461977005,
      4.545245409011841,
      4.71546870470047,
      4.498892426490784,
      4.896358966827393,
      4.5426546931266785,
      4.585362374782562,
      4.573680877685547,
      4.682827889919281,
      4.810664474964142,
      4.5211790800094604,
      4.629289507865906,
      4.710418701171875,
      4.6213343143463135,
      4.782909452915192
    ],
    "mean_score_time": [
      0.06271010637283325,
      0.03487163782119751,
      0.028866052627563477,
      0.02921152114868164,
      0.03888219594955444,
      0.06024044752120972,
      0.03219503164291382,
      0.02603095769882202,
      0.03739851713180542,
      0.027702271938323975,
      0.03652012348175049,
      0.05889451503753662,
      0.027256250381469727,
      0.02566969394683838,
      0.025610685348510742,
      0.028387486934661865,
      0.03864949941635132,
      0.06156182289123535,
      0.026089847087860107,
      0.025657713413238525,
      0.02551048994064331,
      0.028750479221343994,
      0.03732424974441528,
      0.05800926685333252,
      0.03624570369720459,
      0.02562737464904785,
      0.02490609884262085,
      0.02773946523666382,
      0.037222445011138916,
      0.06358116865158081,
      0.027919530868530273,
      0.031151950359344482,
      0.024627089500427246,
      0.027810215950012207,
      0.03824138641357422,
      0.05935347080230713,
      0.026275157928466797,
      0.027334272861480713,
      0.024460256099700928,
      0.02780383825302124,
      0.03811913728713989,
      0.05999034643173218,
      0.026248276233673096,
      0.026733458042144775,
      0.024896681308746338,
      0.02962207794189453,
      0.03669273853302002,
      0.05938690900802612
    ],
    "mean_test_score": [
      0.8906542056074767,
      0.8922118380062305,
      0.9024922118380062,
      0.9009345794392524,
      0.9,
      0.9062305295950156,
      0.8978193146417446,
      0.8912772585669781,
      0.8947040498442368,
      0.8940809968847352,
      0.9018691588785047,
      0.9049844236760125,
      0.8956386292834891,
      0.8940809968847352,
      0.9059190031152647,
      0.9109034267912772,
      0.9003115264797508,
      0.9161993769470405,
      0.9012461059190031,
      0.9037383177570093,
      0.9080996884735203,
      0.9161993769470405,
      0.9158878504672897,
      0.9177570093457944,
      0.9093457943925234,
      0.9034267912772586,
      0.9052959501557633,
      0.9121495327102803,
      0.9093457943925234,
      0.9152647975077881,
      0.891588785046729,
      0.8894080996884736,
      0.9021806853582555,
      0.9052959501557633,
      0.902803738317757,
      0.9052959501557633,
      0.897196261682243,
      0.881619937694704,
      0.8850467289719626,
      0.8975077881619937,
      0.8968847352024922,
      0.8890965732087227,
      0.8862928348909658,
      0.890031152647975,
      0.8813084112149533,
      0.8797507788161993,
      0.8753894080996885,
      0.8838006230529595
    ],
    "mean_train_score": [
      0.9469277316735822,
      0.9594960235131398,
      0.977976746196404,
      0.992928336791148,
      0.9983402489626556,
      0.9970954356846473,
      0.9484984439834026,
      0.9635468533886584,
      0.9793330739972338,
      0.990242479253112,
      0.9943879668049793,
      0.9965629322268327,
      0.949639090594744,
      0.9635498789764869,
      0.9778846818810512,
      0.9883739626556016,
      0.9926296680497926,
      0.9957412690179807,
      0.949942081604426,
      0.9600177213001384,
      0.9727900242047026,
      0.9813027316735823,
      0.9873327282157677,
      0.9863913381742739,
      0.9446511929460581,
      0.9479732883817428,
      0.9578401625172891,
      0.9655242911479945,
      0.9705108921161826,
      0.970400674273859,
      0.9267838001383126,
      0.9282265733056707,
      0.940499654218534,
      0.9417401452282157,
      0.9457857883817428,
      0.9475626728907331,
      0.9148340248962655,
      0.9140063105117566,
      0.9105830739972337,
      0.9288667012448133,
      0.9212780947441217,
      0.9255497925311202,
      0.8981336445366528,
      0.8991705567081604,
      0.9030999308437069,
      0.9002117911479944,
      0.9026806708160442,
      0.9087188796680499
    ],
    "param_clf__alpha": [
      0.01,
      0.01,
      0.01,
      0.01,
      0.01,
      0.01,
      0.03162277660168379,
      0.03162277660168379,
      0.03162277660168379,
      0.03162277660168379,
      0.03162277660168379,
      0.03162277660168379,
      0.1,
      0.1,
      0.1,
      0.1,
      0.1,
      0.1,
      0.31622776601683794,
      0.31622776601683794,
      0.31622776601683794,
      0.31622776601683794,
      0.31622776601683794,
      0.31622776601683794,
      1.0,
      1.0,
      1.0,
      1.0,
      1.0,
      1.0,
      3.1622776601683795,
      3.1622776601683795,
      3.1622776601683795,
      3.1622776601683795,
      3.1622776601683795,
      3.1622776601683795,
      10.0,
      10.0,
      10.0,
      10.0,
      10.0,
      10.0,
      31.622776601683793,
      31.622776601683793,
      31.622776601683793,
      31.622776601683793,
      31.622776601683793,
      31.622776601683793
    ],
    "param_pca__n_components": [
      0.75,
      0.8,
      0.85,
      0.9,
      0.95,
      0.99,
      0.75,
      0.8,
      0.85,
      0.9,
      0.95,
      0.99,
      0.75,
      0.8,
      0.85,
      0.9,
      0.95,
      0.99,
      0.75,
      0.8,
      0.85,
      0.9,
      0.95,
      0.99,
      0.75,
      0.8,
      0.85,
      0.9,
      0.95,
      0.99,
      0.75,
      0.8,
      0.85,
      0.9,
      0.95,
      0.99,
      0.75,
      0.8,
      0.85,
      0.9,
      0.95,
      0.99,
      0.75,
      0.8,
      0.85,
      0.9,
      0.95,
      0.99
    ],
    "params": [
      {
        "clf__alpha": 0.01,
        "pca__n_components": 0.75
      },
      {
        "clf__alpha": 0.01,
        "pca__n_components": 0.8
      },
      {
        "clf__alpha": 0.01,
        "pca__n_components": 0.85
      },
      {
        "clf__alpha": 0.01,
        "pca__n_components": 0.9
      },
      {
        "clf__alpha": 0.01,
        "pca__n_components": 0.95
      },
      {
        "clf__alpha": 0.01,
        "pca__n_components": 0.99
      },
      {
        "clf__alpha": 0.03162277660168379,
        "pca__n_components": 0.75
      },
      {
        "clf__alpha": 0.03162277660168379,
        "pca__n_components": 0.8
      },
      {
        "clf__alpha": 0.03162277660168379,
        "pca__n_components": 0.85
      },
      {
        "clf__alpha": 0.03162277660168379,
        "pca__n_components": 0.9
      },
      {
        "clf__alpha": 0.03162277660168379,
        "pca__n_components": 0.95
      },
      {
        "clf__alpha": 0.03162277660168379,
        "pca__n_components": 0.99
      },
      {
        "clf__alpha": 0.1,
        "pca__n_components": 0.75
      },
      {
        "clf__alpha": 0.1,
        "pca__n_components": 0.8
      },
      {
        "clf__alpha": 0.1,
        "pca__n_components": 0.85
      },
      {
        "clf__alpha": 0.1,
        "pca__n_components": 0.9
      },
      {
        "clf__alpha": 0.1,
        "pca__n_components": 0.95
      },
      {
        "clf__alpha": 0.1,
        "pca__n_components": 0.99
      },
      {
        "clf__alpha": 0.31622776601683794,
        "pca__n_components": 0.75
      },
      {
        "clf__alpha": 0.31622776601683794,
        "pca__n_components": 0.8
      },
      {
        "clf__alpha": 0.31622776601683794,
        "pca__n_components": 0.85
      },
      {
        "clf__alpha": 0.31622776601683794,
        "pca__n_components": 0.9
      },
      {
        "clf__alpha": 0.31622776601683794,
        "pca__n_components": 0.95
      },
      {
        "clf__alpha": 0.31622776601683794,
        "pca__n_components": 0.99
      },
      {
        "clf__alpha": 1.0,
        "pca__n_components": 0.75
      },
      {
        "clf__alpha": 1.0,
        "pca__n_components": 0.8
      },
      {
        "clf__alpha": 1.0,
        "pca__n_components": 0.85
      },
      {
        "clf__alpha": 1.0,
        "pca__n_components": 0.9
      },
      {
        "clf__alpha": 1.0,
        "pca__n_components": 0.95
      },
      {
        "clf__alpha": 1.0,
        "pca__n_components": 0.99
      },
      {
        "clf__alpha": 3.1622776601683795,
        "pca__n_components": 0.75
      },
      {
        "clf__alpha": 3.1622776601683795,
        "pca__n_components": 0.8
      },
      {
        "clf__alpha": 3.1622776601683795,
        "pca__n_components": 0.85
      },
      {
        "clf__alpha": 3.1622776601683795,
        "pca__n_components": 0.9
      },
      {
        "clf__alpha": 3.1622776601683795,
        "pca__n_components": 0.95
      },
      {
        "clf__alpha": 3.1622776601683795,
        "pca__n_components": 0.99
      },
      {
        "clf__alpha": 10.0,
        "pca__n_components": 0.75
      },
      {
        "clf__alpha": 10.0,
        "pca__n_components": 0.8
      },
      {
        "clf__alpha": 10.0,
        "pca__n_components": 0.85
      },
      {
        "clf__alpha": 10.0,
        "pca__n_components": 0.9
      },
      {
        "clf__alpha": 10.0,
        "pca__n_components": 0.95
      },
      {
        "clf__alpha": 10.0,
        "pca__n_components": 0.99
      },
      {
        "clf__alpha": 31.622776601683793,
        "pca__n_components": 0.75
      },
      {
        "clf__alpha": 31.622776601683793,
        "pca__n_components": 0.8
      },
      {
        "clf__alpha": 31.622776601683793,
        "pca__n_components": 0.85
      },
      {
        "clf__alpha": 31.622776601683793,
        "pca__n_components": 0.9
      },
      {
        "clf__alpha": 31.622776601683793,
        "pca__n_components": 0.95
      },
      {
        "clf__alpha": 31.622776601683793,
        "pca__n_components": 0.99
      }
    ],
    "rank_test_score": [
      38,
      35,
      20,
      24,
      26,
      11,
      27,
      37,
      32,
      33,
      22,
      16,
      31,
      33,
      12,
      7,
      25,
      2,
      23,
      17,
      10,
      2,
      4,
      1,
      8,
      18,
      13,
      6,
      8,
      5,
      36,
      40,
      21,
      13,
      19,
      13,
      29,
      45,
      43,
      28,
      30,
      41,
      42,
      39,
      46,
      47,
      48,
      44
    ],
    "split0_test_score": [
      0.8950617283950617,
      0.9037037037037037,
      0.9160493827160494,
      0.9049382716049382,
      0.9234567901234568,
      0.9148148148148149,
      0.9123456790123456,
      0.9111111111111111,
      0.9061728395061729,
      0.9111111111111111,
      0.9148148148148149,
      0.9098765432098765,
      0.9246913580246914,
      0.9123456790123456,
      0.9234567901234568,
      0.9358024691358025,
      0.9320987654320988,
      0.9308641975308642,
      0.9012345679012346,
      0.9259259259259259,
      0.9333333333333333,
      0.9358024691358025,
      0.9308641975308642,
      0.9296296296296296,
      0.9333333333333333,
      0.9222222222222223,
      0.9209876543209876,
      0.9345679012345679,
      0.9259259259259259,
      0.9160493827160494,
      0.9074074074074074,
      0.9,
      0.9259259259259259,
      0.9197530864197531,
      0.9160493827160494,
      0.9296296296296296,
      0.9012345679012346,
      0.8987654320987655,
      0.9024691358024691,
      0.9135802469135802,
      0.9074074074074074,
      0.9185185185185185,
      0.9074074074074074,
      0.9074074074074074,
      0.8814814814814815,
      0.908641975308642,
      0.8740740740740741,
      0.9074074074074074
    ],
    "split0_train_score": [
      0.9383333333333334,
      0.9541666666666667,
      0.9695833333333334,
      0.9829166666666667,
      1.0,
      1.0,
      0.9525,
      0.9591666666666666,
      0.9770833333333333,
      0.99375,
      0.99,
      0.9866666666666667,
      0.9520833333333333,
      0.9620833333333333,
      0.9808333333333333,
      0.9925,
      0.995,
      0.9945833333333334,
      0.9441666666666667,
      0.9570833333333333,
      0.9695833333333334,
      0.9758333333333333,
      0.98875,
      0.98125,
      0.94375,
      0.94625,
      0.9579166666666666,
      0.9654166666666667,
      0.9725,
      0.96625,
      0.9195833333333333,
      0.9104166666666667,
      0.9416666666666667,
      0.9375,
      0.9375,
      0.9504166666666667,
      0.9,
      0.9020833333333333,
      0.9020833333333333,
      0.9275,
      0.9120833333333334,
      0.93,
      0.9008333333333334,
      0.9004166666666666,
      0.8883333333333333,
      0.9041666666666667,
      0.8841666666666667,
      0.905
    ],
    "split1_test_score": [
      0.92,
      0.91375,
      0.91625,
      0.9325,
      0.92125,
      0.93625,
      0.895,
      0.91375,
      0.92,
      0.94125,
      0.94375,
      0.93625,
      0.905,
      0.91,
      0.92,
      0.92375,
      0.92125,
      0.92875,
      0.9125,
      0.92625,
      0.91375,
      0.9425,
      0.9325,
      0.94625,
      0.9225,
      0.9325,
      0.9225,
      0.92375,
      0.93875,
      0.94875,
      0.92875,
      0.9325,
      0.92375,
      0.94125,
      0.92,
      0.92375,
      0.92125,
      0.9125,
      0.89875,
      0.92125,
      0.9075,
      0.9175,
      0.9225,
      0.895,
      0.92,
      0.89625,
      0.89875,
      0.89625
    ],
    "split1_train_score": [
      0.9456431535269709,
      0.950207468879668,
      0.975103734439834,
      0.9925311203319502,
      0.9933609958506224,
      0.9975103734439834,
      0.9269709543568465,
      0.9672199170124481,
      0.9755186721991701,
      0.9946058091286307,
      0.9995850622406639,
      1.0,
      0.9481327800829875,
      0.9651452282157676,
      0.9780082987551867,
      0.9759336099585062,
      0.9921161825726141,
      0.9900414937759336,
      0.9473029045643153,
      0.958091286307054,
      0.9684647302904564,
      0.9821576763485477,
      0.987136929460581,
      0.9854771784232366,
      0.9360995850622407,
      0.9485477178423236,
      0.9497925311203319,
      0.9626556016597511,
      0.9684647302904564,
      0.9688796680497925,
      0.9265560165975104,
      0.9369294605809129,
      0.9340248962655602,
      0.9402489626556016,
      0.9390041493775934,
      0.9414937759336099,
      0.91701244813278,
      0.9066390041493776,
      0.9029045643153527,
      0.9190871369294605,
      0.9116182572614108,
      0.9136929460580913,
      0.8946058091286307,
      0.8896265560165975,
      0.8941908713692946,
      0.8892116182572614,
      0.8900414937759336,
      0.8896265560165975
    ],
    "split2_test_score": [
      0.88,
      0.88125,
      0.88375,
      0.88125,
      0.895,
      0.89875,
      0.90125,
      0.86875,
      0.87,
      0.85125,
      0.8875,
      0.8975,
      0.89,
      0.86625,
      0.91,
      0.9025,
      0.86875,
      0.91875,
      0.915,
      0.9075,
      0.9,
      0.9075,
      0.915,
      0.9125,
      0.9025,
      0.88875,
      0.90375,
      0.91,
      0.89875,
      0.91375,
      0.8775,
      0.87125,
      0.89375,
      0.895,
      0.9125,
      0.89875,
      0.9125,
      0.87625,
      0.88125,
      0.915,
      0.91375,
      0.8775,
      0.865,
      0.90375,
      0.9025,
      0.86125,
      0.90375,
      0.90625
    ],
    "split2_train_score": [
      0.9489626556016597,
      0.9647302904564315,
      0.9887966804979254,
      0.9962655601659751,
      1.0,
      0.9908713692946058,
      0.953941908713693,
      0.9614107883817428,
      0.9804979253112033,
      0.9784232365145228,
      0.9921161825726141,
      0.9995850622406639,
      0.9506224066390041,
      0.9564315352697096,
      0.9809128630705394,
      0.9950207468879668,
      0.9867219917012449,
      0.9991701244813278,
      0.9506224066390041,
      0.9680497925311203,
      0.9784232365145228,
      0.9842323651452282,
      0.9904564315352697,
      0.9896265560165975,
      0.9427385892116182,
      0.941908713692946,
      0.9597510373443984,
      0.9684647302904564,
      0.9721991701244813,
      0.9717842323651452,
      0.916597510373444,
      0.9178423236514522,
      0.9352697095435685,
      0.9365145228215768,
      0.9510373443983402,
      0.9435684647302904,
      0.9236514522821577,
      0.9107883817427386,
      0.91701244813278,
      0.9319502074688797,
      0.9319502074688797,
      0.9190871369294605,
      0.895850622406639,
      0.9037344398340249,
      0.9074688796680498,
      0.8925311203319503,
      0.9095435684647303,
      0.9136929460580913
    ],
    "split3_test_score": [
      0.8675,
      0.87,
      0.89375,
      0.885,
      0.86,
      0.875,
      0.8825,
      0.87125,
      0.8825,
      0.8725,
      0.86125,
      0.87625,
      0.8625,
      0.8875,
      0.87,
      0.88125,
      0.87875,
      0.88625,
      0.87625,
      0.855,
      0.885,
      0.87875,
      0.885,
      0.8825,
      0.87875,
      0.87,
      0.87375,
      0.88,
      0.87375,
      0.8825,
      0.8525,
      0.85375,
      0.865,
      0.865,
      0.8625,
      0.86875,
      0.85375,
      0.83875,
      0.8575,
      0.84,
      0.85875,
      0.8425,
      0.85,
      0.85375,
      0.82125,
      0.8525,
      0.825,
      0.825
    ],
    "split3_train_score": [
      0.9547717842323652,
      0.9688796680497925,
      0.9784232365145228,
      1.0,
      1.0,
      1.0,
      0.9605809128630706,
      0.9663900414937759,
      0.9842323651452282,
      0.9941908713692946,
      0.995850622406639,
      1.0,
      0.9477178423236514,
      0.9705394190871369,
      0.9717842323651452,
      0.9900414937759336,
      0.9966804979253112,
      0.9991701244813278,
      0.9576763485477179,
      0.9568464730290457,
      0.9746887966804979,
      0.9829875518672199,
      0.9829875518672199,
      0.9892116182572614,
      0.9560165975103735,
      0.9551867219917013,
      0.9639004149377594,
      0.9655601659751037,
      0.9688796680497925,
      0.9746887966804979,
      0.9443983402489626,
      0.9477178423236514,
      0.9510373443983402,
      0.9526970954356846,
      0.9556016597510374,
      0.9547717842323652,
      0.9186721991701244,
      0.9365145228215768,
      0.9203319502074688,
      0.9369294605809129,
      0.9294605809128631,
      0.9394190871369295,
      0.9012448132780083,
      0.9029045643153527,
      0.9224066390041494,
      0.9149377593360996,
      0.9269709543568465,
      0.9265560165975104
    ],
    "std_fit_time": [
      0.6495035492279055,
      0.8589490054292668,
      0.27594010478332526,
      0.14574317180137117,
      0.09250249507216396,
      0.02958476892534266,
      0.6464339491955262,
      0.13843801525020236,
      0.1679460522754244,
      0.050248751018282335,
      0.16001166895576052,
      0.11903292309816918,
      0.3517866516559437,
      0.1384323110241404,
      0.03887553577767693,
      0.09545056891470162,
      0.12730566543180755,
      0.33003617559804094,
      0.06815373666365095,
      0.15097363077109902,
      0.010482002416596501,
      0.08115801335949417,
      0.16130867184914485,
      0.17606167157807087,
      0.06007033313674465,
      0.08131339085526694,
      0.10160186101148141,
      0.09220468325016162,
      0.06901745207349617,
      0.15889656782959247,
      0.05014209730125395,
      1.194014105914308,
      0.2629679821838043,
      0.10564496090089609,
      0.1532451704268664,
      0.0938899379270978,
      0.06458420172082531,
      0.35541650265629515,
      0.07714802565600684,
      0.12343631206556792,
      0.12018895398073834,
      0.12798942277819134,
      0.3614763475708395,
      0.12914042920734214,
      0.20885907049135644,
      0.20045969197273436,
      0.20554397454124387,
      0.25517125383658773
    ],
    "std_score_time": [
      0.062466837089995245,
      0.012492395903580361,
      0.005165541965867522,
      0.0013918105176250841,
      0.0003633134762557149,
      0.0012595808030641709,
      0.007936550197646792,
      0.004269359679822061,
      0.02173122478229018,
      0.00032513224655383004,
      0.0010997440233245454,
      0.00046081434478793896,
      0.0029634751761354935,
      0.004050526529917214,
      0.0008025027885538405,
      0.00041233962083308444,
      0.0021842757542532495,
      0.00409137043430712,
      0.0008446637512690183,
      0.004190889679875392,
      0.001164156069275226,
      0.0013211326300018767,
      0.001293111539766891,
      0.000785680030832819,
      0.01724578608783005,
      0.004051477065889234,
      0.00017179232270361447,
      0.00047652345635135,
      0.002722717763440884,
      0.01044398631294982,
      0.003278316848353551,
      0.005065473221308409,
      0.00017654267930348913,
      0.0003578282629279578,
      0.0029045342689614354,
      0.0031942860265209753,
      0.0012021151410516477,
      0.004885599166010787,
      0.00013503622689038007,
      0.0002558803102834217,
      0.003942736744773756,
      0.003966858058727053,
      0.0004477852364426082,
      0.005954809671140014,
      0.00024767406810813857,
      0.001809600352923767,
      0.0017547022744018978,
      0.0029965973729150805
    ],
    "std_test_score": [
      0.01953014488116112,
      0.017373549033002467,
      0.01414713824197556,
      0.020302995713015855,
      0.025619605350216373,
      0.02236532687147109,
      0.01080039794778074,
      0.021249982516946354,
      0.01954173618782492,
      0.03465467804687704,
      0.03069325082593543,
      0.021665551614222536,
      0.022725285918593623,
      0.01873944754713394,
      0.021277120887404195,
      0.0208402293925731,
      0.02698797687049269,
      0.017851824666772233,
      0.015310902029026154,
      0.02908701432414367,
      0.017831489697304304,
      0.02525356767425016,
      0.019061505339474125,
      0.023549586965184537,
      0.02081573338742038,
      0.02513858966464013,
      0.01960878252918545,
      0.020471996364816218,
      0.025071987400947144,
      0.02340332336164651,
      0.028940758271278063,
      0.029835349778221408,
      0.024909053558926125,
      0.028390184287604328,
      0.023371630767886384,
      0.024038066633910112,
      0.026021204647175007,
      0.027875507018781474,
      0.01777920362954054,
      0.03325861573590111,
      0.022121103923075425,
      0.03152982981638464,
      0.0296728222444768,
      0.02138463454819874,
      0.03720170016998382,
      0.02342745447374631,
      0.031139859784356103,
      0.03415457278488291
    ],
    "std_train_score": [
      0.005941041570794549,
      0.007585011977576721,
      0.006999534054791814,
      0.0063548564104512475,
      0.0028747731245956365,
      0.003734439834024883,
      0.012797095595031588,
      0.0033661522699802195,
      0.0033530182846336874,
      0.006830549915806031,
      0.0036593858315536907,
      0.005716122191060074,
      0.0017959258952591904,
      0.005104419247204529,
      0.003711306782357938,
      0.0073950483444057726,
      0.003781269740742906,
      0.0037862366684044855,
      0.005015037399040803,
      0.004660814531248454,
      0.004010282148162562,
      0.0032429392518457134,
      0.0027697055976746566,
      0.003379706366921863,
      0.007189795200145616,
      0.00479875980470751,
      0.00512709288951494,
      0.002054776859094551,
      0.00184759999584589,
      0.0031560966250895116,
      0.01079271895810592,
      0.014838086384605358,
      0.006739429579580134,
      0.006472332354085112,
      0.0077229380423453915,
      0.005312762367973972,
      0.008906071382523348,
      0.01335486123833533,
      0.008178975202090145,
      0.006557893130350866,
      0.009469730295859739,
      0.009931168172594873,
      0.0029421719548803128,
      0.005643859079264009,
      0.013126884974873243,
      0.01015494568247079,
      0.01687923565007715,
      0.013428064628699365
    ]
  },
  "xval_grid": {
    "clf__alpha": [
      0.01,
      0.03162277660168379,
      0.1,
      0.31622776601683794,
      1.0,
      3.1622776601683795,
      10.0,
      31.622776601683793
    ],
    "pca__n_components": [
      0.75,
      0.8,
      0.85,
      0.9,
      0.95,
      0.99
    ]
  }
}