{
  "fold_id": 2,
  "test": {
    "accuracy": 0.945,
    "confusion_matrix": [
      [
        378,
        22
      ],
      [
        22,
        378
      ]
    ],
    "f1_macro": 0.945,
    "f1_micro": 0.945,
    "f1_weighted": 0.945,
    "per_class": {
      "y=0": {
        "accuracy": 0.945,
        "confusion_matrix": [
          [
            378,
            22
          ],
          [
            22,
            378
          ]
        ],
        "f1": 0.945,
        "precision": 0.945,
        "recall": 0.945
      },
      "y=1": {
        "accuracy": 0.945,
        "confusion_matrix": [
          [
            378,
            22
          ],
          [
            22,
            378
          ]
        ],
        "f1": 0.945,
        "precision": 0.945,
        "recall": 0.945
      }
    },
    "precision_macro": 0.945,
    "precision_micro": 0.945,
    "precision_weighted": 0.945,
    "recall_macro": 0.945,
    "recall_micro": 0.945,
    "recall_weighted": 0.945
  },
  "train": {
    "accuracy": 0.9664596273291925,
    "confusion_matrix": [
      [
        1554,
        56
      ],
      [
        52,
        1558
      ]
    ],
    "f1_macro": 0.966459575571275,
    "f1_micro": 0.9664596273291925,
    "f1_weighted": 0.9664595755712752,
    "per_class": {
      "y=0": {
        "accuracy": 0.9664596273291925,
        "confusion_matrix": [
          [
            1558,
            52
          ],
          [
            56,
            1554
          ]
        ],
        "f1": 0.9664179104477612,
        "precision": 0.9676214196762142,
        "recall": 0.9652173913043478
      },
      "y=1": {
        "accuracy": 0.9664596273291925,
        "confusion_matrix": [
          [
            1554,
            56
          ],
          [
            52,
            1558
          ]
        ],
        "f1": 0.966501240694789,
        "precision": 0.9653035935563816,
        "recall": 0.9677018633540373
      }
    },
    "precision_macro": 0.966462506616298,
    "precision_micro": 0.9664596273291925,
    "precision_weighted": 0.9664625066162981,
    "recall_macro": 0.9664596273291925,
    "recall_micro": 0.9664596273291925,
    "recall_weighted": 0.9664596273291925
  },
  "xval": {
    "mean_fit_time": [
      4.786421716213226,
      4.635444700717926,
      4.674860715866089,
      4.667750120162964,
      4.655412495136261,
      4.582371890544891,
      4.6034170389175415,
      4.722603440284729,
      4.631643772125244,
      4.630837976932526,
      4.6715781688690186,
      4.642585754394531,
      4.672669470310211,
      4.651195228099823,
      4.778835415840149,
      4.8444162011146545,
      4.540956199169159,
      4.704924404621124,
      4.69232577085495,
      5.146303296089172,
      4.707565069198608,
      4.552598834037781,
      4.774273335933685,
      4.6776570081710815,
      4.591639518737793,
      4.7184194922447205,
      4.804064691066742,
      4.629134118556976,
      4.716374456882477,
      4.6955021023750305,
      4.60157972574234,
      4.777596056461334,
      4.685437738895416,
      4.559793531894684,
      4.67677640914917,
      4.852247714996338,
      4.64638352394104,
      4.682577908039093,
      4.578913986682892,
      4.860402286052704,
      4.540923476219177,
      4.669878304004669,
      4.645547986030579,
      4.646231472492218,
      4.983501076698303,
      4.567863166332245,
      4.672485649585724,
      4.673791170120239
    ],
    "mean_score_time": [
      0.02627331018447876,
      0.026404082775115967,
      0.027313053607940674,
      0.028308451175689697,
      0.03632992506027222,
      0.0580826997756958,
      0.026619791984558105,
      0.026672303676605225,
      0.025229692459106445,
      0.028265058994293213,
      0.036309778690338135,
      0.05855590105056763,
      0.02755063772201538,
      0.02666604518890381,
      0.02863997220993042,
      0.028845250606536865,
      0.0359417200088501,
      0.05918461084365845,
      0.03590816259384155,
      0.029728174209594727,
      0.025230467319488525,
      0.02867788076400757,
      0.042188405990600586,
      0.06083643436431885,
      0.02896517515182495,
      0.029667019844055176,
      0.025602102279663086,
      0.028720855712890625,
      0.03689908981323242,
      0.05762743949890137,
      0.027422308921813965,
      0.027189671993255615,
      0.025432467460632324,
      0.04125303030014038,
      0.03653514385223389,
      0.058581769466400146,
      0.043186724185943604,
      0.026319265365600586,
      0.025509655475616455,
      0.03215348720550537,
      0.039652884006500244,
      0.05814141035079956,
      0.025920748710632324,
      0.026709794998168945,
      0.026924729347229004,
      0.028768718242645264,
      0.03630781173706055,
      0.06116443872451782
    ],
    "mean_test_score": [
      0.8847826086956522,
      0.8872670807453417,
      0.8940993788819875,
      0.8813664596273292,
      0.8881987577639752,
      0.9009316770186335,
      0.8838509316770187,
      0.8872670807453417,
      0.8916149068322982,
      0.8906832298136645,
      0.8953416149068323,
      0.8860248447204969,
      0.8822981366459627,
      0.8922360248447205,
      0.8978260869565218,
      0.8972049689440994,
      0.8981366459627329,
      0.8922360248447205,
      0.8838509316770187,
      0.8953416149068323,
      0.8993788819875776,
      0.9003105590062112,
      0.8906832298136645,
      0.8990683229813664,
      0.8919254658385093,
      0.886335403726708,
      0.9015527950310559,
      0.8972049689440994,
      0.8944099378881988,
      0.9077639751552795,
      0.8922360248447205,
      0.9015527950310559,
      0.893167701863354,
      0.8909937888198758,
      0.8981366459627329,
      0.8947204968944099,
      0.8878881987577639,
      0.8847826086956522,
      0.8916149068322982,
      0.8891304347826087,
      0.8922360248447205,
      0.8773291925465838,
      0.8754658385093168,
      0.8658385093167702,
      0.872360248447205,
      0.8624223602484472,
      0.8763975155279503,
      0.8677018633540373
    ],
    "mean_train_score": [
      0.9421329001063063,
      0.9615801069922156,
      0.9761818010356298,
      0.9875612976235384,
      0.9986570247933885,
      1.0,
      0.9411997188025103,
      0.9585756661294194,
      0.9743261547957889,
      0.9885081958780563,
      0.9990668186962038,
      0.9981366379753781,
      0.9395553993347279,
      0.9571533898014473,
      0.9787743047220603,
      0.9866401186516237,
      0.9924432461163883,
      0.9945102191282879,
      0.94430532217688,
      0.9520549706800179,
      0.9712179794931586,
      0.9805343609615582,
      0.9781424676794349,
      0.986235039950619,
      0.9380902575357497,
      0.9416035115393848,
      0.9552745962072631,
      0.957455162717328,
      0.964800161174171,
      0.9672910736943178,
      0.9198732896677069,
      0.9333296183258462,
      0.9347797572099722,
      0.9390200096018655,
      0.9367489969479785,
      0.9425435513185418,
      0.9090013202565069,
      0.9138648365968245,
      0.9143779362847639,
      0.9172803573265663,
      0.9173840917664005,
      0.912515431569562,
      0.8864305064984054,
      0.8870511985185693,
      0.8925418366997016,
      0.8930609375535818,
      0.8922297760707795,
      0.8928487534721031
    ],
    "param_clf__alpha": [
      0.01,
      0.01,
      0.01,
      0.01,
      0.01,
      0.01,
      0.03162277660168379,
      0.03162277660168379,
      0.03162277660168379,
      0.03162277660168379,
      0.03162277660168379,
      0.03162277660168379,
      0.1,
      0.1,
      0.1,
      0.1,
      0.1,
      0.1,
      0.31622776601683794,
      0.31622776601683794,
      0.31622776601683794,
      0.31622776601683794,
      0.31622776601683794,
      0.31622776601683794,
      1.0,
      1.0,
      1.0,
      1.0,
      1.0,
      1.0,
      3.1622776601683795,
      3.1622776601683795,
      3.1622776601683795,
      3.1622776601683795,
      3.1622776601683795,
      3.1622776601683795,
      10.0,
      10.0,
      10.0,
      10.0,
      10.0,
      10.0,
      31.622776601683793,
      31.622776601683793,
      31.622776601683793,
      31.622776601683793,
      31.622776601683793,
      31.622776601683793
    ],
    "param_pca__n_components": [
      0.75,
      0.8,
      0.85,
      0.9,
      0.95,
      0.99,
      0.75,
      0.8,
      0.85,
      0.9,
      0.95,
      0.99,
      0.75,
      0.8,
      0.85,
      0.9,
      0.95,
      0.99,
      0.75,
      0.8,
      0.85,
      0.9,
      0.95,
      0.99,
      0.75,
      0.8,
      0.85,
      0.9,
      0.95,
      0.99,
      0.75,
      0.8,
      0.85,
      0.9,
      0.95,
      0.99,
      0.75,
      0.8,
      0.85,
      0.9,
      0.95,
      0.99,
      0.75,
      0.8,
      0.85,
      0.9,
      0.95,
      0.99
    ],
    "params": [
      {
        "clf__alpha": 0.01,
        "pca__n_components": 0.75
      },
      {
        "clf__alpha": 0.01,
        "pca__n_components": 0.8
      },
      {
        "clf__alpha": 0.01,
        "pca__n_components": 0.85
      },
      {
        "clf__alpha": 0.01,
        "pca__n_components": 0.9
      },
      {
        "clf__alpha": 0.01,
        "pca__n_components": 0.95
      },
      {
        "clf__alpha": 0.01,
        "pca__n_components": 0.99
      },
      {
        "clf__alpha": 0.03162277660168379,
        "pca__n_components": 0.75
      },
      {
        "clf__alpha": 0.03162277660168379,
        "pca__n_components": 0.8
      },
      {
        "clf__alpha": 0.03162277660168379,
        "pca__n_components": 0.85
      },
      {
        "clf__alpha": 0.03162277660168379,
        "pca__n_components": 0.9
      },
      {
        "clf__alpha": 0.03162277660168379,
        "pca__n_components": 0.95
      },
      {
        "clf__alpha": 0.03162277660168379,
        "pca__n_components": 0.99
      },
      {
        "clf__alpha": 0.1,
        "pca__n_components": 0.75
      },
      {
        "clf__alpha": 0.1,
        "pca__n_components": 0.8
      },
      {
        "clf__alpha": 0.1,
        "pca__n_components": 0.85
      },
      {
        "clf__alpha": 0.1,
        "pca__n_components": 0.9
      },
      {
        "clf__alpha": 0.1,
        "pca__n_components": 0.95
      },
      {
        "clf__alpha": 0.1,
        "pca__n_components": 0.99
      },
      {
        "clf__alpha": 0.31622776601683794,
        "pca__n_components": 0.75
      },
      {
        "clf__alpha": 0.31622776601683794,
        "pca__n_components": 0.8
      },
      {
        "clf__alpha": 0.31622776601683794,
        "pca__n_components": 0.85
      },
      {
        "clf__alpha": 0.31622776601683794,
        "pca__n_components": 0.9
      },
      {
        "clf__alpha": 0.31622776601683794,
        "pca__n_components": 0.95
      },
      {
        "clf__alpha": 0.31622776601683794,
        "pca__n_components": 0.99
      },
      {
        "clf__alpha": 1.0,
        "pca__n_components": 0.75
      },
      {
        "clf__alpha": 1.0,
        "pca__n_components": 0.8
      },
      {
        "clf__alpha": 1.0,
        "pca__n_components": 0.85
      },
      {
        "clf__alpha": 1.0,
        "pca__n_components": 0.9
      },
      {
        "clf__alpha": 1.0,
        "pca__n_components": 0.95
      },
      {
        "clf__alpha": 1.0,
        "pca__n_components": 0.99
      },
      {
        "clf__alpha": 3.1622776601683795,
        "pca__n_components": 0.75
      },
      {
        "clf__alpha": 3.1622776601683795,
        "pca__n_components": 0.8
      },
      {
        "clf__alpha": 3.1622776601683795,
        "pca__n_components": 0.85
      },
      {
        "clf__alpha": 3.1622776601683795,
        "pca__n_components": 0.9
      },
      {
        "clf__alpha": 3.1622776601683795,
        "pca__n_components": 0.95
      },
      {
        "clf__alpha": 3.1622776601683795,
        "pca__n_components": 0.99
      },
      {
        "clf__alpha": 10.0,
        "pca__n_components": 0.75
      },
      {
        "clf__alpha": 10.0,
        "pca__n_components": 0.8
      },
      {
        "clf__alpha": 10.0,
        "pca__n_components": 0.85
      },
      {
        "clf__alpha": 10.0,
        "pca__n_components": 0.9
      },
      {
        "clf__alpha": 10.0,
        "pca__n_components": 0.95
      },
      {
        "clf__alpha": 10.0,
        "pca__n_components": 0.99
      },
      {
        "clf__alpha": 31.622776601683793,
        "pca__n_components": 0.75
      },
      {
        "clf__alpha": 31.622776601683793,
        "pca__n_components": 0.8
      },
      {
        "clf__alpha": 31.622776601683793,
        "pca__n_components": 0.85
      },
      {
        "clf__alpha": 31.622776601683793,
        "pca__n_components": 0.9
      },
      {
        "clf__alpha": 31.622776601683793,
        "pca__n_components": 0.95
      },
      {
        "clf__alpha": 31.622776601683793,
        "pca__n_components": 0.99
      }
    ],
    "rank_test_score": [
      36,
      32,
      17,
      41,
      30,
      4,
      38,
      32,
      24,
      27,
      13,
      35,
      40,
      19,
      10,
      11,
      8,
      19,
      38,
      13,
      6,
      5,
      27,
      7,
      23,
      34,
      2,
      11,
      16,
      1,
      19,
      2,
      18,
      26,
      8,
      15,
      31,
      36,
      24,
      29,
      19,
      42,
      44,
      47,
      45,
      48,
      43,
      46
    ],
    "split0_test_score": [
      0.9024691358024691,
      0.8839506172839506,
      0.8925925925925926,
      0.8617283950617284,
      0.8814814814814815,
      0.9024691358024691,
      0.8827160493827161,
      0.8679012345679012,
      0.8851851851851852,
      0.8691358024691358,
      0.8876543209876543,
      0.8851851851851852,
      0.8876543209876543,
      0.8925925925925926,
      0.8975308641975308,
      0.8888888888888888,
      0.9037037037037037,
      0.8938271604938272,
      0.8814814814814815,
      0.8925925925925926,
      0.8925925925925926,
      0.8938271604938272,
      0.8938271604938272,
      0.8901234567901235,
      0.8753086419753087,
      0.8629629629629629,
      0.8975308641975308,
      0.8962962962962963,
      0.8753086419753087,
      0.8987654320987655,
      0.8864197530864197,
      0.8938271604938272,
      0.8839506172839506,
      0.8703703703703703,
      0.891358024691358,
      0.8728395061728395,
      0.8765432098765432,
      0.8790123456790123,
      0.8777777777777778,
      0.8790123456790123,
      0.8790123456790123,
      0.8691358024691358,
      0.8518518518518519,
      0.8444444444444444,
      0.8629629629629629,
      0.8654320987654321,
      0.8617283950617284,
      0.8666666666666667
    ],
    "split0_train_score": [
      0.9518672199170124,
      0.9564315352697096,
      0.9771784232365145,
      0.9863070539419088,
      1.0,
      1.0,
      0.9443983402489626,
      0.9398340248962656,
      0.9742738589211618,
      0.9887966804979254,
      0.9966804979253112,
      0.9983402489626556,
      0.9489626556016597,
      0.9614107883817428,
      0.9763485477178423,
      0.9892116182572614,
      0.9925311203319502,
      0.9921161825726141,
      0.9414937759336099,
      0.953941908713693,
      0.9676348547717842,
      0.9804979253112033,
      0.9784232365145228,
      0.9867219917012449,
      0.937344398340249,
      0.9323651452282158,
      0.953941908713693,
      0.9614107883817428,
      0.9601659751037345,
      0.9697095435684647,
      0.9273858921161826,
      0.9377593360995851,
      0.9365145228215768,
      0.9360995850622407,
      0.9452282157676348,
      0.9414937759336099,
      0.9132780082987552,
      0.9195020746887966,
      0.9182572614107883,
      0.9228215767634855,
      0.9236514522821577,
      0.912448132780083,
      0.8887966804979253,
      0.887551867219917,
      0.8983402489626556,
      0.9,
      0.8995850622406639,
      0.9
    ],
    "split1_test_score": [
      0.8925925925925926,
      0.8938271604938272,
      0.9111111111111111,
      0.8851851851851852,
      0.9160493827160494,
      0.9259259259259259,
      0.9012345679012346,
      0.9098765432098765,
      0.9074074074074074,
      0.9234567901234568,
      0.9098765432098765,
      0.9012345679012346,
      0.9024691358024691,
      0.9098765432098765,
      0.9123456790123456,
      0.9135802469135802,
      0.9160493827160494,
      0.908641975308642,
      0.9074074074074074,
      0.9024691358024691,
      0.9185185185185185,
      0.9308641975308642,
      0.8987654320987655,
      0.9320987654320988,
      0.9222222222222223,
      0.9160493827160494,
      0.9271604938271605,
      0.9222222222222223,
      0.9395061728395062,
      0.9382716049382716,
      0.8987654320987655,
      0.9234567901234568,
      0.9246913580246914,
      0.928395061728395,
      0.9148148148148149,
      0.928395061728395,
      0.9074074074074074,
      0.917283950617284,
      0.9098765432098765,
      0.9135802469135802,
      0.9148148148148149,
      0.9111111111111111,
      0.8901234567901235,
      0.8876543209876543,
      0.8950617283950617,
      0.8925925925925926,
      0.8790123456790123,
      0.8790123456790123
    ],
    "split1_train_score": [
      0.9327800829875519,
      0.9531120331950207,
      0.966804979253112,
      0.9730290456431535,
      1.0,
      1.0,
      0.9369294605809129,
      0.9614107883817428,
      0.9734439834024896,
      0.987136929460581,
      1.0,
      0.9979253112033195,
      0.9406639004149377,
      0.9630705394190872,
      0.9771784232365145,
      0.9784232365145228,
      0.9925311203319502,
      0.9937759336099585,
      0.946058091286307,
      0.9352697095435685,
      0.9713692946058091,
      0.9767634854771784,
      0.9634854771784233,
      0.9887966804979254,
      0.9340248962655602,
      0.9398340248962656,
      0.9518672199170124,
      0.9551867219917013,
      0.9663900414937759,
      0.9680497925311203,
      0.9099585062240664,
      0.9253112033195021,
      0.9302904564315353,
      0.9352697095435685,
      0.9278008298755187,
      0.9406639004149377,
      0.9,
      0.9016597510373444,
      0.8995850622406639,
      0.9045643153526971,
      0.904149377593361,
      0.9024896265560166,
      0.8759336099585062,
      0.8780082987551867,
      0.8821576763485477,
      0.8829875518672199,
      0.8788381742738589,
      0.8775933609958506
    ],
    "split2_test_score": [
      0.8875,
      0.9025,
      0.9075,
      0.90625,
      0.88625,
      0.9,
      0.8925,
      0.89875,
      0.91375,
      0.9125,
      0.91,
      0.88875,
      0.9,
      0.9025,
      0.9125,
      0.91125,
      0.905,
      0.9075,
      0.8975,
      0.915,
      0.91625,
      0.9075,
      0.90875,
      0.90875,
      0.92,
      0.9125,
      0.9175,
      0.9225,
      0.91125,
      0.92,
      0.9275,
      0.92875,
      0.915,
      0.9125,
      0.92125,
      0.91375,
      0.91125,
      0.90625,
      0.92625,
      0.91875,
      0.92125,
      0.89,
      0.91,
      0.91625,
      0.88125,
      0.87625,
      0.91375,
      0.91125
    ],
    "split2_train_score": [
      0.9301652892561983,
      0.9677685950413223,
      0.9764462809917356,
      0.990909090909091,
      0.9971074380165289,
      1.0,
      0.9363636363636364,
      0.9611570247933884,
      0.9764462809917356,
      0.993801652892562,
      1.0,
      0.9962809917355372,
      0.9371900826446281,
      0.9413223140495868,
      0.978099173553719,
      0.9900826446280991,
      0.9888429752066116,
      0.9925619834710744,
      0.9425619834710743,
      0.9508264462809918,
      0.96900826446281,
      0.9805785123966942,
      0.9888429752066116,
      0.9797520661157024,
      0.9309917355371901,
      0.947107438016529,
      0.9545454545454546,
      0.959504132231405,
      0.9706611570247934,
      0.9586776859504132,
      0.9239669421487603,
      0.9330578512396694,
      0.9268595041322314,
      0.9351239669421487,
      0.9388429752066115,
      0.9400826446280992,
      0.9107438016528926,
      0.912396694214876,
      0.9152892561983471,
      0.9115702479338843,
      0.9173553719008265,
      0.9049586776859504,
      0.8818181818181818,
      0.8855371900826446,
      0.8863636363636364,
      0.8842975206611571,
      0.8888429752066116,
      0.8867768595041322
    ],
    "split3_test_score": [
      0.85625,
      0.86875,
      0.865,
      0.8725,
      0.86875,
      0.875,
      0.85875,
      0.8725,
      0.86,
      0.8575,
      0.87375,
      0.86875,
      0.83875,
      0.86375,
      0.86875,
      0.875,
      0.8675,
      0.85875,
      0.84875,
      0.87125,
      0.87,
      0.86875,
      0.86125,
      0.865,
      0.85,
      0.85375,
      0.86375,
      0.8475,
      0.85125,
      0.87375,
      0.85625,
      0.86,
      0.84875,
      0.8525,
      0.865,
      0.86375,
      0.85625,
      0.83625,
      0.8525,
      0.845,
      0.85375,
      0.83875,
      0.85,
      0.815,
      0.85,
      0.815,
      0.85125,
      0.81375
    ],
    "split3_train_score": [
      0.9537190082644628,
      0.96900826446281,
      0.984297520661157,
      1.0,
      0.9975206611570248,
      1.0,
      0.947107438016529,
      0.971900826446281,
      0.9731404958677686,
      0.984297520661157,
      0.9995867768595041,
      1.0,
      0.9314049586776859,
      0.9628099173553719,
      0.9834710743801653,
      0.9888429752066116,
      0.9958677685950413,
      0.9995867768595041,
      0.947107438016529,
      0.9681818181818181,
      0.9768595041322314,
      0.984297520661157,
      0.9818181818181818,
      0.9896694214876033,
      0.95,
      0.947107438016529,
      0.9607438016528925,
      0.9537190082644628,
      0.9619834710743802,
      0.9727272727272728,
      0.9181818181818182,
      0.9371900826446281,
      0.9454545454545454,
      0.9495867768595041,
      0.9351239669421487,
      0.9479338842975207,
      0.9119834710743802,
      0.921900826446281,
      0.9243801652892562,
      0.9301652892561983,
      0.9243801652892562,
      0.9301652892561983,
      0.8991735537190083,
      0.8971074380165289,
      0.903305785123967,
      0.9049586776859504,
      0.9016528925619834,
      0.9070247933884298
    ],
    "std_fit_time": [
      0.11608196208684025,
      0.07541979281797667,
      0.1275620442152076,
      0.06454301329482115,
      0.07388241007457577,
      0.02018360125370498,
      0.061662261097482705,
      0.056882194660052454,
      0.04123906663612135,
      0.04032597521956831,
      0.09281732692110611,
      0.054861335806867,
      0.11969601490881937,
      0.0848539250836939,
      0.20235348064828917,
      0.25399224694512923,
      0.0880324386927087,
      0.09506532110384347,
      0.20800874008164627,
      0.6643455366294765,
      0.09246608551671119,
      0.07373189608719483,
      0.3264032364009439,
      0.09985028365117098,
      0.030578062629960844,
      0.19167732948639,
      0.19543937321673094,
      0.14458433641344265,
      0.10698270279578741,
      0.05276937568684945,
      0.03810369813149683,
      0.04341133048563917,
      0.05317243182239151,
      0.13393160365975762,
      0.09007102152000442,
      0.19369034514513164,
      0.048152210964586425,
      0.09665676875652027,
      0.044505125338979865,
      0.33206853044530993,
      0.01176397119705007,
      0.027252560034407142,
      0.09026927874227898,
      0.07591442540205821,
      0.29075466685903306,
      0.04873021049832938,
      0.13137698599126887,
      0.09216530246242866
    ],
    "std_score_time": [
      0.001886268846234843,
      0.00481074778526771,
      0.003677018918419595,
      0.0005176624760239228,
      0.0017739256389759871,
      0.0006248737756009521,
      0.0019384573309511864,
      0.0044670937655417265,
      0.00036886093510137463,
      0.0005480988887523157,
      0.0016834375957360088,
      0.0011325714604652347,
      0.0034924171008060673,
      0.004590378992787739,
      0.003786953086311072,
      0.0006491074958152364,
      0.0013210988015028365,
      0.0019130183707230465,
      0.014697432978125898,
      0.006186348711504516,
      0.00045249328826517203,
      0.0003185476264710373,
      0.008654000288823,
      0.004769379799768269,
      0.004695441871141574,
      0.007002854155825932,
      0.0005048373371285222,
      0.0009840229568878892,
      0.002052268082229984,
      0.0009337926095975345,
      0.0026464830027637036,
      0.0063052152217349,
      0.0003354224256700674,
      0.02015272386320732,
      0.0013682451791388309,
      0.00029728709741669946,
      0.02995593832332624,
      0.004623511580703223,
      0.00045437706765830664,
      0.0027980717926088285,
      0.004870658907159726,
      0.00044779297992829625,
      0.0014809619339072344,
      0.004355095707191327,
      0.0034484650086018427,
      0.0006649582514299127,
      0.0013926394930783364,
      0.0022489601610123275
    ],
    "std_test_score": [
      0.017266458905865208,
      0.012507221310361858,
      0.01812082158478246,
      0.016554400331719697,
      0.01736055846159895,
      0.01802851162365977,
      0.015857560100600427,
      0.017603117290568834,
      0.02105209972188248,
      0.027907237896773074,
      0.015401897110350133,
      0.011591257656904583,
      0.025662881637865426,
      0.01749540677290826,
      0.01779304482743383,
      0.01601122894544838,
      0.018259456515319093,
      0.020120048449997308,
      0.022212417973837727,
      0.015965383162305065,
      0.019720327077949226,
      0.022488151309425334,
      0.01775519921966029,
      0.02462157827447273,
      0.03054316400067916,
      0.028167427834395395,
      0.024233306738464175,
      0.030502804227099705,
      0.03371373631870189,
      0.024065160909456474,
      0.025493683939924572,
      0.027357929089661132,
      0.02966379193225439,
      0.03069089232374179,
      0.02206949414124662,
      0.027091779431798815,
      0.022638553442520384,
      0.031205655534289896,
      0.028464126000828004,
      0.029630163710667463,
      0.027374606961939708,
      0.026713838936714356,
      0.025529129420583947,
      0.038837705053736765,
      0.01719613120338433,
      0.028939330783074323,
      0.023655925528916374,
      0.035025651258023094
    ],
    "std_train_score": [
      0.010720235327945141,
      0.006922625447733156,
      0.006221995203303876,
      0.00972996032272602,
      0.0013508984329155124,
      0.0,
      0.004657121538678564,
      0.011656654154601796,
      0.001292447620407898,
      0.0034537685182357406,
      0.0013880326009036675,
      0.0013230322597132273,
      0.006359041811959209,
      0.00916184159569587,
      0.002781482611629212,
      0.004765325916906534,
      0.002485193583310248,
      0.002993227640304866,
      0.0023381656726470094,
      0.01169283978667129,
      0.003520345146461321,
      0.0026638388534792664,
      0.009259021782219367,
      0.0038930402832116004,
      0.007233851814999235,
      0.006104607039178223,
      0.0033102161903857674,
      0.003120493706448552,
      0.004070884899053503,
      0.0052480319920476136,
      0.006602294917419634,
      0.004972283702552058,
      0.007068322751693319,
      0.006112064886401767,
      0.00630460770420616,
      0.0031522558288296014,
      0.005273596777537194,
      0.007865671327579937,
      0.009148133347317509,
      0.009887234907153533,
      0.008114544605897575,
      0.010829858042844934,
      0.008652202144362818,
      0.006808907395160187,
      0.008594840255095703,
      0.009591368290151593,
      0.009133739346900973,
      0.011420325417592395
    ]
  },
  "xval_grid": {
    "clf__alpha": [
      0.01,
      0.03162277660168379,
      0.1,
      0.31622776601683794,
      1.0,
      3.1622776601683795,
      10.0,
      31.622776601683793
    ],
    "pca__n_components": [
      0.75,
      0.8,
      0.85,
      0.9,
      0.95,
      0.99
    ]
  }
}