{
  "fold_id": 4,
  "test": {
    "accuracy": 0.87625,
    "confusion_matrix": [
      [
        356,
        44
      ],
      [
        55,
        345
      ]
    ],
    "f1_macro": 0.8762265990913908,
    "f1_micro": 0.87625,
    "f1_weighted": 0.8762265990913908,
    "per_class": {
      "y=0": {
        "accuracy": 0.87625,
        "confusion_matrix": [
          [
            345,
            55
          ],
          [
            44,
            356
          ]
        ],
        "f1": 0.8779284833538842,
        "precision": 0.8661800486618005,
        "recall": 0.89
      },
      "y=1": {
        "accuracy": 0.87625,
        "confusion_matrix": [
          [
            356,
            44
          ],
          [
            55,
            345
          ]
        ],
        "f1": 0.8745247148288974,
        "precision": 0.8868894601542416,
        "recall": 0.8625
      }
    },
    "precision_macro": 0.8765347544080211,
    "precision_micro": 0.87625,
    "precision_weighted": 0.8765347544080211,
    "recall_macro": 0.87625,
    "recall_micro": 0.87625,
    "recall_weighted": 0.87625
  },
  "train": {
    "accuracy": 0.9661490683229814,
    "confusion_matrix": [
      [
        1561,
        49
      ],
      [
        60,
        1550
      ]
    ],
    "f1_macro": 0.966148673275478,
    "f1_micro": 0.9661490683229814,
    "f1_weighted": 0.966148673275478,
    "per_class": {
      "y=0": {
        "accuracy": 0.9661490683229814,
        "confusion_matrix": [
          [
            1550,
            60
          ],
          [
            49,
            1561
          ]
        ],
        "f1": 0.9662643144537294,
        "precision": 0.9629858112276373,
        "recall": 0.9695652173913043
      },
      "y=1": {
        "accuracy": 0.9661490683229814,
        "confusion_matrix": [
          [
            1561,
            49
          ],
          [
            60,
            1550
          ]
        ],
        "f1": 0.9660330320972266,
        "precision": 0.9693558474046279,
        "recall": 0.9627329192546584
      }
    },
    "precision_macro": 0.9661708293161326,
    "precision_micro": 0.9661490683229814,
    "precision_weighted": 0.9661708293161326,
    "recall_macro": 0.9661490683229814,
    "recall_micro": 0.9661490683229814,
    "recall_weighted": 0.9661490683229814
  },
  "xval": {
    "mean_fit_time": [
      4.831993758678436,
      4.707487761974335,
      4.776171803474426,
      4.585541129112244,
      4.625688076019287,
      4.566523015499115,
      4.801242172718048,
      4.630154073238373,
      4.6369534730911255,
      4.651865601539612,
      4.631468772888184,
      4.705543696880341,
      4.618982195854187,
      4.719357252120972,
      4.822449266910553,
      4.665215849876404,
      4.893294811248779,
      4.724906325340271,
      4.685493648052216,
      4.6207321882247925,
      4.753874778747559,
      4.98813396692276,
      4.555494427680969,
      4.715852916240692,
      4.663633644580841,
      4.651247978210449,
      4.8654361963272095,
      4.6881415247917175,
      4.696795046329498,
      4.754794239997864,
      4.53685075044632,
      4.6597336530685425,
      4.656384766101837,
      4.6272189021110535,
      5.962798118591309,
      6.289759933948517,
      5.00232994556427,
      4.682727813720703,
      4.812299489974976,
      4.691884279251099,
      5.062297761440277,
      4.666070520877838,
      4.701679944992065,
      5.5701335072517395,
      5.3784074783325195,
      5.014851152896881,
      4.700579762458801,
      4.729040741920471
    ],
    "mean_score_time": [
      0.02352428436279297,
      0.025847792625427246,
      0.025126755237579346,
      0.028410375118255615,
      0.0366554856300354,
      0.06018465757369995,
      0.03307950496673584,
      0.025763094425201416,
      0.024876415729522705,
      0.03260582685470581,
      0.03669518232345581,
      0.057783305644989014,
      0.0344502329826355,
      0.025552213191986084,
      0.0249750018119812,
      0.029060184955596924,
      0.036852121353149414,
      0.0588567852973938,
      0.026177585124969482,
      0.02564847469329834,
      0.026041507720947266,
      0.03066730499267578,
      0.044933974742889404,
      0.0609472393989563,
      0.026076674461364746,
      0.025609254837036133,
      0.02644723653793335,
      0.030018329620361328,
      0.03687083721160889,
      0.05988180637359619,
      0.02601557970046997,
      0.025340795516967773,
      0.02516120672225952,
      0.028336167335510254,
      0.046897292137145996,
      0.0783545970916748,
      0.02631324529647827,
      0.025121986865997314,
      0.025327444076538086,
      0.031575143337249756,
      0.040507614612579346,
      0.05744588375091553,
      0.028260111808776855,
      0.030212700366973877,
      0.027558207511901855,
      0.03178846836090088,
      0.037342965602874756,
      0.05967223644256592
    ],
    "mean_test_score": [
      0.9006211180124224,
      0.9009316770186335,
      0.889751552795031,
      0.8922360248447205,
      0.8953416149068323,
      0.8903726708074534,
      0.9055900621118013,
      0.8891304347826087,
      0.8909937888198758,
      0.8981366459627329,
      0.9096273291925466,
      0.908695652173913,
      0.9077639751552795,
      0.9043478260869565,
      0.8996894409937888,
      0.9021739130434783,
      0.9077639751552795,
      0.9083850931677019,
      0.9142857142857143,
      0.9090062111801243,
      0.9118012422360249,
      0.9059006211180124,
      0.9183229813664596,
      0.9096273291925466,
      0.9149068322981366,
      0.9173913043478261,
      0.9145962732919255,
      0.9130434782608695,
      0.9164596273291925,
      0.9204968944099379,
      0.9158385093167701,
      0.9142857142857143,
      0.908695652173913,
      0.9152173913043479,
      0.9139751552795031,
      0.9139751552795031,
      0.9090062111801243,
      0.9071428571428571,
      0.9031055900621118,
      0.9059006211180124,
      0.906832298136646,
      0.9099378881987578,
      0.8813664596273292,
      0.8813664596273292,
      0.8881987577639752,
      0.8894409937888199,
      0.8925465838509317,
      0.893167701863354
    ],
    "mean_train_score": [
      0.9537262953945337,
      0.961797434930215,
      0.9795994650389218,
      0.9979321696786805,
      0.9996887966804979,
      0.9982420870340524,
      0.9538317444532081,
      0.9628322074002948,
      0.9817710298000754,
      0.9952372175165461,
      0.999792959775042,
      1.0,
      0.9561023284523851,
      0.968742498542574,
      0.9741186859161208,
      0.9879950961901169,
      0.9953388086828299,
      0.9949298720894346,
      0.9591084839340214,
      0.966871420733171,
      0.9695650869311752,
      0.9810577483625389,
      0.9862367545694593,
      0.9836532526319399,
      0.9487671890538732,
      0.9547567813175131,
      0.9596284420973218,
      0.9663566064263914,
      0.9736000137169507,
      0.9724657933541374,
      0.9390238674942559,
      0.9428603271492747,
      0.9405811700558966,
      0.9466903569836426,
      0.9478297212029766,
      0.9535248276808066,
      0.9280601659751038,
      0.9305467919481498,
      0.9281608998319674,
      0.9308511367922911,
      0.9287734474126402,
      0.9328118034360962,
      0.8970992935770378,
      0.8985464318781934,
      0.9090184664449092,
      0.9095272795857481,
      0.907876958952025,
      0.9099370734885635
    ],
    "param_clf__alpha": [
      0.01,
      0.01,
      0.01,
      0.01,
      0.01,
      0.01,
      0.03162277660168379,
      0.03162277660168379,
      0.03162277660168379,
      0.03162277660168379,
      0.03162277660168379,
      0.03162277660168379,
      0.1,
      0.1,
      0.1,
      0.1,
      0.1,
      0.1,
      0.31622776601683794,
      0.31622776601683794,
      0.31622776601683794,
      0.31622776601683794,
      0.31622776601683794,
      0.31622776601683794,
      1.0,
      1.0,
      1.0,
      1.0,
      1.0,
      1.0,
      3.1622776601683795,
      3.1622776601683795,
      3.1622776601683795,
      3.1622776601683795,
      3.1622776601683795,
      3.1622776601683795,
      10.0,
      10.0,
      10.0,
      10.0,
      10.0,
      10.0,
      31.622776601683793,
      31.622776601683793,
      31.622776601683793,
      31.622776601683793,
      31.622776601683793,
      31.622776601683793
    ],
    "param_pca__n_components": [
      0.75,
      0.8,
      0.85,
      0.9,
      0.95,
      0.99,
      0.75,
      0.8,
      0.85,
      0.9,
      0.95,
      0.99,
      0.75,
      0.8,
      0.85,
      0.9,
      0.95,
      0.99,
      0.75,
      0.8,
      0.85,
      0.9,
      0.95,
      0.99,
      0.75,
      0.8,
      0.85,
      0.9,
      0.95,
      0.99,
      0.75,
      0.8,
      0.85,
      0.9,
      0.95,
      0.99,
      0.75,
      0.8,
      0.85,
      0.9,
      0.95,
      0.99,
      0.75,
      0.8,
      0.85,
      0.9,
      0.95,
      0.99
    ],
    "params": [
      {
        "clf__alpha": 0.01,
        "pca__n_components": 0.75
      },
      {
        "clf__alpha": 0.01,
        "pca__n_components": 0.8
      },
      {
        "clf__alpha": 0.01,
        "pca__n_components": 0.85
      },
      {
        "clf__alpha": 0.01,
        "pca__n_components": 0.9
      },
      {
        "clf__alpha": 0.01,
        "pca__n_components": 0.95
      },
      {
        "clf__alpha": 0.01,
        "pca__n_components": 0.99
      },
      {
        "clf__alpha": 0.03162277660168379,
        "pca__n_components": 0.75
      },
      {
        "clf__alpha": 0.03162277660168379,
        "pca__n_components": 0.8
      },
      {
        "clf__alpha": 0.03162277660168379,
        "pca__n_components": 0.85
      },
      {
        "clf__alpha": 0.03162277660168379,
        "pca__n_components": 0.9
      },
      {
        "clf__alpha": 0.03162277660168379,
        "pca__n_components": 0.95
      },
      {
        "clf__alpha": 0.03162277660168379,
        "pca__n_components": 0.99
      },
      {
        "clf__alpha": 0.1,
        "pca__n_components": 0.75
      },
      {
        "clf__alpha": 0.1,
        "pca__n_components": 0.8
      },
      {
        "clf__alpha": 0.1,
        "pca__n_components": 0.85
      },
      {
        "clf__alpha": 0.1,
        "pca__n_components": 0.9
      },
      {
        "clf__alpha": 0.1,
        "pca__n_components": 0.95
      },
      {
        "clf__alpha": 0.1,
        "pca__n_components": 0.99
      },
      {
        "clf__alpha": 0.31622776601683794,
        "pca__n_components": 0.75
      },
      {
        "clf__alpha": 0.31622776601683794,
        "pca__n_components": 0.8
      },
      {
        "clf__alpha": 0.31622776601683794,
        "pca__n_components": 0.85
      },
      {
        "clf__alpha": 0.31622776601683794,
        "pca__n_components": 0.9
      },
      {
        "clf__alpha": 0.31622776601683794,
        "pca__n_components": 0.95
      },
      {
        "clf__alpha": 0.31622776601683794,
        "pca__n_components": 0.99
      },
      {
        "clf__alpha": 1.0,
        "pca__n_components": 0.75
      },
      {
        "clf__alpha": 1.0,
        "pca__n_components": 0.8
      },
      {
        "clf__alpha": 1.0,
        "pca__n_components": 0.85
      },
      {
        "clf__alpha": 1.0,
        "pca__n_components": 0.9
      },
      {
        "clf__alpha": 1.0,
        "pca__n_components": 0.95
      },
      {
        "clf__alpha": 1.0,
        "pca__n_components": 0.99
      },
      {
        "clf__alpha": 3.1622776601683795,
        "pca__n_components": 0.75
      },
      {
        "clf__alpha": 3.1622776601683795,
        "pca__n_components": 0.8
      },
      {
        "clf__alpha": 3.1622776601683795,
        "pca__n_components": 0.85
      },
      {
        "clf__alpha": 3.1622776601683795,
        "pca__n_components": 0.9
      },
      {
        "clf__alpha": 3.1622776601683795,
        "pca__n_components": 0.95
      },
      {
        "clf__alpha": 3.1622776601683795,
        "pca__n_components": 0.99
      },
      {
        "clf__alpha": 10.0,
        "pca__n_components": 0.75
      },
      {
        "clf__alpha": 10.0,
        "pca__n_components": 0.8
      },
      {
        "clf__alpha": 10.0,
        "pca__n_components": 0.85
      },
      {
        "clf__alpha": 10.0,
        "pca__n_components": 0.9
      },
      {
        "clf__alpha": 10.0,
        "pca__n_components": 0.95
      },
      {
        "clf__alpha": 10.0,
        "pca__n_components": 0.99
      },
      {
        "clf__alpha": 31.622776601683793,
        "pca__n_components": 0.75
      },
      {
        "clf__alpha": 31.622776601683793,
        "pca__n_components": 0.8
      },
      {
        "clf__alpha": 31.622776601683793,
        "pca__n_components": 0.85
      },
      {
        "clf__alpha": 31.622776601683793,
        "pca__n_components": 0.9
      },
      {
        "clf__alpha": 31.622776601683793,
        "pca__n_components": 0.95
      },
      {
        "clf__alpha": 31.622776601683793,
        "pca__n_components": 0.99
      }
    ],
    "rank_test_score": [
      34,
      33,
      43,
      40,
      37,
      42,
      29,
      45,
      41,
      36,
      16,
      20,
      23,
      30,
      35,
      32,
      23,
      22,
      9,
      18,
      14,
      27,
      2,
      16,
      7,
      3,
      8,
      13,
      4,
      1,
      5,
      9,
      20,
      6,
      11,
      11,
      18,
      25,
      31,
      27,
      26,
      15,
      47,
      47,
      46,
      44,
      39,
      38
    ],
    "split0_test_score": [
      0.8925925925925926,
      0.8938271604938272,
      0.8777777777777778,
      0.8827160493827161,
      0.8629629629629629,
      0.8716049382716049,
      0.8888888888888888,
      0.8938271604938272,
      0.8728395061728395,
      0.8716049382716049,
      0.9037037037037037,
      0.9098765432098765,
      0.8876543209876543,
      0.9049382716049382,
      0.8901234567901235,
      0.8987654320987655,
      0.8950617283950617,
      0.8962962962962963,
      0.9012345679012346,
      0.9049382716049382,
      0.9024691358024691,
      0.8962962962962963,
      0.9,
      0.8975308641975308,
      0.8888888888888888,
      0.8925925925925926,
      0.9,
      0.8938271604938272,
      0.9024691358024691,
      0.8987654320987655,
      0.8790123456790123,
      0.891358024691358,
      0.8790123456790123,
      0.8950617283950617,
      0.8864197530864197,
      0.8864197530864197,
      0.8777777777777778,
      0.8790123456790123,
      0.8679012345679012,
      0.8666666666666667,
      0.8716049382716049,
      0.8814814814814815,
      0.845679012345679,
      0.8382716049382716,
      0.8518518518518519,
      0.8419753086419753,
      0.8765432098765432,
      0.8716049382716049
    ],
    "split0_train_score": [
      0.9481327800829875,
      0.9506224066390041,
      0.9775933609958506,
      0.9995850622406639,
      0.9995850622406639,
      0.9983402489626556,
      0.9506224066390041,
      0.9721991701244813,
      0.979253112033195,
      0.9925311203319502,
      1.0,
      1.0,
      0.9468879668049792,
      0.9726141078838174,
      0.979253112033195,
      0.9887966804979254,
      0.9954356846473029,
      0.9987551867219917,
      0.9589211618257262,
      0.9697095435684647,
      0.9697095435684647,
      0.9817427385892116,
      0.9896265560165975,
      0.9879668049792532,
      0.9535269709543569,
      0.9497925311203319,
      0.9618257261410789,
      0.9676348547717842,
      0.9742738589211618,
      0.9738589211618257,
      0.9352697095435685,
      0.9443983402489626,
      0.9489626556016597,
      0.9518672199170124,
      0.9497925311203319,
      0.9568464730290457,
      0.9340248962655602,
      0.9390041493775934,
      0.9253112033195021,
      0.9278008298755187,
      0.9315352697095436,
      0.9398340248962656,
      0.9033195020746888,
      0.9008298755186722,
      0.912448132780083,
      0.9062240663900415,
      0.929045643153527,
      0.924896265560166
    ],
    "split1_test_score": [
      0.9012345679012346,
      0.9222222222222223,
      0.9012345679012346,
      0.9024691358024691,
      0.9148148148148149,
      0.9148148148148149,
      0.9135802469135802,
      0.8864197530864197,
      0.9012345679012346,
      0.9098765432098765,
      0.9197530864197531,
      0.9135802469135802,
      0.9185185185185185,
      0.908641975308642,
      0.8987654320987655,
      0.9012345679012346,
      0.9160493827160494,
      0.9123456790123456,
      0.9209876543209876,
      0.9160493827160494,
      0.9234567901234568,
      0.9209876543209876,
      0.9271604938271605,
      0.9246913580246914,
      0.928395061728395,
      0.9296296296296296,
      0.9296296296296296,
      0.9197530864197531,
      0.9185185185185185,
      0.9333333333333333,
      0.9296296296296296,
      0.9209876543209876,
      0.9148148148148149,
      0.9259259259259259,
      0.9246913580246914,
      0.928395061728395,
      0.9160493827160494,
      0.9160493827160494,
      0.917283950617284,
      0.9197530864197531,
      0.917283950617284,
      0.9185185185185185,
      0.8950617283950617,
      0.8987654320987655,
      0.9049382716049382,
      0.9049382716049382,
      0.8987654320987655,
      0.8975308641975308
    ],
    "split1_train_score": [
      0.9589211618257262,
      0.9692946058091286,
      0.9746887966804979,
      0.9987551867219917,
      0.9991701244813278,
      1.0,
      0.9585062240663901,
      0.9493775933609958,
      0.975103734439834,
      0.9970954356846473,
      0.9995850622406639,
      1.0,
      0.9601659751037345,
      0.9701244813278008,
      0.9676348547717842,
      0.9904564315352697,
      0.9925311203319502,
      0.9933609958506224,
      0.958091286307054,
      0.9618257261410789,
      0.9692946058091286,
      0.9821576763485477,
      0.9875518672199171,
      0.9883817427385893,
      0.9531120331950207,
      0.9547717842323652,
      0.9585062240663901,
      0.9655601659751037,
      0.9705394190871369,
      0.9730290456431535,
      0.9398340248962656,
      0.9443983402489626,
      0.9336099585062241,
      0.9443983402489626,
      0.9493775933609958,
      0.9551867219917013,
      0.9282157676348548,
      0.9302904564315353,
      0.9344398340248963,
      0.9360995850622407,
      0.921161825726141,
      0.9219917012448133,
      0.8887966804979253,
      0.8921161825726142,
      0.9174273858921161,
      0.9161825726141078,
      0.895850622406639,
      0.8941908713692946
    ],
    "split2_test_score": [
      0.92125,
      0.905,
      0.8975,
      0.91125,
      0.92,
      0.90125,
      0.92125,
      0.9025,
      0.90125,
      0.91625,
      0.915,
      0.91875,
      0.925,
      0.91,
      0.925,
      0.91875,
      0.92,
      0.9125,
      0.92875,
      0.91625,
      0.92375,
      0.92375,
      0.9275,
      0.9075,
      0.9275,
      0.92875,
      0.925,
      0.92875,
      0.93375,
      0.9325,
      0.93625,
      0.93625,
      0.9275,
      0.92375,
      0.9275,
      0.925,
      0.92875,
      0.9225,
      0.9275,
      0.92,
      0.9225,
      0.92875,
      0.90375,
      0.905,
      0.91375,
      0.91625,
      0.915,
      0.90875
    ],
    "split2_train_score": [
      0.9483471074380165,
      0.9541322314049587,
      0.9764462809917356,
      0.9933884297520661,
      1.0,
      0.9975206611570248,
      0.9512396694214876,
      0.9590909090909091,
      0.9826446280991735,
      0.9962809917355372,
      1.0,
      1.0,
      0.9487603305785124,
      0.9636363636363636,
      0.9834710743801653,
      0.9855371900826446,
      0.9954545454545455,
      0.9954545454545455,
      0.9545454545454546,
      0.9669421487603306,
      0.959504132231405,
      0.9818181818181818,
      0.987603305785124,
      0.965702479338843,
      0.9347107438016529,
      0.9557851239669422,
      0.952892561983471,
      0.9623966942148761,
      0.9735537190082645,
      0.9694214876033058,
      0.9355371900826446,
      0.9409090909090909,
      0.9359504132231405,
      0.9384297520661157,
      0.9409090909090909,
      0.9450413223140496,
      0.9206611570247933,
      0.9194214876033058,
      0.9243801652892562,
      0.9210743801652893,
      0.9223140495867769,
      0.9301652892561983,
      0.8966942148760331,
      0.8987603305785123,
      0.9041322314049587,
      0.906198347107438,
      0.906198347107438,
      0.9049586776859504
    ],
    "split3_test_score": [
      0.8875,
      0.8825,
      0.8825,
      0.8725,
      0.88375,
      0.87375,
      0.89875,
      0.87375,
      0.88875,
      0.895,
      0.9,
      0.8925,
      0.9,
      0.89375,
      0.885,
      0.89,
      0.9,
      0.9125,
      0.90625,
      0.89875,
      0.8975,
      0.8825,
      0.91875,
      0.90875,
      0.915,
      0.91875,
      0.90375,
      0.91,
      0.91125,
      0.9175,
      0.91875,
      0.90875,
      0.91375,
      0.91625,
      0.9175,
      0.91625,
      0.91375,
      0.91125,
      0.9,
      0.9175,
      0.91625,
      0.91125,
      0.88125,
      0.88375,
      0.8825,
      0.895,
      0.88,
      0.895
    ],
    "split3_train_score": [
      0.959504132231405,
      0.9731404958677686,
      0.9896694214876033,
      1.0,
      1.0,
      0.9971074380165289,
      0.9549586776859504,
      0.9706611570247934,
      0.9900826446280991,
      0.9950413223140496,
      0.9995867768595041,
      1.0,
      0.968595041322314,
      0.968595041322314,
      0.9661157024793389,
      0.9871900826446282,
      0.9979338842975206,
      0.9921487603305785,
      0.9648760330578512,
      0.96900826446281,
      0.9797520661157024,
      0.9785123966942149,
      0.9801652892561984,
      0.9925619834710744,
      0.9537190082644628,
      0.9586776859504132,
      0.9652892561983472,
      0.9698347107438017,
      0.9760330578512396,
      0.9735537190082645,
      0.9454545454545454,
      0.9417355371900826,
      0.943801652892562,
      0.9520661157024793,
      0.9512396694214876,
      0.9570247933884297,
      0.9293388429752066,
      0.9334710743801653,
      0.9285123966942149,
      0.9384297520661157,
      0.9400826446280992,
      0.9392561983471074,
      0.8995867768595042,
      0.9024793388429752,
      0.9020661157024793,
      0.9095041322314049,
      0.9004132231404959,
      0.915702479338843
    ],
    "std_fit_time": [
      0.18769539410052793,
      0.1867333522809939,
      0.14615360979285497,
      0.11302400384489163,
      0.12916604376712446,
      0.031006156875391187,
      0.2189691652043894,
      0.07700355199073046,
      0.02368798637839181,
      0.13417086378318552,
      0.09202896564860479,
      0.026905907540673686,
      0.14674484984748065,
      0.079014300156372,
      0.17705228987476035,
      0.07520902022712084,
      0.5479534374385344,
      0.09015652131439296,
      0.13828736885849202,
      0.08492967825565434,
      0.11155009376891245,
      0.21069372228450509,
      0.03956913870754229,
      0.08994317899380941,
      0.11112817691441812,
      0.12656356466561372,
      0.20671603032295033,
      0.1272471252346535,
      0.10171733890177177,
      0.1253890993607386,
      0.0459706530833473,
      0.05721828085471605,
      0.039626618994660426,
      0.03095380667276614,
      0.6522533981449335,
      0.3573093614944648,
      0.35236221106190974,
      0.11000325209571025,
      0.23049984220491693,
      0.1102093190356612,
      0.5791937627391215,
      0.05852929651801487,
      0.062365179506276756,
      1.0404031566701017,
      0.4206786069671828,
      0.36920754436917874,
      0.15668281375296156,
      0.10042005167155471
    ],
    "std_score_time": [
      0.003412997905643171,
      0.003671868415472282,
      0.0003492985718366652,
      0.0010159693843792598,
      0.001392821355546649,
      0.004841131793285275,
      0.011132095756527271,
      0.004167302996633611,
      0.00024365780251714062,
      0.007151983610376076,
      0.0013559869185922478,
      0.0006713124496042371,
      0.013106527003582292,
      0.004347087997142377,
      0.0004565520436450213,
      0.0018364454921481498,
      0.0011137969215821114,
      0.0021874483749890756,
      0.002242076334637079,
      0.00453477109021643,
      0.0009534476428060913,
      0.0040644193660058945,
      0.013504130719499054,
      0.0035557787107530527,
      0.002235326612361013,
      0.004222396768329205,
      0.0015906516289761257,
      0.0029236336584437337,
      0.001790882315448355,
      0.003941321005502389,
      0.002086070790145339,
      0.004293003489794592,
      0.000413117256013662,
      0.0004989750994981057,
      0.006409399557006832,
      0.0038516613950709804,
      0.0025573228708511645,
      0.003834566581794683,
      0.0006098426619535205,
      0.005406253279855409,
      0.005554427818877066,
      0.0009188802131556342,
      0.004502511164863162,
      0.00469508515179395,
      0.003908394321908999,
      0.004146318064169644,
      0.001984271367466954,
      0.0026668771044327196
    ],
    "std_test_score": [
      0.012837817488327737,
      0.014671021490546481,
      0.009859822011818422,
      0.015353638787804469,
      0.023314372666306274,
      0.018355673320029773,
      0.012600670371067501,
      0.010515621785893575,
      0.011690699545444333,
      0.017196061960785117,
      0.008050949730986688,
      0.009830343454866181,
      0.014819149825775195,
      0.006369262083755853,
      0.015362456804178809,
      0.010403381922922884,
      0.010489505001175802,
      0.007008654492631684,
      0.01105297568509916,
      0.007470749118581931,
      0.011931742712437248,
      0.017194895181055155,
      0.01118346388489381,
      0.009757434291521578,
      0.015982895257764192,
      0.014996298840246933,
      0.012905969854500798,
      0.012954021573816525,
      0.01145956706464798,
      0.01408094982906383,
      0.022239780676483335,
      0.016462276597374238,
      0.018034987049547067,
      0.012222641612894198,
      0.016383675113897826,
      0.01657691604042917,
      0.018979899886876393,
      0.016786903210647266,
      0.022640090514980924,
      0.022766282013780764,
      0.02055896813115036,
      0.017623064478502263,
      0.0221819419088526,
      0.026143962989875234,
      0.02393919353984318,
      0.028520219312762482,
      0.015444064496050255,
      0.013524352688288228
    ],
    "std_train_score": [
      0.005490744766502033,
      0.00959829678919196,
      0.005905203418846461,
      0.002661339213324702,
      0.00034404821476715643,
      0.00110767520612835,
      0.003167784728357555,
      0.009274378616456604,
      0.005491785964945278,
      0.0017250924818202284,
      0.00020704111243995802,
      0.0,
      0.008823130004520022,
      0.0032784749740578088,
      0.007414804645635677,
      0.0018296214311568197,
      0.0019131329850828117,
      0.0025052080475516008,
      0.0037133421833059816,
      0.0030856554702205,
      0.007160505955137884,
      0.0014778470270078183,
      0.003603832280003457,
      0.01051856810034045,
      0.008118456764897922,
      0.0032044885259819625,
      0.004569035118940188,
      0.002740727576330924,
      0.001983882166783935,
      0.0017825149342355026,
      0.0041309985274850585,
      0.0015655225890201332,
      0.0061372328652556625,
      0.005683080721527067,
      0.004054978468093702,
      0.004950122316226021,
      0.004795377139281418,
      0.0071399654602463235,
      0.00393583817435715,
      0.0068896836128576455,
      0.007667890991481473,
      0.007330083027137799,
      0.005337978070633527,
      0.00393940765974951,
      0.006218581252014907,
      0.004070825160664152,
      0.01276000638239355,
      0.011508091045019967
    ]
  },
  "xval_grid": {
    "clf__alpha": [
      0.01,
      0.03162277660168379,
      0.1,
      0.31622776601683794,
      1.0,
      3.1622776601683795,
      10.0,
      31.622776601683793
    ],
    "pca__n_components": [
      0.75,
      0.8,
      0.85,
      0.9,
      0.95,
      0.99
    ]
  }
}