{
  "fold_id": 1,
  "test": {
    "accuracy": 0.8382716049382716,
    "confusion_matrix": [
      [
        348,
        57
      ],
      [
        74,
        331
      ]
    ],
    "f1_macro": 0.8382003351575378,
    "f1_micro": 0.8382716049382715,
    "f1_weighted": 0.8382003351575378,
    "per_class": {
      "y=0": {
        "accuracy": 0.8382716049382716,
        "confusion_matrix": [
          [
            331,
            74
          ],
          [
            57,
            348
          ]
        ],
        "f1": 0.8415961305925029,
        "precision": 0.8246445497630331,
        "recall": 0.8592592592592593
      },
      "y=1": {
        "accuracy": 0.8382716049382716,
        "confusion_matrix": [
          [
            348,
            57
          ],
          [
            74,
            331
          ]
        ],
        "f1": 0.8348045397225725,
        "precision": 0.8530927835051546,
        "recall": 0.817283950617284
      }
    },
    "precision_macro": 0.8388686666340939,
    "precision_micro": 0.8382716049382716,
    "precision_weighted": 0.8388686666340938,
    "recall_macro": 0.8382716049382717,
    "recall_micro": 0.8382716049382716,
    "recall_weighted": 0.8382716049382716
  },
  "train": {
    "accuracy": 0.8654205607476636,
    "confusion_matrix": [
      [
        1396,
        209
      ],
      [
        223,
        1382
      ]
    ],
    "f1_macro": 0.8654180007888272,
    "f1_micro": 0.8654205607476636,
    "f1_weighted": 0.8654180007888272,
    "per_class": {
      "y=0": {
        "accuracy": 0.8654205607476636,
        "confusion_matrix": [
          [
            1382,
            223
          ],
          [
            209,
            1396
          ]
        ],
        "f1": 0.8660049627791564,
        "precision": 0.862260654725139,
        "recall": 0.8697819314641745
      },
      "y=1": {
        "accuracy": 0.8654205607476636,
        "confusion_matrix": [
          [
            1396,
            209
          ],
          [
            223,
            1382
          ]
        ],
        "f1": 0.8648310387984981,
        "precision": 0.8686360779384035,
        "recall": 0.8610591900311526
      }
    },
    "precision_macro": 0.8654483663317712,
    "precision_micro": 0.8654205607476636,
    "precision_weighted": 0.8654483663317712,
    "recall_macro": 0.8654205607476635,
    "recall_micro": 0.8654205607476636,
    "recall_weighted": 0.8654205607476636
  },
  "xval": {
    "mean_fit_time": [
      0.3880155682563782,
      0.3905348777770996,
      0.4290180802345276,
      0.49481379985809326,
      0.5723339319229126,
      0.510695219039917,
      0.5132277011871338,
      0.562076210975647,
      0.5876954793930054,
      0.7678788900375366,
      0.5610634088516235,
      0.601261556148529
    ],
    "mean_score_time": [
      0.005375206470489502,
      0.0061359405517578125,
      0.007230103015899658,
      0.007082343101501465,
      0.009243309497833252,
      0.010513007640838623,
      0.007656276226043701,
      0.011026203632354736,
      0.015130996704101562,
      0.013610422611236572,
      0.01019829511642456,
      0.013158261775970459
    ],
    "mean_test_score": [
      -27.027129504020376,
      -65.20985048693232,
      -121.70868992122706,
      -26.89292780849429,
      -65.28536397722779,
      -123.7685080457051,
      -26.988942181512325,
      -66.2043566829487,
      -129.2713954523374,
      -27.30431305626267,
      -69.24972544692844,
      -145.03141982955088
    ],
    "mean_train_score": [
      -27.04411327637832,
      -64.91662137933606,
      -118.88829074258513,
      -26.715332072811044,
      -63.91122906500138,
      -115.7998711582533,
      -26.410692642814233,
      -62.400106227324116,
      -110.56790583372764,
      -25.984666349362726,
      -60.08684151621881,
      -101.6639465648306
    ],
    "param_gmm__n_components": [
      1,
      1,
      1,
      2,
      2,
      2,
      4,
      4,
      4,
      8,
      8,
      8
    ],
    "param_pca__n_components": [
      0.5,
      0.75,
      0.9,
      0.5,
      0.75,
      0.9,
      0.5,
      0.75,
      0.9,
      0.5,
      0.75,
      0.9
    ],
    "params": [
      {
        "gmm__n_components": 1,
        "pca__n_components": 0.5
      },
      {
        "gmm__n_components": 1,
        "pca__n_components": 0.75
      },
      {
        "gmm__n_components": 1,
        "pca__n_components": 0.9
      },
      {
        "gmm__n_components": 2,
        "pca__n_components": 0.5
      },
      {
        "gmm__n_components": 2,
        "pca__n_components": 0.75
      },
      {
        "gmm__n_components": 2,
        "pca__n_components": 0.9
      },
      {
        "gmm__n_components": 4,
        "pca__n_components": 0.5
      },
      {
        "gmm__n_components": 4,
        "pca__n_components": 0.75
      },
      {
        "gmm__n_components": 4,
        "pca__n_components": 0.9
      },
      {
        "gmm__n_components": 8,
        "pca__n_components": 0.5
      },
      {
        "gmm__n_components": 8,
        "pca__n_components": 0.75
      },
      {
        "gmm__n_components": 8,
        "pca__n_components": 0.9
      }
    ],
    "rank_test_score": [
      3,
      5,
      9,
      1,
      6,
      10,
      2,
      7,
      11,
      4,
      8,
      12
    ],
    "split0_test_score": [
      -27.29215106213317,
      -64.53879227745347,
      -123.45335113025078,
      -27.208983857168946,
      -64.66126541836393,
      -125.89786277008218,
      -27.202939667298207,
      -65.54231531137064,
      -131.70200200769054,
      -27.612207254389595,
      -68.77463666453181,
      -147.8058837318025
    ],
    "split0_train_score": [
      -27.057231917210963,
      -63.64655318260421,
      -118.82445442778064,
      -26.747070971400046,
      -62.730119675276704,
      -115.89394851454344,
      -26.459726848097333,
      -61.28733326947135,
      -110.71355004879617,
      -26.031361759156166,
      -59.045631398425506,
      -102.0634190006918
    ],
    "split1_test_score": [
      -26.771443420057604,
      -66.2795458936229,
      -120.3969438287263,
      -26.64440559369185,
      -66.42699445192049,
      -122.30800440452062,
      -26.78783193998462,
      -67.47126552064083,
      -127.19974739619403,
      -26.99356225331805,
      -70.59562093784622,
      -144.81246334541333
    ],
    "split1_train_score": [
      -27.07183320754196,
      -66.14567392740327,
      -119.07649204142751,
      -26.705295735191623,
      -65.04138011416704,
      -115.96603309425112,
      -26.38486134255539,
      -63.50713335905341,
      -110.66965140705048,
      -25.96687439093283,
      -60.93385425062106,
      -101.70923954240457
    ],
    "split2_test_score": [
      -27.109459770742983,
      -66.68500583029379,
      -122.06102934675,
      -26.857088282086952,
      -66.51811925142393,
      -123.95046758742588,
      -26.993241325747952,
      -67.40950500929078,
      -129.0122429699989,
      -27.37341703516021,
      -70.54815668296514,
      -145.29997464455303
    ],
    "split2_train_score": [
      -27.034651303356327,
      -66.22706849275708,
      -118.94383903907898,
      -26.72082747400773,
      -65.19842074563951,
      -115.8039598574718,
      -26.432892907601957,
      -63.56358037193812,
      -110.60540014820954,
      -26.03012525080067,
      -61.36876071096947,
      -101.52393926698676
    ],
    "split3_test_score": [
      -26.93215099367134,
      -63.34444617397764,
      -120.90162711406839,
      -26.857282800420972,
      -63.54287801918863,
      -122.89108048673695,
      -26.969080824446202,
      -64.40261640763731,
      -129.1412068535242,
      -27.23421700470624,
      -67.08642611215053,
      -142.1726767976565
    ],
    "split3_train_score": [
      -27.01273667740403,
      -63.6471899145797,
      -118.70837746205333,
      -26.688134110644782,
      -62.67499572492227,
      -115.53554316674686,
      -26.36528947300225,
      -61.242377908833596,
      -110.28302173085437,
      -25.910303996561236,
      -58.999119704859204,
      -101.35918844923926
    ],
    "std_fit_time": [
      0.038179776249202636,
      0.012227598623625786,
      0.030251681265026836,
      0.022097900100866635,
      0.10714139803603552,
      0.0388073322274793,
      0.09977771770478874,
      0.0509490177084089,
      0.07269822637165167,
      0.12189835151846516,
      0.029744607615248657,
      0.03135859574187548
    ],
    "std_score_time": [
      0.000893720167114084,
      0.0013282098753224798,
      0.0008172914711476191,
      0.0007850273859132073,
      0.00115364296310224,
      0.0021324754844194434,
      0.0014421489470066062,
      0.0006176531911615267,
      0.0040282957875975465,
      0.007729731096515532,
      0.0004375496508792932,
      0.0014033356590906147
    ],
    "std_test_score": [
      0.1948169172461852,
      1.344749838153726,
      1.1790552239879444,
      0.2030658461608761,
      1.2484138990927336,
      1.3696203370034565,
      0.14743974606657825,
      1.2967715506121062,
      1.6066474898596748,
      0.22450427249559998,
      1.4473740817796683,
      2.0022632628508146
    ],
    "std_train_score": [
      0.02244166447523052,
      1.270075910235995,
      0.13688426290927294,
      0.02166803138706828,
      1.2101028962709335,
      0.1630539347088955,
      0.037503029699040846,
      1.1355372815030529,
      0.16891504873907362,
      0.05023267441284188,
      1.0756398842563806,
      0.2617772112401663
    ]
  },
  "xval_grid": {
    "gmm__n_components": [
      1,
      2,
      4,
      8
    ],
    "pca__n_components": [
      0.5,
      0.75,
      0.9
    ]
  }
}