{
  "fold_id": 3,
  "test": {
    "accuracy": 0.86,
    "confusion_matrix": [
      [
        330,
        70
      ],
      [
        42,
        358
      ]
    ],
    "f1_macro": 0.8598282896548273,
    "f1_micro": 0.8599999999999999,
    "f1_weighted": 0.8598282896548273,
    "per_class": {
      "y=0": {
        "accuracy": 0.86,
        "confusion_matrix": [
          [
            358,
            42
          ],
          [
            70,
            330
          ]
        ],
        "f1": 0.8549222797927462,
        "precision": 0.8870967741935484,
        "recall": 0.825
      },
      "y=1": {
        "accuracy": 0.86,
        "confusion_matrix": [
          [
            330,
            70
          ],
          [
            42,
            358
          ]
        ],
        "f1": 0.8647342995169083,
        "precision": 0.8364485981308412,
        "recall": 0.895
      }
    },
    "precision_macro": 0.8617726861621948,
    "precision_micro": 0.86,
    "precision_weighted": 0.8617726861621946,
    "recall_macro": 0.86,
    "recall_micro": 0.86,
    "recall_weighted": 0.86
  },
  "train": {
    "accuracy": 0.9232919254658385,
    "confusion_matrix": [
      [
        1480,
        130
      ],
      [
        117,
        1493
      ]
    ],
    "f1_macro": 0.9232906751402432,
    "f1_micro": 0.9232919254658385,
    "f1_weighted": 0.9232906751402433,
    "per_class": {
      "y=0": {
        "accuracy": 0.9232919254658385,
        "confusion_matrix": [
          [
            1493,
            117
          ],
          [
            130,
            1480
          ]
        ],
        "f1": 0.9229809791082008,
        "precision": 0.9267376330619912,
        "recall": 0.9192546583850931
      },
      "y=1": {
        "accuracy": 0.9232919254658385,
        "confusion_matrix": [
          [
            1480,
            130
          ],
          [
            117,
            1493
          ]
        ],
        "f1": 0.9236003711722858,
        "precision": 0.9199014171287738,
        "recall": 0.9273291925465839
      }
    },
    "precision_macro": 0.9233195250953825,
    "precision_micro": 0.9232919254658385,
    "precision_weighted": 0.9233195250953825,
    "recall_macro": 0.9232919254658385,
    "recall_micro": 0.9232919254658385,
    "recall_weighted": 0.9232919254658385
  },
  "xval": {
    "mean_fit_time": [
      0.4309183359146118,
      0.3898833990097046,
      0.40866583585739136,
      0.42839890718460083,
      0.4688849449157715,
      0.5328899621963501,
      0.49297183752059937,
      0.5269511938095093,
      0.6942230463027954,
      0.5413025617599487,
      0.5897578597068787,
      0.6185848116874695
    ],
    "mean_score_time": [
      0.007288455963134766,
      0.00932389497756958,
      0.012385427951812744,
      0.009409129619598389,
      0.011527955532073975,
      0.015780508518218994,
      0.0098036527633667,
      0.012412011623382568,
      0.01848888397216797,
      0.01231473684310913,
      0.015187084674835205,
      0.02904975414276123
    ],
    "mean_test_score": [
      -72.04210823388487,
      -175.9541000137755,
      -321.3620672015709,
      -71.49106151000638,
      -177.12147109424313,
      -336.5700968937432,
      -71.72728840930846,
      -184.612164328545,
      -400.8949679453098,
      -73.79238125539312,
      -214.18597476299936,
      -886.594492282855
    ],
    "mean_train_score": [
      -72.59453889055281,
      -174.29446666642835,
      -300.2041567705952,
      -70.79966017570074,
      -167.4375343122349,
      -281.3759532593724,
      -68.87715449502545,
      -158.46108678096735,
      -252.10488916434588,
      -66.28516966362345,
      -142.68782525598965,
      -134.39423049285682
    ],
    "param_gmm__n_components": [
      1,
      1,
      1,
      2,
      2,
      2,
      4,
      4,
      4,
      8,
      8,
      8
    ],
    "param_pca__n_components": [
      0.5,
      0.75,
      0.9,
      0.5,
      0.75,
      0.9,
      0.5,
      0.75,
      0.9,
      0.5,
      0.75,
      0.9
    ],
    "params": [
      {
        "gmm__n_components": 1,
        "pca__n_components": 0.5
      },
      {
        "gmm__n_components": 1,
        "pca__n_components": 0.75
      },
      {
        "gmm__n_components": 1,
        "pca__n_components": 0.9
      },
      {
        "gmm__n_components": 2,
        "pca__n_components": 0.5
      },
      {
        "gmm__n_components": 2,
        "pca__n_components": 0.75
      },
      {
        "gmm__n_components": 2,
        "pca__n_components": 0.9
      },
      {
        "gmm__n_components": 4,
        "pca__n_components": 0.5
      },
      {
        "gmm__n_components": 4,
        "pca__n_components": 0.75
      },
      {
        "gmm__n_components": 4,
        "pca__n_components": 0.9
      },
      {
        "gmm__n_components": 8,
        "pca__n_components": 0.5
      },
      {
        "gmm__n_components": 8,
        "pca__n_components": 0.75
      },
      {
        "gmm__n_components": 8,
        "pca__n_components": 0.9
      }
    ],
    "rank_test_score": [
      3,
      5,
      9,
      1,
      6,
      10,
      2,
      7,
      11,
      4,
      8,
      12
    ],
    "split0_test_score": [
      -72.18788725463847,
      -178.60539107692298,
      -326.44410487254714,
      -71.68529101137128,
      -180.01175019986385,
      -342.21057759042975,
      -71.82210380336163,
      -189.45671288486216,
      -412.4620804438632,
      -73.57623677207366,
      -219.3619751662938,
      -811.4042037026859
    ],
    "split0_train_score": [
      -71.88226804282439,
      -174.59781479867848,
      -299.850849011854,
      -70.23434055262369,
      -167.7069921594813,
      -281.21685661001146,
      -68.38908808135908,
      -158.7568554053344,
      -252.29473419487317,
      -65.82930484302973,
      -142.127122148905,
      -118.16448158965774
    ],
    "split1_test_score": [
      -71.25414879812581,
      -173.7084200064572,
      -319.81619545609493,
      -70.61620721129323,
      -175.21381995925523,
      -335.4669322103535,
      -71.02547208560371,
      -183.04080401730477,
      -409.2233771181765,
      -72.87028330540042,
      -209.29376305567158,
      -732.3596737490054
    ],
    "split1_train_score": [
      -72.08368988468996,
      -173.0962991452191,
      -298.9581454056404,
      -70.23115503858523,
      -166.53454458434513,
      -280.06773798699993,
      -68.31550108723422,
      -157.41911273806002,
      -251.20775887339659,
      -65.77511260387402,
      -142.07074137802468,
      -120.35314630037222
    ],
    "split2_test_score": [
      -73.24959627879377,
      -174.16555040752814,
      -315.5918273860712,
      -72.83350744064154,
      -175.26690980418417,
      -330.309446260191,
      -72.79611184642677,
      -181.1053430695326,
      -376.854458023548,
      -75.08305597080884,
      -206.40017102149656,
      -1151.1411087586948
    ],
    "split2_train_score": [
      -74.40919466647021,
      -174.95995506436995,
      -302.25819746853824,
      -72.44778451281988,
      -167.82852508069814,
      -282.7438315817873,
      -70.51037728282415,
      -158.72745650006328,
      -252.88650131334617,
      -67.78983946113314,
      -141.99361165908866,
      -148.80185573260502
    ],
    "split3_test_score": [
      -71.484827859169,
      -177.33196842599577,
      -323.5519390175014,
      -70.8377481866863,
      -177.98112156403624,
      -338.2367150638321,
      -71.27305341346236,
      -184.8048824894169,
      -404.791262174759,
      -73.65417700370598,
      -221.68444244983598,
      -854.340796759959
    ],
    "split3_train_score": [
      -72.00300296822668,
      -174.52379765744578,
      -299.74943519634814,
      -70.28536059877413,
      -167.68007542441498,
      -281.47538685869085,
      -68.29365152868431,
      -158.94092248041167,
      -252.03056227576755,
      -65.7464217464569,
      -144.55982583794022,
      -150.25743834879236
    ],
    "std_fit_time": [
      0.07165746758055612,
      0.016586793514692565,
      0.013068559679040246,
      0.04109320684236022,
      0.015486389990650199,
      0.022458740752817247,
      0.032397599789140905,
      0.039372045955589643,
      0.06123950063200146,
      0.011868283928698167,
      0.04379545780896101,
      0.021029984463626486
    ],
    "std_score_time": [
      0.0011350620661311729,
      0.0005333368825641717,
      0.0011103995670761026,
      0.0007379236121836441,
      0.0003418853165428458,
      0.0010543478587225243,
      0.00047148781063912227,
      0.00032211684054478536,
      0.0005282425249792185,
      0.0019563034215366124,
      0.0003355397141965329,
      0.002133618817512829
    ],
    "std_test_score": [
      0.7751973557371731,
      2.0744382964738795,
      4.069603816404873,
      0.8693701879065909,
      2.013689376764191,
      4.328678229075035,
      0.6791515137062508,
      3.0967021076917614,
      14.087810008047635,
      0.8026566125443425,
      6.464514355583207,
      158.27893955394939
    ],
    "std_train_score": [
      1.0501412761847138,
      0.7111773705371077,
      1.235235361467134,
      0.9517880873117176,
      0.5243324213316726,
      0.9510148642782105,
      0.9436042286025598,
      0.6071210980860989,
      0.6035987765861661,
      0.8692311914336028,
      1.0818386182425945,
      15.163919540235774
    ]
  },
  "xval_grid": {
    "gmm__n_components": [
      1,
      2,
      4,
      8
    ],
    "pca__n_components": [
      0.5,
      0.75,
      0.9
    ]
  }
}