{
  "fold_id": 2,
  "test": {
    "accuracy": 0.8875,
    "confusion_matrix": [
      [
        357,
        43
      ],
      [
        47,
        353
      ]
    ],
    "f1_macro": 0.8874971874296858,
    "f1_micro": 0.8875,
    "f1_weighted": 0.8874971874296859,
    "per_class": {
      "y=0": {
        "accuracy": 0.8875,
        "confusion_matrix": [
          [
            353,
            47
          ],
          [
            43,
            357
          ]
        ],
        "f1": 0.8880597014925373,
        "precision": 0.8836633663366337,
        "recall": 0.8925
      },
      "y=1": {
        "accuracy": 0.8875,
        "confusion_matrix": [
          [
            357,
            43
          ],
          [
            47,
            353
          ]
        ],
        "f1": 0.8869346733668342,
        "precision": 0.8914141414141414,
        "recall": 0.8825
      }
    },
    "precision_macro": 0.8875387538753876,
    "precision_micro": 0.8875,
    "precision_weighted": 0.8875387538753876,
    "recall_macro": 0.8875,
    "recall_micro": 0.8875,
    "recall_weighted": 0.8875
  },
  "train": {
    "accuracy": 0.9149068322981366,
    "confusion_matrix": [
      [
        1470,
        140
      ],
      [
        134,
        1476
      ]
    ],
    "f1_macro": 0.9149065368461216,
    "f1_micro": 0.9149068322981366,
    "f1_weighted": 0.9149065368461216,
    "per_class": {
      "y=0": {
        "accuracy": 0.9149068322981366,
        "confusion_matrix": [
          [
            1476,
            134
          ],
          [
            140,
            1470
          ]
        ],
        "f1": 0.9147479775980087,
        "precision": 0.9164588528678305,
        "recall": 0.9130434782608695
      },
      "y=1": {
        "accuracy": 0.9149068322981366,
        "confusion_matrix": [
          [
            1470,
            140
          ],
          [
            134,
            1476
          ]
        ],
        "f1": 0.9150650960942344,
        "precision": 0.9133663366336634,
        "recall": 0.9167701863354037
      }
    },
    "precision_macro": 0.9149125947507469,
    "precision_micro": 0.9149068322981366,
    "precision_weighted": 0.9149125947507469,
    "recall_macro": 0.9149068322981366,
    "recall_micro": 0.9149068322981366,
    "recall_weighted": 0.9149068322981366
  },
  "xval": {
    "mean_fit_time": [
      0.6232959628105164,
      0.6509076952934265,
      0.5061204433441162,
      0.5450487732887268,
      0.8426985740661621,
      0.6784456372261047,
      0.4986725449562073,
      0.547752320766449,
      0.6422967314720154,
      0.5726689696311951,
      0.6245957612991333,
      0.6319655179977417
    ],
    "mean_score_time": [
      0.007297635078430176,
      0.013836026191711426,
      0.015645980834960938,
      0.00881814956665039,
      0.013587415218353271,
      0.01777571439743042,
      0.009948968887329102,
      0.012379109859466553,
      0.01907932758331299,
      0.011416018009185791,
      0.01690816879272461,
      0.02769756317138672
    ],
    "mean_test_score": [
      -73.74886392780299,
      -176.42900574268984,
      -321.7978184140922,
      -73.03660353877584,
      -177.4498857409984,
      -335.13601006187196,
      -73.45455678323228,
      -185.22980813843557,
      -399.77110991985523,
      -75.60584515908313,
      -211.6143028131267,
      -903.3041248608754
    ],
    "mean_train_score": [
      -74.39968854903684,
      -174.9764538599756,
      -300.64414156068324,
      -72.44595917347519,
      -167.78599724878688,
      -282.3444329423845,
      -70.39568519235502,
      -158.45232102838543,
      -250.63914568572028,
      -67.76893319988285,
      -143.08405442257197,
      -142.6355963633801
    ],
    "param_gmm__n_components": [
      1,
      1,
      1,
      2,
      2,
      2,
      4,
      4,
      4,
      8,
      8,
      8
    ],
    "param_pca__n_components": [
      0.5,
      0.75,
      0.9,
      0.5,
      0.75,
      0.9,
      0.5,
      0.75,
      0.9,
      0.5,
      0.75,
      0.9
    ],
    "params": [
      {
        "gmm__n_components": 1,
        "pca__n_components": 0.5
      },
      {
        "gmm__n_components": 1,
        "pca__n_components": 0.75
      },
      {
        "gmm__n_components": 1,
        "pca__n_components": 0.9
      },
      {
        "gmm__n_components": 2,
        "pca__n_components": 0.5
      },
      {
        "gmm__n_components": 2,
        "pca__n_components": 0.75
      },
      {
        "gmm__n_components": 2,
        "pca__n_components": 0.9
      },
      {
        "gmm__n_components": 4,
        "pca__n_components": 0.5
      },
      {
        "gmm__n_components": 4,
        "pca__n_components": 0.75
      },
      {
        "gmm__n_components": 4,
        "pca__n_components": 0.9
      },
      {
        "gmm__n_components": 8,
        "pca__n_components": 0.5
      },
      {
        "gmm__n_components": 8,
        "pca__n_components": 0.75
      },
      {
        "gmm__n_components": 8,
        "pca__n_components": 0.9
      }
    ],
    "rank_test_score": [
      3,
      5,
      9,
      1,
      6,
      10,
      2,
      7,
      11,
      4,
      8,
      12
    ],
    "split0_test_score": [
      -74.21742634579992,
      -177.29688651511384,
      -324.04578449220094,
      -73.50282195064447,
      -177.68117681933754,
      -337.7807365012874,
      -73.77788909877651,
      -186.6223328307344,
      -391.09244566708327,
      -75.91625749818928,
      -213.51197078964051,
      -1044.7542993874733
    ],
    "split0_train_score": [
      -74.31718219551543,
      -174.88845309106966,
      -300.48394153563976,
      -72.343339594277,
      -167.55231373595137,
      -280.44172006324567,
      -70.32086189001079,
      -158.41063156184444,
      -250.15032602832738,
      -67.73855189297142,
      -144.99402265984983,
      -134.74508729407938
    ],
    "split1_test_score": [
      -73.32238774353483,
      -175.36073297099722,
      -317.9840907334429,
      -72.74290845695273,
      -177.60972582600425,
      -334.4241499304178,
      -73.43461315044894,
      -185.50304354746106,
      -405.9956525208626,
      -75.10164785081001,
      -212.6034463866848,
      -987.9891593131771
    ],
    "split1_train_score": [
      -74.50658700817732,
      -175.30004559184601,
      -299.5219566438892,
      -72.57137049621022,
      -168.1586782902448,
      -279.44897302265986,
      -70.47897617364468,
      -158.53375839860072,
      -249.75535945599773,
      -67.85757792779229,
      -141.5424678527309,
      -139.9696288010516
    ],
    "split2_test_score": [
      -73.86331820191684,
      -176.66737147531802,
      -323.33733442840537,
      -73.10161061861781,
      -177.23244175037217,
      -337.14754640231126,
      -73.35459172693768,
      -184.10924021445717,
      -412.1954545404222,
      -75.42982908277709,
      -210.7550507300452,
      -814.650008262276
    ],
    "split2_train_score": [
      -74.40919466647021,
      -174.95995506436995,
      -302.25819746853824,
      -72.44727234314776,
      -167.78291710138038,
      -282.6786400156212,
      -70.42971021497728,
      -158.78684550212645,
      -251.95841291850445,
      -67.84749836451934,
      -141.65238738740103,
      -148.39823067440884
    ],
    "split3_test_score": [
      -73.59179734203873,
      -176.39353690932106,
      -321.8436360223515,
      -72.79691658726274,
      -177.27130942873774,
      -331.167446584622,
      -73.24734079823142,
      -184.6637939598231,
      -389.8315634716998,
      -75.9780685166707,
      -209.55065820176037,
      -762.9963423683389
    ],
    "split3_train_score": [
      -74.36579032598438,
      -174.75736169261677,
      -300.31247059466574,
      -72.42185426026576,
      -167.65007986757104,
      -286.8083986680115,
      -70.35319249078731,
      -158.07804865097012,
      -250.69248434005152,
      -67.63210461424836,
      -144.14733979030603,
      -147.42943868398064
    ],
    "std_fit_time": [
      0.12309573945965445,
      0.210568634471683,
      0.10627133647558418,
      0.13689049332058523,
      0.4538831330947594,
      0.24080917007686403,
      0.05653477912046455,
      0.022891360782214393,
      0.08570758681773356,
      0.026340608720042843,
      0.02196764188109006,
      0.012768054136790621
    ],
    "std_score_time": [
      0.0012915448624121948,
      0.006812164862356966,
      0.0029231899708500883,
      0.0009711864565439953,
      0.0027563228682942623,
      0.0022182014060731607,
      0.0004526812631877388,
      9.349692950921114e-05,
      0.0006133505157564472,
      0.0002615477010119587,
      0.0017072713214572705,
      0.0005132732571334417
    ],
    "std_test_score": [
      0.3322127122868127,
      0.7006971342066112,
      2.349312176380591,
      0.30281797370114044,
      0.19888125565518613,
      2.6086746756594525,
      0.19886933871338114,
      0.9477006384057405,
      9.570255011267756,
      0.36098029653749253,
      1.547085927662605,
      116.96501519559524
    ],
    "std_train_score": [
      0.06977469944897742,
      0.2004553144202951,
      1.0000181421960015,
      0.08191695361826408,
      0.23020760448882172,
      2.830313092863865,
      0.062247983880722474,
      0.25512570083974007,
      0.831163912962535,
      0.09175437119952204,
      1.5169635866227258,
      5.602597496106849
    ]
  },
  "xval_grid": {
    "gmm__n_components": [
      1,
      2,
      4,
      8
    ],
    "pca__n_components": [
      0.5,
      0.75,
      0.9
    ]
  }
}