{
  "fold_id": 0,
  "test": {
    "accuracy": 0.8765432098765432,
    "confusion_matrix": [
      [
        356,
        49
      ],
      [
        51,
        354
      ]
    ],
    "f1_macro": 0.8765424572013852,
    "f1_micro": 0.8765432098765432,
    "f1_weighted": 0.8765424572013852,
    "per_class": {
      "y=0": {
        "accuracy": 0.8765432098765432,
        "confusion_matrix": [
          [
            354,
            51
          ],
          [
            49,
            356
          ]
        ],
        "f1": 0.8768472906403941,
        "precision": 0.8746928746928747,
        "recall": 0.8790123456790123
      },
      "y=1": {
        "accuracy": 0.8765432098765432,
        "confusion_matrix": [
          [
            356,
            49
          ],
          [
            51,
            354
          ]
        ],
        "f1": 0.8762376237623763,
        "precision": 0.8784119106699751,
        "recall": 0.8740740740740741
      }
    },
    "precision_macro": 0.8765523926814249,
    "precision_micro": 0.8765432098765432,
    "precision_weighted": 0.8765523926814249,
    "recall_macro": 0.8765432098765432,
    "recall_micro": 0.8765432098765432,
    "recall_weighted": 0.8765432098765432
  },
  "train": {
    "accuracy": 0.9651090342679127,
    "confusion_matrix": [
      [
        1561,
        44
      ],
      [
        68,
        1537
      ]
    ],
    "f1_macro": 0.9651070837511515,
    "f1_micro": 0.9651090342679127,
    "f1_weighted": 0.9651070837511515,
    "per_class": {
      "y=0": {
        "accuracy": 0.9651090342679127,
        "confusion_matrix": [
          [
            1537,
            68
          ],
          [
            44,
            1561
          ]
        ],
        "f1": 0.9653679653679654,
        "precision": 0.958256599140577,
        "recall": 0.9725856697819315
      },
      "y=1": {
        "accuracy": 0.9651090342679127,
        "confusion_matrix": [
          [
            1561,
            44
          ],
          [
            68,
            1537
          ]
        ],
        "f1": 0.9648462021343376,
        "precision": 0.9721695129664769,
        "recall": 0.957632398753894
      }
    },
    "precision_macro": 0.965213056053527,
    "precision_micro": 0.9651090342679127,
    "precision_weighted": 0.965213056053527,
    "recall_macro": 0.9651090342679127,
    "recall_micro": 0.9651090342679127,
    "recall_weighted": 0.9651090342679127
  },
  "xval": {
    "mean_fit_time": [
      0.08072435855865479,
      0.07423102855682373,
      0.06937241554260254,
      0.06866848468780518,
      0.07531678676605225,
      0.06433385610580444,
      0.06707853078842163,
      0.08389687538146973,
      0.0849648118019104,
      0.07240766286849976,
      0.08085167407989502,
      0.10383039712905884,
      0.14427942037582397,
      0.2607349753379822,
      0.1481114625930786,
      0.16358661651611328,
      0.12997078895568848,
      0.12118130922317505,
      0.18109124898910522,
      0.21587204933166504,
      0.1819857954978943,
      0.07519805431365967,
      0.07240939140319824,
      0.07287269830703735,
      0.08159399032592773,
      0.062156736850738525,
      0.0580517053604126,
      0.05164980888366699,
      0.053747475147247314,
      0.0579257607460022,
      0.058219850063323975
    ],
    "mean_score_time": [
      0.006216466426849365,
      0.00585561990737915,
      0.005663514137268066,
      0.0065610408782958984,
      0.005918920040130615,
      0.006143510341644287,
      0.0062029361724853516,
      0.008678793907165527,
      0.007052958011627197,
      0.0062448978424072266,
      0.0056678056716918945,
      0.007075071334838867,
      0.005562961101531982,
      0.00789552927017212,
      0.006579041481018066,
      0.0076285600662231445,
      0.009916365146636963,
      0.009259700775146484,
      0.009827971458435059,
      0.013640761375427246,
      0.008108079433441162,
      0.00610119104385376,
      0.006951630115509033,
      0.006064653396606445,
      0.006064057350158691,
      0.005694210529327393,
      0.007135450839996338,
      0.0066454410552978516,
      0.007830619812011719,
      0.005903184413909912,
      0.006774961948394775
    ],
    "mean_test_score": [
      0.8551401869158879,
      0.8492211838006231,
      0.8517133956386292,
      0.8482866043613707,
      0.8638629283489097,
      0.856386292834891,
      0.8638629283489097,
      0.8579439252336448,
      0.8629283489096573,
      0.8514018691588785,
      0.8560747663551402,
      0.8610591900311526,
      0.8601246105919003,
      0.8576323987538941,
      0.8585669781931464,
      0.859190031152648,
      0.859190031152648,
      0.8741433021806854,
      0.8716510903426792,
      0.873208722741433,
      0.8728971962616823,
      0.8669781931464174,
      0.8436137071651091,
      0.8,
      0.6890965732087228,
      0.5040498442367601,
      0.5,
      0.5,
      0.5,
      0.5,
      0.5
    ],
    "mean_train_score": [
      0.9628168222683264,
      0.9672769709543568,
      0.9749697441217151,
      0.9668845089903182,
      0.9762193118948824,
      0.9675056189488244,
      0.9702982365145228,
      0.9739315352697095,
      0.9755951763485478,
      0.97176045988935,
      0.9807827627939143,
      0.9787184474412172,
      0.9771516251728908,
      0.9864993948824343,
      0.98182918395574,
      0.9913788035961273,
      0.9858761237897649,
      0.9748746542185339,
      0.9601227524204703,
      0.9355126210235132,
      0.9094480463347164,
      0.891683091286307,
      0.8710261065006916,
      0.8222034923928077,
      0.7142193983402491,
      0.5046697786998617,
      0.5,
      0.5,
      0.5,
      0.5,
      0.5
    ],
    "param_clf__alpha": [
      1e-10,
      3.1622776601683795e-10,
      1e-09,
      3.1622776601683795e-09,
      1e-08,
      3.162277660168379e-08,
      1e-07,
      3.162277660168379e-07,
      1e-06,
      3.162277660168379e-06,
      1e-05,
      3.1622776601683795e-05,
      0.0001,
      0.00031622776601683794,
      0.001,
      0.0031622776601683794,
      0.01,
      0.03162277660168379,
      0.1,
      0.31622776601683794,
      1.0,
      3.1622776601683795,
      10.0,
      31.622776601683793,
      100.0,
      316.22776601683796,
      1000.0,
      3162.2776601683795,
      10000.0,
      31622.776601683792,
      100000.0
    ],
    "params": [
      {
        "clf__alpha": 1e-10
      },
      {
        "clf__alpha": 3.1622776601683795e-10
      },
      {
        "clf__alpha": 1e-09
      },
      {
        "clf__alpha": 3.1622776601683795e-09
      },
      {
        "clf__alpha": 1e-08
      },
      {
        "clf__alpha": 3.162277660168379e-08
      },
      {
        "clf__alpha": 1e-07
      },
      {
        "clf__alpha": 3.162277660168379e-07
      },
      {
        "clf__alpha": 1e-06
      },
      {
        "clf__alpha": 3.162277660168379e-06
      },
      {
        "clf__alpha": 1e-05
      },
      {
        "clf__alpha": 3.1622776601683795e-05
      },
      {
        "clf__alpha": 0.0001
      },
      {
        "clf__alpha": 0.00031622776601683794
      },
      {
        "clf__alpha": 0.001
      },
      {
        "clf__alpha": 0.0031622776601683794
      },
      {
        "clf__alpha": 0.01
      },
      {
        "clf__alpha": 0.03162277660168379
      },
      {
        "clf__alpha": 0.1
      },
      {
        "clf__alpha": 0.31622776601683794
      },
      {
        "clf__alpha": 1.0
      },
      {
        "clf__alpha": 3.1622776601683795
      },
      {
        "clf__alpha": 10.0
      },
      {
        "clf__alpha": 31.622776601683793
      },
      {
        "clf__alpha": 100.0
      },
      {
        "clf__alpha": 316.22776601683796
      },
      {
        "clf__alpha": 1000.0
      },
      {
        "clf__alpha": 3162.2776601683795
      },
      {
        "clf__alpha": 10000.0
      },
      {
        "clf__alpha": 31622.776601683792
      },
      {
        "clf__alpha": 100000.0
      }
    ],
    "rank_test_score": [
      18,
      21,
      19,
      22,
      6,
      16,
      6,
      14,
      8,
      20,
      17,
      9,
      10,
      15,
      13,
      11,
      11,
      1,
      4,
      2,
      3,
      5,
      23,
      24,
      25,
      26,
      27,
      27,
      27,
      27,
      27
    ],
    "split0_test_score": [
      0.8839506172839506,
      0.8617283950617284,
      0.8567901234567902,
      0.8814814814814815,
      0.8790123456790123,
      0.8814814814814815,
      0.8814814814814815,
      0.8728395061728395,
      0.8740740740740741,
      0.8641975308641975,
      0.8703703703703703,
      0.8666666666666667,
      0.8703703703703703,
      0.8753086419753087,
      0.8716049382716049,
      0.8716049382716049,
      0.8728395061728395,
      0.9,
      0.8962962962962963,
      0.8987654320987655,
      0.8975308641975308,
      0.8802469135802469,
      0.8740740740740741,
      0.8111111111111111,
      0.7246913580246913,
      0.5049382716049383,
      0.5,
      0.5,
      0.5,
      0.5,
      0.5
    ],
    "split0_train_score": [
      0.9554166666666667,
      0.955,
      0.9708333333333333,
      0.9766666666666667,
      0.9754166666666667,
      0.9754166666666667,
      0.9675,
      0.97,
      0.97375,
      0.9770833333333333,
      0.9745833333333334,
      0.9845833333333334,
      0.9741666666666666,
      0.9854166666666667,
      0.9833333333333333,
      0.9891666666666666,
      0.9845833333333334,
      0.9791666666666666,
      0.9583333333333334,
      0.9341666666666667,
      0.9079166666666667,
      0.8825,
      0.8691666666666666,
      0.8041666666666667,
      0.7075,
      0.5016666666666667,
      0.5,
      0.5,
      0.5,
      0.5,
      0.5
    ],
    "split1_test_score": [
      0.8775,
      0.865,
      0.87375,
      0.885,
      0.88625,
      0.88,
      0.8875,
      0.88875,
      0.87375,
      0.89,
      0.88,
      0.88625,
      0.89125,
      0.86875,
      0.885,
      0.88125,
      0.88125,
      0.89375,
      0.88625,
      0.88625,
      0.88875,
      0.89,
      0.8725,
      0.81,
      0.7275,
      0.50625,
      0.5,
      0.5,
      0.5,
      0.5,
      0.5
    ],
    "split1_train_score": [
      0.9572614107883818,
      0.9518672199170124,
      0.9676348547717842,
      0.9659751037344398,
      0.9796680497925311,
      0.958091286307054,
      0.9829875518672199,
      0.9705394190871369,
      0.9775933609958506,
      0.9755186721991701,
      0.9825726141078838,
      0.9672199170124481,
      0.979253112033195,
      0.9784232365145228,
      0.979253112033195,
      0.995850622406639,
      0.9838174273858921,
      0.9647302904564315,
      0.9589211618257262,
      0.9307053941908714,
      0.8987551867219917,
      0.8746887966804979,
      0.8489626556016597,
      0.8219917012448132,
      0.7136929460580913,
      0.5029045643153527,
      0.5,
      0.5,
      0.5,
      0.5,
      0.5
    ],
    "split2_test_score": [
      0.835,
      0.84375,
      0.845,
      0.81125,
      0.86875,
      0.83125,
      0.85125,
      0.84625,
      0.8475,
      0.83875,
      0.84,
      0.8525,
      0.8375,
      0.8525,
      0.8425,
      0.855,
      0.84875,
      0.86125,
      0.8625,
      0.87,
      0.865,
      0.86375,
      0.835,
      0.85125,
      0.67,
      0.50125,
      0.5,
      0.5,
      0.5,
      0.5,
      0.5
    ],
    "split2_train_score": [
      0.9651452282157676,
      0.9788381742738589,
      0.9887966804979254,
      0.9672199170124481,
      0.9730290456431535,
      0.9726141078838174,
      0.9663900414937759,
      0.9759336099585062,
      0.9780082987551867,
      0.9759336099585062,
      0.9912863070539419,
      0.9780082987551867,
      0.9721991701244813,
      0.9929460580912863,
      0.9858921161825727,
      0.9842323651452282,
      0.9904564315352697,
      0.9809128630705394,
      0.9651452282157676,
      0.9398340248962656,
      0.9157676348547718,
      0.904149377593361,
      0.8771784232365145,
      0.8385892116182573,
      0.7141078838174274,
      0.5016597510373444,
      0.5,
      0.5,
      0.5,
      0.5,
      0.5
    ],
    "split3_test_score": [
      0.82375,
      0.82625,
      0.83125,
      0.815,
      0.82125,
      0.8325,
      0.835,
      0.82375,
      0.85625,
      0.8125,
      0.83375,
      0.83875,
      0.84125,
      0.83375,
      0.835,
      0.82875,
      0.83375,
      0.84125,
      0.84125,
      0.8375,
      0.84,
      0.83375,
      0.7925,
      0.7275,
      0.63375,
      0.50375,
      0.5,
      0.5,
      0.5,
      0.5,
      0.5
    ],
    "split3_train_score": [
      0.9734439834024896,
      0.983402489626556,
      0.9726141078838174,
      0.9576763485477179,
      0.9767634854771784,
      0.9639004149377594,
      0.9643153526970955,
      0.979253112033195,
      0.9730290456431535,
      0.9585062240663901,
      0.9746887966804979,
      0.9850622406639005,
      0.9829875518672199,
      0.9892116182572614,
      0.9788381742738589,
      0.9962655601659751,
      0.9846473029045644,
      0.9746887966804979,
      0.958091286307054,
      0.937344398340249,
      0.9153526970954357,
      0.9053941908713693,
      0.8887966804979253,
      0.8240663900414937,
      0.7215767634854772,
      0.5124481327800829,
      0.5,
      0.5,
      0.5,
      0.5,
      0.5
    ],
    "std_fit_time": [
      0.031580328257359326,
      0.011092228370796738,
      0.01180921984656113,
      0.005393743679682917,
      0.010380824783327589,
      0.009689494591168213,
      0.007131082073345401,
      0.014288967330317428,
      0.01973414233662585,
      0.010177167264315072,
      0.011280583530616166,
      0.01209986721451196,
      0.05220715246988374,
      0.07219819085853568,
      0.07559053470901876,
      0.02686064093234352,
      0.01693727233203015,
      0.0025133808507465873,
      0.07147155576556316,
      0.08893784580862661,
      0.047054340943545055,
      0.015342950417556681,
      0.009474393118563637,
      0.024242196040332165,
      0.014635515559382192,
      0.011122927371970437,
      0.005938550206957085,
      0.005971524236937036,
      0.0063759100326278625,
      0.006560551900933773,
      0.016835125074970456
    ],
    "std_score_time": [
      0.0020781457498957046,
      0.000771932966034411,
      0.00019214773659182333,
      0.0008339734843622332,
      0.0006630222508732807,
      0.0009459864777005125,
      0.00046300476781509356,
      0.0016527536046618881,
      0.001924773082117368,
      0.0009172902388814063,
      0.00023129861764175567,
      0.0014032780546755189,
      0.0001403784799268868,
      0.0014012988794473119,
      0.0009877246592860812,
      0.0009332274620837218,
      0.002243091892624572,
      0.002095324784718742,
      0.004180944635013772,
      0.006567808986466767,
      0.0009284119939621689,
      0.0009887641659981948,
      0.0019246128024034543,
      0.0007045905371712708,
      0.0005640276519328259,
      0.00025222738442997743,
      0.0014197187122551617,
      0.0009534101269285194,
      0.0013061638751263216,
      0.0002126890421840757,
      0.0015413973683557247
    ],
    "std_test_score": [
      0.026090418451074692,
      0.015507738120570378,
      0.015592373754967711,
      0.0350993432222163,
      0.02532431269917219,
      0.02444466556019314,
      0.021560083879723583,
      0.02485917201461482,
      0.011444270556265488,
      0.028803844032810173,
      0.01956619221074963,
      0.017560742413414796,
      0.022006521738481902,
      0.016073559401865636,
      0.020488538847977827,
      0.019886598289071314,
      0.018887888166102814,
      0.023991457987903163,
      0.021391327414758333,
      0.022968451365969943,
      0.022383268300320697,
      0.021313838368360972,
      0.03334201806487387,
      0.04495151420456809,
      0.03926290181349215,
      0.0018389275743313,
      0.0,
      0.0,
      0.0,
      0.0,
      0.0
    ],
    "std_train_score": [
      0.007141129596706407,
      0.013981042678296283,
      0.008179909651442266,
      0.006734618474760488,
      0.0023985389351459784,
      0.006897617165446115,
      0.0074148118452936245,
      0.00385002935320725,
      0.002225174385781191,
      0.0076737717293498915,
      0.006875633759455634,
      0.007200019308260643,
      0.0042400199202365305,
      0.005369177230640919,
      0.0029305361752237865,
      0.004996065591397159,
      0.0026645242473561804,
      0.006281401041122589,
      0.002915388409418805,
      0.0034260386206496616,
      0.0069188956859825585,
      0.013384111483795045,
      0.014524958549677454,
      0.012220209899489234,
      0.004989256543548053,
      0.0045193396208299055,
      0.0,
      0.0,
      0.0,
      0.0,
      0.0
    ]
  },
  "xval_grid": {
    "clf__alpha": [
      1e-10,
      3.1622776601683795e-10,
      1e-09,
      3.1622776601683795e-09,
      1e-08,
      3.162277660168379e-08,
      1e-07,
      3.162277660168379e-07,
      1e-06,
      3.162277660168379e-06,
      1e-05,
      3.1622776601683795e-05,
      0.0001,
      0.00031622776601683794,
      0.001,
      0.0031622776601683794,
      0.01,
      0.03162277660168379,
      0.1,
      0.31622776601683794,
      1.0,
      3.1622776601683795,
      10.0,
      31.622776601683793,
      100.0,
      316.22776601683796,
      1000.0,
      3162.2776601683795,
      10000.0,
      31622.776601683792,
      100000.0
    ]
  }
}