{
  "fold_id": 1,
  "test": {
    "accuracy": 0.9049382716049382,
    "confusion_matrix": [
      [
        355,
        50
      ],
      [
        27,
        378
      ]
    ],
    "f1_macro": 0.9048615634309632,
    "f1_micro": 0.9049382716049382,
    "f1_weighted": 0.9048615634309632,
    "per_class": {
      "y=0": {
        "accuracy": 0.9049382716049382,
        "confusion_matrix": [
          [
            378,
            27
          ],
          [
            50,
            355
          ]
        ],
        "f1": 0.9021601016518425,
        "precision": 0.9293193717277487,
        "recall": 0.8765432098765432
      },
      "y=1": {
        "accuracy": 0.9049382716049382,
        "confusion_matrix": [
          [
            355,
            50
          ],
          [
            27,
            378
          ]
        ],
        "f1": 0.907563025210084,
        "precision": 0.883177570093458,
        "recall": 0.9333333333333333
      }
    },
    "precision_macro": 0.9062484709106033,
    "precision_micro": 0.9049382716049382,
    "precision_weighted": 0.9062484709106032,
    "recall_macro": 0.9049382716049383,
    "recall_micro": 0.9049382716049382,
    "recall_weighted": 0.9049382716049382
  },
  "train": {
    "accuracy": 0.9467289719626168,
    "confusion_matrix": [
      [
        1515,
        90
      ],
      [
        81,
        1524
      ]
    ],
    "f1_macro": 0.9467285531985141,
    "f1_micro": 0.9467289719626168,
    "f1_weighted": 0.946728553198514,
    "per_class": {
      "y=0": {
        "accuracy": 0.9467289719626168,
        "confusion_matrix": [
          [
            1524,
            81
          ],
          [
            90,
            1515
          ]
        ],
        "f1": 0.9465791940018744,
        "precision": 0.9492481203007519,
        "recall": 0.9439252336448598
      },
      "y=1": {
        "accuracy": 0.9467289719626168,
        "confusion_matrix": [
          [
            1515,
            90
          ],
          [
            81,
            1524
          ]
        ],
        "f1": 0.9468779123951537,
        "precision": 0.9442379182156134,
        "recall": 0.9495327102803738
      }
    },
    "precision_macro": 0.9467430192581827,
    "precision_micro": 0.9467289719626168,
    "precision_weighted": 0.9467430192581826,
    "recall_macro": 0.9467289719626168,
    "recall_micro": 0.9467289719626168,
    "recall_weighted": 0.9467289719626168
  },
  "xval": {
    "mean_fit_time": [
      0.10088503360748291,
      0.10697048902511597,
      0.0882752537727356,
      0.11673909425735474,
      0.09130120277404785,
      0.06992250680923462,
      0.08704805374145508,
      0.06986445188522339,
      0.08824819326400757,
      0.07429718971252441,
      0.07776576280593872,
      0.08983629941940308,
      0.16141784191131592,
      0.14331746101379395,
      0.12409228086471558,
      0.14386558532714844,
      0.11866205930709839,
      0.1815202236175537,
      0.18062245845794678,
      0.31118589639663696,
      0.18782490491867065,
      0.16842293739318848,
      0.08628040552139282,
      0.10223174095153809,
      0.08093041181564331,
      0.054827988147735596,
      0.0655897855758667,
      0.06054234504699707,
      0.057566285133361816,
      0.06383669376373291,
      0.06380265951156616
    ],
    "mean_score_time": [
      0.010825574398040771,
      0.009910345077514648,
      0.012519121170043945,
      0.010023415088653564,
      0.00840538740158081,
      0.007018566131591797,
      0.009868204593658447,
      0.006303012371063232,
      0.007910549640655518,
      0.005872249603271484,
      0.007233977317810059,
      0.007422506809234619,
      0.006389439105987549,
      0.006765186786651611,
      0.007172524929046631,
      0.006233274936676025,
      0.00556492805480957,
      0.006171286106109619,
      0.006131231784820557,
      0.006544530391693115,
      0.007114827632904053,
      0.011295855045318604,
      0.0073105692863464355,
      0.008069992065429688,
      0.007150828838348389,
      0.006838381290435791,
      0.005987405776977539,
      0.006975650787353516,
      0.006123006343841553,
      0.00838381052017212,
      0.006350398063659668
    ],
    "mean_test_score": [
      0.8451713395638629,
      0.8457943925233645,
      0.8426791277258567,
      0.8376947040498443,
      0.8429906542056075,
      0.8526479750778816,
      0.8473520249221184,
      0.8523364485981308,
      0.8411214953271028,
      0.8501557632398754,
      0.8476635514018691,
      0.840809968847352,
      0.8429906542056075,
      0.8411214953271028,
      0.8383177570093457,
      0.8473520249221184,
      0.8641744548286604,
      0.8607476635514019,
      0.8713395638629283,
      0.8638629283489097,
      0.8557632398753894,
      0.8495327102803738,
      0.8261682242990654,
      0.7950155763239876,
      0.680373831775701,
      0.5034267912772585,
      0.5,
      0.5,
      0.5,
      0.5,
      0.5
    ],
    "mean_train_score": [
      0.9676992565698479,
      0.9672847510373445,
      0.9648936721991702,
      0.9655264522821577,
      0.9631457468879668,
      0.962506051175657,
      0.9666683955739973,
      0.9714410442600276,
      0.9626067600276625,
      0.9788165629322269,
      0.9696870677731674,
      0.975908540802213,
      0.9803730117565699,
      0.9795401106500692,
      0.9769337828492393,
      0.9914916147994468,
      0.9866070193637622,
      0.9750812586445367,
      0.9606435857538036,
      0.932711358921162,
      0.9036423755186721,
      0.8780986341632088,
      0.8603380013831259,
      0.8187945193637621,
      0.6828937586445367,
      0.5038437932226832,
      0.5,
      0.5,
      0.5,
      0.5,
      0.5
    ],
    "param_clf__alpha": [
      1e-10,
      3.1622776601683795e-10,
      1e-09,
      3.1622776601683795e-09,
      1e-08,
      3.162277660168379e-08,
      1e-07,
      3.162277660168379e-07,
      1e-06,
      3.162277660168379e-06,
      1e-05,
      3.1622776601683795e-05,
      0.0001,
      0.00031622776601683794,
      0.001,
      0.0031622776601683794,
      0.01,
      0.03162277660168379,
      0.1,
      0.31622776601683794,
      1.0,
      3.1622776601683795,
      10.0,
      31.622776601683793,
      100.0,
      316.22776601683796,
      1000.0,
      3162.2776601683795,
      10000.0,
      31622.776601683792,
      100000.0
    ],
    "params": [
      {
        "clf__alpha": 1e-10
      },
      {
        "clf__alpha": 3.1622776601683795e-10
      },
      {
        "clf__alpha": 1e-09
      },
      {
        "clf__alpha": 3.1622776601683795e-09
      },
      {
        "clf__alpha": 1e-08
      },
      {
        "clf__alpha": 3.162277660168379e-08
      },
      {
        "clf__alpha": 1e-07
      },
      {
        "clf__alpha": 3.162277660168379e-07
      },
      {
        "clf__alpha": 1e-06
      },
      {
        "clf__alpha": 3.162277660168379e-06
      },
      {
        "clf__alpha": 1e-05
      },
      {
        "clf__alpha": 3.1622776601683795e-05
      },
      {
        "clf__alpha": 0.0001
      },
      {
        "clf__alpha": 0.00031622776601683794
      },
      {
        "clf__alpha": 0.001
      },
      {
        "clf__alpha": 0.0031622776601683794
      },
      {
        "clf__alpha": 0.01
      },
      {
        "clf__alpha": 0.03162277660168379
      },
      {
        "clf__alpha": 0.1
      },
      {
        "clf__alpha": 0.31622776601683794
      },
      {
        "clf__alpha": 1.0
      },
      {
        "clf__alpha": 3.1622776601683795
      },
      {
        "clf__alpha": 10.0
      },
      {
        "clf__alpha": 31.622776601683793
      },
      {
        "clf__alpha": 100.0
      },
      {
        "clf__alpha": 316.22776601683796
      },
      {
        "clf__alpha": 1000.0
      },
      {
        "clf__alpha": 3162.2776601683795
      },
      {
        "clf__alpha": 10000.0
      },
      {
        "clf__alpha": 31622.776601683792
      },
      {
        "clf__alpha": 100000.0
      }
    ],
    "rank_test_score": [
      14,
      13,
      17,
      22,
      15,
      6,
      11,
      7,
      18,
      8,
      10,
      20,
      15,
      18,
      21,
      11,
      2,
      4,
      1,
      3,
      5,
      9,
      23,
      24,
      25,
      26,
      27,
      27,
      27,
      27,
      27
    ],
    "split0_test_score": [
      0.8345679012345679,
      0.8395061728395061,
      0.837037037037037,
      0.8222222222222222,
      0.8271604938271605,
      0.8308641975308642,
      0.8518518518518519,
      0.8641975308641975,
      0.8345679012345679,
      0.8382716049382716,
      0.854320987654321,
      0.8234567901234567,
      0.8197530864197531,
      0.837037037037037,
      0.8135802469135802,
      0.8395061728395061,
      0.8555555555555555,
      0.8592592592592593,
      0.8629629629629629,
      0.8604938271604938,
      0.8555555555555555,
      0.8395061728395061,
      0.8123456790123457,
      0.7790123456790123,
      0.6765432098765433,
      0.508641975308642,
      0.5,
      0.5,
      0.5,
      0.5,
      0.5
    ],
    "split0_train_score": [
      0.9620833333333333,
      0.9625,
      0.9575,
      0.9675,
      0.9725,
      0.9558333333333333,
      0.9683333333333334,
      0.9691666666666666,
      0.9529166666666666,
      0.9791666666666666,
      0.9783333333333334,
      0.9758333333333333,
      0.9795833333333334,
      0.9766666666666667,
      0.9641666666666666,
      0.9979166666666667,
      0.9891666666666666,
      0.9783333333333334,
      0.9604166666666667,
      0.93375,
      0.91125,
      0.8870833333333333,
      0.8658333333333333,
      0.8179166666666666,
      0.7095833333333333,
      0.5054166666666666,
      0.5,
      0.5,
      0.5,
      0.5,
      0.5
    ],
    "split1_test_score": [
      0.89625,
      0.8925,
      0.86625,
      0.88,
      0.87,
      0.8875,
      0.87625,
      0.8775,
      0.88375,
      0.88875,
      0.8775,
      0.88375,
      0.89625,
      0.875,
      0.89625,
      0.895,
      0.9,
      0.89625,
      0.9025,
      0.90375,
      0.8825,
      0.89625,
      0.84625,
      0.80375,
      0.6475,
      0.5025,
      0.5,
      0.5,
      0.5,
      0.5,
      0.5
    ],
    "split1_train_score": [
      0.9784232365145228,
      0.9643153526970955,
      0.9618257261410789,
      0.9634854771784233,
      0.9489626556016597,
      0.9597510373443984,
      0.9551867219917013,
      0.9688796680497925,
      0.9589211618257262,
      0.9759336099585062,
      0.9680497925311203,
      0.9809128630705394,
      0.9809128630705394,
      0.9796680497925311,
      0.9784232365145228,
      0.9929460580912863,
      0.9829875518672199,
      0.9701244813278008,
      0.9518672199170124,
      0.9228215767634855,
      0.870539419087137,
      0.8576763485477178,
      0.8443983402489627,
      0.7979253112033196,
      0.6547717842323652,
      0.5016597510373444,
      0.5,
      0.5,
      0.5,
      0.5,
      0.5
    ],
    "split2_test_score": [
      0.84125,
      0.83375,
      0.8475,
      0.835,
      0.86375,
      0.86,
      0.855,
      0.84625,
      0.83875,
      0.84,
      0.8375,
      0.83375,
      0.84875,
      0.8425,
      0.83625,
      0.83375,
      0.86125,
      0.84875,
      0.86625,
      0.8625,
      0.8625,
      0.84125,
      0.84875,
      0.85375,
      0.705,
      0.5,
      0.5,
      0.5,
      0.5,
      0.5,
      0.5
    ],
    "split2_train_score": [
      0.9663900414937759,
      0.9634854771784233,
      0.9763485477178423,
      0.9759336099585062,
      0.9684647302904564,
      0.9651452282157676,
      0.9746887966804979,
      0.9809128630705394,
      0.9784232365145228,
      0.9863070539419088,
      0.9626556016597511,
      0.9767634854771784,
      0.9842323651452282,
      0.9854771784232366,
      0.9892116182572614,
      0.9962655601659751,
      0.9858921161825727,
      0.9767634854771784,
      0.9659751037344398,
      0.9394190871369295,
      0.9149377593360996,
      0.8734439834024896,
      0.8547717842323651,
      0.8215767634854771,
      0.674688796680498,
      0.5008298755186722,
      0.5,
      0.5,
      0.5,
      0.5,
      0.5
    ],
    "split3_test_score": [
      0.80875,
      0.8175,
      0.82,
      0.81375,
      0.81125,
      0.8325,
      0.80625,
      0.82125,
      0.8075,
      0.83375,
      0.82125,
      0.8225,
      0.8075,
      0.81,
      0.8075,
      0.82125,
      0.84,
      0.83875,
      0.85375,
      0.82875,
      0.8225,
      0.82125,
      0.7975,
      0.74375,
      0.6925,
      0.5025,
      0.5,
      0.5,
      0.5,
      0.5,
      0.5
    ],
    "split3_train_score": [
      0.9639004149377594,
      0.9788381742738589,
      0.9639004149377594,
      0.9551867219917013,
      0.9626556016597511,
      0.9692946058091286,
      0.9684647302904564,
      0.966804979253112,
      0.9601659751037345,
      0.9738589211618257,
      0.9697095435684647,
      0.9701244813278008,
      0.9767634854771784,
      0.9763485477178423,
      0.9759336099585062,
      0.9788381742738589,
      0.9883817427385893,
      0.975103734439834,
      0.9643153526970955,
      0.9348547717842324,
      0.9178423236514522,
      0.8941908713692946,
      0.8763485477178423,
      0.8377593360995851,
      0.6925311203319502,
      0.5074688796680498,
      0.5,
      0.5,
      0.5,
      0.5,
      0.5
    ],
    "std_fit_time": [
      0.02287383190700336,
      0.031820666328129715,
      0.009885114341694663,
      0.01925351543428009,
      0.01637171451293753,
      0.007694835808433126,
      0.01696332073101595,
      0.006330918339807439,
      0.02268217336077275,
      0.005740756564679893,
      0.008380734496129534,
      0.023294003376628923,
      0.034504828915294765,
      0.02910369202930718,
      0.027363626725847193,
      0.027384035084367476,
      0.02216678337063801,
      0.1103385496250813,
      0.07824444959108821,
      0.17837636232836443,
      0.09530260303561756,
      0.09956138660408191,
      0.018092263522334093,
      0.012865976844392831,
      0.012156653270966555,
      0.01514512166148468,
      0.01341472771468185,
      0.012132393776641355,
      0.007955106498282087,
      0.01359747772909745,
      0.0039756954921710734
    ],
    "std_score_time": [
      0.002660218988928996,
      0.0020120602344393707,
      0.0038967407287036787,
      0.002119077994040923,
      0.0017103004953623365,
      0.0005517928247085834,
      0.0037551088498347642,
      0.0013882902932431775,
      0.002975024137606203,
      0.00044787229930918755,
      0.001374195616573583,
      0.0015017404185321004,
      0.0010404390162414825,
      0.0016995961216497825,
      0.001902987033451901,
      0.0008513805508007241,
      8.991684167350818e-05,
      0.0009170755129945693,
      0.0002748865086311451,
      0.0005383737894378554,
      0.002442277226853833,
      0.005497147735341126,
      0.0016572465690032456,
      0.0032604937949854366,
      0.0014398264139302162,
      0.0022328397473350943,
      0.0003080822885963525,
      0.0013692252688927112,
      0.0004936102832508347,
      0.0022264970413714566,
      0.0012422910910729484
    ],
    "std_test_score": [
      0.03182803774749561,
      0.028094587842174997,
      0.016747349375699976,
      0.025517636744750185,
      0.024566779634850804,
      0.023175459346515586,
      0.025472298737953952,
      0.02105657888071067,
      0.027328416004324143,
      0.022352610860811212,
      0.020800566822975094,
      0.02512940399147047,
      0.03413752241839959,
      0.02306751385862648,
      0.035051357975390295,
      0.028235710927092292,
      0.022054254153346962,
      0.021706051325606622,
      0.018527162735681613,
      0.026591388408437548,
      0.021569131501754237,
      0.028031171991266684,
      0.021923301228618273,
      0.039979704136957894,
      0.02146670546871678,
      0.0031965286423827196,
      0.0,
      0.0,
      0.0,
      0.0,
      0.0
    ],
    "std_train_score": [
      0.006377452107098045,
      0.006701254347686628,
      0.007004987771933634,
      0.007471268689928533,
      0.008904969911521407,
      0.00512749924608399,
      0.007109052298224594,
      0.005543958239720343,
      0.009534147876910804,
      0.004720160430623761,
      0.0056320644354585754,
      0.0038482194561066632,
      0.002685066106890378,
      0.0036642835740248497,
      0.008901731797214735,
      0.007521582417996069,
      0.0024141804452766594,
      0.003081234469618197,
      0.005453967501667964,
      0.006092503650699028,
      0.019254258602408342,
      0.013950093556492056,
      0.011953993450103296,
      0.014174798329939732,
      0.02039227171646794,
      0.0027142643018440173,
      0.0,
      0.0,
      0.0,
      0.0,
      0.0
    ]
  },
  "xval_grid": {
    "clf__alpha": [
      1e-10,
      3.1622776601683795e-10,
      1e-09,
      3.1622776601683795e-09,
      1e-08,
      3.162277660168379e-08,
      1e-07,
      3.162277660168379e-07,
      1e-06,
      3.162277660168379e-06,
      1e-05,
      3.1622776601683795e-05,
      0.0001,
      0.00031622776601683794,
      0.001,
      0.0031622776601683794,
      0.01,
      0.03162277660168379,
      0.1,
      0.31622776601683794,
      1.0,
      3.1622776601683795,
      10.0,
      31.622776601683793,
      100.0,
      316.22776601683796,
      1000.0,
      3162.2776601683795,
      10000.0,
      31622.776601683792,
      100000.0
    ]
  }
}