{
  "fold_id": 4,
  "test": {
    "accuracy": 0.83625,
    "confusion_matrix": [
      [
        341,
        59
      ],
      [
        72,
        328
      ]
    ],
    "f1_macro": 0.8362067483444847,
    "f1_micro": 0.83625,
    "f1_weighted": 0.8362067483444846,
    "per_class": {
      "y=0": {
        "accuracy": 0.83625,
        "confusion_matrix": [
          [
            328,
            72
          ],
          [
            59,
            341
          ]
        ],
        "f1": 0.8388683886838868,
        "precision": 0.8256658595641646,
        "recall": 0.8525
      },
      "y=1": {
        "accuracy": 0.83625,
        "confusion_matrix": [
          [
            341,
            59
          ],
          [
            72,
            328
          ]
        ],
        "f1": 0.8335451080050826,
        "precision": 0.8475452196382429,
        "recall": 0.82
      }
    },
    "precision_macro": 0.8366055396012038,
    "precision_micro": 0.83625,
    "precision_weighted": 0.8366055396012038,
    "recall_macro": 0.8362499999999999,
    "recall_micro": 0.83625,
    "recall_weighted": 0.83625
  },
  "train": {
    "accuracy": 0.9316770186335404,
    "confusion_matrix": [
      [
        1494,
        116
      ],
      [
        104,
        1506
      ]
    ],
    "f1_macro": 0.9316760697266734,
    "f1_micro": 0.9316770186335404,
    "f1_weighted": 0.9316760697266735,
    "per_class": {
      "y=0": {
        "accuracy": 0.9316770186335404,
        "confusion_matrix": [
          [
            1506,
            104
          ],
          [
            116,
            1494
          ]
        ],
        "f1": 0.9314214463840398,
        "precision": 0.934918648310388,
        "recall": 0.9279503105590062
      },
      "y=1": {
        "accuracy": 0.9316770186335404,
        "confusion_matrix": [
          [
            1494,
            116
          ],
          [
            104,
            1506
          ]
        ],
        "f1": 0.931930693069307,
        "precision": 0.9284833538840938,
        "recall": 0.9354037267080745
      }
    },
    "precision_macro": 0.9317010010972409,
    "precision_micro": 0.9316770186335404,
    "precision_weighted": 0.9317010010972409,
    "recall_macro": 0.9316770186335404,
    "recall_micro": 0.9316770186335404,
    "recall_weighted": 0.9316770186335404
  },
  "xval": {
    "mean_fit_time": [
      0.12481039762496948,
      0.14102870225906372,
      0.1458563208580017,
      0.10808098316192627,
      0.08313888311386108,
      0.0680614709854126,
      0.08005750179290771,
      0.08220499753952026,
      0.09137505292892456,
      0.07848572731018066,
      0.10951662063598633,
      0.14468926191329956,
      0.19189327955245972,
      0.2773458957672119,
      0.2447771430015564,
      0.22824251651763916,
      0.1293351650238037,
      0.16604703664779663,
      0.20382952690124512,
      0.158105731010437,
      0.1330527663230896,
      0.13570529222488403,
      0.15014177560806274,
      0.08532083034515381,
      0.07888460159301758,
      0.07306855916976929,
      0.08124947547912598,
      0.06617337465286255,
      0.07407265901565552,
      0.07446599006652832,
      0.06602740287780762
    ],
    "mean_score_time": [
      0.014985859394073486,
      0.00955730676651001,
      0.009856700897216797,
      0.005378007888793945,
      0.005353212356567383,
      0.005500078201293945,
      0.005808770656585693,
      0.005800008773803711,
      0.0069915056228637695,
      0.005237996578216553,
      0.008916735649108887,
      0.007859766483306885,
      0.00967329740524292,
      0.012731194496154785,
      0.009215295314788818,
      0.007454812526702881,
      0.006712496280670166,
      0.005876660346984863,
      0.00999748706817627,
      0.006136715412139893,
      0.006820321083068848,
      0.019501030445098877,
      0.008793413639068604,
      0.009100675582885742,
      0.009824216365814209,
      0.0061386823654174805,
      0.00602269172668457,
      0.007589459419250488,
      0.006254613399505615,
      0.012606561183929443,
      0.005549311637878418
    ],
    "mean_test_score": [
      0.8599378881987577,
      0.848136645962733,
      0.8571428571428571,
      0.8503105590062112,
      0.8487577639751552,
      0.8531055900621118,
      0.8552795031055901,
      0.8562111801242236,
      0.8596273291925466,
      0.8633540372670807,
      0.8577639751552795,
      0.8527950310559006,
      0.8537267080745342,
      0.8645962732919255,
      0.8580745341614907,
      0.8543478260869565,
      0.8645962732919255,
      0.8717391304347826,
      0.8816770186335404,
      0.8835403726708074,
      0.8767080745341614,
      0.8701863354037267,
      0.8518633540372671,
      0.8322981366459627,
      0.7102484472049689,
      0.5021739130434782,
      0.5,
      0.5,
      0.5,
      0.5,
      0.5
    ],
    "mean_train_score": [
      0.9674012379548026,
      0.9647997325194608,
      0.9728798738040534,
      0.9629505161002709,
      0.9722694694969308,
      0.9665585027948287,
      0.9665880799698227,
      0.9691492918624189,
      0.9800238332018791,
      0.97174608209595,
      0.9749597064572546,
      0.975880456774459,
      0.9795998936936319,
      0.9814696855389048,
      0.9811576249099825,
      0.9896527039539111,
      0.9860271424162409,
      0.9783627962004047,
      0.9604510304859231,
      0.9369590377559068,
      0.918320702307877,
      0.8937892219059702,
      0.8754732347999039,
      0.8324127259010322,
      0.7140933095572854,
      0.5047644971022941,
      0.5,
      0.5,
      0.5,
      0.5,
      0.5
    ],
    "param_clf__alpha": [
      1e-10,
      3.1622776601683795e-10,
      1e-09,
      3.1622776601683795e-09,
      1e-08,
      3.162277660168379e-08,
      1e-07,
      3.162277660168379e-07,
      1e-06,
      3.162277660168379e-06,
      1e-05,
      3.1622776601683795e-05,
      0.0001,
      0.00031622776601683794,
      0.001,
      0.0031622776601683794,
      0.01,
      0.03162277660168379,
      0.1,
      0.31622776601683794,
      1.0,
      3.1622776601683795,
      10.0,
      31.622776601683793,
      100.0,
      316.22776601683796,
      1000.0,
      3162.2776601683795,
      10000.0,
      31622.776601683792,
      100000.0
    ],
    "params": [
      {
        "clf__alpha": 1e-10
      },
      {
        "clf__alpha": 3.1622776601683795e-10
      },
      {
        "clf__alpha": 1e-09
      },
      {
        "clf__alpha": 3.1622776601683795e-09
      },
      {
        "clf__alpha": 1e-08
      },
      {
        "clf__alpha": 3.162277660168379e-08
      },
      {
        "clf__alpha": 1e-07
      },
      {
        "clf__alpha": 3.162277660168379e-07
      },
      {
        "clf__alpha": 1e-06
      },
      {
        "clf__alpha": 3.162277660168379e-06
      },
      {
        "clf__alpha": 1e-05
      },
      {
        "clf__alpha": 3.1622776601683795e-05
      },
      {
        "clf__alpha": 0.0001
      },
      {
        "clf__alpha": 0.00031622776601683794
      },
      {
        "clf__alpha": 0.001
      },
      {
        "clf__alpha": 0.0031622776601683794
      },
      {
        "clf__alpha": 0.01
      },
      {
        "clf__alpha": 0.03162277660168379
      },
      {
        "clf__alpha": 0.1
      },
      {
        "clf__alpha": 0.31622776601683794
      },
      {
        "clf__alpha": 1.0
      },
      {
        "clf__alpha": 3.1622776601683795
      },
      {
        "clf__alpha": 10.0
      },
      {
        "clf__alpha": 31.622776601683793
      },
      {
        "clf__alpha": 100.0
      },
      {
        "clf__alpha": 316.22776601683796
      },
      {
        "clf__alpha": 1000.0
      },
      {
        "clf__alpha": 3162.2776601683795
      },
      {
        "clf__alpha": 10000.0
      },
      {
        "clf__alpha": 31622.776601683792
      },
      {
        "clf__alpha": 100000.0
      }
    ],
    "rank_test_score": [
      9,
      23,
      13,
      21,
      22,
      18,
      15,
      14,
      10,
      8,
      12,
      19,
      17,
      6,
      11,
      16,
      6,
      4,
      2,
      1,
      3,
      5,
      20,
      24,
      25,
      26,
      27,
      27,
      27,
      27,
      27
    ],
    "split0_test_score": [
      0.837037037037037,
      0.8308641975308642,
      0.8382716049382716,
      0.8320987654320988,
      0.837037037037037,
      0.8209876543209876,
      0.8382716049382716,
      0.8320987654320988,
      0.8518518518518519,
      0.845679012345679,
      0.8567901234567902,
      0.8209876543209876,
      0.8333333333333334,
      0.845679012345679,
      0.845679012345679,
      0.828395061728395,
      0.8382716049382716,
      0.8641975308641975,
      0.8617283950617284,
      0.8604938271604938,
      0.8530864197530864,
      0.8333333333333334,
      0.8160493827160494,
      0.782716049382716,
      0.6962962962962963,
      0.5037037037037037,
      0.5,
      0.5,
      0.5,
      0.5,
      0.5
    ],
    "split0_train_score": [
      0.979253112033195,
      0.9547717842323652,
      0.9775933609958506,
      0.9639004149377594,
      0.9813278008298755,
      0.966804979253112,
      0.9838174273858921,
      0.9634854771784233,
      0.9842323651452282,
      0.9738589211618257,
      0.979253112033195,
      0.9784232365145228,
      0.970954356846473,
      0.9771784232365145,
      0.9800829875518672,
      0.9975103734439834,
      0.9900414937759336,
      0.9755186721991701,
      0.9560165975103735,
      0.9377593360995851,
      0.9157676348547718,
      0.9,
      0.8871369294605809,
      0.8369294605809129,
      0.7302904564315352,
      0.5058091286307054,
      0.5,
      0.5,
      0.5,
      0.5,
      0.5
    ],
    "split1_test_score": [
      0.8679012345679012,
      0.8580246913580247,
      0.8728395061728395,
      0.8641975308641975,
      0.8481481481481481,
      0.8703703703703703,
      0.8654320987654321,
      0.8740740740740741,
      0.8654320987654321,
      0.8777777777777778,
      0.8666666666666667,
      0.8728395061728395,
      0.8555555555555555,
      0.8777777777777778,
      0.8728395061728395,
      0.8802469135802469,
      0.8753086419753087,
      0.8814814814814815,
      0.9049382716049382,
      0.908641975308642,
      0.8987654320987655,
      0.9024691358024691,
      0.8703703703703703,
      0.8728395061728395,
      0.7074074074074074,
      0.5012345679012346,
      0.5,
      0.5,
      0.5,
      0.5,
      0.5
    ],
    "split1_train_score": [
      0.9651452282157676,
      0.9713692946058091,
      0.9701244813278008,
      0.9721991701244813,
      0.9755186721991701,
      0.9618257261410789,
      0.9734439834024896,
      0.9730290456431535,
      0.9788381742738589,
      0.9763485477178423,
      0.9817427385892116,
      0.9738589211618257,
      0.9817427385892116,
      0.9854771784232366,
      0.9804979253112033,
      0.9863070539419088,
      0.9842323651452282,
      0.9796680497925311,
      0.9605809128630706,
      0.9385892116182573,
      0.9186721991701244,
      0.8879668049792531,
      0.870954356846473,
      0.8385892116182573,
      0.7120331950207469,
      0.5062240663900415,
      0.5,
      0.5,
      0.5,
      0.5,
      0.5
    ],
    "split2_test_score": [
      0.87375,
      0.87125,
      0.8775,
      0.8675,
      0.865,
      0.87875,
      0.885,
      0.86375,
      0.8725,
      0.87875,
      0.8725,
      0.8675,
      0.87625,
      0.885,
      0.86875,
      0.85875,
      0.88625,
      0.88375,
      0.89125,
      0.9,
      0.8875,
      0.89875,
      0.88375,
      0.845,
      0.7275,
      0.50375,
      0.5,
      0.5,
      0.5,
      0.5,
      0.5
    ],
    "split2_train_score": [
      0.9673553719008264,
      0.9723140495867768,
      0.9694214876033058,
      0.9607438016528925,
      0.959504132231405,
      0.9619834710743802,
      0.9537190082644628,
      0.9772727272727273,
      0.9818181818181818,
      0.9768595041322314,
      0.9619834710743802,
      0.9727272727272728,
      0.9809917355371901,
      0.9797520661157024,
      0.9921487603305785,
      0.9933884297520661,
      0.9830578512396694,
      0.9793388429752066,
      0.9623966942148761,
      0.9314049586776859,
      0.915702479338843,
      0.8830578512396694,
      0.8603305785123967,
      0.8334710743801653,
      0.709504132231405,
      0.5049586776859504,
      0.5,
      0.5,
      0.5,
      0.5,
      0.5
    ],
    "split3_test_score": [
      0.86125,
      0.8325,
      0.84,
      0.8375,
      0.845,
      0.8425,
      0.8325,
      0.855,
      0.84875,
      0.85125,
      0.835,
      0.85,
      0.85,
      0.85,
      0.845,
      0.85,
      0.85875,
      0.8575,
      0.86875,
      0.865,
      0.8675,
      0.84625,
      0.8375,
      0.82875,
      0.71,
      0.5,
      0.5,
      0.5,
      0.5,
      0.5,
      0.5
    ],
    "split3_train_score": [
      0.9578512396694215,
      0.9607438016528925,
      0.9743801652892562,
      0.9549586776859504,
      0.9727272727272728,
      0.9756198347107438,
      0.9553719008264463,
      0.9628099173553719,
      0.9752066115702479,
      0.9599173553719008,
      0.9768595041322314,
      0.9785123966942149,
      0.9847107438016529,
      0.9834710743801653,
      0.971900826446281,
      0.981404958677686,
      0.9867768595041322,
      0.9789256198347107,
      0.9628099173553719,
      0.9400826446280992,
      0.9231404958677686,
      0.9041322314049587,
      0.8834710743801653,
      0.8206611570247934,
      0.7045454545454546,
      0.5020661157024794,
      0.5,
      0.5,
      0.5,
      0.5,
      0.5
    ],
    "std_fit_time": [
      0.057249642456254315,
      0.06921469225869807,
      0.04572420951227252,
      0.0812779900740585,
      0.0049221186157946285,
      0.008394295075713832,
      0.01843915512868229,
      0.01248211437761383,
      0.01141167433735112,
      0.014457850439558885,
      0.0421188210158656,
      0.05122189002435434,
      0.03556754000428504,
      0.11540809718710215,
      0.06388662088470724,
      0.05250719042303399,
      0.010914613683113488,
      0.034328777950255664,
      0.07059872160958702,
      0.03684388306743848,
      0.04375257839805028,
      0.04509776828128687,
      0.05733607035389866,
      0.016822644030385754,
      0.015061624544766509,
      0.008994361138265735,
      0.022799188757892594,
      0.007216577577944185,
      0.00541963181923775,
      0.0067492805338791925,
      0.011611181043067059
    ],
    "std_score_time": [
      0.00929428939403037,
      0.002167596737739635,
      0.006152072267452591,
      0.0009262521141041568,
      0.0003674248061389048,
      0.0005479529912831272,
      0.00035944352096059127,
      0.00046526138013803413,
      0.002166440101546711,
      0.00028223122813415927,
      0.0051734948027837855,
      0.0019533596018920132,
      0.003948144021579845,
      0.005932220895119232,
      0.0010745080911467642,
      0.0009233341862828057,
      0.0006897442565626706,
      0.0009718816377253589,
      0.005321358570940539,
      0.00018735129881024645,
      0.0007474844238481738,
      0.009813706644601518,
      0.00304086815588906,
      0.0024360277642417193,
      0.0014940399518982546,
      0.00034936866837940154,
      0.00027925187645263925,
      0.0019404522458766973,
      0.0007628545373919735,
      0.004553928302684009,
      0.0001713409098149674
    ],
    "std_test_score": [
      0.013989421358060663,
      0.01712064704503699,
      0.018097946959833387,
      0.015688435302019778,
      0.010183410342705554,
      0.022930460185772536,
      0.021144059521811125,
      0.015524362172658478,
      0.009708192854599253,
      0.015040316980620194,
      0.014243297433516412,
      0.020278845785260197,
      0.015327982602218378,
      0.017032108990597324,
      0.012816992224620904,
      0.018646067952203253,
      0.01811558874413157,
      0.011153366930042702,
      0.01733499797903785,
      0.021090835117551453,
      0.0176847497848342,
      0.030803557461542553,
      0.026696028516808117,
      0.032788376413670266,
      0.011178350829369521,
      0.0016130569439257725,
      0.0,
      0.0,
      0.0,
      0.0,
      0.0
    ],
    "std_train_score": [
      0.007693521138893075,
      0.007359253172666145,
      0.0033173957730243298,
      0.006228542745977626,
      0.007996469596609192,
      0.005601307365969534,
      0.012602276633565833,
      0.006190903774486781,
      0.0033742717516845925,
      0.006923016675416053,
      0.007688217808118562,
      0.002618301568586863,
      0.0051815804578871395,
      0.003218334396188896,
      0.0072125485205223145,
      0.006223288784849202,
      0.0026793193209634705,
      0.0016629917336003278,
      0.0026940220793247225,
      0.0033129540654649662,
      0.0030301487149901117,
      0.008582168509116887,
      0.010603389888246642,
      0.0070315243820204265,
      0.009731568766455336,
      0.0016233118780614327,
      0.0,
      0.0,
      0.0,
      0.0,
      0.0
    ]
  },
  "xval_grid": {
    "clf__alpha": [
      1e-10,
      3.1622776601683795e-10,
      1e-09,
      3.1622776601683795e-09,
      1e-08,
      3.162277660168379e-08,
      1e-07,
      3.162277660168379e-07,
      1e-06,
      3.162277660168379e-06,
      1e-05,
      3.1622776601683795e-05,
      0.0001,
      0.00031622776601683794,
      0.001,
      0.0031622776601683794,
      0.01,
      0.03162277660168379,
      0.1,
      0.31622776601683794,
      1.0,
      3.1622776601683795,
      10.0,
      31.622776601683793,
      100.0,
      316.22776601683796,
      1000.0,
      3162.2776601683795,
      10000.0,
      31622.776601683792,
      100000.0
    ]
  }
}