{
  "fold_id": 3,
  "test": {
    "accuracy": 0.88375,
    "confusion_matrix": [
      [
        341,
        59
      ],
      [
        34,
        366
      ]
    ],
    "f1_macro": 0.8836363636363637,
    "f1_micro": 0.88375,
    "f1_weighted": 0.8836363636363638,
    "per_class": {
      "y=0": {
        "accuracy": 0.88375,
        "confusion_matrix": [
          [
            366,
            34
          ],
          [
            59,
            341
          ]
        ],
        "f1": 0.88,
        "precision": 0.9093333333333333,
        "recall": 0.8525
      },
      "y=1": {
        "accuracy": 0.88375,
        "confusion_matrix": [
          [
            341,
            59
          ],
          [
            34,
            366
          ]
        ],
        "f1": 0.8872727272727273,
        "precision": 0.8611764705882353,
        "recall": 0.915
      }
    },
    "precision_macro": 0.8852549019607843,
    "precision_micro": 0.88375,
    "precision_weighted": 0.8852549019607844,
    "recall_macro": 0.88375,
    "recall_micro": 0.88375,
    "recall_weighted": 0.88375
  },
  "train": {
    "accuracy": 0.9062111801242236,
    "confusion_matrix": [
      [
        1472,
        138
      ],
      [
        164,
        1446
      ]
    ],
    "f1_macro": 0.9062050648724831,
    "f1_micro": 0.9062111801242236,
    "f1_weighted": 0.9062050648724832,
    "per_class": {
      "y=0": {
        "accuracy": 0.9062111801242236,
        "confusion_matrix": [
          [
            1446,
            164
          ],
          [
            138,
            1472
          ]
        ],
        "f1": 0.906962415280345,
        "precision": 0.8997555012224939,
        "recall": 0.9142857142857143
      },
      "y=1": {
        "accuracy": 0.9062111801242236,
        "confusion_matrix": [
          [
            1472,
            138
          ],
          [
            164,
            1446
          ]
        ],
        "f1": 0.9054477144646212,
        "precision": 0.9128787878787878,
        "recall": 0.8981366459627329
      }
    },
    "precision_macro": 0.9063171445506408,
    "precision_micro": 0.9062111801242236,
    "precision_weighted": 0.9063171445506408,
    "recall_macro": 0.9062111801242236,
    "recall_micro": 0.9062111801242236,
    "recall_weighted": 0.9062111801242236
  },
  "xval": {
    "mean_fit_time": [
      0.4263705015182495,
      0.3482862114906311,
      0.3498625159263611,
      0.3564407229423523,
      0.3551100492477417,
      0.3861629366874695,
      0.3620064854621887,
      0.34809643030166626,
      0.346973180770874,
      0.34795647859573364,
      0.36955422163009644,
      0.3624334931373596,
      0.34581100940704346,
      0.35792118310928345,
      0.3453218340873718,
      0.35113269090652466,
      0.35901737213134766,
      0.3640795946121216,
      0.3506166338920593,
      0.3572288751602173,
      0.35640692710876465,
      0.35778313875198364,
      0.35317450761795044,
      0.37537020444869995,
      0.3508545756340027,
      0.35803234577178955,
      0.3564085364341736,
      0.35460662841796875,
      0.35573744773864746,
      0.40529531240463257,
      0.34434211254119873,
      0.3617967367172241,
      0.34498804807662964,
      0.3577943444252014,
      0.3497427701950073,
      0.35953807830810547,
      0.3681510090827942,
      0.3479515314102173,
      0.3417850136756897,
      0.3480226397514343,
      0.35001349449157715,
      0.3536720275878906,
      0.3418310284614563,
      0.353348970413208,
      0.3557928800582886,
      0.34850311279296875,
      0.35397225618362427,
      0.3563801646232605
    ],
    "mean_score_time": [
      0.0043672919273376465,
      0.004305243492126465,
      0.004198431968688965,
      0.004544258117675781,
      0.004853665828704834,
      0.006821274757385254,
      0.004032731056213379,
      0.004160940647125244,
      0.00419086217880249,
      0.004352390766143799,
      0.004998326301574707,
      0.007242262363433838,
      0.004179477691650391,
      0.004124999046325684,
      0.004220485687255859,
      0.0043610334396362305,
      0.004943370819091797,
      0.006796360015869141,
      0.00434499979019165,
      0.004153192043304443,
      0.004238545894622803,
      0.004332423210144043,
      0.0048493146896362305,
      0.006885170936584473,
      0.0043912529945373535,
      0.0041429996490478516,
      0.004339754581451416,
      0.004378557205200195,
      0.0048171281814575195,
      0.007868051528930664,
      0.004027605056762695,
      0.004233717918395996,
      0.004207611083984375,
      0.004463016986846924,
      0.0048452019691467285,
      0.006862998008728027,
      0.0040697455406188965,
      0.00435250997543335,
      0.004217028617858887,
      0.004770100116729736,
      0.004882514476776123,
      0.007041573524475098,
      0.00427776575088501,
      0.004175841808319092,
      0.0045424699783325195,
      0.004431426525115967,
      0.005079507827758789,
      0.006812691688537598
    ],
    "mean_test_score": [
      0.820807453416149,
      0.8468944099378882,
      0.865527950310559,
      0.8608695652173913,
      0.8667701863354037,
      0.8763975155279503,
      0.8416149068322981,
      0.8574534161490683,
      0.8695652173913043,
      0.8736024844720497,
      0.872360248447205,
      0.8798136645962733,
      0.8509316770186336,
      0.8577639751552795,
      0.8677018633540373,
      0.8832298136645963,
      0.8748447204968944,
      0.8804347826086957,
      0.8537267080745342,
      0.8506211180124224,
      0.8704968944099379,
      0.8801242236024844,
      0.8748447204968944,
      0.8791925465838509,
      0.8450310559006211,
      0.8440993788819876,
      0.8677018633540373,
      0.8748447204968944,
      0.867080745341615,
      0.8677018633540373,
      0.8391304347826087,
      0.8400621118012422,
      0.8583850931677018,
      0.8583850931677018,
      0.8618012422360248,
      0.8652173913043478,
      0.8304347826086956,
      0.8422360248447205,
      0.8347826086956521,
      0.8453416149068324,
      0.8518633540372671,
      0.841304347826087,
      0.8059006211180124,
      0.8111801242236025,
      0.8173913043478261,
      0.8301242236024845,
      0.8304347826086956,
      0.822360248447205
    ],
    "mean_train_score": [
      0.853497822434073,
      0.8671791948149927,
      0.8846734508418779,
      0.891302595932924,
      0.9153196906827612,
      0.9602547066287165,
      0.8583703405233016,
      0.8743227255581084,
      0.8891306025170604,
      0.899276002194712,
      0.9168727066973011,
      0.9512409553856177,
      0.8705016974726518,
      0.8801232810946127,
      0.8933759987654744,
      0.9022825863310586,
      0.9165619320325091,
      0.9361235897260038,
      0.865628750728713,
      0.8748426837214087,
      0.892544408627962,
      0.9017566270018176,
      0.9107605191865847,
      0.9189379650903604,
      0.8703898185933268,
      0.8669605809128631,
      0.8800251191660093,
      0.8878810740372416,
      0.8972977607077948,
      0.900102877130414,
      0.8525792153904187,
      0.8688278008298755,
      0.8711219608381058,
      0.8698925791296594,
      0.8747432358286753,
      0.8838504337985666,
      0.8421354720345667,
      0.8606614999485616,
      0.8527819690682761,
      0.8662494427488769,
      0.8619088851548301,
      0.8559977367031308,
      0.815820788038819,
      0.8243158670827475,
      0.8277493913103117,
      0.8412057199684511,
      0.8399716230581941,
      0.8230903432666917
    ],
    "param_clf__alpha": [
      0.01,
      0.01,
      0.01,
      0.01,
      0.01,
      0.01,
      0.03162277660168379,
      0.03162277660168379,
      0.03162277660168379,
      0.03162277660168379,
      0.03162277660168379,
      0.03162277660168379,
      0.1,
      0.1,
      0.1,
      0.1,
      0.1,
      0.1,
      0.31622776601683794,
      0.31622776601683794,
      0.31622776601683794,
      0.31622776601683794,
      0.31622776601683794,
      0.31622776601683794,
      1.0,
      1.0,
      1.0,
      1.0,
      1.0,
      1.0,
      3.1622776601683795,
      3.1622776601683795,
      3.1622776601683795,
      3.1622776601683795,
      3.1622776601683795,
      3.1622776601683795,
      10.0,
      10.0,
      10.0,
      10.0,
      10.0,
      10.0,
      31.622776601683793,
      31.622776601683793,
      31.622776601683793,
      31.622776601683793,
      31.622776601683793,
      31.622776601683793
    ],
    "param_pca__n_components": [
      0.75,
      0.8,
      0.85,
      0.9,
      0.95,
      0.99,
      0.75,
      0.8,
      0.85,
      0.9,
      0.95,
      0.99,
      0.75,
      0.8,
      0.85,
      0.9,
      0.95,
      0.99,
      0.75,
      0.8,
      0.85,
      0.9,
      0.95,
      0.99,
      0.75,
      0.8,
      0.85,
      0.9,
      0.95,
      0.99,
      0.75,
      0.8,
      0.85,
      0.9,
      0.95,
      0.99,
      0.75,
      0.8,
      0.85,
      0.9,
      0.95,
      0.99,
      0.75,
      0.8,
      0.85,
      0.9,
      0.95,
      0.99
    ],
    "params": [
      {
        "clf__alpha": 0.01,
        "pca__n_components": 0.75
      },
      {
        "clf__alpha": 0.01,
        "pca__n_components": 0.8
      },
      {
        "clf__alpha": 0.01,
        "pca__n_components": 0.85
      },
      {
        "clf__alpha": 0.01,
        "pca__n_components": 0.9
      },
      {
        "clf__alpha": 0.01,
        "pca__n_components": 0.95
      },
      {
        "clf__alpha": 0.01,
        "pca__n_components": 0.99
      },
      {
        "clf__alpha": 0.03162277660168379,
        "pca__n_components": 0.75
      },
      {
        "clf__alpha": 0.03162277660168379,
        "pca__n_components": 0.8
      },
      {
        "clf__alpha": 0.03162277660168379,
        "pca__n_components": 0.85
      },
      {
        "clf__alpha": 0.03162277660168379,
        "pca__n_components": 0.9
      },
      {
        "clf__alpha": 0.03162277660168379,
        "pca__n_components": 0.95
      },
      {
        "clf__alpha": 0.03162277660168379,
        "pca__n_components": 0.99
      },
      {
        "clf__alpha": 0.1,
        "pca__n_components": 0.75
      },
      {
        "clf__alpha": 0.1,
        "pca__n_components": 0.8
      },
      {
        "clf__alpha": 0.1,
        "pca__n_components": 0.85
      },
      {
        "clf__alpha": 0.1,
        "pca__n_components": 0.9
      },
      {
        "clf__alpha": 0.1,
        "pca__n_components": 0.95
      },
      {
        "clf__alpha": 0.1,
        "pca__n_components": 0.99
      },
      {
        "clf__alpha": 0.31622776601683794,
        "pca__n_components": 0.75
      },
      {
        "clf__alpha": 0.31622776601683794,
        "pca__n_components": 0.8
      },
      {
        "clf__alpha": 0.31622776601683794,
        "pca__n_components": 0.85
      },
      {
        "clf__alpha": 0.31622776601683794,
        "pca__n_components": 0.9
      },
      {
        "clf__alpha": 0.31622776601683794,
        "pca__n_components": 0.95
      },
      {
        "clf__alpha": 0.31622776601683794,
        "pca__n_components": 0.99
      },
      {
        "clf__alpha": 1.0,
        "pca__n_components": 0.75
      },
      {
        "clf__alpha": 1.0,
        "pca__n_components": 0.8
      },
      {
        "clf__alpha": 1.0,
        "pca__n_components": 0.85
      },
      {
        "clf__alpha": 1.0,
        "pca__n_components": 0.9
      },
      {
        "clf__alpha": 1.0,
        "pca__n_components": 0.95
      },
      {
        "clf__alpha": 1.0,
        "pca__n_components": 0.99
      },
      {
        "clf__alpha": 3.1622776601683795,
        "pca__n_components": 0.75
      },
      {
        "clf__alpha": 3.1622776601683795,
        "pca__n_components": 0.8
      },
      {
        "clf__alpha": 3.1622776601683795,
        "pca__n_components": 0.85
      },
      {
        "clf__alpha": 3.1622776601683795,
        "pca__n_components": 0.9
      },
      {
        "clf__alpha": 3.1622776601683795,
        "pca__n_components": 0.95
      },
      {
        "clf__alpha": 3.1622776601683795,
        "pca__n_components": 0.99
      },
      {
        "clf__alpha": 10.0,
        "pca__n_components": 0.75
      },
      {
        "clf__alpha": 10.0,
        "pca__n_components": 0.8
      },
      {
        "clf__alpha": 10.0,
        "pca__n_components": 0.85
      },
      {
        "clf__alpha": 10.0,
        "pca__n_components": 0.9
      },
      {
        "clf__alpha": 10.0,
        "pca__n_components": 0.95
      },
      {
        "clf__alpha": 10.0,
        "pca__n_components": 0.99
      },
      {
        "clf__alpha": 31.622776601683793,
        "pca__n_components": 0.75
      },
      {
        "clf__alpha": 31.622776601683793,
        "pca__n_components": 0.8
      },
      {
        "clf__alpha": 31.622776601683793,
        "pca__n_components": 0.85
      },
      {
        "clf__alpha": 31.622776601683793,
        "pca__n_components": 0.9
      },
      {
        "clf__alpha": 31.622776601683793,
        "pca__n_components": 0.95
      },
      {
        "clf__alpha": 31.622776601683793,
        "pca__n_components": 0.99
      }
    ],
    "rank_test_score": [
      45,
      31,
      19,
      22,
      18,
      6,
      36,
      26,
      13,
      10,
      11,
      4,
      29,
      25,
      14,
      1,
      7,
      2,
      27,
      30,
      12,
      3,
      7,
      5,
      33,
      34,
      14,
      7,
      17,
      14,
      39,
      38,
      23,
      23,
      21,
      20,
      41,
      35,
      40,
      32,
      28,
      37,
      48,
      47,
      46,
      43,
      41,
      44
    ],
    "split0_test_score": [
      0.7864197530864198,
      0.817283950617284,
      0.8518518518518519,
      0.8382716049382716,
      0.8493827160493828,
      0.8592592592592593,
      0.8,
      0.8296296296296296,
      0.8469135802469135,
      0.8358024691358025,
      0.8530864197530864,
      0.8703703703703703,
      0.8111111111111111,
      0.837037037037037,
      0.8382716049382716,
      0.8555555555555555,
      0.8604938271604938,
      0.8629629629629629,
      0.8345679012345679,
      0.8160493827160494,
      0.8444444444444444,
      0.8592592592592593,
      0.8592592592592593,
      0.8407407407407408,
      0.8024691358024691,
      0.8098765432098766,
      0.8481481481481481,
      0.8506172839506173,
      0.8308641975308642,
      0.8530864197530864,
      0.837037037037037,
      0.7925925925925926,
      0.8518518518518519,
      0.8617283950617284,
      0.825925925925926,
      0.8567901234567902,
      0.828395061728395,
      0.8333333333333334,
      0.8012345679012346,
      0.8407407407407408,
      0.845679012345679,
      0.8049382716049382,
      0.7530864197530864,
      0.754320987654321,
      0.7592592592592593,
      0.8234567901234567,
      0.8246913580246914,
      0.8246913580246914
    ],
    "split0_train_score": [
      0.8522821576763485,
      0.870954356846473,
      0.895850622406639,
      0.9,
      0.9219917012448133,
      0.9688796680497925,
      0.875103734439834,
      0.8763485477178423,
      0.9,
      0.9099585062240664,
      0.9224066390041494,
      0.9593360995850623,
      0.8829875518672199,
      0.8858921161825726,
      0.9049792531120332,
      0.9116182572614108,
      0.9253112033195021,
      0.9385892116182573,
      0.8767634854771784,
      0.879253112033195,
      0.9004149377593361,
      0.9053941908713693,
      0.9145228215767635,
      0.9186721991701244,
      0.875103734439834,
      0.870954356846473,
      0.8954356846473029,
      0.8979253112033195,
      0.8908713692946059,
      0.9066390041493776,
      0.8692946058091287,
      0.8668049792531121,
      0.8846473029045643,
      0.8896265560165975,
      0.8767634854771784,
      0.8883817427385892,
      0.8626556016597511,
      0.8643153526970955,
      0.8531120331950207,
      0.8730290456431535,
      0.8730290456431535,
      0.8593360995850622,
      0.8136929460580913,
      0.8161825726141079,
      0.8199170124481328,
      0.846058091286307,
      0.8489626556016597,
      0.8419087136929461
    ],
    "split1_test_score": [
      0.854320987654321,
      0.8901234567901235,
      0.8938271604938272,
      0.8814814814814815,
      0.8851851851851852,
      0.9123456790123456,
      0.8679012345679012,
      0.8901234567901235,
      0.9,
      0.9024691358024691,
      0.891358024691358,
      0.9024691358024691,
      0.8901234567901235,
      0.8950617283950617,
      0.9061728395061729,
      0.908641975308642,
      0.8888888888888888,
      0.9123456790123456,
      0.8716049382716049,
      0.8802469135802469,
      0.9061728395061729,
      0.9074074074074074,
      0.891358024691358,
      0.9135802469135802,
      0.8814814814814815,
      0.8617283950617284,
      0.8962962962962963,
      0.8938271604938272,
      0.9037037037037037,
      0.8814814814814815,
      0.8432098765432099,
      0.8839506172839506,
      0.8679012345679012,
      0.8679012345679012,
      0.8925925925925926,
      0.8950617283950617,
      0.8382716049382716,
      0.8703703703703703,
      0.8530864197530864,
      0.8654320987654321,
      0.8814814814814815,
      0.8580246913580247,
      0.8160493827160494,
      0.845679012345679,
      0.8641975308641975,
      0.8666666666666667,
      0.8666666666666667,
      0.8197530864197531
    ],
    "split1_train_score": [
      0.8336099585062241,
      0.85850622406639,
      0.8680497925311204,
      0.8809128630705394,
      0.9074688796680498,
      0.9576763485477179,
      0.8273858921161825,
      0.8680497925311204,
      0.8784232365145228,
      0.8892116182572614,
      0.9103734439834025,
      0.941908713692946,
      0.8626556016597511,
      0.8734439834024896,
      0.8829875518672199,
      0.8979253112033195,
      0.9066390041493776,
      0.929045643153527,
      0.8518672199170124,
      0.8684647302904565,
      0.8825726141078838,
      0.8950207468879668,
      0.9016597510373444,
      0.9132780082987552,
      0.862240663900415,
      0.8468879668049792,
      0.8688796680497926,
      0.870954356846473,
      0.8933609958506225,
      0.8929460580912864,
      0.8273858921161825,
      0.85850622406639,
      0.8614107883817428,
      0.866390041493776,
      0.8746887966804979,
      0.8788381742738589,
      0.8244813278008298,
      0.8560165975103734,
      0.8398340248962656,
      0.8564315352697095,
      0.8547717842323651,
      0.8464730290456431,
      0.8008298755186722,
      0.8215767634854771,
      0.84149377593361,
      0.8410788381742739,
      0.8435684647302905,
      0.8095435684647303
    ],
    "split2_test_score": [
      0.8425,
      0.85625,
      0.885,
      0.8875,
      0.8925,
      0.89375,
      0.88125,
      0.88625,
      0.9,
      0.9175,
      0.90875,
      0.90875,
      0.87375,
      0.8725,
      0.89125,
      0.9225,
      0.90125,
      0.905,
      0.885,
      0.87875,
      0.895,
      0.91875,
      0.9175,
      0.91875,
      0.88625,
      0.885,
      0.895,
      0.9175,
      0.9075,
      0.8975,
      0.8675,
      0.8825,
      0.89,
      0.88625,
      0.905,
      0.89625,
      0.87,
      0.87875,
      0.88625,
      0.87875,
      0.87625,
      0.9,
      0.875,
      0.86,
      0.865,
      0.865,
      0.86625,
      0.8525
    ],
    "split2_train_score": [
      0.8545454545454545,
      0.8590909090909091,
      0.8838842975206611,
      0.8739669421487604,
      0.9016528925619834,
      0.9557851239669422,
      0.8516528925619835,
      0.8727272727272727,
      0.8797520661157024,
      0.8818181818181818,
      0.9041322314049587,
      0.9442148760330579,
      0.8632231404958678,
      0.8677685950413223,
      0.8830578512396694,
      0.8892561983471075,
      0.9020661157024793,
      0.9301652892561983,
      0.8541322314049586,
      0.8652892561983471,
      0.8801652892561983,
      0.8867768595041322,
      0.8962809917355372,
      0.9107438016528926,
      0.8623966942148761,
      0.8652892561983471,
      0.8657024793388429,
      0.8735537190082645,
      0.8876033057851239,
      0.8822314049586777,
      0.8454545454545455,
      0.8652892561983471,
      0.8644628099173554,
      0.8586776859504133,
      0.8632231404958678,
      0.8623966942148761,
      0.8107438016528926,
      0.8487603305785124,
      0.8330578512396695,
      0.8512396694214877,
      0.8483471074380166,
      0.846694214876033,
      0.8363636363636363,
      0.828099173553719,
      0.8359504132231405,
      0.8301652892561984,
      0.8252066115702479,
      0.7995867768595041
    ],
    "split3_test_score": [
      0.8,
      0.82375,
      0.83125,
      0.83625,
      0.84,
      0.84,
      0.8175,
      0.82375,
      0.83125,
      0.83875,
      0.83625,
      0.8375,
      0.82875,
      0.82625,
      0.835,
      0.84625,
      0.84875,
      0.84125,
      0.82375,
      0.8275,
      0.83625,
      0.835,
      0.83125,
      0.84375,
      0.81,
      0.82,
      0.83125,
      0.8375,
      0.82625,
      0.83875,
      0.80875,
      0.80125,
      0.82375,
      0.8175,
      0.82375,
      0.8125,
      0.785,
      0.78625,
      0.79875,
      0.79625,
      0.80375,
      0.8025,
      0.78,
      0.785,
      0.78125,
      0.765,
      0.76375,
      0.7925
    ],
    "split3_train_score": [
      0.8735537190082645,
      0.8801652892561983,
      0.8909090909090909,
      0.9103305785123967,
      0.9301652892561983,
      0.9586776859504132,
      0.8793388429752066,
      0.8801652892561983,
      0.8983471074380165,
      0.9161157024793388,
      0.9305785123966942,
      0.959504132231405,
      0.8731404958677685,
      0.8933884297520661,
      0.9024793388429752,
      0.9103305785123967,
      0.9322314049586777,
      0.9466942148760331,
      0.8797520661157024,
      0.8863636363636364,
      0.9070247933884298,
      0.9198347107438016,
      0.9305785123966942,
      0.9330578512396694,
      0.8818181818181818,
      0.8847107438016529,
      0.8900826446280992,
      0.9090909090909091,
      0.9173553719008265,
      0.9185950413223141,
      0.8681818181818182,
      0.8847107438016529,
      0.8739669421487604,
      0.8648760330578512,
      0.8842975206611571,
      0.9057851239669421,
      0.8706611570247934,
      0.8735537190082645,
      0.8851239669421488,
      0.8842975206611571,
      0.8714876033057851,
      0.8714876033057851,
      0.812396694214876,
      0.8314049586776859,
      0.8136363636363636,
      0.8475206611570248,
      0.8421487603305785,
      0.8413223140495868
    ],
    "std_fit_time": [
      0.07197428172409714,
      0.0017435874047805804,
      0.0029064856044905283,
      0.015383029748935309,
      0.003139088650783097,
      0.03471000648854482,
      0.017458518235845353,
      0.00220037692655482,
      0.003060089687332633,
      0.0038009681759270044,
      0.0142167059683629,
      0.004858508623805997,
      0.001348571299091925,
      0.017622111096370723,
      0.001848361384203284,
      0.005251805306397045,
      0.010251022683283938,
      0.009614720826400469,
      0.0053909234841070935,
      0.0031816937383877812,
      0.014203256239166608,
      0.007759703920860215,
      0.005198659063277836,
      0.025141354168410814,
      0.012278316377830554,
      0.014122225995098067,
      0.021053247220054933,
      0.00925558399184585,
      0.007805984750078698,
      0.052315675105970044,
      0.0029933108672844104,
      0.02254342222266803,
      0.007096193541675176,
      0.018630018017445536,
      0.003150230710184724,
      0.008288755877674052,
      0.02530268102161069,
      0.004647471556059269,
      0.0029614486336248243,
      0.003679616154832707,
      0.0033876354386834545,
      0.001970491831545873,
      0.003132657670205311,
      0.011543757965770379,
      0.010389641112041308,
      0.0044846271815028715,
      0.012753245010432582,
      0.0032334292027022082
    ],
    "std_score_time": [
      0.0005977014066912495,
      0.00017605694645377387,
      4.1775160242665524e-05,
      0.00041638216148908304,
      4.4432094446315824e-05,
      0.00030395210793952523,
      5.83776301490283e-05,
      0.00011517127441037798,
      4.2383010010633155e-05,
      4.7210603805430395e-05,
      0.00027349606680816346,
      0.0009121652952242313,
      0.00022975517833799384,
      5.7326283548252186e-05,
      3.071762248905313e-05,
      4.21901532239699e-05,
      0.00023406761458176452,
      0.0003399749874126999,
      0.00046917897129180333,
      6.204299554790399e-05,
      6.901865272377489e-05,
      6.0557967094840167e-05,
      7.801690183680363e-05,
      0.0005108222103505895,
      0.0005332893188054078,
      0.00011803465531036591,
      0.00021301878670215049,
      5.2040555593641647e-05,
      6.267745119518787e-05,
      0.0017942946192014266,
      7.017104740339283e-05,
      2.9693643777830776e-05,
      3.949481303866918e-05,
      0.0001621013490525917,
      8.677476247542405e-05,
      0.0003384599461613879,
      6.187005194475522e-05,
      0.0004155107933200285,
      4.957630437576335e-05,
      0.0006458228669409657,
      0.00013468912896713847,
      0.00040197261075378056,
      0.00033367740085982417,
      6.186545799925917e-05,
      0.0005229134883266326,
      9.950846834178375e-05,
      0.0003542461647306197,
      0.00035433775723148344
    ],
    "std_test_score": [
      0.028363253685255076,
      0.02907706484339147,
      0.02519177660720941,
      0.023708980583901015,
      0.022447290625158673,
      0.028335623907063057,
      0.03382646794226762,
      0.030845947966736422,
      0.030934499794825668,
      0.0367367293682947,
      0.02893434412030431,
      0.028362053543476824,
      0.03220044613432266,
      0.027544514049784596,
      0.03152208995458121,
      0.032832880831259986,
      0.021067179525047306,
      0.029399841580584674,
      0.025278063289596576,
      0.029169131571678886,
      0.030519921029560512,
      0.0342537534754621,
      0.03246407776752762,
      0.03701698360259423,
      0.03894757961285376,
      0.030540271232139864,
      0.0285853450145174,
      0.032199857257093706,
      0.038567215889778544,
      0.02302940070623449,
      0.020846019381956557,
      0.04327911721336239,
      0.024080598124860915,
      0.02517541033110389,
      0.03722389736955099,
      0.03422929891479613,
      0.030303318992870115,
      0.03645601336720957,
      0.036716127937683,
      0.03135139403031957,
      0.030873520334922962,
      0.040411068372558534,
      0.04561262160321812,
      0.04330221130128249,
      0.04784178442781379,
      0.041267305133141,
      0.04197647398202051,
      0.021220073227192902
    ],
    "std_train_score": [
      0.014145153700572424,
      0.00899348771000959,
      0.010497394317557366,
      0.01454459005633031,
      0.011328328720585649,
      0.005086797944167103,
      0.020765624943929754,
      0.004475898359145514,
      0.010070903588358346,
      0.014175319346956875,
      0.010283890838896489,
      0.008219914495806245,
      0.008327641144134625,
      0.010080859491032794,
      0.010390985387821705,
      0.00922764271520553,
      0.012556624931536337,
      0.0071312004520506875,
      0.012698425515412313,
      0.00842808541549689,
      0.011448865161993496,
      0.012347211202131203,
      0.013222976879876136,
      0.008640330458330006,
      0.008413192737385148,
      0.013571308818715901,
      0.012922832884825744,
      0.01614412168743485,
      0.011758899259228135,
      0.013741276043841254,
      0.01738037650636051,
      0.009687826505078379,
      0.009078545562688445,
      0.011754118184464764,
      0.007551180824882555,
      0.015708668635186673,
      0.025158975545385754,
      0.009257063562845119,
      0.020017516399391363,
      0.013166061810018557,
      0.010609781278603436,
      0.0103483840338404,
      0.012874278673902995,
      0.005878388276664464,
      0.011365392402532652,
      0.006806820089499266,
      0.008895524537004214,
      0.018857813801712277
    ]
  },
  "xval_grid": {
    "clf__alpha": [
      0.01,
      0.03162277660168379,
      0.1,
      0.31622776601683794,
      1.0,
      3.1622776601683795,
      10.0,
      31.622776601683793
    ],
    "pca__n_components": [
      0.75,
      0.8,
      0.85,
      0.9,
      0.95,
      0.99
    ]
  }
}