{
  "fold_id": 4,
  "test": {
    "accuracy": 0.84,
    "confusion_matrix": [
      [
        354,
        46
      ],
      [
        82,
        318
      ]
    ],
    "f1_macro": 0.8396753425687016,
    "f1_micro": 0.8399999999999999,
    "f1_weighted": 0.8396753425687016,
    "per_class": {
      "y=0": {
        "accuracy": 0.84,
        "confusion_matrix": [
          [
            318,
            82
          ],
          [
            46,
            354
          ]
        ],
        "f1": 0.8468899521531099,
        "precision": 0.8119266055045872,
        "recall": 0.885
      },
      "y=1": {
        "accuracy": 0.84,
        "confusion_matrix": [
          [
            354,
            46
          ],
          [
            82,
            318
          ]
        ],
        "f1": 0.8324607329842932,
        "precision": 0.8736263736263736,
        "recall": 0.795
      }
    },
    "precision_macro": 0.8427764895654803,
    "precision_micro": 0.84,
    "precision_weighted": 0.8427764895654803,
    "recall_macro": 0.8400000000000001,
    "recall_micro": 0.84,
    "recall_weighted": 0.84
  },
  "train": {
    "accuracy": 0.9239130434782609,
    "confusion_matrix": [
      [
        1501,
        109
      ],
      [
        136,
        1474
      ]
    ],
    "f1_macro": 0.9239076934443617,
    "f1_micro": 0.9239130434782609,
    "f1_weighted": 0.9239076934443617,
    "per_class": {
      "y=0": {
        "accuracy": 0.9239130434782609,
        "confusion_matrix": [
          [
            1474,
            136
          ],
          [
            109,
            1501
          ]
        ],
        "f1": 0.9245457345241761,
        "precision": 0.9169211973121564,
        "recall": 0.9322981366459627
      },
      "y=1": {
        "accuracy": 0.9239130434782609,
        "confusion_matrix": [
          [
            1501,
            109
          ],
          [
            136,
            1474
          ]
        ],
        "f1": 0.9232696523645474,
        "precision": 0.9311433986102338,
        "recall": 0.915527950310559
      }
    },
    "precision_macro": 0.924032297961195,
    "precision_micro": 0.9239130434782609,
    "precision_weighted": 0.9240322979611951,
    "recall_macro": 0.9239130434782609,
    "recall_micro": 0.9239130434782609,
    "recall_weighted": 0.9239130434782609
  },
  "xval": {
    "mean_fit_time": [
      0.35926663875579834,
      0.3592987060546875,
      0.35184597969055176,
      0.3519502282142639,
      0.3629244565963745,
      0.37157851457595825,
      0.3504238724708557,
      0.35501497983932495,
      0.34500133991241455,
      0.35340213775634766,
      0.35278844833374023,
      0.366693913936615,
      0.34911274909973145,
      0.34904128313064575,
      0.35620445013046265,
      0.3527359366416931,
      0.36634206771850586,
      0.4400019645690918,
      0.3794404864311218,
      0.35510361194610596,
      0.36063021421432495,
      0.35283362865448,
      0.35859203338623047,
      0.3613055348396301,
      0.3516491651535034,
      0.3515554666519165,
      0.35026949644088745,
      0.3622468113899231,
      0.3502437472343445,
      0.35780835151672363,
      0.3505396842956543,
      0.3467170000076294,
      0.3496010899543762,
      0.34719008207321167,
      0.35355323553085327,
      0.36844199895858765,
      0.34262311458587646,
      0.3524112105369568,
      0.34333693981170654,
      0.3486277461051941,
      0.362640380859375,
      0.3532010316848755,
      0.345741331577301,
      0.3468449115753174,
      0.3453846573829651,
      0.34844619035720825,
      0.3524150252342224,
      0.36287999153137207
    ],
    "mean_score_time": [
      0.004514098167419434,
      0.004562020301818848,
      0.0044097900390625,
      0.004448056221008301,
      0.004746198654174805,
      0.006986737251281738,
      0.0041239261627197266,
      0.004209280014038086,
      0.004185795783996582,
      0.004678547382354736,
      0.004877805709838867,
      0.007536590099334717,
      0.004275321960449219,
      0.004122495651245117,
      0.004274904727935791,
      0.004408419132232666,
      0.005352973937988281,
      0.009499549865722656,
      0.004055380821228027,
      0.0044211745262146,
      0.004309415817260742,
      0.0043528079986572266,
      0.00483548641204834,
      0.007074534893035889,
      0.0040471553802490234,
      0.004152357578277588,
      0.004188597202301025,
      0.004401683807373047,
      0.004776954650878906,
      0.007097125053405762,
      0.004286229610443115,
      0.004126548767089844,
      0.004225015640258789,
      0.004319727420806885,
      0.004842221736907959,
      0.007043957710266113,
      0.004067897796630859,
      0.004280030727386475,
      0.0043340325355529785,
      0.004360675811767578,
      0.004764676094055176,
      0.006921291351318359,
      0.004044711589813232,
      0.004336535930633545,
      0.004195749759674072,
      0.0044158101081848145,
      0.004831492900848389,
      0.006957292556762695
    ],
    "mean_test_score": [
      0.8453416149068324,
      0.867080745341615,
      0.8704968944099379,
      0.8695652173913043,
      0.8869565217391304,
      0.8714285714285714,
      0.8614906832298137,
      0.8711180124223602,
      0.8813664596273292,
      0.8860248447204969,
      0.8835403726708074,
      0.8838509316770187,
      0.8593167701863355,
      0.8754658385093168,
      0.8847826086956522,
      0.8850931677018633,
      0.893167701863354,
      0.8906832298136645,
      0.8571428571428571,
      0.8658385093167702,
      0.8773291925465838,
      0.8869565217391304,
      0.8891304347826087,
      0.8925465838509317,
      0.8627329192546583,
      0.860248447204969,
      0.8729813664596273,
      0.8866459627329193,
      0.882919254658385,
      0.8900621118012423,
      0.843167701863354,
      0.8586956521739131,
      0.8673913043478261,
      0.8680124223602484,
      0.865527950310559,
      0.8732919254658386,
      0.8549689440993788,
      0.8559006211180125,
      0.8540372670807453,
      0.8531055900621118,
      0.8515527950310559,
      0.863664596273292,
      0.8108695652173913,
      0.8114906832298137,
      0.827639751552795,
      0.8285714285714286,
      0.8338509316770186,
      0.8322981366459627
    ],
    "mean_train_score": [
      0.8623131065464148,
      0.8840711909742465,
      0.8824290147800143,
      0.9036328486677411,
      0.9279525736428792,
      0.9594252597647543,
      0.8723667741161139,
      0.8893333561949179,
      0.9019675251191661,
      0.9143959397825863,
      0.9303384657590618,
      0.9514492815747059,
      0.872159733891156,
      0.889023010184836,
      0.9037314392510545,
      0.9139797160591201,
      0.9279598607729501,
      0.939549398168787,
      0.8759854771784232,
      0.8907860670073042,
      0.8993835945269366,
      0.9057053941908714,
      0.9172949315867084,
      0.9267111896025513,
      0.8697875587256954,
      0.8849842255066698,
      0.8813843832516031,
      0.9005259593292411,
      0.9017686293336991,
      0.9115933952882274,
      0.8604493158670827,
      0.8722656116045403,
      0.8758881725592401,
      0.8828165186379068,
      0.8813706663008813,
      0.8927638798395117,
      0.8576784918212681,
      0.8714280203010871,
      0.8620134769040841,
      0.8654225678131752,
      0.8726595452830835,
      0.8706954494015979,
      0.8125334350673845,
      0.8149086108158157,
      0.8437930797983608,
      0.8441968725352355,
      0.8427557354000206,
      0.8388039676279964
    ],
    "param_clf__alpha": [
      0.01,
      0.01,
      0.01,
      0.01,
      0.01,
      0.01,
      0.03162277660168379,
      0.03162277660168379,
      0.03162277660168379,
      0.03162277660168379,
      0.03162277660168379,
      0.03162277660168379,
      0.1,
      0.1,
      0.1,
      0.1,
      0.1,
      0.1,
      0.31622776601683794,
      0.31622776601683794,
      0.31622776601683794,
      0.31622776601683794,
      0.31622776601683794,
      0.31622776601683794,
      1.0,
      1.0,
      1.0,
      1.0,
      1.0,
      1.0,
      3.1622776601683795,
      3.1622776601683795,
      3.1622776601683795,
      3.1622776601683795,
      3.1622776601683795,
      3.1622776601683795,
      10.0,
      10.0,
      10.0,
      10.0,
      10.0,
      10.0,
      31.622776601683793,
      31.622776601683793,
      31.622776601683793,
      31.622776601683793,
      31.622776601683793,
      31.622776601683793
    ],
    "param_pca__n_components": [
      0.75,
      0.8,
      0.85,
      0.9,
      0.95,
      0.99,
      0.75,
      0.8,
      0.85,
      0.9,
      0.95,
      0.99,
      0.75,
      0.8,
      0.85,
      0.9,
      0.95,
      0.99,
      0.75,
      0.8,
      0.85,
      0.9,
      0.95,
      0.99,
      0.75,
      0.8,
      0.85,
      0.9,
      0.95,
      0.99,
      0.75,
      0.8,
      0.85,
      0.9,
      0.95,
      0.99,
      0.75,
      0.8,
      0.85,
      0.9,
      0.95,
      0.99,
      0.75,
      0.8,
      0.85,
      0.9,
      0.95,
      0.99
    ],
    "params": [
      {
        "clf__alpha": 0.01,
        "pca__n_components": 0.75
      },
      {
        "clf__alpha": 0.01,
        "pca__n_components": 0.8
      },
      {
        "clf__alpha": 0.01,
        "pca__n_components": 0.85
      },
      {
        "clf__alpha": 0.01,
        "pca__n_components": 0.9
      },
      {
        "clf__alpha": 0.01,
        "pca__n_components": 0.95
      },
      {
        "clf__alpha": 0.01,
        "pca__n_components": 0.99
      },
      {
        "clf__alpha": 0.03162277660168379,
        "pca__n_components": 0.75
      },
      {
        "clf__alpha": 0.03162277660168379,
        "pca__n_components": 0.8
      },
      {
        "clf__alpha": 0.03162277660168379,
        "pca__n_components": 0.85
      },
      {
        "clf__alpha": 0.03162277660168379,
        "pca__n_components": 0.9
      },
      {
        "clf__alpha": 0.03162277660168379,
        "pca__n_components": 0.95
      },
      {
        "clf__alpha": 0.03162277660168379,
        "pca__n_components": 0.99
      },
      {
        "clf__alpha": 0.1,
        "pca__n_components": 0.75
      },
      {
        "clf__alpha": 0.1,
        "pca__n_components": 0.8
      },
      {
        "clf__alpha": 0.1,
        "pca__n_components": 0.85
      },
      {
        "clf__alpha": 0.1,
        "pca__n_components": 0.9
      },
      {
        "clf__alpha": 0.1,
        "pca__n_components": 0.95
      },
      {
        "clf__alpha": 0.1,
        "pca__n_components": 0.99
      },
      {
        "clf__alpha": 0.31622776601683794,
        "pca__n_components": 0.75
      },
      {
        "clf__alpha": 0.31622776601683794,
        "pca__n_components": 0.8
      },
      {
        "clf__alpha": 0.31622776601683794,
        "pca__n_components": 0.85
      },
      {
        "clf__alpha": 0.31622776601683794,
        "pca__n_components": 0.9
      },
      {
        "clf__alpha": 0.31622776601683794,
        "pca__n_components": 0.95
      },
      {
        "clf__alpha": 0.31622776601683794,
        "pca__n_components": 0.99
      },
      {
        "clf__alpha": 1.0,
        "pca__n_components": 0.75
      },
      {
        "clf__alpha": 1.0,
        "pca__n_components": 0.8
      },
      {
        "clf__alpha": 1.0,
        "pca__n_components": 0.85
      },
      {
        "clf__alpha": 1.0,
        "pca__n_components": 0.9
      },
      {
        "clf__alpha": 1.0,
        "pca__n_components": 0.95
      },
      {
        "clf__alpha": 1.0,
        "pca__n_components": 0.99
      },
      {
        "clf__alpha": 3.1622776601683795,
        "pca__n_components": 0.75
      },
      {
        "clf__alpha": 3.1622776601683795,
        "pca__n_components": 0.8
      },
      {
        "clf__alpha": 3.1622776601683795,
        "pca__n_components": 0.85
      },
      {
        "clf__alpha": 3.1622776601683795,
        "pca__n_components": 0.9
      },
      {
        "clf__alpha": 3.1622776601683795,
        "pca__n_components": 0.95
      },
      {
        "clf__alpha": 3.1622776601683795,
        "pca__n_components": 0.99
      },
      {
        "clf__alpha": 10.0,
        "pca__n_components": 0.75
      },
      {
        "clf__alpha": 10.0,
        "pca__n_components": 0.8
      },
      {
        "clf__alpha": 10.0,
        "pca__n_components": 0.85
      },
      {
        "clf__alpha": 10.0,
        "pca__n_components": 0.9
      },
      {
        "clf__alpha": 10.0,
        "pca__n_components": 0.95
      },
      {
        "clf__alpha": 10.0,
        "pca__n_components": 0.99
      },
      {
        "clf__alpha": 31.622776601683793,
        "pca__n_components": 0.75
      },
      {
        "clf__alpha": 31.622776601683793,
        "pca__n_components": 0.8
      },
      {
        "clf__alpha": 31.622776601683793,
        "pca__n_components": 0.85
      },
      {
        "clf__alpha": 31.622776601683793,
        "pca__n_components": 0.9
      },
      {
        "clf__alpha": 31.622776601683793,
        "pca__n_components": 0.95
      },
      {
        "clf__alpha": 31.622776601683793,
        "pca__n_components": 0.99
      }
    ],
    "rank_test_score": [
      41,
      26,
      22,
      23,
      6,
      20,
      31,
      21,
      15,
      9,
      13,
      12,
      33,
      17,
      11,
      10,
      1,
      3,
      35,
      27,
      16,
      6,
      5,
      2,
      30,
      32,
      19,
      8,
      14,
      4,
      42,
      34,
      25,
      24,
      28,
      18,
      37,
      36,
      38,
      39,
      40,
      29,
      48,
      47,
      46,
      45,
      43,
      44
    ],
    "split0_test_score": [
      0.8160493827160494,
      0.8518518518518519,
      0.8382716049382716,
      0.8395061728395061,
      0.8654320987654321,
      0.8592592592592593,
      0.8222222222222222,
      0.828395061728395,
      0.8580246913580247,
      0.8679012345679012,
      0.8666666666666667,
      0.8777777777777778,
      0.8222222222222222,
      0.854320987654321,
      0.8530864197530864,
      0.8555555555555555,
      0.8666666666666667,
      0.8777777777777778,
      0.8333333333333334,
      0.8296296296296296,
      0.845679012345679,
      0.8629629629629629,
      0.8580246913580247,
      0.8580246913580247,
      0.8382716049382716,
      0.8074074074074075,
      0.837037037037037,
      0.8617283950617284,
      0.854320987654321,
      0.8617283950617284,
      0.7753086419753087,
      0.808641975308642,
      0.8444444444444444,
      0.8382716049382716,
      0.828395061728395,
      0.8530864197530864,
      0.8271604938271605,
      0.8320987654320988,
      0.7938271604938272,
      0.7925925925925926,
      0.8037037037037037,
      0.8419753086419753,
      0.7592592592592593,
      0.7518518518518519,
      0.7802469135802469,
      0.7703703703703704,
      0.825925925925926,
      0.817283950617284
    ],
    "split0_train_score": [
      0.8879668049792531,
      0.8995850622406639,
      0.9087136929460581,
      0.9099585062240664,
      0.9340248962655602,
      0.9647302904564315,
      0.8896265560165975,
      0.8937759336099586,
      0.9103734439834025,
      0.9261410788381743,
      0.9385892116182573,
      0.9522821576763485,
      0.8867219917012448,
      0.8937759336099586,
      0.9145228215767635,
      0.9232365145228216,
      0.9369294605809129,
      0.9443983402489626,
      0.8917012448132781,
      0.8946058091286307,
      0.9058091286307054,
      0.9195020746887966,
      0.9278008298755187,
      0.9319502074688797,
      0.8846473029045643,
      0.8821576763485477,
      0.8929460580912864,
      0.9087136929460581,
      0.9145228215767635,
      0.9195020746887966,
      0.8568464730290456,
      0.8825726141078838,
      0.887551867219917,
      0.8941908713692946,
      0.8850622406639004,
      0.9029045643153527,
      0.8742738589211618,
      0.8780082987551867,
      0.8609958506224067,
      0.8589211618257261,
      0.8701244813278008,
      0.8780082987551867,
      0.8294605809128631,
      0.8232365145228215,
      0.8443983402489627,
      0.8307053941908714,
      0.8692946058091287,
      0.8514522821576763
    ],
    "split1_test_score": [
      0.8567901234567902,
      0.8962962962962963,
      0.891358024691358,
      0.8790123456790123,
      0.8987654320987655,
      0.8876543209876543,
      0.8814814814814815,
      0.8901234567901235,
      0.8901234567901235,
      0.9,
      0.891358024691358,
      0.891358024691358,
      0.8765432098765432,
      0.8864197530864197,
      0.9037037037037037,
      0.9012345679012346,
      0.9024691358024691,
      0.8987654320987655,
      0.8691358024691358,
      0.8901234567901235,
      0.9,
      0.9061728395061729,
      0.9061728395061729,
      0.9098765432098765,
      0.8728395061728395,
      0.8901234567901235,
      0.9012345679012346,
      0.9024691358024691,
      0.9,
      0.8925925925925926,
      0.8555555555555555,
      0.8790123456790123,
      0.8740740740740741,
      0.8740740740740741,
      0.8802469135802469,
      0.8814814814814815,
      0.8617283950617284,
      0.8679012345679012,
      0.8753086419753087,
      0.8728395061728395,
      0.8617283950617284,
      0.854320987654321,
      0.8123456790123457,
      0.8209876543209876,
      0.8493827160493828,
      0.8518518518518519,
      0.8296296296296296,
      0.8209876543209876
    ],
    "split1_train_score": [
      0.8311203319502075,
      0.8813278008298755,
      0.8825726141078838,
      0.9066390041493776,
      0.9240663900414938,
      0.9589211618257262,
      0.8614107883817428,
      0.8809128630705394,
      0.8941908713692946,
      0.9091286307053942,
      0.929045643153527,
      0.9506224066390041,
      0.8639004149377594,
      0.8804979253112033,
      0.8975103734439834,
      0.9091286307053942,
      0.9282157676348548,
      0.9394190871369295,
      0.862240663900415,
      0.8863070539419087,
      0.8975103734439834,
      0.9033195020746888,
      0.9136929460580913,
      0.9244813278008299,
      0.8697095435684647,
      0.8825726141078838,
      0.8871369294605809,
      0.9004149377593361,
      0.8975103734439834,
      0.9029045643153527,
      0.8580912863070539,
      0.870539419087137,
      0.8721991701244813,
      0.8721991701244813,
      0.8817427385892116,
      0.8925311203319503,
      0.85850622406639,
      0.8643153526970955,
      0.8680497925311204,
      0.8701244813278008,
      0.8643153526970955,
      0.8551867219917012,
      0.8029045643153527,
      0.808298755186722,
      0.8473029045643153,
      0.8518672199170124,
      0.8182572614107884,
      0.8107883817427386
    ],
    "split2_test_score": [
      0.865,
      0.87125,
      0.8975,
      0.9075,
      0.91625,
      0.895,
      0.8875,
      0.8925,
      0.895,
      0.895,
      0.90375,
      0.89875,
      0.87875,
      0.88125,
      0.89,
      0.9075,
      0.92375,
      0.9125,
      0.87125,
      0.87625,
      0.895,
      0.9125,
      0.91125,
      0.9125,
      0.89,
      0.88625,
      0.8875,
      0.9025,
      0.90625,
      0.9275,
      0.89125,
      0.8925,
      0.895,
      0.895,
      0.89875,
      0.905,
      0.88875,
      0.88375,
      0.90125,
      0.895,
      0.89,
      0.9075,
      0.86875,
      0.87,
      0.87125,
      0.87125,
      0.8725,
      0.8575
    ],
    "split2_train_score": [
      0.8623966942148761,
      0.8743801652892562,
      0.856198347107438,
      0.8962809917355372,
      0.9165289256198347,
      0.9524793388429752,
      0.8619834710743801,
      0.8921487603305785,
      0.8975206611570248,
      0.9020661157024793,
      0.9169421487603305,
      0.9429752066115702,
      0.8657024793388429,
      0.8917355371900827,
      0.8942148760330578,
      0.9020661157024793,
      0.9152892561983471,
      0.928099173553719,
      0.8673553719008265,
      0.8892561983471075,
      0.8946280991735537,
      0.9,
      0.9037190082644628,
      0.9165289256198347,
      0.8454545454545455,
      0.8884297520661157,
      0.8570247933884297,
      0.8809917355371901,
      0.8925619834710744,
      0.9041322314049587,
      0.8450413223140496,
      0.8661157024793389,
      0.8632231404958678,
      0.8648760330578512,
      0.8673553719008265,
      0.8768595041322315,
      0.8260330578512397,
      0.8698347107438017,
      0.8574380165289256,
      0.8471074380165289,
      0.8698347107438017,
      0.8611570247933884,
      0.7975206611570248,
      0.8090909090909091,
      0.8537190082644628,
      0.8553719008264463,
      0.856198347107438,
      0.8458677685950413
    ],
    "split3_test_score": [
      0.84375,
      0.84875,
      0.855,
      0.8525,
      0.8675,
      0.84375,
      0.855,
      0.87375,
      0.8825,
      0.88125,
      0.8725,
      0.8675,
      0.86,
      0.88,
      0.8925,
      0.87625,
      0.88,
      0.87375,
      0.855,
      0.8675,
      0.86875,
      0.86625,
      0.88125,
      0.89,
      0.85,
      0.8575,
      0.86625,
      0.88,
      0.87125,
      0.87875,
      0.85125,
      0.855,
      0.85625,
      0.865,
      0.855,
      0.85375,
      0.8425,
      0.84,
      0.84625,
      0.8525,
      0.85125,
      0.85125,
      0.80375,
      0.80375,
      0.81,
      0.82125,
      0.8075,
      0.83375
    ],
    "split3_train_score": [
      0.8677685950413223,
      0.8809917355371901,
      0.8822314049586777,
      0.9016528925619834,
      0.9371900826446281,
      0.9615702479338843,
      0.8764462809917355,
      0.890495867768595,
      0.9057851239669421,
      0.9202479338842975,
      0.9367768595041323,
      0.9599173553719008,
      0.8723140495867768,
      0.8900826446280992,
      0.9086776859504132,
      0.9214876033057852,
      0.9314049586776859,
      0.9462809917355371,
      0.8826446280991735,
      0.8929752066115703,
      0.8995867768595042,
      0.9,
      0.9239669421487603,
      0.9338842975206612,
      0.8793388429752066,
      0.8867768595041322,
      0.8884297520661157,
      0.9119834710743802,
      0.9024793388429752,
      0.9198347107438016,
      0.8818181818181818,
      0.8698347107438017,
      0.8805785123966943,
      0.9,
      0.8913223140495867,
      0.8987603305785123,
      0.871900826446281,
      0.8735537190082645,
      0.8615702479338843,
      0.8855371900826446,
      0.8863636363636364,
      0.8884297520661157,
      0.8202479338842975,
      0.8190082644628099,
      0.8297520661157025,
      0.8388429752066116,
      0.8272727272727273,
      0.8471074380165289
    ],
    "std_fit_time": [
      0.007270723183017303,
      0.0228037671704477,
      0.0013343066011676967,
      0.0018588687599685144,
      0.01308727554164147,
      0.003206524307789775,
      0.007757000315807536,
      0.010907429040660346,
      0.0010897914588505356,
      0.0042982558788257855,
      0.002447546880522312,
      0.006387709484236135,
      0.006001140113348547,
      0.003481673973500134,
      0.0137577892729066,
      0.0046864240294526354,
      0.015447226993068846,
      0.05362515522715777,
      0.006874682515692393,
      0.009181503385451612,
      0.010215913358772092,
      0.006934952789015207,
      0.005317797354090237,
      0.005114628781587838,
      0.010227703032859832,
      0.005888968644520723,
      0.007191596831088014,
      0.02694575673782133,
      0.003770739172103715,
      0.006490379966508297,
      0.010975971663078794,
      0.00398908443956141,
      0.005120206521435703,
      0.002487575172241588,
      0.012748836328323477,
      0.021641875134055473,
      0.0022407307761851615,
      0.016335193707272263,
      0.002656921950226549,
      0.005086239884360847,
      0.024002432432718285,
      0.003155090827082101,
      0.002469578993141602,
      0.002738181626587198,
      0.005626802019744351,
      0.0034513726667942924,
      0.004066390172925354,
      0.02043831930354346
    ],
    "std_score_time": [
      0.0006056461362527924,
      0.0008140494797046525,
      0.0003246757300903077,
      0.0002855433776381474,
      3.7936659057267654e-05,
      0.0004999906627500785,
      0.00014074846508917106,
      0.00022136487806659558,
      4.8296536957617794e-05,
      0.0004936329977419558,
      9.456911334002279e-05,
      0.0012874570751038735,
      0.000284380150379176,
      5.804084728583393e-05,
      0.00010133103407881493,
      0.00015044423695438348,
      0.0008537589053701337,
      0.0015504734063982674,
      7.479820097309081e-05,
      0.0005554399565905474,
      0.00014340882487625192,
      0.0001267859028225126,
      8.615797281672563e-05,
      0.00024131766915875936,
      7.105433678797689e-05,
      6.448602800857181e-05,
      2.56825479439331e-05,
      0.00017966568268207298,
      7.211107775978173e-05,
      0.00035809075678212295,
      0.00021060266116088984,
      3.50223827313122e-05,
      7.613265602019571e-05,
      7.914677668749967e-05,
      9.913632233192483e-05,
      0.0003765202529077419,
      6.817249815248252e-05,
      0.0001235520612585845,
      0.00017823653578079158,
      5.420733596923187e-05,
      8.8905597631914e-05,
      0.00038890349417552023,
      8.08842496619619e-05,
      0.00034720766681615783,
      4.772255478072512e-05,
      9.045893960864433e-05,
      3.111265398389755e-05,
      0.0004192441063683934
    ],
    "std_test_score": [
      0.018586392854857962,
      0.01899614128109836,
      0.02472908206441885,
      0.026069537675563862,
      0.02142123891998945,
      0.020781171348304695,
      0.025825636657804872,
      0.02579375869854245,
      0.014242361112024862,
      0.012547251235153156,
      0.014790289523760975,
      0.01204278442201956,
      0.022687629723501076,
      0.012492947265954363,
      0.019087693887537657,
      0.02071663760811403,
      0.02176867166421618,
      0.015742310183397536,
      0.015144943849985711,
      0.02248953850399388,
      0.021843631991947006,
      0.022501892409620063,
      0.021294226237179043,
      0.021814369672337703,
      0.020030263809401278,
      0.03311708962086433,
      0.024278243212354497,
      0.01710521352915288,
      0.021170576550748183,
      0.024157234524395603,
      0.04227981546190861,
      0.031958852085607274,
      0.019076353618571948,
      0.02037035738088526,
      0.026516069702469242,
      0.021546204989464263,
      0.022981882627354122,
      0.02083858402655892,
      0.039932811918197045,
      0.038147797767900546,
      0.031132939203185925,
      0.02561232546474328,
      0.03892964849140497,
      0.042223387817637154,
      0.0351247560787826,
      0.0381351692895751,
      0.023746879512297873,
      0.015722844290503843
    ],
    "std_train_score": [
      0.020376891150940997,
      0.009375572192820574,
      0.01856739011849868,
      0.005172546298294235,
      0.008182402332588531,
      0.004506779811270086,
      0.011644623792428043,
      0.0049979778949181845,
      0.006432038470769718,
      0.009380341587098766,
      0.008524382978689298,
      0.006018629932874295,
      0.008972118643173292,
      0.005092837644556863,
      0.008218666621912835,
      0.008768175284417916,
      0.007951920033805371,
      0.007070205370874028,
      0.011776334876435408,
      0.0032320588731425673,
      0.004106472478314881,
      0.008079974005192567,
      0.009383091409482508,
      0.006847473418660759,
      0.015034465812717666,
      0.0026874913768578333,
      0.014228413061718398,
      0.012040678781913302,
      0.008155819993135286,
      0.008087509512628948,
      0.013347054705888471,
      0.006183540702017808,
      0.009111158502877342,
      0.01465637271021684,
      0.008792467359904806,
      0.009896896568249441,
      0.019234082010763584,
      0.005023627556790816,
      0.0038276611384444915,
      0.014181134290176653,
      0.008243693069368828,
      0.013223893399316882,
      0.012885459740664728,
      0.006397206127988956,
      0.008780081594887681,
      0.009929749377355728,
      0.02076604331943586,
      0.016307190266345924
    ]
  },
  "xval_grid": {
    "clf__alpha": [
      0.01,
      0.03162277660168379,
      0.1,
      0.31622776601683794,
      1.0,
      3.1622776601683795,
      10.0,
      31.622776601683793
    ],
    "pca__n_components": [
      0.75,
      0.8,
      0.85,
      0.9,
      0.95,
      0.99
    ]
  }
}