{
  "fold_id": 0,
  "test": {
    "accuracy": 0.8716049382716049,
    "confusion_matrix": [
      [
        366,
        39
      ],
      [
        65,
        340
      ]
    ],
    "f1_macro": 0.871472512449956,
    "f1_micro": 0.8716049382716049,
    "f1_weighted": 0.8714725124499562,
    "per_class": {
      "y=0": {
        "accuracy": 0.8716049382716049,
        "confusion_matrix": [
          [
            340,
            65
          ],
          [
            39,
            366
          ]
        ],
        "f1": 0.8755980861244019,
        "precision": 0.8491879350348028,
        "recall": 0.9037037037037037
      },
      "y=1": {
        "accuracy": 0.8716049382716049,
        "confusion_matrix": [
          [
            366,
            39
          ],
          [
            65,
            340
          ]
        ],
        "f1": 0.8673469387755103,
        "precision": 0.8970976253298153,
        "recall": 0.8395061728395061
      }
    },
    "precision_macro": 0.8731427801823091,
    "precision_micro": 0.8716049382716049,
    "precision_weighted": 0.8731427801823091,
    "recall_macro": 0.8716049382716049,
    "recall_micro": 0.8716049382716049,
    "recall_weighted": 0.8716049382716049
  },
  "train": {
    "accuracy": 0.9317757009345794,
    "confusion_matrix": [
      [
        1505,
        100
      ],
      [
        119,
        1486
      ]
    ],
    "f1_macro": 0.9317733106399531,
    "f1_micro": 0.9317757009345794,
    "f1_weighted": 0.9317733106399531,
    "per_class": {
      "y=0": {
        "accuracy": 0.9317757009345794,
        "confusion_matrix": [
          [
            1486,
            119
          ],
          [
            100,
            1505
          ]
        ],
        "f1": 0.9321771446268194,
        "precision": 0.9267241379310345,
        "recall": 0.9376947040498442
      },
      "y=1": {
        "accuracy": 0.9317757009345794,
        "confusion_matrix": [
          [
            1505,
            100
          ],
          [
            119,
            1486
          ]
        ],
        "f1": 0.9313694766530868,
        "precision": 0.9369482976040353,
        "recall": 0.9258566978193147
      }
    },
    "precision_macro": 0.9318362177675349,
    "precision_micro": 0.9317757009345794,
    "precision_weighted": 0.9318362177675348,
    "recall_macro": 0.9317757009345795,
    "recall_micro": 0.9317757009345794,
    "recall_weighted": 0.9317757009345794
  },
  "xval": {
    "mean_fit_time": [
      0.4025242328643799,
      0.3665000796318054,
      0.3430839776992798,
      0.3541778326034546,
      0.35686159133911133,
      0.3787074685096741,
      0.3483395576477051,
      0.3433862328529358,
      0.35300934314727783,
      0.346311092376709,
      0.35474634170532227,
      0.3686237335205078,
      0.34134089946746826,
      0.35009443759918213,
      0.4048759937286377,
      0.35336047410964966,
      0.36261671781539917,
      0.4049023389816284,
      0.43779456615448,
      0.3727107048034668,
      0.34434252977371216,
      0.3642907738685608,
      0.35358870029449463,
      0.3647700548171997,
      0.3574630618095398,
      0.342856764793396,
      0.35548144578933716,
      0.35996299982070923,
      0.3478699326515198,
      0.3515040874481201,
      0.3499346375465393,
      0.3445431590080261,
      0.34140634536743164,
      0.34776896238327026,
      0.36434251070022583,
      0.3679947257041931,
      0.34192579984664917,
      0.3584327697753906,
      0.3414781093597412,
      0.34461742639541626,
      0.36326754093170166,
      0.3455238342285156,
      0.3423392176628113,
      0.34016263484954834,
      0.3545237183570862,
      0.3426780104637146,
      0.34487104415893555,
      0.43898117542266846
    ],
    "mean_score_time": [
      0.005714237689971924,
      0.0046114325523376465,
      0.0046242475509643555,
      0.004767417907714844,
      0.005267739295959473,
      0.007847785949707031,
      0.005372464656829834,
      0.005364775657653809,
      0.005939841270446777,
      0.005578517913818359,
      0.00617671012878418,
      0.009058475494384766,
      0.0052874088287353516,
      0.005976259708404541,
      0.006013989448547363,
      0.005536556243896484,
      0.006232738494873047,
      0.008215665817260742,
      0.006261467933654785,
      0.005381762981414795,
      0.0054190754890441895,
      0.005538284778594971,
      0.006166338920593262,
      0.008237957954406738,
      0.005240738391876221,
      0.005413532257080078,
      0.005742490291595459,
      0.005678772926330566,
      0.006112873554229736,
      0.008135020732879639,
      0.005619823932647705,
      0.005402982234954834,
      0.005478382110595703,
      0.005846977233886719,
      0.006207287311553955,
      0.008753716945648193,
      0.005270540714263916,
      0.0054094791412353516,
      0.005443990230560303,
      0.005604982376098633,
      0.006570160388946533,
      0.008283257484436035,
      0.00524979829788208,
      0.005359470844268799,
      0.0055315494537353516,
      0.005642056465148926,
      0.006220996379852295,
      0.009971916675567627
    ],
    "mean_test_score": [
      0.840809968847352,
      0.8492211838006231,
      0.8669781931464174,
      0.8853582554517134,
      0.8785046728971962,
      0.8738317757009346,
      0.8638629283489097,
      0.8607476635514019,
      0.8825545171339564,
      0.870404984423676,
      0.8922118380062305,
      0.8862928348909658,
      0.8570093457943925,
      0.856386292834891,
      0.8822429906542056,
      0.8809968847352025,
      0.8881619937694704,
      0.8943925233644859,
      0.8554517133956386,
      0.854828660436137,
      0.8772585669781932,
      0.888785046728972,
      0.878816199376947,
      0.8931464174454828,
      0.8582554517133957,
      0.8623052959501558,
      0.8654205607476636,
      0.8750778816199377,
      0.8719626168224299,
      0.8769470404984424,
      0.8439252336448598,
      0.8376947040498443,
      0.8607476635514019,
      0.8582554517133957,
      0.8582554517133957,
      0.8669781931464174,
      0.8417445482866044,
      0.8398753894080997,
      0.8345794392523365,
      0.8532710280373832,
      0.8451713395638629,
      0.8448598130841122,
      0.8227414330218068,
      0.8308411214953271,
      0.8161993769470405,
      0.8227414330218068,
      0.8152647975077881,
      0.8305295950155763
    ],
    "mean_train_score": [
      0.8712314142461964,
      0.8717505186721992,
      0.8905506569847856,
      0.9041519709543568,
      0.9149537517289072,
      0.954508990318119,
      0.8745556708160442,
      0.880583938450899,
      0.8973954011065006,
      0.9063269363762103,
      0.922836704702628,
      0.949321836099585,
      0.8756881051175657,
      0.883899550484094,
      0.900611600968188,
      0.9070552385892117,
      0.9200358748271094,
      0.9365460753803596,
      0.8773539073305671,
      0.8834841804979253,
      0.8945967323651451,
      0.9049805497925311,
      0.9114155428769017,
      0.9229447614107884,
      0.8707075553250345,
      0.8784975795297372,
      0.8833722337482711,
      0.8923111168741356,
      0.8957438623789764,
      0.8978021265560165,
      0.865612897648686,
      0.8619748443983403,
      0.8755934474412171,
      0.8769424273858921,
      0.8833730982019363,
      0.8776711618257261,
      0.8501434993084371,
      0.8528539937759336,
      0.8467297717842324,
      0.8659349066390042,
      0.8591796334716459,
      0.860954356846473,
      0.8293987724757953,
      0.8264881569847857,
      0.8369497752420471,
      0.8264920470262794,
      0.8319644709543569,
      0.83832295988935
    ],
    "param_clf__alpha": [
      0.01,
      0.01,
      0.01,
      0.01,
      0.01,
      0.01,
      0.03162277660168379,
      0.03162277660168379,
      0.03162277660168379,
      0.03162277660168379,
      0.03162277660168379,
      0.03162277660168379,
      0.1,
      0.1,
      0.1,
      0.1,
      0.1,
      0.1,
      0.31622776601683794,
      0.31622776601683794,
      0.31622776601683794,
      0.31622776601683794,
      0.31622776601683794,
      0.31622776601683794,
      1.0,
      1.0,
      1.0,
      1.0,
      1.0,
      1.0,
      3.1622776601683795,
      3.1622776601683795,
      3.1622776601683795,
      3.1622776601683795,
      3.1622776601683795,
      3.1622776601683795,
      10.0,
      10.0,
      10.0,
      10.0,
      10.0,
      10.0,
      31.622776601683793,
      31.622776601683793,
      31.622776601683793,
      31.622776601683793,
      31.622776601683793,
      31.622776601683793
    ],
    "param_pca__n_components": [
      0.75,
      0.8,
      0.85,
      0.9,
      0.95,
      0.99,
      0.75,
      0.8,
      0.85,
      0.9,
      0.95,
      0.99,
      0.75,
      0.8,
      0.85,
      0.9,
      0.95,
      0.99,
      0.75,
      0.8,
      0.85,
      0.9,
      0.95,
      0.99,
      0.75,
      0.8,
      0.85,
      0.9,
      0.95,
      0.99,
      0.75,
      0.8,
      0.85,
      0.9,
      0.95,
      0.99,
      0.75,
      0.8,
      0.85,
      0.9,
      0.95,
      0.99,
      0.75,
      0.8,
      0.85,
      0.9,
      0.95,
      0.99
    ],
    "params": [
      {
        "clf__alpha": 0.01,
        "pca__n_components": 0.75
      },
      {
        "clf__alpha": 0.01,
        "pca__n_components": 0.8
      },
      {
        "clf__alpha": 0.01,
        "pca__n_components": 0.85
      },
      {
        "clf__alpha": 0.01,
        "pca__n_components": 0.9
      },
      {
        "clf__alpha": 0.01,
        "pca__n_components": 0.95
      },
      {
        "clf__alpha": 0.01,
        "pca__n_components": 0.99
      },
      {
        "clf__alpha": 0.03162277660168379,
        "pca__n_components": 0.75
      },
      {
        "clf__alpha": 0.03162277660168379,
        "pca__n_components": 0.8
      },
      {
        "clf__alpha": 0.03162277660168379,
        "pca__n_components": 0.85
      },
      {
        "clf__alpha": 0.03162277660168379,
        "pca__n_components": 0.9
      },
      {
        "clf__alpha": 0.03162277660168379,
        "pca__n_components": 0.95
      },
      {
        "clf__alpha": 0.03162277660168379,
        "pca__n_components": 0.99
      },
      {
        "clf__alpha": 0.1,
        "pca__n_components": 0.75
      },
      {
        "clf__alpha": 0.1,
        "pca__n_components": 0.8
      },
      {
        "clf__alpha": 0.1,
        "pca__n_components": 0.85
      },
      {
        "clf__alpha": 0.1,
        "pca__n_components": 0.9
      },
      {
        "clf__alpha": 0.1,
        "pca__n_components": 0.95
      },
      {
        "clf__alpha": 0.1,
        "pca__n_components": 0.99
      },
      {
        "clf__alpha": 0.31622776601683794,
        "pca__n_components": 0.75
      },
      {
        "clf__alpha": 0.31622776601683794,
        "pca__n_components": 0.8
      },
      {
        "clf__alpha": 0.31622776601683794,
        "pca__n_components": 0.85
      },
      {
        "clf__alpha": 0.31622776601683794,
        "pca__n_components": 0.9
      },
      {
        "clf__alpha": 0.31622776601683794,
        "pca__n_components": 0.95
      },
      {
        "clf__alpha": 0.31622776601683794,
        "pca__n_components": 0.99
      },
      {
        "clf__alpha": 1.0,
        "pca__n_components": 0.75
      },
      {
        "clf__alpha": 1.0,
        "pca__n_components": 0.8
      },
      {
        "clf__alpha": 1.0,
        "pca__n_components": 0.85
      },
      {
        "clf__alpha": 1.0,
        "pca__n_components": 0.9
      },
      {
        "clf__alpha": 1.0,
        "pca__n_components": 0.95
      },
      {
        "clf__alpha": 1.0,
        "pca__n_components": 0.99
      },
      {
        "clf__alpha": 3.1622776601683795,
        "pca__n_components": 0.75
      },
      {
        "clf__alpha": 3.1622776601683795,
        "pca__n_components": 0.8
      },
      {
        "clf__alpha": 3.1622776601683795,
        "pca__n_components": 0.85
      },
      {
        "clf__alpha": 3.1622776601683795,
        "pca__n_components": 0.9
      },
      {
        "clf__alpha": 3.1622776601683795,
        "pca__n_components": 0.95
      },
      {
        "clf__alpha": 3.1622776601683795,
        "pca__n_components": 0.99
      },
      {
        "clf__alpha": 10.0,
        "pca__n_components": 0.75
      },
      {
        "clf__alpha": 10.0,
        "pca__n_components": 0.8
      },
      {
        "clf__alpha": 10.0,
        "pca__n_components": 0.85
      },
      {
        "clf__alpha": 10.0,
        "pca__n_components": 0.9
      },
      {
        "clf__alpha": 10.0,
        "pca__n_components": 0.95
      },
      {
        "clf__alpha": 10.0,
        "pca__n_components": 0.99
      },
      {
        "clf__alpha": 31.622776601683793,
        "pca__n_components": 0.75
      },
      {
        "clf__alpha": 31.622776601683793,
        "pca__n_components": 0.8
      },
      {
        "clf__alpha": 31.622776601683793,
        "pca__n_components": 0.85
      },
      {
        "clf__alpha": 31.622776601683793,
        "pca__n_components": 0.9
      },
      {
        "clf__alpha": 31.622776601683793,
        "pca__n_components": 0.95
      },
      {
        "clf__alpha": 31.622776601683793,
        "pca__n_components": 0.99
      }
    ],
    "rank_test_score": [
      39,
      34,
      19,
      7,
      12,
      16,
      22,
      24,
      8,
      18,
      3,
      6,
      29,
      30,
      9,
      10,
      5,
      1,
      31,
      32,
      13,
      4,
      11,
      2,
      26,
      23,
      21,
      15,
      17,
      14,
      37,
      41,
      24,
      26,
      26,
      19,
      38,
      40,
      42,
      33,
      35,
      36,
      45,
      43,
      47,
      45,
      48,
      44
    ],
    "split0_test_score": [
      0.8765432098765432,
      0.8716049382716049,
      0.8888888888888888,
      0.9135802469135802,
      0.8864197530864197,
      0.891358024691358,
      0.8864197530864197,
      0.8827160493827161,
      0.9185185185185185,
      0.8950617283950617,
      0.908641975308642,
      0.9135802469135802,
      0.8777777777777778,
      0.8716049382716049,
      0.8975308641975308,
      0.9111111111111111,
      0.908641975308642,
      0.9123456790123456,
      0.8740740740740741,
      0.8802469135802469,
      0.9061728395061729,
      0.9160493827160494,
      0.8962962962962963,
      0.9111111111111111,
      0.8876543209876543,
      0.891358024691358,
      0.8740740740740741,
      0.8950617283950617,
      0.8962962962962963,
      0.8679012345679012,
      0.8395061728395061,
      0.8308641975308642,
      0.8765432098765432,
      0.8691358024691358,
      0.8654320987654321,
      0.8950617283950617,
      0.828395061728395,
      0.8530864197530864,
      0.8382716049382716,
      0.8691358024691358,
      0.8407407407407408,
      0.8666666666666667,
      0.8530864197530864,
      0.8518518518518519,
      0.808641975308642,
      0.8555555555555555,
      0.7975308641975308,
      0.8641975308641975
    ],
    "split0_train_score": [
      0.8670833333333333,
      0.8675,
      0.8908333333333334,
      0.9025,
      0.9154166666666667,
      0.9466666666666667,
      0.8716666666666667,
      0.8829166666666667,
      0.8891666666666667,
      0.8991666666666667,
      0.9145833333333333,
      0.94625,
      0.8633333333333333,
      0.8791666666666667,
      0.8895833333333333,
      0.90125,
      0.9145833333333333,
      0.9304166666666667,
      0.8691666666666666,
      0.87875,
      0.89125,
      0.90125,
      0.9045833333333333,
      0.91875,
      0.8620833333333333,
      0.8716666666666667,
      0.8708333333333333,
      0.8879166666666667,
      0.8970833333333333,
      0.88125,
      0.8508333333333333,
      0.84375,
      0.8720833333333333,
      0.8725,
      0.8716666666666667,
      0.875,
      0.8383333333333334,
      0.85125,
      0.8475,
      0.86125,
      0.8491666666666666,
      0.86,
      0.8404166666666667,
      0.8345833333333333,
      0.8195833333333333,
      0.8383333333333334,
      0.81375,
      0.8433333333333334
    ],
    "split1_test_score": [
      0.83,
      0.84625,
      0.88125,
      0.9125,
      0.9175,
      0.90125,
      0.8775,
      0.86375,
      0.89375,
      0.87375,
      0.93,
      0.9125,
      0.88125,
      0.8725,
      0.91125,
      0.89,
      0.9175,
      0.92625,
      0.8825,
      0.87,
      0.88,
      0.905,
      0.9025,
      0.925,
      0.8875,
      0.88625,
      0.88625,
      0.89625,
      0.9,
      0.91125,
      0.895,
      0.88875,
      0.8975,
      0.90125,
      0.8975,
      0.89875,
      0.9,
      0.88625,
      0.87,
      0.9,
      0.88375,
      0.88,
      0.86125,
      0.8625,
      0.85125,
      0.85375,
      0.855,
      0.845
    ],
    "split1_train_score": [
      0.8568464730290456,
      0.866390041493776,
      0.8630705394190872,
      0.8854771784232365,
      0.9045643153526971,
      0.9489626556016597,
      0.8692946058091287,
      0.8742738589211618,
      0.8846473029045643,
      0.8900414937759336,
      0.9107883817427386,
      0.9439834024896265,
      0.8734439834024896,
      0.8767634854771784,
      0.8941908713692946,
      0.8850622406639004,
      0.9058091286307054,
      0.9265560165975104,
      0.870539419087137,
      0.8838174273858921,
      0.8755186721991701,
      0.8925311203319503,
      0.8966804979253112,
      0.9145228215767635,
      0.8576763485477178,
      0.879253112033195,
      0.8771784232365145,
      0.8738589211618257,
      0.8854771784232365,
      0.8929460580912864,
      0.8564315352697095,
      0.8659751037344399,
      0.8626556016597511,
      0.870954356846473,
      0.8692946058091287,
      0.8692946058091287,
      0.8473029045643153,
      0.8435684647302905,
      0.8323651452282158,
      0.8522821576763485,
      0.8452282157676348,
      0.846058091286307,
      0.8344398340248963,
      0.8078838174273859,
      0.8307053941908714,
      0.8053941908713693,
      0.8045643153526971,
      0.799585062240664
    ],
    "split2_test_score": [
      0.8575,
      0.85375,
      0.8725,
      0.87125,
      0.875,
      0.8525,
      0.85375,
      0.8675,
      0.86875,
      0.86375,
      0.87625,
      0.86625,
      0.8425,
      0.85375,
      0.87125,
      0.87625,
      0.8775,
      0.8875,
      0.85375,
      0.86125,
      0.88625,
      0.89125,
      0.88125,
      0.8925,
      0.8425,
      0.84875,
      0.875,
      0.8725,
      0.85625,
      0.88375,
      0.8475,
      0.8325,
      0.86625,
      0.845,
      0.86375,
      0.84875,
      0.845,
      0.825,
      0.83125,
      0.85125,
      0.855,
      0.8325,
      0.795,
      0.83125,
      0.83375,
      0.8,
      0.83625,
      0.84
    ],
    "split2_train_score": [
      0.8755186721991701,
      0.8676348547717843,
      0.8962655601659751,
      0.9058091286307054,
      0.9136929460580913,
      0.966804979253112,
      0.8771784232365145,
      0.8717842323651452,
      0.9020746887966805,
      0.9095435684647303,
      0.9265560165975104,
      0.9551867219917013,
      0.8780082987551867,
      0.8817427385892116,
      0.9070539419087137,
      0.9161825726141078,
      0.9244813278008299,
      0.9414937759336099,
      0.879253112033195,
      0.8771784232365145,
      0.9029045643153527,
      0.9053941908713693,
      0.9174273858921161,
      0.924896265560166,
      0.8746887966804979,
      0.8759336099585062,
      0.8883817427385892,
      0.895850622406639,
      0.8871369294605809,
      0.9099585062240664,
      0.8680497925311204,
      0.8506224066390041,
      0.8759336099585062,
      0.8672199170124482,
      0.8904564315352697,
      0.875103734439834,
      0.8601659751037345,
      0.84149377593361,
      0.8510373443983402,
      0.8721991701244813,
      0.875103734439834,
      0.8510373443983402,
      0.8132780082987552,
      0.8402489626556017,
      0.8439834024896266,
      0.8215767634854771,
      0.8464730290456431,
      0.8539419087136929
    ],
    "split3_test_score": [
      0.79875,
      0.825,
      0.825,
      0.84375,
      0.835,
      0.85,
      0.8375,
      0.82875,
      0.84875,
      0.84875,
      0.85375,
      0.8525,
      0.82625,
      0.8275,
      0.84875,
      0.84625,
      0.84875,
      0.85125,
      0.81125,
      0.8075,
      0.83625,
      0.8425,
      0.835,
      0.84375,
      0.815,
      0.8225,
      0.82625,
      0.83625,
      0.835,
      0.845,
      0.79375,
      0.79875,
      0.8025,
      0.8175,
      0.80625,
      0.825,
      0.79375,
      0.795,
      0.79875,
      0.7925,
      0.80125,
      0.8,
      0.78125,
      0.7775,
      0.77125,
      0.78125,
      0.7725,
      0.7725
    ],
    "split3_train_score": [
      0.8854771784232365,
      0.8854771784232365,
      0.9120331950207469,
      0.9228215767634855,
      0.9261410788381743,
      0.9556016597510374,
      0.8800829875518672,
      0.8933609958506225,
      0.9136929460580913,
      0.9265560165975104,
      0.9394190871369295,
      0.9518672199170124,
      0.8879668049792531,
      0.8979253112033195,
      0.9116182572614108,
      0.9257261410788382,
      0.9352697095435685,
      0.9477178423236514,
      0.8904564315352697,
      0.8941908713692946,
      0.9087136929460581,
      0.9207468879668049,
      0.9269709543568465,
      0.9336099585062241,
      0.8883817427385892,
      0.8871369294605809,
      0.8970954356846473,
      0.9116182572614108,
      0.9132780082987552,
      0.9070539419087137,
      0.8871369294605809,
      0.887551867219917,
      0.8917012448132781,
      0.8970954356846473,
      0.9020746887966805,
      0.891286307053942,
      0.8547717842323651,
      0.875103734439834,
      0.8560165975103734,
      0.8780082987551867,
      0.8672199170124482,
      0.8867219917012448,
      0.8294605809128631,
      0.8232365145228215,
      0.8535269709543568,
      0.8406639004149378,
      0.8630705394190872,
      0.8564315352697095
    ],
    "std_fit_time": [
      0.0567023357407888,
      0.03381551861150136,
      0.004872090543189534,
      0.008440234170881496,
      0.004053548877387615,
      0.02461563508914236,
      0.0028513817863737873,
      0.002628272495399884,
      0.021253210006439916,
      0.005205099165867108,
      0.003928295834097884,
      0.008742728181272336,
      0.003969321917675338,
      0.003945551288869812,
      0.048097989363872176,
      0.010728676319754398,
      0.030899087481899644,
      0.03380643353353914,
      0.07212916997878192,
      0.03773358164608725,
      0.007038909500221136,
      0.03327128892359836,
      0.016762982857717292,
      0.00782260532933563,
      0.02812397014225311,
      0.00425620642646247,
      0.015928034280832358,
      0.025511762387266452,
      0.010813681470153323,
      0.005983925577889161,
      0.018313761415429862,
      0.004589777425281469,
      0.004789739656464827,
      0.01014534716476582,
      0.03275675893353048,
      0.021448126762172753,
      0.0036349973199981318,
      0.03541438405712391,
      0.00314360593856983,
      0.007787776906449989,
      0.023290435094080228,
      0.0032194315175454145,
      0.007219058135583408,
      0.006805775966995899,
      0.025652917988305973,
      0.005963420352845539,
      0.001989067064297913,
      0.09223853273042201
    ],
    "std_score_time": [
      0.001349540861241764,
      0.00017191759953445683,
      5.0985494003474426e-05,
      0.00011795829979470718,
      9.626923299746837e-05,
      0.0003242507138640742,
      0.00023322318032392657,
      7.236985763723032e-05,
      0.0006139286860673146,
      5.7396023352313075e-05,
      0.00014385662205567562,
      0.0012275733553727302,
      0.00014978731432570676,
      0.0011731420814207018,
      0.0009626139059148982,
      6.774780448469959e-05,
      0.00028598311047794414,
      0.0003658445504209871,
      0.001635175070293902,
      6.14681695383886e-05,
      5.732426937227798e-05,
      8.79774854374919e-05,
      0.00018976085789961897,
      0.0004898082830485668,
      0.00010145143032940773,
      0.00012978076155182084,
      0.00046352282738448857,
      0.00015443309259549422,
      0.0001025363963050059,
      0.00039919947744907256,
      0.0004946839761429041,
      0.00013500254673809854,
      6.31770996520094e-05,
      0.0006079041457486492,
      0.00013770302298360656,
      0.0010337805585062434,
      0.00013785649800591963,
      0.00012304350694407665,
      8.386564150923085e-05,
      0.00015697568690971033,
      0.0007320466571923741,
      0.0004016199887371011,
      0.00017436732432155727,
      7.550313535777008e-05,
      0.00013271361992015716,
      0.000187551070172764,
      0.00016470888099468704,
      0.0017042997912047081
    ],
    "std_test_score": [
      0.02935348585572794,
      0.016731705304141135,
      0.024873126495424714,
      0.029421847066803977,
      0.02948786722334982,
      0.02279949845078099,
      0.019324515159356667,
      0.019762459425111113,
      0.026265957839159713,
      0.01685541046342823,
      0.029260298010484898,
      0.02727223692570976,
      0.02331412016912685,
      0.01824391177104301,
      0.024049136738120203,
      0.023570071635433936,
      0.027125527919696486,
      0.02846007320033259,
      0.027522516751841187,
      0.028087841439783042,
      0.025536240126417777,
      0.028080623010278253,
      0.026397764164406007,
      0.03070039718760704,
      0.030974249780180423,
      0.028223267820324045,
      0.02307124741198208,
      0.02428724532265557,
      0.027337720708952438,
      0.024078977646967238,
      0.03585619246360687,
      0.03234378102188147,
      0.03539335972632764,
      0.03079469483312005,
      0.03283884830019394,
      0.031186013918995246,
      0.038307523273644055,
      0.03372010597217097,
      0.02527482583931711,
      0.03910409920222125,
      0.029676869369975534,
      0.03110221774849374,
      0.03496812718214146,
      0.03271588613390449,
      0.030014929960505927,
      0.0326997832140446,
      0.03222396891289894,
      0.034638189058462325
    ],
    "std_train_score": [
      0.010552908210817028,
      0.007939796940492802,
      0.01767340039564775,
      0.013254972998340664,
      0.007663233606713014,
      0.00782063199844226,
      0.004285300763636773,
      0.008454980005767701,
      0.011376860100485862,
      0.01356509778432327,
      0.011203670305687053,
      0.004438775612041386,
      0.008857570729635746,
      0.008286999069552665,
      0.009020791195333189,
      0.015405385251589696,
      0.010999571450608885,
      0.008465504164905633,
      0.008496341547186254,
      0.006650551152539428,
      0.01268347000012627,
      0.010218290145814499,
      0.011639520176134843,
      0.00717774148654895,
      0.011962616127913175,
      0.005666668048695153,
      0.010111982545251827,
      0.013648154532572204,
      0.011053557677083749,
      0.011520936902165485,
      0.013892042133837164,
      0.0168167250646107,
      0.010479570616596193,
      0.011792615287918584,
      0.013556987029100843,
      0.008204658115449556,
      0.008207009827949082,
      0.013350087590785582,
      0.008828024432053126,
      0.009916573231969575,
      0.012380677599095249,
      0.015693371742033845,
      0.01008326772278827,
      0.012365135279198577,
      0.012892448654378302,
      0.014233209726683316,
      0.023772995353777967,
      0.02289978504796418
    ]
  },
  "xval_grid": {
    "clf__alpha": [
      0.01,
      0.03162277660168379,
      0.1,
      0.31622776601683794,
      1.0,
      3.1622776601683795,
      10.0,
      31.622776601683793
    ],
    "pca__n_components": [
      0.75,
      0.8,
      0.85,
      0.9,
      0.95,
      0.99
    ]
  }
}