{
  "fold_id": 2,
  "test": {
    "accuracy": 0.92625,
    "confusion_matrix": [
      [
        373,
        27
      ],
      [
        32,
        368
      ]
    ],
    "f1_macro": 0.926247119028087,
    "f1_micro": 0.92625,
    "f1_weighted": 0.9262471190280871,
    "per_class": {
      "y=0": {
        "accuracy": 0.92625,
        "confusion_matrix": [
          [
            368,
            32
          ],
          [
            27,
            373
          ]
        ],
        "f1": 0.9267080745341615,
        "precision": 0.9209876543209876,
        "recall": 0.9325
      },
      "y=1": {
        "accuracy": 0.92625,
        "confusion_matrix": [
          [
            373,
            27
          ],
          [
            32,
            368
          ]
        ],
        "f1": 0.9257861635220126,
        "precision": 0.9316455696202531,
        "recall": 0.92
      }
    },
    "precision_macro": 0.9263166119706203,
    "precision_micro": 0.92625,
    "precision_weighted": 0.9263166119706204,
    "recall_macro": 0.92625,
    "recall_micro": 0.92625,
    "recall_weighted": 0.92625
  },
  "train": {
    "accuracy": 0.9645962732919254,
    "confusion_matrix": [
      [
        1572,
        38
      ],
      [
        76,
        1534
      ]
    ],
    "f1_macro": 0.9645913419522567,
    "f1_micro": 0.9645962732919254,
    "f1_weighted": 0.9645913419522567,
    "per_class": {
      "y=0": {
        "accuracy": 0.9645962732919254,
        "confusion_matrix": [
          [
            1534,
            76
          ],
          [
            38,
            1572
          ]
        ],
        "f1": 0.9650092081031306,
        "precision": 0.9538834951456311,
        "recall": 0.9763975155279503
      },
      "y=1": {
        "accuracy": 0.9645962732919254,
        "confusion_matrix": [
          [
            1572,
            38
          ],
          [
            76,
            1534
          ]
        ],
        "f1": 0.9641734758013827,
        "precision": 0.9758269720101781,
        "recall": 0.9527950310559006
      }
    },
    "precision_macro": 0.9648552335779046,
    "precision_micro": 0.9645962732919254,
    "precision_weighted": 0.9648552335779046,
    "recall_macro": 0.9645962732919254,
    "recall_micro": 0.9645962732919254,
    "recall_weighted": 0.9645962732919254
  },
  "xval": {
    "mean_fit_time": [
      0.36004960536956787,
      0.34964847564697266,
      0.3603990077972412,
      0.3565422296524048,
      0.3579728603363037,
      0.38025951385498047,
      0.3488139510154724,
      0.36127299070358276,
      0.36217200756073,
      0.3513501286506653,
      0.35654640197753906,
      0.3658035397529602,
      0.34923309087753296,
      0.3508111238479614,
      0.3528435230255127,
      0.3554997444152832,
      0.3527367115020752,
      0.37903422117233276,
      0.37253469228744507,
      0.35775959491729736,
      0.3491440415382385,
      0.36295372247695923,
      0.36000001430511475,
      0.36826127767562866,
      0.42143958806991577,
      0.3956484794616699,
      0.38443130254745483,
      0.361968457698822,
      0.39894431829452515,
      0.3685116171836853,
      0.3452645540237427,
      0.35918378829956055,
      0.34730076789855957,
      0.34787076711654663,
      0.3663517236709595,
      0.35624271631240845,
      0.3485187292098999,
      0.3520437479019165,
      0.3485211730003357,
      0.3491150736808777,
      0.3492186665534973,
      0.3552631139755249,
      0.3474709391593933,
      0.34918296337127686,
      0.36170196533203125,
      0.35260850191116333,
      0.41004055738449097,
      0.3921550512313843
    ],
    "mean_score_time": [
      0.0043340325355529785,
      0.0045008063316345215,
      0.004439830780029297,
      0.005004584789276123,
      0.005461454391479492,
      0.006483495235443115,
      0.004174768924713135,
      0.004752218723297119,
      0.004399001598358154,
      0.004963576793670654,
      0.005439817905426025,
      0.00655364990234375,
      0.004226505756378174,
      0.004686474800109863,
      0.004700183868408203,
      0.004985392093658447,
      0.005708813667297363,
      0.006465315818786621,
      0.004252433776855469,
      0.004377841949462891,
      0.0045354366302490234,
      0.005550503730773926,
      0.005422234535217285,
      0.006533265113830566,
      0.004807710647583008,
      0.004585683345794678,
      0.0044422149658203125,
      0.005014538764953613,
      0.006263256072998047,
      0.0065386295318603516,
      0.004176020622253418,
      0.004452049732208252,
      0.004412651062011719,
      0.005284011363983154,
      0.005362570285797119,
      0.006433963775634766,
      0.004175305366516113,
      0.004585742950439453,
      0.00448453426361084,
      0.0050220489501953125,
      0.0057639479637146,
      0.006575405597686768,
      0.004140079021453857,
      0.004446566104888916,
      0.004655122756958008,
      0.004982590675354004,
      0.005378603935241699,
      0.008400380611419678
    ],
    "mean_test_score": [
      0.856832298136646,
      0.8555900621118012,
      0.8695652173913043,
      0.8745341614906832,
      0.884472049689441,
      0.8816770186335404,
      0.8645962732919255,
      0.865527950310559,
      0.868944099378882,
      0.8826086956521739,
      0.8791925465838509,
      0.8900621118012423,
      0.8661490683229813,
      0.8686335403726708,
      0.8711180124223602,
      0.882919254658385,
      0.8779503105590062,
      0.8894409937888199,
      0.8577639751552795,
      0.8624223602484472,
      0.8757763975155279,
      0.8779503105590062,
      0.8795031055900621,
      0.8813664596273292,
      0.8614906832298137,
      0.8524844720496895,
      0.872360248447205,
      0.8751552795031056,
      0.8661490683229813,
      0.8729813664596273,
      0.8549689440993788,
      0.8593167701863355,
      0.8645962732919255,
      0.8574534161490683,
      0.860248447204969,
      0.8559006211180125,
      0.85,
      0.8347826086956521,
      0.8506211180124224,
      0.8503105590062112,
      0.8509316770186336,
      0.8074534161490683,
      0.7950310559006211,
      0.7795031055900621,
      0.8201863354037268,
      0.7900621118012422,
      0.820807453416149,
      0.8062111801242235
    ],
    "mean_train_score": [
      0.8906776173656596,
      0.8937763622646685,
      0.90828418092658,
      0.923513425465519,
      0.9508315901375124,
      0.9729801790062069,
      0.8955531360378588,
      0.9004153664140462,
      0.9124258427351599,
      0.9256858475360927,
      0.9504136517952059,
      0.9687382119954734,
      0.8986514522821576,
      0.9026906656150337,
      0.9121094955591372,
      0.9266108844003978,
      0.9419258598813484,
      0.9560028805596515,
      0.8919245739172181,
      0.8954498302527348,
      0.9078645279654333,
      0.9179130516786118,
      0.9301245670587428,
      0.9389201330544219,
      0.8876740338122835,
      0.8859148348822057,
      0.8995829189671136,
      0.9007287130070984,
      0.910244847570385,
      0.9145974074963136,
      0.8671933404204245,
      0.8826017626281677,
      0.8814658276465142,
      0.8842653715579026,
      0.8781604711772573,
      0.8910981276362264,
      0.8500244333184733,
      0.8610862967662288,
      0.855894859572717,
      0.8687236377353315,
      0.8635553478961627,
      0.8496853674428174,
      0.8034982510887829,
      0.8104175954185385,
      0.8234302664517679,
      0.8128506395528273,
      0.8092057885532046,
      0.8175679846370152
    ],
    "param_clf__alpha": [
      0.01,
      0.01,
      0.01,
      0.01,
      0.01,
      0.01,
      0.03162277660168379,
      0.03162277660168379,
      0.03162277660168379,
      0.03162277660168379,
      0.03162277660168379,
      0.03162277660168379,
      0.1,
      0.1,
      0.1,
      0.1,
      0.1,
      0.1,
      0.31622776601683794,
      0.31622776601683794,
      0.31622776601683794,
      0.31622776601683794,
      0.31622776601683794,
      0.31622776601683794,
      1.0,
      1.0,
      1.0,
      1.0,
      1.0,
      1.0,
      3.1622776601683795,
      3.1622776601683795,
      3.1622776601683795,
      3.1622776601683795,
      3.1622776601683795,
      3.1622776601683795,
      10.0,
      10.0,
      10.0,
      10.0,
      10.0,
      10.0,
      31.622776601683793,
      31.622776601683793,
      31.622776601683793,
      31.622776601683793,
      31.622776601683793,
      31.622776601683793
    ],
    "param_pca__n_components": [
      0.75,
      0.8,
      0.85,
      0.9,
      0.95,
      0.99,
      0.75,
      0.8,
      0.85,
      0.9,
      0.95,
      0.99,
      0.75,
      0.8,
      0.85,
      0.9,
      0.95,
      0.99,
      0.75,
      0.8,
      0.85,
      0.9,
      0.95,
      0.99,
      0.75,
      0.8,
      0.85,
      0.9,
      0.95,
      0.99,
      0.75,
      0.8,
      0.85,
      0.9,
      0.95,
      0.99,
      0.75,
      0.8,
      0.85,
      0.9,
      0.95,
      0.99,
      0.75,
      0.8,
      0.85,
      0.9,
      0.95,
      0.99
    ],
    "params": [
      {
        "clf__alpha": 0.01,
        "pca__n_components": 0.75
      },
      {
        "clf__alpha": 0.01,
        "pca__n_components": 0.8
      },
      {
        "clf__alpha": 0.01,
        "pca__n_components": 0.85
      },
      {
        "clf__alpha": 0.01,
        "pca__n_components": 0.9
      },
      {
        "clf__alpha": 0.01,
        "pca__n_components": 0.95
      },
      {
        "clf__alpha": 0.01,
        "pca__n_components": 0.99
      },
      {
        "clf__alpha": 0.03162277660168379,
        "pca__n_components": 0.75
      },
      {
        "clf__alpha": 0.03162277660168379,
        "pca__n_components": 0.8
      },
      {
        "clf__alpha": 0.03162277660168379,
        "pca__n_components": 0.85
      },
      {
        "clf__alpha": 0.03162277660168379,
        "pca__n_components": 0.9
      },
      {
        "clf__alpha": 0.03162277660168379,
        "pca__n_components": 0.95
      },
      {
        "clf__alpha": 0.03162277660168379,
        "pca__n_components": 0.99
      },
      {
        "clf__alpha": 0.1,
        "pca__n_components": 0.75
      },
      {
        "clf__alpha": 0.1,
        "pca__n_components": 0.8
      },
      {
        "clf__alpha": 0.1,
        "pca__n_components": 0.85
      },
      {
        "clf__alpha": 0.1,
        "pca__n_components": 0.9
      },
      {
        "clf__alpha": 0.1,
        "pca__n_components": 0.95
      },
      {
        "clf__alpha": 0.1,
        "pca__n_components": 0.99
      },
      {
        "clf__alpha": 0.31622776601683794,
        "pca__n_components": 0.75
      },
      {
        "clf__alpha": 0.31622776601683794,
        "pca__n_components": 0.8
      },
      {
        "clf__alpha": 0.31622776601683794,
        "pca__n_components": 0.85
      },
      {
        "clf__alpha": 0.31622776601683794,
        "pca__n_components": 0.9
      },
      {
        "clf__alpha": 0.31622776601683794,
        "pca__n_components": 0.95
      },
      {
        "clf__alpha": 0.31622776601683794,
        "pca__n_components": 0.99
      },
      {
        "clf__alpha": 1.0,
        "pca__n_components": 0.75
      },
      {
        "clf__alpha": 1.0,
        "pca__n_components": 0.8
      },
      {
        "clf__alpha": 1.0,
        "pca__n_components": 0.85
      },
      {
        "clf__alpha": 1.0,
        "pca__n_components": 0.9
      },
      {
        "clf__alpha": 1.0,
        "pca__n_components": 0.95
      },
      {
        "clf__alpha": 1.0,
        "pca__n_components": 0.99
      },
      {
        "clf__alpha": 3.1622776601683795,
        "pca__n_components": 0.75
      },
      {
        "clf__alpha": 3.1622776601683795,
        "pca__n_components": 0.8
      },
      {
        "clf__alpha": 3.1622776601683795,
        "pca__n_components": 0.85
      },
      {
        "clf__alpha": 3.1622776601683795,
        "pca__n_components": 0.9
      },
      {
        "clf__alpha": 3.1622776601683795,
        "pca__n_components": 0.95
      },
      {
        "clf__alpha": 3.1622776601683795,
        "pca__n_components": 0.99
      },
      {
        "clf__alpha": 10.0,
        "pca__n_components": 0.75
      },
      {
        "clf__alpha": 10.0,
        "pca__n_components": 0.8
      },
      {
        "clf__alpha": 10.0,
        "pca__n_components": 0.85
      },
      {
        "clf__alpha": 10.0,
        "pca__n_components": 0.9
      },
      {
        "clf__alpha": 10.0,
        "pca__n_components": 0.95
      },
      {
        "clf__alpha": 10.0,
        "pca__n_components": 0.99
      },
      {
        "clf__alpha": 31.622776601683793,
        "pca__n_components": 0.75
      },
      {
        "clf__alpha": 31.622776601683793,
        "pca__n_components": 0.8
      },
      {
        "clf__alpha": 31.622776601683793,
        "pca__n_components": 0.85
      },
      {
        "clf__alpha": 31.622776601683793,
        "pca__n_components": 0.9
      },
      {
        "clf__alpha": 31.622776601683793,
        "pca__n_components": 0.95
      },
      {
        "clf__alpha": 31.622776601683793,
        "pca__n_components": 0.99
      }
    ],
    "rank_test_score": [
      32,
      34,
      18,
      14,
      3,
      6,
      24,
      23,
      19,
      5,
      9,
      1,
      21,
      20,
      17,
      4,
      10,
      2,
      30,
      26,
      12,
      10,
      8,
      7,
      27,
      36,
      16,
      13,
      21,
      15,
      35,
      29,
      24,
      31,
      28,
      33,
      40,
      41,
      38,
      39,
      37,
      44,
      46,
      48,
      43,
      47,
      42,
      45
    ],
    "split0_test_score": [
      0.854320987654321,
      0.8679012345679012,
      0.8679012345679012,
      0.8691358024691358,
      0.8740740740740741,
      0.8604938271604938,
      0.8679012345679012,
      0.8753086419753087,
      0.8703703703703703,
      0.8802469135802469,
      0.8654320987654321,
      0.8753086419753087,
      0.8654320987654321,
      0.8716049382716049,
      0.8728395061728395,
      0.8716049382716049,
      0.8753086419753087,
      0.8728395061728395,
      0.8506172839506173,
      0.8728395061728395,
      0.8728395061728395,
      0.8716049382716049,
      0.8790123456790123,
      0.8691358024691358,
      0.8530864197530864,
      0.8209876543209876,
      0.8691358024691358,
      0.8753086419753087,
      0.8345679012345679,
      0.8716049382716049,
      0.8296296296296296,
      0.8666666666666667,
      0.8703703703703703,
      0.837037037037037,
      0.8716049382716049,
      0.825925925925926,
      0.8567901234567902,
      0.854320987654321,
      0.8604938271604938,
      0.8654320987654321,
      0.8617283950617284,
      0.7864197530864198,
      0.7382716049382716,
      0.7407407407407407,
      0.8518518518518519,
      0.8493827160493828,
      0.8345679012345679,
      0.8358024691358025
    ],
    "split0_train_score": [
      0.8804979253112033,
      0.8829875518672199,
      0.9087136929460581,
      0.9340248962655602,
      0.9597510373443984,
      0.975103734439834,
      0.895850622406639,
      0.9020746887966805,
      0.9132780082987552,
      0.9344398340248963,
      0.9535269709543569,
      0.9701244813278008,
      0.8979253112033195,
      0.8991701244813278,
      0.9095435684647303,
      0.9302904564315353,
      0.9473029045643153,
      0.9551867219917013,
      0.8908713692946059,
      0.8941908713692946,
      0.9062240663900415,
      0.9219917012448133,
      0.9344398340248963,
      0.9410788381742738,
      0.8858921161825726,
      0.8734439834024896,
      0.8991701244813278,
      0.9,
      0.9045643153526971,
      0.9215767634854771,
      0.866390041493776,
      0.8846473029045643,
      0.8738589211618257,
      0.8838174273858921,
      0.887551867219917,
      0.8846473029045643,
      0.8580912863070539,
      0.8780082987551867,
      0.8609958506224067,
      0.8721991701244813,
      0.8668049792531121,
      0.8468879668049792,
      0.7908713692946058,
      0.7854771784232365,
      0.8427385892116183,
      0.850207468879668,
      0.8273858921161825,
      0.8269709543568464
    ],
    "split1_test_score": [
      0.8592592592592593,
      0.8481481481481481,
      0.8814814814814815,
      0.8679012345679012,
      0.8814814814814815,
      0.8851851851851852,
      0.8827160493827161,
      0.8765432098765432,
      0.8765432098765432,
      0.8839506172839506,
      0.8790123456790123,
      0.8950617283950617,
      0.8839506172839506,
      0.8802469135802469,
      0.8790123456790123,
      0.8864197530864197,
      0.8851851851851852,
      0.8876543209876543,
      0.8716049382716049,
      0.8814814814814815,
      0.8827160493827161,
      0.8938271604938272,
      0.8814814814814815,
      0.8876543209876543,
      0.8728395061728395,
      0.8864197530864197,
      0.8814814814814815,
      0.8925925925925926,
      0.8876543209876543,
      0.8864197530864197,
      0.8679012345679012,
      0.845679012345679,
      0.8802469135802469,
      0.8790123456790123,
      0.8407407407407408,
      0.8851851851851852,
      0.8567901234567902,
      0.8296296296296296,
      0.8197530864197531,
      0.828395061728395,
      0.8296296296296296,
      0.8234567901234567,
      0.7851851851851852,
      0.7888888888888889,
      0.8234567901234567,
      0.7802469135802469,
      0.7753086419753087,
      0.7666666666666667
    ],
    "split1_train_score": [
      0.8954356846473029,
      0.8925311203319503,
      0.9103734439834025,
      0.9269709543568465,
      0.9452282157676348,
      0.9697095435684647,
      0.8995850622406639,
      0.9,
      0.9149377593360996,
      0.9294605809128631,
      0.9468879668049792,
      0.9684647302904564,
      0.8966804979253112,
      0.9053941908713693,
      0.912448132780083,
      0.929045643153527,
      0.9369294605809129,
      0.9556016597510374,
      0.8921161825726142,
      0.9012448132780083,
      0.9066390041493776,
      0.9178423236514522,
      0.9261410788381743,
      0.9336099585062241,
      0.8825726141078838,
      0.8921161825726142,
      0.8970954356846473,
      0.9053941908713693,
      0.912448132780083,
      0.9087136929460581,
      0.8767634854771784,
      0.8738589211618257,
      0.8850622406639004,
      0.8850622406639004,
      0.8717842323651452,
      0.8983402489626556,
      0.8655601659751038,
      0.8535269709543568,
      0.8452282157676348,
      0.8522821576763485,
      0.8547717842323651,
      0.8485477178423236,
      0.7954356846473029,
      0.7987551867219918,
      0.8377593360995851,
      0.7892116182572614,
      0.7838174273858921,
      0.7788381742738589
    ],
    "split2_test_score": [
      0.87375,
      0.87,
      0.89,
      0.92125,
      0.9175,
      0.91375,
      0.87875,
      0.8825,
      0.89375,
      0.92,
      0.91125,
      0.91125,
      0.8825,
      0.8975,
      0.8925,
      0.915,
      0.90375,
      0.92625,
      0.88125,
      0.87625,
      0.905,
      0.91125,
      0.90875,
      0.92,
      0.895,
      0.88,
      0.905,
      0.905,
      0.905,
      0.905,
      0.895,
      0.90125,
      0.87875,
      0.88875,
      0.9075,
      0.88875,
      0.86125,
      0.8625,
      0.9,
      0.89875,
      0.89,
      0.82875,
      0.85,
      0.85625,
      0.79625,
      0.7725,
      0.87,
      0.85875
    ],
    "split2_train_score": [
      0.8818181818181818,
      0.8826446280991735,
      0.9020661157024793,
      0.9057851239669421,
      0.9392561983471074,
      0.9681818181818181,
      0.8842975206611571,
      0.8950413223140495,
      0.8979338842975206,
      0.9136363636363637,
      0.9450413223140496,
      0.9607438016528925,
      0.893801652892562,
      0.8913223140495867,
      0.9,
      0.9103305785123967,
      0.9301652892561983,
      0.9524793388429752,
      0.8785123966942149,
      0.8793388429752066,
      0.8962809917355372,
      0.9041322314049587,
      0.9177685950413224,
      0.9338842975206612,
      0.8830578512396694,
      0.8760330578512396,
      0.8888429752066116,
      0.8946280991735537,
      0.9037190082644628,
      0.9028925619834711,
      0.8727272727272727,
      0.8739669421487604,
      0.8632231404958678,
      0.8665289256198347,
      0.8855371900826446,
      0.8764462809917355,
      0.8409090909090909,
      0.8396694214876033,
      0.8644628099173554,
      0.8636363636363636,
      0.8648760330578512,
      0.8301652892561984,
      0.8152892561983471,
      0.821900826446281,
      0.7942148760330578,
      0.7690082644628099,
      0.8309917355371901,
      0.8194214876033058
    ],
    "split3_test_score": [
      0.84,
      0.83625,
      0.83875,
      0.84,
      0.865,
      0.8675,
      0.82875,
      0.8275,
      0.835,
      0.84625,
      0.86125,
      0.87875,
      0.8325,
      0.825,
      0.84,
      0.85875,
      0.8475,
      0.87125,
      0.8275,
      0.81875,
      0.8425,
      0.835,
      0.84875,
      0.84875,
      0.825,
      0.8225,
      0.83375,
      0.8275,
      0.8375,
      0.82875,
      0.8275,
      0.82375,
      0.82875,
      0.825,
      0.82125,
      0.82375,
      0.825,
      0.7925,
      0.8225,
      0.80875,
      0.8225,
      0.79125,
      0.8075,
      0.7325,
      0.80875,
      0.7575,
      0.80375,
      0.76375
    ],
    "split3_train_score": [
      0.9049586776859504,
      0.9169421487603305,
      0.9119834710743802,
      0.9272727272727272,
      0.9590909090909091,
      0.9789256198347107,
      0.9024793388429752,
      0.9045454545454545,
      0.9235537190082644,
      0.925206611570248,
      0.956198347107438,
      0.9756198347107438,
      0.906198347107438,
      0.9148760330578513,
      0.9264462809917355,
      0.9367768595041323,
      0.9533057851239669,
      0.9607438016528925,
      0.906198347107438,
      0.9070247933884298,
      0.9223140495867769,
      0.9276859504132231,
      0.9421487603305785,
      0.947107438016529,
      0.8991735537190083,
      0.9020661157024793,
      0.9132231404958677,
      0.9028925619834711,
      0.9202479338842975,
      0.925206611570248,
      0.8528925619834711,
      0.8979338842975206,
      0.9037190082644628,
      0.9016528925619834,
      0.8677685950413223,
      0.9049586776859504,
      0.8355371900826446,
      0.8731404958677685,
      0.8528925619834711,
      0.8867768595041322,
      0.8677685950413223,
      0.8731404958677685,
      0.812396694214876,
      0.8355371900826446,
      0.8190082644628099,
      0.8429752066115702,
      0.7946280991735537,
      0.8450413223140496
    ],
    "std_fit_time": [
      0.007127777458711446,
      0.0031801394719620244,
      0.013246551421016377,
      0.003085109718039958,
      0.0018289775913819387,
      0.01346969035623042,
      0.003406971369126141,
      0.020251137340799214,
      0.013704905527365625,
      0.0031469314886500292,
      0.0033330949292488246,
      0.008304877506290515,
      0.0033988757648988088,
      0.0019642596621768918,
      0.003609655661658169,
      0.00877419932298902,
      0.004932463747836185,
      0.018487344928277822,
      0.029093635998273762,
      0.009471802889683122,
      0.006675755431250514,
      0.01431835459548169,
      0.012099442381368685,
      0.0064506298285891585,
      0.07149755918744512,
      0.06933229935462391,
      0.02417339016856263,
      0.011862215084594632,
      0.08652445256382135,
      0.010839362213355224,
      0.0023203091400336396,
      0.01724176840421753,
      0.0031694224322196965,
      0.003537804436998534,
      0.03340493492787585,
      0.001352680014901655,
      0.005212078996244084,
      0.013481305701875841,
      0.005800086034587904,
      0.0033781311801181825,
      0.0030924639213705074,
      0.007001402211361038,
      0.002058897956822281,
      0.005384636485900899,
      0.02725276548797118,
      0.005711538876364207,
      0.0795575452885574,
      0.015410848529617882
    ],
    "std_score_time": [
      0.00020820429691787985,
      7.109939745976842e-05,
      0.00010778049343565119,
      0.00018474573828317748,
      0.00019144930251483033,
      0.00011036905339059835,
      0.00011426089141393283,
      0.0006735796695614138,
      4.190994964481076e-05,
      9.591205993477958e-05,
      6.816694782911032e-05,
      0.00022101370133476372,
      0.0001064936523858568,
      0.0005198039430789241,
      0.00046832585828771213,
      6.122725935882206e-05,
      0.00048204397023630393,
      0.0001373740563887918,
      0.00019217602342960958,
      4.4124509754907935e-05,
      0.0002960901990222881,
      0.0009580859204077575,
      0.00013811953750666504,
      0.00010056919870794579,
      0.0007642391429614527,
      0.00021282229670664955,
      4.4442847533274985e-05,
      7.21425034104822e-05,
      0.0014102040052440042,
      0.00026241162667191016,
      6.109321987720732e-05,
      5.3873466196687236e-05,
      7.290600790831305e-05,
      0.000600832614725023,
      0.00010438900604955732,
      6.327464691590717e-05,
      6.592812610970351e-05,
      0.00031296890941119907,
      0.00014494168229530944,
      0.0001816920087226481,
      0.0007047031188461433,
      4.510598969102748e-05,
      7.52427609018327e-05,
      7.489671677244326e-05,
      0.0005563328318232205,
      0.00010283976131342561,
      6.066581710483862e-05,
      0.0029424249802963176
    ],
    "std_test_score": [
      0.01202362248186655,
      0.014020554576089136,
      0.019392857295587217,
      0.029272886580243733,
      0.01986620391467849,
      0.020530006882979165,
      0.02131557012025641,
      0.02203264557911211,
      0.02131142974285818,
      0.02603168348167666,
      0.01956905259867057,
      0.014295764743896551,
      0.020677887918815058,
      0.026761677546951045,
      0.0192506847739285,
      0.020883276185211984,
      0.020264761416493554,
      0.022112652312189337,
      0.020630930789273732,
      0.025298922423455494,
      0.02239582632930214,
      0.02841393601614577,
      0.02117857283341951,
      0.026128560003124916,
      0.0256898101586347,
      0.03083364029167216,
      0.025663220339904355,
      0.029360121923703887,
      0.030759568888862412,
      0.02804775219229498,
      0.028092437847396217,
      0.028487331559465194,
      0.020952739256031944,
      0.02695907438344061,
      0.03256900036241046,
      0.031090982600460025,
      0.0144886050538064,
      0.027161710318935176,
      0.032656715695032014,
      0.03450257482206824,
      0.0268983353588106,
      0.018804979359229885,
      0.0403004801894628,
      0.049116098401342435,
      0.020730786875979252,
      0.03534807225159632,
      0.035240429810425425,
      0.04180161666779828
    ],
    "std_train_score": [
      0.010108209740996455,
      0.013950969740101763,
      0.003771557484125794,
      0.010616856273358486,
      0.008848169125315428,
      0.004288912364824297,
      0.006910247641190628,
      0.003495134403329069,
      0.009231500431479717,
      0.007686036378925222,
      0.0045947751508237005,
      0.005321274819665387,
      0.0046067373912106555,
      0.008623019420682035,
      0.00947209000509323,
      0.009847115188405427,
      0.008967863952033726,
      0.002988259191686665,
      0.009807816433857744,
      0.010352662560698753,
      0.009316115197321352,
      0.008689950256321922,
      0.009106878934716312,
      0.005595747572765263,
      0.006759212473882933,
      0.011752576730567824,
      0.008771545013569127,
      0.0040061651827933455,
      0.006703939633561859,
      0.009122611009111586,
      0.00904667944956154,
      0.00987744389408747,
      0.014989987449542982,
      0.012427218670469755,
      0.008533197121432301,
      0.01118987174635983,
      0.012241351948743397,
      0.015390612566789641,
      0.0074535388185091676,
      0.012591671512447162,
      0.005177034754436023,
      0.015332124761303896,
      0.010519662696939075,
      0.01949932567699672,
      0.01904748476622671,
      0.03458315854276979,
      0.02038517575323497,
      0.024221033249432793
    ]
  },
  "xval_grid": {
    "clf__alpha": [
      0.01,
      0.03162277660168379,
      0.1,
      0.31622776601683794,
      1.0,
      3.1622776601683795,
      10.0,
      31.622776601683793
    ],
    "pca__n_components": [
      0.75,
      0.8,
      0.85,
      0.9,
      0.95,
      0.99
    ]
  }
}