{
  "fold_id": 4,
  "test": {
    "accuracy": 0.87375,
    "confusion_matrix": [
      [
        357,
        43
      ],
      [
        58,
        342
      ]
    ],
    "f1_macro": 0.873705599624868,
    "f1_micro": 0.87375,
    "f1_weighted": 0.8737055996248679,
    "per_class": {
      "y=0": {
        "accuracy": 0.87375,
        "confusion_matrix": [
          [
            342,
            58
          ],
          [
            43,
            357
          ]
        ],
        "f1": 0.8760736196319018,
        "precision": 0.8602409638554217,
        "recall": 0.8925
      },
      "y=1": {
        "accuracy": 0.87375,
        "confusion_matrix": [
          [
            357,
            43
          ],
          [
            58,
            342
          ]
        ],
        "f1": 0.8713375796178343,
        "precision": 0.8883116883116883,
        "recall": 0.855
      }
    },
    "precision_macro": 0.874276326083555,
    "precision_micro": 0.87375,
    "precision_weighted": 0.874276326083555,
    "recall_macro": 0.87375,
    "recall_micro": 0.87375,
    "recall_weighted": 0.87375
  },
  "train": {
    "accuracy": 0.9540372670807453,
    "confusion_matrix": [
      [
        1558,
        52
      ],
      [
        96,
        1514
      ]
    ],
    "f1_macro": 0.9540286832617177,
    "f1_micro": 0.9540372670807453,
    "f1_weighted": 0.9540286832617176,
    "per_class": {
      "y=0": {
        "accuracy": 0.9540372670807453,
        "confusion_matrix": [
          [
            1514,
            96
          ],
          [
            52,
            1558
          ]
        ],
        "f1": 0.954656862745098,
        "precision": 0.9419588875453446,
        "recall": 0.9677018633540373
      },
      "y=1": {
        "accuracy": 0.9540372670807453,
        "confusion_matrix": [
          [
            1558,
            52
          ],
          [
            96,
            1514
          ]
        ],
        "f1": 0.9534005037783375,
        "precision": 0.966794380587484,
        "recall": 0.9403726708074535
      }
    },
    "precision_macro": 0.9543766340664144,
    "precision_micro": 0.9540372670807453,
    "precision_weighted": 0.9543766340664144,
    "recall_macro": 0.9540372670807453,
    "recall_micro": 0.9540372670807453,
    "recall_weighted": 0.9540372670807453
  },
  "xval": {
    "mean_fit_time": [
      9.90171480178833,
      6.585804462432861,
      6.6079652309417725,
      7.160707950592041,
      8.758171319961548,
      7.601857006549835,
      7.006017506122589,
      5.570239722728729,
      8.741360604763031,
      8.729005575180054,
      5.97693932056427,
      6.192289412021637
    ],
    "mean_score_time": [
      0.024614274501800537,
      0.041374027729034424,
      0.058453261852264404,
      0.03461050987243652,
      0.04738694429397583,
      0.054651498794555664,
      0.03708481788635254,
      0.04275155067443848,
      0.07799792289733887,
      0.04314476251602173,
      0.045089006423950195,
      0.08350473642349243
    ],
    "mean_test_score": [
      -76.45797600839887,
      -256.8845944791542,
      -600.5184539013076,
      -76.36178750675427,
      -265.99057555877937,
      -711.4843441348029,
      -77.37581525822272,
      -299.7764718811752,
      -1307.7505115084368,
      -80.79279453318978,
      -412.14871009567827,
      -364.148845404
    ],
    "mean_train_score": [
      -76.84152007374085,
      -255.07332742993322,
      -539.4082320721179,
      -75.54322005881397,
      -244.39220701827543,
      -488.91862538523674,
      -73.61136384861452,
      -227.11489248101648,
      -356.9059920290637,
      -70.94128909964721,
      -194.9745845628685,
      108.98253210377105
    ],
    "param_gmm__n_components": [
      1,
      1,
      1,
      2,
      2,
      2,
      4,
      4,
      4,
      8,
      8,
      8
    ],
    "param_pca__n_components": [
      0.5,
      0.75,
      0.9,
      0.5,
      0.75,
      0.9,
      0.5,
      0.75,
      0.9,
      0.5,
      0.75,
      0.9
    ],
    "params": [
      {
        "gmm__n_components": 1,
        "pca__n_components": 0.5
      },
      {
        "gmm__n_components": 1,
        "pca__n_components": 0.75
      },
      {
        "gmm__n_components": 1,
        "pca__n_components": 0.9
      },
      {
        "gmm__n_components": 2,
        "pca__n_components": 0.5
      },
      {
        "gmm__n_components": 2,
        "pca__n_components": 0.75
      },
      {
        "gmm__n_components": 2,
        "pca__n_components": 0.9
      },
      {
        "gmm__n_components": 4,
        "pca__n_components": 0.5
      },
      {
        "gmm__n_components": 4,
        "pca__n_components": 0.75
      },
      {
        "gmm__n_components": 4,
        "pca__n_components": 0.9
      },
      {
        "gmm__n_components": 8,
        "pca__n_components": 0.5
      },
      {
        "gmm__n_components": 8,
        "pca__n_components": 0.75
      },
      {
        "gmm__n_components": 8,
        "pca__n_components": 0.9
      }
    ],
    "rank_test_score": [
      2,
      5,
      9,
      1,
      6,
      10,
      3,
      7,
      11,
      4,
      8,
      12
    ],
    "split0_test_score": [
      -76.88608969232966,
      -259.15168432986326,
      -609.0020760811943,
      -76.80579226424284,
      -269.3650910494418,
      -758.9966578122891,
      -78.03087791383922,
      -304.4515408456543,
      -1632.368324718527,
      -81.85161638950315,
      -425.980220926298,
      -32720061.604072873
    ],
    "split0_train_score": [
      -76.82940594815804,
      -254.3542557568268,
      -538.8665536128779,
      -75.64715073444604,
      -243.50733387973298,
      -487.8194631818144,
      -73.69469942730473,
      -227.36731040223242,
      -388.55661436667435,
      -70.89549728273286,
      -192.85081155831355,
      78.1940279386114
    ],
    "split1_test_score": [
      -76.7214881927467,
      -256.6621565195681,
      -603.5153310482887,
      -76.55363115413753,
      -265.4114620489634,
      -693.5549576887252,
      -77.63695436575748,
      -301.6320858576718,
      -1099.3000281147572,
      -81.57055974594252,
      -423.8507674908468,
      -64244244.12337414
    ],
    "split1_train_score": [
      -76.8791711090167,
      -254.59406356912095,
      -538.9008388151175,
      -75.5862034871932,
      -243.57473688181494,
      -489.04611003113024,
      -73.64364272048417,
      -226.9056640525516,
      -328.5892174302238,
      -71.0091281894933,
      -190.0902653477504,
      137.58381063603358
    ],
    "split2_test_score": [
      -75.9129464160616,
      -255.38497833815254,
      -587.0340167136477,
      -75.9040776576911,
      -262.82228719483606,
      -680.1092821502051,
      -76.7380301560499,
      -294.37078765572716,
      -1209.9210961922454,
      -79.79141668220709,
      -384.36281280999515,
      -20757371.180129666
    ],
    "split2_train_score": [
      -76.84547538465772,
      -257.0300450872907,
      -539.4545947421572,
      -75.35776729373642,
      -246.20358203280946,
      -489.6624103990067,
      -73.53616482237274,
      -227.5575456408906,
      -364.035423470033,
      -70.91406403190746,
      -196.84198271652875,
      127.1333183853479
    ],
    "split3_test_score": [
      -76.30273440910405,
      -256.3140005803938,
      -602.3788855205131,
      -76.17570084588469,
      -266.32851941711556,
      -712.9066922975995,
      -77.0859460752049,
      -298.56983962888535,
      -1287.9605053855123,
      -79.93462797674302,
      -414.0818695527511,
      -27679128.74493299
    ],
    "split3_train_score": [
      -76.81202785313091,
      -254.31494530649434,
      -540.4109411183197,
      -75.58175871988021,
      -244.2831752787444,
      -489.1465179289959,
      -73.57094842429645,
      -226.6290498283913,
      -346.4427128493237,
      -70.94646689445526,
      -200.11527862888136,
      93.01897145509129
    ],
    "std_fit_time": [
      2.9772298203712917,
      1.2156218971792263,
      1.3774495669139393,
      1.294738803234344,
      1.3182896993495046,
      1.788607526487773,
      0.8618169888989476,
      0.4069600978971423,
      1.7219204813554503,
      2.677479799143125,
      0.5922146422601536,
      0.5375638039342785
    ],
    "std_score_time": [
      0.0034996940443307732,
      0.006956435957392453,
      0.008991616742782012,
      0.005854893020323515,
      0.0034348827185863287,
      0.008174413257637845,
      0.009113320682385248,
      0.0043402049329871245,
      0.004890129433816645,
      0.0024204565756148376,
      0.004560201697846858,
      0.009601483826693138
    ],
    "std_test_score": [
      0.37863311149657886,
      1.3946183781018608,
      8.14856286497505,
      0.3456904383401573,
      2.339056376767663,
      29.896452660510807,
      0.49702492658731734,
      3.739771177544631,
      199.78306348445594,
      0.9307453994343863,
      16.59263582132231,
      16677036.16310655
    ],
    "std_train_score": [
      0.024747666844236436,
      1.1347516639237663,
      0.6241871512139203,
      0.11014435632870757,
      1.0890621261918467,
      0.6763063363928845,
      0.06179612511179509,
      0.3672452332179688,
      22.15801560329932,
      0.043206036846634245,
      3.817096321639058,
      24.239695922348478
    ]
  },
  "xval_grid": {
    "gmm__n_components": [
      1,
      2,
      4,
      8
    ],
    "pca__n_components": [
      0.5,
      0.75,
      0.9
    ]
  }
}