{
  "fold_id": 2,
  "test": {
    "accuracy": 0.92875,
    "confusion_matrix": [
      [
        375,
        25
      ],
      [
        32,
        368
      ]
    ],
    "f1_macro": 0.9287445445041886,
    "f1_micro": 0.92875,
    "f1_weighted": 0.9287445445041886,
    "per_class": {
      "y=0": {
        "accuracy": 0.92875,
        "confusion_matrix": [
          [
            368,
            32
          ],
          [
            25,
            375
          ]
        ],
        "f1": 0.9293680297397771,
        "precision": 0.9213759213759214,
        "recall": 0.9375
      },
      "y=1": {
        "accuracy": 0.92875,
        "confusion_matrix": [
          [
            375,
            25
          ],
          [
            32,
            368
          ]
        ],
        "f1": 0.9281210592686003,
        "precision": 0.9363867684478372,
        "recall": 0.92
      }
    },
    "precision_macro": 0.9288813449118793,
    "precision_micro": 0.92875,
    "precision_weighted": 0.9288813449118792,
    "recall_macro": 0.92875,
    "recall_micro": 0.92875,
    "recall_weighted": 0.92875
  },
  "train": {
    "accuracy": 0.9627329192546584,
    "confusion_matrix": [
      [
        1572,
        38
      ],
      [
        82,
        1528
      ]
    ],
    "f1_macro": 0.9627259594013928,
    "f1_micro": 0.9627329192546584,
    "f1_weighted": 0.9627259594013927,
    "per_class": {
      "y=0": {
        "accuracy": 0.9627329192546584,
        "confusion_matrix": [
          [
            1528,
            82
          ],
          [
            38,
            1572
          ]
        ],
        "f1": 0.9632352941176471,
        "precision": 0.9504232164449818,
        "recall": 0.9763975155279503
      },
      "y=1": {
        "accuracy": 0.9627329192546584,
        "confusion_matrix": [
          [
            1572,
            38
          ],
          [
            82,
            1528
          ]
        ],
        "f1": 0.9622166246851385,
        "precision": 0.9757343550446999,
        "recall": 0.9490683229813665
      }
    },
    "precision_macro": 0.9630787857448408,
    "precision_micro": 0.9627329192546584,
    "precision_weighted": 0.9630787857448408,
    "recall_macro": 0.9627329192546583,
    "recall_micro": 0.9627329192546584,
    "recall_weighted": 0.9627329192546584
  },
  "xval": {
    "mean_fit_time": [
      0.06653857231140137,
      0.06385421752929688,
      0.09118831157684326,
      0.08605855703353882,
      0.05783069133758545,
      0.06362998485565186,
      0.06270480155944824,
      0.07505649328231812,
      0.16771578788757324,
      0.1509903073310852,
      0.135189950466156,
      0.14257770776748657,
      0.12738150358200073,
      0.11281365156173706,
      0.12302923202514648,
      0.13190889358520508,
      0.1256316900253296,
      0.13067001104354858,
      0.20732003450393677,
      0.1677979826927185,
      0.15457892417907715,
      0.07140213251113892,
      0.07062411308288574,
      0.06793743371963501,
      0.05104875564575195,
      0.053561270236968994,
      0.05809074640274048,
      0.05464065074920654,
      0.06826204061508179,
      0.057069361209869385,
      0.052803754806518555
    ],
    "mean_score_time": [
      0.0061293840408325195,
      0.0072212815284729,
      0.0081024169921875,
      0.011370241641998291,
      0.00542980432510376,
      0.005699217319488525,
      0.006059765815734863,
      0.007107973098754883,
      0.0197945237159729,
      0.010673582553863525,
      0.010319292545318604,
      0.01663309335708618,
      0.0058860182762146,
      0.005279421806335449,
      0.005751669406890869,
      0.006075441837310791,
      0.006268143653869629,
      0.006459712982177734,
      0.005258023738861084,
      0.005310118198394775,
      0.00610882043838501,
      0.005209565162658691,
      0.005388200283050537,
      0.005246222019195557,
      0.005089521408081055,
      0.005087792873382568,
      0.00572049617767334,
      0.005356192588806152,
      0.006376028060913086,
      0.005422353744506836,
      0.0051541924476623535
    ],
    "mean_test_score": [
      0.8729813664596273,
      0.877639751552795,
      0.8701863354037267,
      0.8748447204968944,
      0.8729813664596273,
      0.8714285714285714,
      0.8847826086956522,
      0.8832298136645963,
      0.8822981366459627,
      0.8742236024844721,
      0.8714285714285714,
      0.8742236024844721,
      0.8720496894409938,
      0.8667701863354037,
      0.8704968944099379,
      0.8798136645962733,
      0.8763975155279503,
      0.8881987577639752,
      0.886335403726708,
      0.8770186335403727,
      0.8717391304347826,
      0.8708074534161491,
      0.8419254658385094,
      0.8021739130434783,
      0.6708074534161491,
      0.5065217391304347,
      0.5,
      0.5,
      0.5,
      0.5,
      0.5
    ],
    "mean_train_score": [
      0.9646981413531772,
      0.9555960872398066,
      0.9585786667123898,
      0.9576622029422859,
      0.9643920818901958,
      0.9614892321936834,
      0.9577543637049484,
      0.9703971057233978,
      0.9668769932444018,
      0.97204271115531,
      0.9667591131991359,
      0.9687373546860534,
      0.9658482219402627,
      0.9658396488460614,
      0.9721507321422448,
      0.9772037138644079,
      0.9747453791022256,
      0.9729844655533075,
      0.9572459792188197,
      0.9367498542573985,
      0.9174946846815952,
      0.8966877850553822,
      0.862833493364425,
      0.8286487088920134,
      0.67455548506567,
      0.5055913720379959,
      0.5,
      0.5,
      0.5,
      0.5,
      0.5
    ],
    "param_clf__alpha": [
      1e-10,
      3.1622776601683795e-10,
      1e-09,
      3.1622776601683795e-09,
      1e-08,
      3.162277660168379e-08,
      1e-07,
      3.162277660168379e-07,
      1e-06,
      3.162277660168379e-06,
      1e-05,
      3.1622776601683795e-05,
      0.0001,
      0.00031622776601683794,
      0.001,
      0.0031622776601683794,
      0.01,
      0.03162277660168379,
      0.1,
      0.31622776601683794,
      1.0,
      3.1622776601683795,
      10.0,
      31.622776601683793,
      100.0,
      316.22776601683796,
      1000.0,
      3162.2776601683795,
      10000.0,
      31622.776601683792,
      100000.0
    ],
    "params": [
      {
        "clf__alpha": 1e-10
      },
      {
        "clf__alpha": 3.1622776601683795e-10
      },
      {
        "clf__alpha": 1e-09
      },
      {
        "clf__alpha": 3.1622776601683795e-09
      },
      {
        "clf__alpha": 1e-08
      },
      {
        "clf__alpha": 3.162277660168379e-08
      },
      {
        "clf__alpha": 1e-07
      },
      {
        "clf__alpha": 3.162277660168379e-07
      },
      {
        "clf__alpha": 1e-06
      },
      {
        "clf__alpha": 3.162277660168379e-06
      },
      {
        "clf__alpha": 1e-05
      },
      {
        "clf__alpha": 3.1622776601683795e-05
      },
      {
        "clf__alpha": 0.0001
      },
      {
        "clf__alpha": 0.00031622776601683794
      },
      {
        "clf__alpha": 0.001
      },
      {
        "clf__alpha": 0.0031622776601683794
      },
      {
        "clf__alpha": 0.01
      },
      {
        "clf__alpha": 0.03162277660168379
      },
      {
        "clf__alpha": 0.1
      },
      {
        "clf__alpha": 0.31622776601683794
      },
      {
        "clf__alpha": 1.0
      },
      {
        "clf__alpha": 3.1622776601683795
      },
      {
        "clf__alpha": 10.0
      },
      {
        "clf__alpha": 31.622776601683793
      },
      {
        "clf__alpha": 100.0
      },
      {
        "clf__alpha": 316.22776601683796
      },
      {
        "clf__alpha": 1000.0
      },
      {
        "clf__alpha": 3162.2776601683795
      },
      {
        "clf__alpha": 10000.0
      },
      {
        "clf__alpha": 31622.776601683792
      },
      {
        "clf__alpha": 100000.0
      }
    ],
    "rank_test_score": [
      13,
      7,
      21,
      10,
      13,
      17,
      3,
      4,
      5,
      11,
      17,
      11,
      15,
      22,
      20,
      6,
      9,
      1,
      2,
      8,
      16,
      19,
      23,
      24,
      25,
      26,
      27,
      27,
      27,
      27,
      27
    ],
    "split0_test_score": [
      0.8444444444444444,
      0.8679012345679012,
      0.8358024691358025,
      0.8580246913580247,
      0.8654320987654321,
      0.8382716049382716,
      0.8691358024691358,
      0.8691358024691358,
      0.8790123456790123,
      0.8481481481481481,
      0.8432098765432099,
      0.845679012345679,
      0.8629629629629629,
      0.8444444444444444,
      0.8444444444444444,
      0.8555555555555555,
      0.8555555555555555,
      0.8629629629629629,
      0.8753086419753087,
      0.8617283950617284,
      0.8530864197530864,
      0.8654320987654321,
      0.8049382716049382,
      0.737037037037037,
      0.7074074074074074,
      0.5,
      0.5,
      0.5,
      0.5,
      0.5,
      0.5
    ],
    "split0_train_score": [
      0.9643153526970955,
      0.9556016597510374,
      0.9593360995850623,
      0.9672199170124481,
      0.9630705394190872,
      0.9680497925311203,
      0.9535269709543569,
      0.9688796680497925,
      0.9759336099585062,
      0.9713692946058091,
      0.962240663900415,
      0.9813278008298755,
      0.9734439834024896,
      0.9730290456431535,
      0.9697095435684647,
      0.9630705394190872,
      0.9780082987551867,
      0.9763485477178423,
      0.958091286307054,
      0.9352697095435685,
      0.9153526970954357,
      0.9037344398340249,
      0.8560165975103734,
      0.7867219917012448,
      0.6991701244813278,
      0.5087136929460581,
      0.5,
      0.5,
      0.5,
      0.5,
      0.5
    ],
    "split1_test_score": [
      0.8716049382716049,
      0.8777777777777778,
      0.8814814814814815,
      0.8777777777777778,
      0.8888888888888888,
      0.8703703703703703,
      0.8987654320987655,
      0.891358024691358,
      0.8888888888888888,
      0.8987654320987655,
      0.891358024691358,
      0.8827160493827161,
      0.8716049382716049,
      0.8716049382716049,
      0.8950617283950617,
      0.8938271604938272,
      0.8888888888888888,
      0.9012345679012346,
      0.8925925925925926,
      0.8901234567901235,
      0.8962962962962963,
      0.8827160493827161,
      0.8530864197530864,
      0.828395061728395,
      0.6555555555555556,
      0.5111111111111111,
      0.5,
      0.5,
      0.5,
      0.5,
      0.5
    ],
    "split1_train_score": [
      0.9634854771784233,
      0.9614107883817428,
      0.9448132780082987,
      0.9497925311203319,
      0.9684647302904564,
      0.9535269709543569,
      0.9526970954356846,
      0.9755186721991701,
      0.9609958506224067,
      0.9659751037344398,
      0.9605809128630706,
      0.9564315352697096,
      0.9676348547717842,
      0.9597510373443984,
      0.9721991701244813,
      0.9701244813278008,
      0.9755186721991701,
      0.9726141078838174,
      0.9560165975103735,
      0.9385892116182573,
      0.9195020746887966,
      0.8900414937759336,
      0.8668049792531121,
      0.8452282157676348,
      0.6705394190871369,
      0.5037344398340249,
      0.5,
      0.5,
      0.5,
      0.5,
      0.5
    ],
    "split2_test_score": [
      0.9025,
      0.89875,
      0.9,
      0.9,
      0.8825,
      0.9125,
      0.91375,
      0.905,
      0.91125,
      0.89125,
      0.9025,
      0.9,
      0.89875,
      0.8925,
      0.8925,
      0.91125,
      0.89125,
      0.9175,
      0.92375,
      0.90875,
      0.90625,
      0.91125,
      0.88625,
      0.85875,
      0.67375,
      0.5075,
      0.5,
      0.5,
      0.5,
      0.5,
      0.5
    ],
    "split2_train_score": [
      0.9623966942148761,
      0.9442148760330579,
      0.9714876033057851,
      0.943801652892562,
      0.9648760330578512,
      0.9566115702479339,
      0.9541322314049587,
      0.9590909090909091,
      0.9636363636363636,
      0.9723140495867768,
      0.971900826446281,
      0.9582644628099174,
      0.9487603305785124,
      0.9516528925619835,
      0.9743801652892562,
      0.984297520661157,
      0.9669421487603306,
      0.9665289256198347,
      0.9524793388429752,
      0.9305785123966942,
      0.9049586776859504,
      0.8913223140495867,
      0.8574380165289256,
      0.8194214876033058,
      0.628099173553719,
      0.5045454545454545,
      0.5,
      0.5,
      0.5,
      0.5,
      0.5
    ],
    "split3_test_score": [
      0.87375,
      0.86625,
      0.86375,
      0.86375,
      0.855,
      0.865,
      0.8575,
      0.8675,
      0.85,
      0.85875,
      0.84875,
      0.86875,
      0.855,
      0.85875,
      0.85,
      0.85875,
      0.87,
      0.87125,
      0.85375,
      0.8475,
      0.83125,
      0.82375,
      0.82375,
      0.785,
      0.64625,
      0.5075,
      0.5,
      0.5,
      0.5,
      0.5,
      0.5
    ],
    "split3_train_score": [
      0.968595041322314,
      0.9611570247933884,
      0.9586776859504132,
      0.9698347107438017,
      0.9611570247933884,
      0.9677685950413223,
      0.9706611570247934,
      0.978099173553719,
      0.9669421487603306,
      0.9785123966942149,
      0.9723140495867768,
      0.9789256198347107,
      0.9735537190082645,
      0.9789256198347107,
      0.9723140495867768,
      0.9913223140495868,
      0.9785123966942149,
      0.9764462809917356,
      0.9623966942148761,
      0.9425619834710743,
      0.9301652892561983,
      0.9016528925619834,
      0.8710743801652893,
      0.8632231404958678,
      0.7004132231404959,
      0.5053719008264462,
      0.5,
      0.5,
      0.5,
      0.5,
      0.5
    ],
    "std_fit_time": [
      0.0042444633024338015,
      0.007355771323731558,
      0.014156472195783575,
      0.021246350877537765,
      0.0027044586006029023,
      0.005844281703156835,
      0.011175496811010144,
      0.016273193383667738,
      0.025001429940276404,
      0.05623698428208444,
      0.011804591025114301,
      0.0641364355396481,
      0.011884547719407487,
      0.005454795408097653,
      0.030890880048525533,
      0.03906230435955997,
      0.011236967143985794,
      0.006308197880261185,
      0.024201047579380408,
      0.07207511656839082,
      0.03973567471164187,
      0.017819099184543753,
      0.011431880279463664,
      0.011042920989689599,
      0.005400241518311038,
      0.006458765011719681,
      0.006482201360329882,
      0.006286426382153044,
      0.0107904904251638,
      0.015221964867427495,
      0.003484868790757129
    ],
    "std_score_time": [
      0.0002551667811676546,
      0.0019181352083819379,
      0.0016752633260227697,
      0.004235514802568735,
      0.00040447665831322866,
      0.0009652651613357687,
      0.0006936970064457057,
      0.0025213242981705995,
      0.008569603525804737,
      0.004042510530858525,
      0.0015539407619904774,
      0.013755189258312147,
      0.0007287543679081886,
      0.0001758839648547504,
      0.000563072289949224,
      0.0008888111664626537,
      0.0001540189095686592,
      0.0008180580611018782,
      0.00027669415356300646,
      0.000330589622251068,
      0.0011458365952758105,
      0.0002563410271432462,
      0.0003971209232759137,
      0.0005196909084647319,
      0.00019265777635961746,
      0.00030492736043736147,
      0.00041538704020880804,
      0.00019519468271819867,
      0.0008927237711801327,
      0.0005568078203698091,
      0.0002880165204571606
    ],
    "std_test_score": [
      0.020541695982379447,
      0.012915516368097719,
      0.023677357566402372,
      0.01615946210588183,
      0.013447391357954858,
      0.026574397123783983,
      0.022453798889112968,
      0.01567833397751979,
      0.021933226675162457,
      0.02130867020845871,
      0.025843040785075416,
      0.01989028736761328,
      0.016436586033005324,
      0.017655664001027225,
      0.023392134204889923,
      0.0235198633925174,
      0.014611545466108095,
      0.02208220436693131,
      0.025534834135371606,
      0.023846435341466084,
      0.03069883780985004,
      0.03161431571085802,
      0.030751615862224198,
      0.04592131448561669,
      0.023398021533141616,
      0.004058710373342726,
      0.0,
      0.0,
      0.0,
      0.0,
      0.0
    ],
    "std_train_score": [
      0.0023505089797642466,
      0.006968980833493054,
      0.009443384979883031,
      0.011108177468548757,
      0.002694102014000606,
      0.0065126903007465455,
      0.007469135960987718,
      0.0073431088684289365,
      0.0056372881411231885,
      0.004449713619426698,
      0.005382403664820055,
      0.01143934806486726,
      0.010152073252810078,
      0.010738543976068373,
      0.001655203358771901,
      0.011174962184139173,
      0.004645574565715456,
      0.004034611988019789,
      0.003587361457314836,
      0.004400010517969519,
      0.00903207364259564,
      0.00606772409983313,
      0.006310034762108998,
      0.02878047339809517,
      0.029363330691308313,
      0.0018933565483665446,
      0.0,
      0.0,
      0.0,
      0.0,
      0.0
    ]
  },
  "xval_grid": {
    "clf__alpha": [
      1e-10,
      3.1622776601683795e-10,
      1e-09,
      3.1622776601683795e-09,
      1e-08,
      3.162277660168379e-08,
      1e-07,
      3.162277660168379e-07,
      1e-06,
      3.162277660168379e-06,
      1e-05,
      3.1622776601683795e-05,
      0.0001,
      0.00031622776601683794,
      0.001,
      0.0031622776601683794,
      0.01,
      0.03162277660168379,
      0.1,
      0.31622776601683794,
      1.0,
      3.1622776601683795,
      10.0,
      31.622776601683793,
      100.0,
      316.22776601683796,
      1000.0,
      3162.2776601683795,
      10000.0,
      31622.776601683792,
      100000.0
    ]
  }
}