[
  {
    "fold_id": 0,
    "test": {
      "accuracy": 0.8777777777777778,
      "confusion_matrix": [
        [
          363,
          42
        ],
        [
          57,
          348
        ]
      ],
      "f1_macro": 0.8777358490566038,
      "f1_micro": 0.8777777777777779,
      "f1_weighted": 0.8777358490566038,
      "per_class": {
        "y=0": {
          "accuracy": 0.8777777777777778,
          "confusion_matrix": [
            [
              348,
              57
            ],
            [
              42,
              363
            ]
          ],
          "f1": 0.88,
          "precision": 0.8642857142857143,
          "recall": 0.8962962962962963
        },
        "y=1": {
          "accuracy": 0.8777777777777778,
          "confusion_matrix": [
            [
              363,
              42
            ],
            [
              57,
              348
            ]
          ],
          "f1": 0.8754716981132076,
          "precision": 0.8923076923076924,
          "recall": 0.8592592592592593
        }
      },
      "precision_macro": 0.8782967032967033,
      "precision_micro": 0.8777777777777778,
      "precision_weighted": 0.8782967032967033,
      "recall_macro": 0.8777777777777778,
      "recall_micro": 0.8777777777777778,
      "recall_weighted": 0.8777777777777778
    },
    "train": {
      "accuracy": 0.9501557632398754,
      "confusion_matrix": [
        [
          1536,
          69
        ],
        [
          91,
          1514
        ]
      ],
      "f1_macro": 0.9501534218666534,
      "f1_micro": 0.9501557632398754,
      "f1_weighted": 0.9501534218666534,
      "per_class": {
        "y=0": {
          "accuracy": 0.9501557632398754,
          "confusion_matrix": [
            [
              1514,
              91
            ],
            [
              69,
              1536
            ]
          ],
          "f1": 0.9504950495049505,
          "precision": 0.9440688383527965,
          "recall": 0.9570093457943926
        },
        "y=1": {
          "accuracy": 0.9501557632398754,
          "confusion_matrix": [
            [
              1536,
              69
            ],
            [
              91,
              1514
            ]
          ],
          "f1": 0.9498117942283564,
          "precision": 0.9564118761844599,
          "recall": 0.9433021806853582
        }
      },
      "precision_macro": 0.9502403572686282,
      "precision_micro": 0.9501557632398754,
      "precision_weighted": 0.9502403572686283,
      "recall_macro": 0.9501557632398754,
      "recall_micro": 0.9501557632398754,
      "recall_weighted": 0.9501557632398754
    },
    "xval": {
      "mean_fit_time": [
        5.767127275466919,
        5.5413960218429565,
        6.539911091327667,
        5.205808579921722,
        5.7568612694740295,
        6.148233652114868,
        5.565654516220093,
        5.698061883449554,
        6.099844574928284,
        6.269204556941986,
        5.583219110965729,
        6.007257103919983
      ],
      "mean_score_time": [
        0.025583505630493164,
        0.04048424959182739,
        0.05581080913543701,
        0.02628946304321289,
        0.04403972625732422,
        0.06549805402755737,
        0.034484922885894775,
        0.05027574300765991,
        0.058511197566986084,
        0.04297846555709839,
        0.04467278718948364,
        0.07957237958908081
      ],
      "mean_test_score": [
        -77.24623957777153,
        -257.8821422381299,
        -603.0006329709413,
        -77.22740020193679,
        -267.7038231757361,
        -732.2618981627659,
        -78.38506669779022,
        -301.6958933516465,
        -1183.1347015023466,
        -81.96171574367445,
        -411.0595452101839,
        -420.32599918
      ],
      "mean_train_score": [
        -77.63248964035648,
        -256.38070891356557,
        -540.7983954412704,
        -76.21299178801712,
        -245.53407934167709,
        -490.3841288370852,
        -74.38011430585493,
        -227.91086300694553,
        -371.2140631395743,
        -71.6543518318828,
        -195.04213730010014,
        120.68665613722877
      ],
      "param_gmm__n_components": [
        1,
        1,
        1,
        2,
        2,
        2,
        4,
        4,
        4,
        8,
        8,
        8
      ],
      "param_pca__n_components": [
        0.5,
        0.75,
        0.9,
        0.5,
        0.75,
        0.9,
        0.5,
        0.75,
        0.9,
        0.5,
        0.75,
        0.9
      ],
      "params": [
        {
          "gmm__n_components": 1,
          "pca__n_components": 0.5
        },
        {
          "gmm__n_components": 1,
          "pca__n_components": 0.75
        },
        {
          "gmm__n_components": 1,
          "pca__n_components": 0.9
        },
        {
          "gmm__n_components": 2,
          "pca__n_components": 0.5
        },
        {
          "gmm__n_components": 2,
          "pca__n_components": 0.75
        },
        {
          "gmm__n_components": 2,
          "pca__n_components": 0.9
        },
        {
          "gmm__n_components": 4,
          "pca__n_components": 0.5
        },
        {
          "gmm__n_components": 4,
          "pca__n_components": 0.75
        },
        {
          "gmm__n_components": 4,
          "pca__n_components": 0.9
        },
        {
          "gmm__n_components": 8,
          "pca__n_components": 0.5
        },
        {
          "gmm__n_components": 8,
          "pca__n_components": 0.75
        },
        {
          "gmm__n_components": 8,
          "pca__n_components": 0.9
        }
      ],
      "rank_test_score": [
        2,
        5,
        9,
        1,
        6,
        10,
        3,
        7,
        11,
        4,
        8,
        12
      ],
      "split0_test_score": [
        -76.75483949845105,
        -259.6365127274956,
        -606.7529495471803,
        -76.68822031636276,
        -269.45620165576986,
        -740.520874530881,
        -77.58388252766883,
        -301.7339952638378,
        -1299.8357619834544,
        -81.41009679648496,
        -418.5619894567094,
        -3682.492124290304
      ],
      "split0_train_score": [
        -76.91284418432046,
        -256.95670630103956,
        -539.9147585112737,
        -75.53917017422968,
        -246.72324410205542,
        -489.44629456321536,
        -73.77216050017888,
        -228.6415987958802,
        -377.9174612009153,
        -71.05384246689594,
        -194.64740578667727,
        -1.8907250318051971
      ],
      "split1_test_score": [
        -79.22197441127435,
        -255.7596009797864,
        -591.326768212647,
        -79.14356268989673,
        -265.48623117737947,
        -721.596552081246,
        -80.45609147398142,
        -294.4960547582286,
        -1248.5491440686512,
        -84.12964600706026,
        -404.05736593959284,
        -27373081.984185383
      ],
      "split1_train_score": [
        -79.92130417331298,
        -257.3437766429168,
        -541.6576539576943,
        -78.34886781265737,
        -246.06315852460892,
        -490.51764554352167,
        -76.50385077145901,
        -228.3164425812265,
        -342.40136813338194,
        -73.5687536134768,
        -200.36600543842124,
        99.53398864218029
      ],
      "split2_test_score": [
        -76.41202312915057,
        -258.82311510050954,
        -606.9576519495662,
        -76.44173017470888,
        -268.88180103956716,
        -737.1971991922719,
        -77.51346703068029,
        -306.5644023860121,
        -1168.2656167518317,
        -80.70849264760827,
        -417.7418179349609,
        -82508190.05631599
      ],
      "split2_train_score": [
        -76.86640425563442,
        -256.86809695347904,
        -542.7546156832356,
        -75.53728506223949,
        -246.14098780478835,
        -492.0793650378161,
        -73.64316911223555,
        -228.1383524976856,
        -351.0582223287891,
        -71.03135501321874,
        -193.23543834354237,
        205.32629113782528
      ],
      "split3_test_score": [
        -76.60226377320167,
        -257.2874105136111,
        -606.9182582171687,
        -76.64282737534846,
        -266.96915409922735,
        -729.6297296420631,
        -77.99684056095687,
        -303.988644724605,
        -1014.429519949435,
        -81.60552276038416,
        -403.7832269563909,
        -58856563.3942945
      ],
      "split3_train_score": [
        -76.82940594815804,
        -254.3542557568268,
        -538.8665536128779,
        -75.42664410294188,
        -243.2089269352557,
        -489.4932102037875,
        -73.60127683954622,
        -226.54705815298988,
        -413.4792008952109,
        -70.96345623393971,
        -191.91969963175973,
        179.7770698007147
      ],
      "std_fit_time": [
        0.4649433186318167,
        0.4280365732969167,
        0.6908413029236341,
        0.2587511334268231,
        0.353558199108249,
        0.7216387403224283,
        0.4127615021286127,
        0.5841085231749702,
        0.8258584058641218,
        0.6107603983267564,
        0.2322404788967702,
        0.6465300115843713
      ],
      "std_score_time": [
        0.002012995362845007,
        0.009372030522545738,
        0.006638844995479665,
        0.0028483938540128343,
        0.00953790222813528,
        0.016919584434735978,
        0.0034577018939191224,
        0.011913236402663018,
        0.0011250115637876548,
        0.011760243516645822,
        0.010402469488107417,
        0.004608992146968992
      ],
      "std_test_score": [
        1.1447991583522568,
        1.4860183817839023,
        6.726351829460961,
        1.1078907407475789,
        1.5750627134688229,
        7.30464690051382,
        1.20739867767678,
        4.487385844047033,
        107.94131784854919,
        1.292725894184358,
        7.12362300064389,
        31274999.92329283
      ],
      "std_train_score": [
        1.3217783269166177,
        1.1835679046427579,
        1.5064818209243522,
        1.2339898926778614,
        1.36644696245598,
        1.0682838601664122,
        1.2277561262825558,
        0.8078033071815979,
        27.693441134054222,
        1.1057811087789797,
        3.2215354659780537,
        80.82109024934459
      ]
    },
    "xval_grid": {
      "gmm__n_components": [
        1,
        2,
        4,
        8
      ],
      "pca__n_components": [
        0.5,
        0.75,
        0.9
      ]
    }
  },
  {
    "fold_id": 1,
    "test": {
      "accuracy": 0.9209876543209876,
      "confusion_matrix": [
        [
          378,
          27
        ],
        [
          37,
          368
        ]
      ],
      "f1_macro": 0.9209756097560976,
      "f1_micro": 0.9209876543209876,
      "f1_weighted": 0.9209756097560976,
      "per_class": {
        "y=0": {
          "accuracy": 0.9209876543209876,
          "confusion_matrix": [
            [
              368,
              37
            ],
            [
              27,
              378
            ]
          ],
          "f1": 0.9219512195121952,
          "precision": 0.9108433734939759,
          "recall": 0.9333333333333333
        },
        "y=1": {
          "accuracy": 0.9209876543209876,
          "confusion_matrix": [
            [
              378,
              27
            ],
            [
              37,
              368
            ]
          ],
          "f1": 0.92,
          "precision": 0.9316455696202531,
          "recall": 0.908641975308642
        }
      },
      "precision_macro": 0.9212444715571145,
      "precision_micro": 0.9209876543209876,
      "precision_weighted": 0.9212444715571146,
      "recall_macro": 0.9209876543209876,
      "recall_micro": 0.9209876543209876,
      "recall_weighted": 0.9209876543209876
    },
    "train": {
      "accuracy": 0.9171339563862928,
      "confusion_matrix": [
        [
          1483,
          122
        ],
        [
          144,
          1461
        ]
      ],
      "f1_macro": 0.9171300638533113,
      "f1_micro": 0.9171339563862928,
      "f1_weighted": 0.9171300638533112,
      "per_class": {
        "y=0": {
          "accuracy": 0.9171339563862928,
          "confusion_matrix": [
            [
              1461,
              144
            ],
            [
              122,
              1483
            ]
          ],
          "f1": 0.9176980198019802,
          "precision": 0.9114935464044254,
          "recall": 0.92398753894081
        },
        "y=1": {
          "accuracy": 0.9171339563862928,
          "confusion_matrix": [
            [
              1483,
              122
            ],
            [
              144,
              1461
            ]
          ],
          "f1": 0.9165621079046424,
          "precision": 0.9229311433986103,
          "recall": 0.9102803738317757
        }
      },
      "precision_macro": 0.9172123449015178,
      "precision_micro": 0.9171339563862928,
      "precision_weighted": 0.9172123449015178,
      "recall_macro": 0.9171339563862928,
      "recall_micro": 0.9171339563862928,
      "recall_weighted": 0.9171339563862928
    },
    "xval": {
      "mean_fit_time": [
        8.311602771282196,
        7.100425839424133,
        6.195988655090332,
        5.170466721057892,
        5.617885053157806,
        5.974836587905884,
        5.3475788831710815,
        5.240275979042053,
        5.5349825620651245,
        5.892475783824921,
        5.728629171848297,
        6.141089916229248
      ],
      "mean_score_time": [
        0.03332197666168213,
        0.04738616943359375,
        0.06600058078765869,
        0.026540279388427734,
        0.05068391561508179,
        0.05564624071121216,
        0.03203892707824707,
        0.04208338260650635,
        0.06015568971633911,
        0.036665916442871094,
        0.049517810344696045,
        0.08813780546188354
      ],
      "mean_test_score": [
        -77.19577699261413,
        -258.56767802287,
        -602.6776086660436,
        -77.20285369796412,
        -268.02070852538304,
        -692.1585051155399,
        -78.10691484959476,
        -296.3000395798035,
        -1179.4852147282875,
        -81.91376477910119,
        -412.3585817511096,
        -720.47882909
      ],
      "mean_train_score": [
        -77.67043009590364,
        -256.51976074648337,
        -540.0426236786506,
        -76.31950617398786,
        -246.24341236249023,
        -491.89786250225615,
        -74.43707698647084,
        -227.08523821908972,
        -339.95028205367913,
        -71.69194551581921,
        -194.4345591018579,
        145.01308827299238
      ],
      "param_gmm__n_components": [
        1,
        1,
        1,
        2,
        2,
        2,
        4,
        4,
        4,
        8,
        8,
        8
      ],
      "param_pca__n_components": [
        0.5,
        0.75,
        0.9,
        0.5,
        0.75,
        0.9,
        0.5,
        0.75,
        0.9,
        0.5,
        0.75,
        0.9
      ],
      "params": [
        {
          "gmm__n_components": 1,
          "pca__n_components": 0.5
        },
        {
          "gmm__n_components": 1,
          "pca__n_components": 0.75
        },
        {
          "gmm__n_components": 1,
          "pca__n_components": 0.9
        },
        {
          "gmm__n_components": 2,
          "pca__n_components": 0.5
        },
        {
          "gmm__n_components": 2,
          "pca__n_components": 0.75
        },
        {
          "gmm__n_components": 2,
          "pca__n_components": 0.9
        },
        {
          "gmm__n_components": 4,
          "pca__n_components": 0.5
        },
        {
          "gmm__n_components": 4,
          "pca__n_components": 0.75
        },
        {
          "gmm__n_components": 4,
          "pca__n_components": 0.9
        },
        {
          "gmm__n_components": 8,
          "pca__n_components": 0.5
        },
        {
          "gmm__n_components": 8,
          "pca__n_components": 0.75
        },
        {
          "gmm__n_components": 8,
          "pca__n_components": 0.9
        }
      ],
      "rank_test_score": [
        1,
        5,
        9,
        2,
        6,
        10,
        3,
        7,
        11,
        4,
        8,
        12
      ],
      "split0_test_score": [
        -76.97696129312054,
        -262.20620222954557,
        -610.148362360534,
        -77.01072611200085,
        -273.475862610489,
        -731.7126078782964,
        -78.17765222256509,
        -301.63597776611124,
        -1262.3076738416923,
        -81.86234061313151,
        -407.7014425935707,
        -85578315.86046784
      ],
      "split0_train_score": [
        -76.91284418432046,
        -256.95670630103956,
        -539.9147585112737,
        -75.51962595547734,
        -246.84195405886678,
        -490.50340419035103,
        -73.7845309294979,
        -226.1793054187233,
        -344.13049720112923,
        -71.09506082810144,
        -191.5645821340428,
        72.49657870528436
      ],
      "split1_test_score": [
        -79.13713956118053,
        -256.3884636933801,
        -590.5212041335107,
        -79.2558096939877,
        -264.15567179491666,
        -669.0983550586598,
        -80.19726995327686,
        -293.4464475546553,
        -1129.0694656294256,
        -83.27160933292096,
        -398.24739603474563,
        -61725646.819606304
      ],
      "split1_train_score": [
        -79.98158396286928,
        -257.38265617179985,
        -540.1637456655875,
        -78.52882753138934,
        -246.84580567395722,
        -488.7282163103745,
        -76.45945861461438,
        -228.7062802410714,
        -341.68000029534494,
        -73.6804594392205,
        -187.89926825803735,
        138.2886728632607
      ],
      "split2_test_score": [
        -76.17704324977723,
        -258.59158042352783,
        -604.4914903363085,
        -76.08435546487789,
        -268.0029401759868,
        -679.184079707619,
        -76.82137575750703,
        -295.54347299591956,
        -1169.1721575009403,
        -80.76267243105107,
        -430.81572309322837,
        -62410294.501680315
      ],
      "split2_train_score": [
        -76.90812112740814,
        -257.1456169439732,
        -541.1911517226234,
        -75.66037179033071,
        -247.02526735590695,
        -505.27119921226927,
        -73.81057713124783,
        -229.27096996920105,
        -340.19006816467066,
        -70.99735545438529,
        -196.85272291963602,
        190.39543124589713
      ],
      "split3_test_score": [
        -76.49469906262188,
        -257.03898419244297,
        -605.4559934126403,
        -76.46292511581458,
        -266.38017009407577,
        -688.1445515330497,
        -77.23047724786795,
        -294.507560775199,
        -1156.356281202174,
        -81.7590795413758,
        -412.7279795223632,
        -78329958.27879144
      ],
      "split3_train_score": [
        -76.8791711090167,
        -254.59406356912095,
        -538.9008388151175,
        -75.5691994187541,
        -244.2606223612299,
        -483.08863029602986,
        -73.69374127052329,
        -224.18439724736314,
        -333.80056255357164,
        -70.99490634156962,
        -201.42166309571542,
        178.87167027752736
      ],
      "std_fit_time": [
        0.8463446751566832,
        1.630427488228908,
        0.8239528419815894,
        0.0934279622457059,
        0.8423288803499368,
        0.5944071844493599,
        0.11741271954039394,
        0.11094522192178305,
        0.1194405761194356,
        0.4045476060550147,
        0.40882041777250305,
        0.2848627179818963
      ],
      "std_score_time": [
        0.01144962062064298,
        0.015053884957716555,
        0.0159448889400767,
        0.001782491235566975,
        0.019358130124938176,
        0.011786098256723467,
        0.004599532666515324,
        0.007494200810214465,
        0.002311102286917375,
        0.0038476049464184173,
        0.011171190590734452,
        0.0157116842396725
      ],
      "std_test_score": [
        1.1543439441198895,
        2.259809788725469,
        7.325074462032634,
        1.2279745852253718,
        3.4500758366342636,
        23.943347944797882,
        1.301368023032682,
        3.1870649781306795,
        50.24143256209753,
        0.892385294496027,
        11.833614305873125,
        10282696.279052472
      ],
      "std_train_score": [
        1.3344075799767454,
        1.1219977196407942,
        0.8145258404638344,
        1.276550781099528,
        1.1471577140731397,
        8.19206747085176,
        1.1684277749952223,
        2.039656411169695,
        3.81911871979484,
        1.1487795608681923,
        5.138431975800223,
        46.12434972862572
      ]
    },
    "xval_grid": {
      "gmm__n_components": [
        1,
        2,
        4,
        8
      ],
      "pca__n_components": [
        0.5,
        0.75,
        0.9
      ]
    }
  },
  {
    "fold_id": 2,
    "test": {
      "accuracy": 0.8875,
      "confusion_matrix": [
        [
          361,
          39
        ],
        [
          51,
          349
        ]
      ],
      "f1_macro": 0.8874746818034058,
      "f1_micro": 0.8875,
      "f1_weighted": 0.8874746818034057,
      "per_class": {
        "y=0": {
          "accuracy": 0.8875,
          "confusion_matrix": [
            [
              349,
              51
            ],
            [
              39,
              361
            ]
          ],
          "f1": 0.8891625615763546,
          "precision": 0.8762135922330098,
          "recall": 0.9025
        },
        "y=1": {
          "accuracy": 0.8875,
          "confusion_matrix": [
            [
              361,
              39
            ],
            [
              51,
              349
            ]
          ],
          "f1": 0.8857868020304569,
          "precision": 0.8994845360824743,
          "recall": 0.8725
        }
      },
      "precision_macro": 0.887849064157742,
      "precision_micro": 0.8875,
      "precision_weighted": 0.887849064157742,
      "recall_macro": 0.8875,
      "recall_micro": 0.8875,
      "recall_weighted": 0.8875
    },
    "train": {
      "accuracy": 0.9503105590062112,
      "confusion_matrix": [
        [
          1541,
          69
        ],
        [
          91,
          1519
        ]
      ],
      "f1_macro": 0.950308239380026,
      "f1_micro": 0.9503105590062112,
      "f1_weighted": 0.950308239380026,
      "per_class": {
        "y=0": {
          "accuracy": 0.9503105590062112,
          "confusion_matrix": [
            [
              1519,
              91
            ],
            [
              69,
              1541
            ]
          ],
          "f1": 0.9506477483035164,
          "precision": 0.9442401960784313,
          "recall": 0.9571428571428572
        },
        "y=1": {
          "accuracy": 0.9503105590062112,
          "confusion_matrix": [
            [
              1541,
              69
            ],
            [
              91,
              1519
            ]
          ],
          "f1": 0.9499687304565354,
          "precision": 0.9565491183879093,
          "recall": 0.9434782608695652
        }
      },
      "precision_macro": 0.9503946572331703,
      "precision_micro": 0.9503105590062112,
      "precision_weighted": 0.9503946572331703,
      "recall_macro": 0.9503105590062112,
      "recall_micro": 0.9503105590062112,
      "recall_weighted": 0.9503105590062112
    },
    "xval": {
      "mean_fit_time": [
        5.363548278808594,
        6.100469887256622,
        6.444364845752716,
        5.729108929634094,
        15.399292767047882,
        12.143114745616913,
        11.219303965568542,
        13.48227196931839,
        18.84952872991562,
        12.38676530122757,
        11.672891497612,
        8.227280497550964
      ],
      "mean_score_time": [
        0.02217841148376465,
        0.04008328914642334,
        0.0678754448890686,
        0.030865967273712158,
        0.048800528049468994,
        0.13182300329208374,
        0.06955647468566895,
        0.08179914951324463,
        0.09683340787887573,
        0.059910476207733154,
        0.05820894241333008,
        0.08736371994018555
      ],
      "mean_test_score": [
        -78.62098246299774,
        -259.2094253554609,
        -603.3053572550975,
        -78.450345388997,
        -268.4751219265067,
        -726.2673488809493,
        -79.56517149112072,
        -299.6515813399019,
        -1240.2844993876834,
        -83.83149183442904,
        -412.5383979513099,
        -522.78976582
      ],
      "mean_train_score": [
        -79.16234284421243,
        -257.23966982594067,
        -540.7362631575799,
        -77.6978672275507,
        -246.13156989972856,
        -489.17070968331575,
        -75.72925965836818,
        -228.10924493436255,
        -352.3439395809805,
        -72.89391216622926,
        -192.2506744286705,
        134.94862153882514
      ],
      "param_gmm__n_components": [
        1,
        1,
        1,
        2,
        2,
        2,
        4,
        4,
        4,
        8,
        8,
        8
      ],
      "param_pca__n_components": [
        0.5,
        0.75,
        0.9,
        0.5,
        0.75,
        0.9,
        0.5,
        0.75,
        0.9,
        0.5,
        0.75,
        0.9
      ],
      "params": [
        {
          "gmm__n_components": 1,
          "pca__n_components": 0.5
        },
        {
          "gmm__n_components": 1,
          "pca__n_components": 0.75
        },
        {
          "gmm__n_components": 1,
          "pca__n_components": 0.9
        },
        {
          "gmm__n_components": 2,
          "pca__n_components": 0.5
        },
        {
          "gmm__n_components": 2,
          "pca__n_components": 0.75
        },
        {
          "gmm__n_components": 2,
          "pca__n_components": 0.9
        },
        {
          "gmm__n_components": 4,
          "pca__n_components": 0.5
        },
        {
          "gmm__n_components": 4,
          "pca__n_components": 0.75
        },
        {
          "gmm__n_components": 4,
          "pca__n_components": 0.9
        },
        {
          "gmm__n_components": 8,
          "pca__n_components": 0.5
        },
        {
          "gmm__n_components": 8,
          "pca__n_components": 0.75
        },
        {
          "gmm__n_components": 8,
          "pca__n_components": 0.9
        }
      ],
      "rank_test_score": [
        2,
        5,
        9,
        1,
        6,
        10,
        3,
        7,
        11,
        4,
        8,
        12
      ],
      "split0_test_score": [
        -79.76176242643943,
        -260.6975196060564,
        -608.9182936591473,
        -79.38872610464296,
        -270.66932040838634,
        -731.1410176458662,
        -80.54240012479525,
        -302.4600671040324,
        -1359.483365309532,
        -85.27586466494512,
        -435.1032537340719,
        -33399252.956111927
      ],
      "split0_train_score": [
        -79.92130417331298,
        -257.3437766429168,
        -541.6576539576943,
        -78.31437798156203,
        -246.66115074419596,
        -490.4566771799598,
        -76.46116564069037,
        -228.71825022451674,
        -357.15137430551334,
        -73.69501496586626,
        -190.20657477291658,
        65.92167157933808
      ],
      "split1_test_score": [
        -79.50348006702116,
        -258.9045941008673,
        -603.0617457766568,
        -79.13498230912083,
        -268.3752713050788,
        -698.6124243580003,
        -81.18101624205028,
        -298.5918702795522,
        -1139.043406260506,
        -85.22870655504191,
        -422.5537193142346,
        -106445755.74953847
      ],
      "split1_train_score": [
        -79.98158396286928,
        -257.38265617179985,
        -540.1637456655875,
        -78.3919668973532,
        -245.48025369024063,
        -488.80801455310694,
        -76.53272405555083,
        -227.95779647376563,
        -344.39160096042605,
        -73.6577985646378,
        -190.37886303388416,
        153.91172033121748
      ],
      "split2_test_score": [
        -79.1975840091228,
        -258.5336778700933,
        -600.5336300386335,
        -79.03903232113318,
        -266.787618867013,
        -731.8079817686952,
        -79.94909751827308,
        -294.01774226846595,
        -1124.9896129411882,
        -83.99093681901155,
        -402.5811681178106,
        -68700930.0133769
      ],
      "split2_train_score": [
        -79.90100785600976,
        -257.20220140175525,
        -541.6690582648808,
        -78.48669903760064,
        -245.72465898910073,
        -488.6440035266777,
        -76.33950009330634,
        -228.14857623028033,
        -335.4551831325137,
        -73.40165664572334,
        -196.072241859189,
        199.15574164471215
      ],
      "split3_test_score": [
        -75.99581237981431,
        -258.6871190573768,
        -600.6406429843823,
        -76.21835310064385,
        -268.04209777729295,
        -743.7927374482108,
        -76.55575866205672,
        -303.51478602375977,
        -1337.3971408795735,
        -80.7949394543285,
        -389.50819842480155,
        -17637.300959526394
      ],
      "split3_train_score": [
        -76.84547538465772,
        -257.0300450872907,
        -539.4545947421572,
        -75.59842499368695,
        -246.6602161753769,
        -488.77414347351845,
        -73.58364884392518,
        -227.61235680888754,
        -372.37759992546876,
        -70.82117848868964,
        -192.34501804869222,
        120.80535260003285
      ],
      "std_fit_time": [
        0.25419208970948,
        0.958503452442823,
        1.2713970717861025,
        0.19127611888960852,
        3.6731197000780114,
        1.7808196224833366,
        4.307684534119176,
        2.0277685709312125,
        7.671979529060025,
        2.6439645410544053,
        3.1424967748949335,
        1.5200045963813968
      ],
      "std_score_time": [
        0.0029062312030071827,
        0.012701766899850114,
        0.012751085268199598,
        0.006440228596764443,
        0.010064980481487537,
        0.11248609669178807,
        0.06119997211458262,
        0.04354806936214223,
        0.028684123875368665,
        0.008151289471687988,
        0.01540902417432933,
        0.019029003630068975
      ],
      "std_test_score": [
        1.5225159397269343,
        0.8727235811825063,
        3.4077781164366363,
        1.2896620998282848,
        1.4027443889234543,
        16.801672488107123,
        1.7842978999118246,
        3.722942307272678,
        108.61937779381083,
        1.8201750773989007,
        17.598943975367245,
        39664869.5173471
      ],
      "std_train_score": [
        1.337972265628593,
        0.13841038464297198,
        0.9604058939413965,
        1.2136487526575652,
        0.5361231317321961,
        0.7449738743901645,
        1.2406934109589056,
        0.4007083851535941,
        13.900798172592074,
        1.2020105531695058,
        2.3608949386272937,
        48.59759578694807
      ]
    },
    "xval_grid": {
      "gmm__n_components": [
        1,
        2,
        4,
        8
      ],
      "pca__n_components": [
        0.5,
        0.75,
        0.9
      ]
    }
  },
  {
    "fold_id": 3,
    "test": {
      "accuracy": 0.8975,
      "confusion_matrix": [
        [
          354,
          46
        ],
        [
          36,
          364
        ]
      ],
      "f1_macro": 0.8974839818721675,
      "f1_micro": 0.8975,
      "f1_weighted": 0.8974839818721675,
      "per_class": {
        "y=0": {
          "accuracy": 0.8975,
          "confusion_matrix": [
            [
              364,
              36
            ],
            [
              46,
              354
            ]
          ],
          "f1": 0.8962025316455695,
          "precision": 0.9076923076923077,
          "recall": 0.885
        },
        "y=1": {
          "accuracy": 0.8975,
          "confusion_matrix": [
            [
              354,
              46
            ],
            [
              36,
              364
            ]
          ],
          "f1": 0.8987654320987655,
          "precision": 0.8878048780487805,
          "recall": 0.91
        }
      },
      "precision_macro": 0.8977485928705441,
      "precision_micro": 0.8975,
      "precision_weighted": 0.8977485928705441,
      "recall_macro": 0.8975,
      "recall_micro": 0.8975,
      "recall_weighted": 0.8975
    },
    "train": {
      "accuracy": 0.9487577639751553,
      "confusion_matrix": [
        [
          1550,
          60
        ],
        [
          105,
          1505
        ]
      ],
      "f1_macro": 0.9487477541570704,
      "f1_micro": 0.9487577639751553,
      "f1_weighted": 0.9487477541570702,
      "per_class": {
        "y=0": {
          "accuracy": 0.9487577639751553,
          "confusion_matrix": [
            [
              1505,
              105
            ],
            [
              60,
              1550
            ]
          ],
          "f1": 0.9494640122511485,
          "precision": 0.9365558912386707,
          "recall": 0.9627329192546584
        },
        "y=1": {
          "accuracy": 0.9487577639751553,
          "confusion_matrix": [
            [
              1550,
              60
            ],
            [
              105,
              1505
            ]
          ],
          "f1": 0.9480314960629921,
          "precision": 0.9616613418530351,
          "recall": 0.9347826086956522
        }
      },
      "precision_macro": 0.9491086165458529,
      "precision_micro": 0.9487577639751553,
      "precision_weighted": 0.9491086165458529,
      "recall_macro": 0.9487577639751553,
      "recall_micro": 0.9487577639751553,
      "recall_weighted": 0.9487577639751553
    },
    "xval": {
      "mean_fit_time": [
        10.495893716812134,
        11.740076005458832,
        11.171796441078186,
        11.917977750301361,
        8.999981701374054,
        11.055247843265533,
        6.359339237213135,
        9.744262635707855,
        6.594524621963501,
        8.326411247253418,
        14.738310992717743,
        6.84910124540329
      ],
      "mean_score_time": [
        0.026708364486694336,
        0.0582050085067749,
        0.07804322242736816,
        0.10011684894561768,
        0.04150724411010742,
        0.17067641019821167,
        0.03614377975463867,
        0.06105172634124756,
        0.06953108310699463,
        0.05399453639984131,
        0.06890928745269775,
        0.08205348253250122
      ],
      "mean_test_score": [
        -77.14244881208974,
        -258.17388416847086,
        -603.9634944042149,
        -77.09655235321137,
        -268.0042632124358,
        -739.9659382173904,
        -78.19791671975986,
        -297.6452660125757,
        -1319.0215169493924,
        -81.7588992689933,
        -406.2323233935508,
        -340.56908074
      ],
      "mean_train_score": [
        -77.6218902730458,
        -256.3827151514255,
        -541.5064416972648,
        -76.2714669569969,
        -245.5265277187541,
        -490.9782543317254,
        -74.34121566395001,
        -228.2928301360044,
        -359.42557838781073,
        -71.55123081527465,
        -195.20883891808526,
        141.22232501227617
      ],
      "param_gmm__n_components": [
        1,
        1,
        1,
        2,
        2,
        2,
        4,
        4,
        4,
        8,
        8,
        8
      ],
      "param_pca__n_components": [
        0.5,
        0.75,
        0.9,
        0.5,
        0.75,
        0.9,
        0.5,
        0.75,
        0.9,
        0.5,
        0.75,
        0.9
      ],
      "params": [
        {
          "gmm__n_components": 1,
          "pca__n_components": 0.5
        },
        {
          "gmm__n_components": 1,
          "pca__n_components": 0.75
        },
        {
          "gmm__n_components": 1,
          "pca__n_components": 0.9
        },
        {
          "gmm__n_components": 2,
          "pca__n_components": 0.5
        },
        {
          "gmm__n_components": 2,
          "pca__n_components": 0.75
        },
        {
          "gmm__n_components": 2,
          "pca__n_components": 0.9
        },
        {
          "gmm__n_components": 4,
          "pca__n_components": 0.5
        },
        {
          "gmm__n_components": 4,
          "pca__n_components": 0.75
        },
        {
          "gmm__n_components": 4,
          "pca__n_components": 0.9
        },
        {
          "gmm__n_components": 8,
          "pca__n_components": 0.5
        },
        {
          "gmm__n_components": 8,
          "pca__n_components": 0.75
        },
        {
          "gmm__n_components": 8,
          "pca__n_components": 0.9
        }
      ],
      "rank_test_score": [
        2,
        5,
        9,
        1,
        6,
        10,
        3,
        7,
        11,
        4,
        8,
        12
      ],
      "split0_test_score": [
        -76.89444170409803,
        -261.210275430399,
        -614.179956024558,
        -77.0285568525083,
        -272.3337398766868,
        -760.7220145208325,
        -78.17668725264541,
        -294.10922535183573,
        -1372.8272844269814,
        -81.07800380012934,
        -430.0711148605301,
        -81075569.18464822
      ],
      "split0_train_score": [
        -76.86640425563442,
        -256.86809695347904,
        -542.7546156832356,
        -75.45538119286812,
        -246.17814229754035,
        -491.71738022089784,
        -73.65902165908666,
        -230.13263253830866,
        -367.98747358533205,
        -70.68318135101778,
        -193.68483224471134,
        169.85380520393636
      ],
      "split1_test_score": [
        -76.39306557187602,
        -258.65047870724163,
        -606.2052362409444,
        -76.13125285835115,
        -268.8375326593468,
        -747.6557723092624,
        -77.3833523692377,
        -299.87779253337203,
        -1342.5925622179213,
        -81.49008117432905,
        -387.9765806397521,
        -43926001.07208088
      ],
      "split1_train_score": [
        -76.90812112740814,
        -257.1456169439732,
        -541.1911517226234,
        -75.54779674337308,
        -246.8249541295089,
        -490.8646760394163,
        -73.7260142086602,
        -229.16031501969155,
        -346.70944476886456,
        -70.99435592099391,
        -191.82680124308916,
        180.9567001791302
      ],
      "split2_test_score": [
        -79.03506314919659,
        -255.9470830505657,
        -589.5864077780028,
        -79.09085016682567,
        -264.62472709460246,
        -713.068666213174,
        -79.91476025258756,
        -293.09199981823457,
        -1205.2622501656274,
        -84.06245974224595,
        -397.09322418248803,
        -10471756.491153426
      ],
      "split2_train_score": [
        -79.90100785600976,
        -257.20220140175525,
        -541.6690582648808,
        -78.62712514249809,
        -245.24590869168355,
        -490.45186412494655,
        -76.39217196035472,
        -227.72900512588458,
        -353.75813544298757,
        -73.59496502940411,
        -200.85397166032152,
        148.12761385270457
      ],
      "split3_test_score": [
        -76.2596922025409,
        -256.8437871631684,
        -605.726650030141,
        -76.14846572260493,
        -266.15651889271754,
        -738.0617259463517,
        -77.32731442728924,
        -303.51834027360957,
        -1354.436760827713,
        -80.41692377881299,
        -409.71858578251835,
        -7698.039458355096
      ],
      "split3_train_score": [
        -76.81202785313091,
        -254.31494530649434,
        -540.4109411183197,
        -75.45556474924831,
        -243.8571057562836,
        -490.87909694164085,
        -73.58765482769843,
        -226.14936786013277,
        -369.2472597540586,
        -70.93242095968277,
        -194.46975052421894,
        65.95118081333355
      ],
      "std_fit_time": [
        2.546275470614048,
        6.147716364992888,
        6.263286797881798,
        5.299112859301712,
        2.6709741681772705,
        3.67699697741499,
        0.8219371471963208,
        3.2687150263907503,
        0.9008683501463629,
        3.836312673663534,
        4.112755222938812,
        1.8490972816569953
      ],
      "std_score_time": [
        0.00988202608490757,
        0.029556837631672703,
        0.021255039669313948,
        0.11862428589178757,
        0.0031137166260956357,
        0.18190352991239048,
        0.005183324246904925,
        0.017402685547012197,
        0.015785017611304242,
        0.016867032111138738,
        0.02139011772289831,
        0.007856968544705079
      ],
      "std_test_score": [
        1.1136777594789615,
        2.0119333855488737,
        8.92450532133081,
        1.2029181766859571,
        2.9284262590316343,
        17.432473949252437,
        1.0429015200288176,
        4.25671816870622,
        66.29352806894079,
        1.3786183920448378,
        15.829108993963022,
        31731063.893810563
      ],
      "std_train_score": [
        1.3162902046978737,
        1.2005045277844022,
        0.8491041947099043,
        1.360562057756625,
        1.115373192093712,
        0.45992552286480526,
        1.1851304943503564,
        1.5041386300032005,
        9.534036893954704,
        1.1856848965532343,
        3.3975929165733274,
        45.03334983890687
      ]
    },
    "xval_grid": {
      "gmm__n_components": [
        1,
        2,
        4,
        8
      ],
      "pca__n_components": [
        0.5,
        0.75,
        0.9
      ]
    }
  },
  {
    "fold_id": 4,
    "test": {
      "accuracy": 0.87375,
      "confusion_matrix": [
        [
          357,
          43
        ],
        [
          58,
          342
        ]
      ],
      "f1_macro": 0.873705599624868,
      "f1_micro": 0.87375,
      "f1_weighted": 0.8737055996248679,
      "per_class": {
        "y=0": {
          "accuracy": 0.87375,
          "confusion_matrix": [
            [
              342,
              58
            ],
            [
              43,
              357
            ]
          ],
          "f1": 0.8760736196319018,
          "precision": 0.8602409638554217,
          "recall": 0.8925
        },
        "y=1": {
          "accuracy": 0.87375,
          "confusion_matrix": [
            [
              357,
              43
            ],
            [
              58,
              342
            ]
          ],
          "f1": 0.8713375796178343,
          "precision": 0.8883116883116883,
          "recall": 0.855
        }
      },
      "precision_macro": 0.874276326083555,
      "precision_micro": 0.87375,
      "precision_weighted": 0.874276326083555,
      "recall_macro": 0.87375,
      "recall_micro": 0.87375,
      "recall_weighted": 0.87375
    },
    "train": {
      "accuracy": 0.9540372670807453,
      "confusion_matrix": [
        [
          1558,
          52
        ],
        [
          96,
          1514
        ]
      ],
      "f1_macro": 0.9540286832617177,
      "f1_micro": 0.9540372670807453,
      "f1_weighted": 0.9540286832617176,
      "per_class": {
        "y=0": {
          "accuracy": 0.9540372670807453,
          "confusion_matrix": [
            [
              1514,
              96
            ],
            [
              52,
              1558
            ]
          ],
          "f1": 0.954656862745098,
          "precision": 0.9419588875453446,
          "recall": 0.9677018633540373
        },
        "y=1": {
          "accuracy": 0.9540372670807453,
          "confusion_matrix": [
            [
              1558,
              52
            ],
            [
              96,
              1514
            ]
          ],
          "f1": 0.9534005037783375,
          "precision": 0.966794380587484,
          "recall": 0.9403726708074535
        }
      },
      "precision_macro": 0.9543766340664144,
      "precision_micro": 0.9540372670807453,
      "precision_weighted": 0.9543766340664144,
      "recall_macro": 0.9540372670807453,
      "recall_micro": 0.9540372670807453,
      "recall_weighted": 0.9540372670807453
    },
    "xval": {
      "mean_fit_time": [
        9.90171480178833,
        6.585804462432861,
        6.6079652309417725,
        7.160707950592041,
        8.758171319961548,
        7.601857006549835,
        7.006017506122589,
        5.570239722728729,
        8.741360604763031,
        8.729005575180054,
        5.97693932056427,
        6.192289412021637
      ],
      "mean_score_time": [
        0.024614274501800537,
        0.041374027729034424,
        0.058453261852264404,
        0.03461050987243652,
        0.04738694429397583,
        0.054651498794555664,
        0.03708481788635254,
        0.04275155067443848,
        0.07799792289733887,
        0.04314476251602173,
        0.045089006423950195,
        0.08350473642349243
      ],
      "mean_test_score": [
        -76.45797600839887,
        -256.8845944791542,
        -600.5184539013076,
        -76.36178750675427,
        -265.99057555877937,
        -711.4843441348029,
        -77.37581525822272,
        -299.7764718811752,
        -1307.7505115084368,
        -80.79279453318978,
        -412.14871009567827,
        -364.148845404
      ],
      "mean_train_score": [
        -76.84152007374085,
        -255.07332742993322,
        -539.4082320721179,
        -75.54322005881397,
        -244.39220701827543,
        -488.91862538523674,
        -73.61136384861452,
        -227.11489248101648,
        -356.9059920290637,
        -70.94128909964721,
        -194.9745845628685,
        108.98253210377105
      ],
      "param_gmm__n_components": [
        1,
        1,
        1,
        2,
        2,
        2,
        4,
        4,
        4,
        8,
        8,
        8
      ],
      "param_pca__n_components": [
        0.5,
        0.75,
        0.9,
        0.5,
        0.75,
        0.9,
        0.5,
        0.75,
        0.9,
        0.5,
        0.75,
        0.9
      ],
      "params": [
        {
          "gmm__n_components": 1,
          "pca__n_components": 0.5
        },
        {
          "gmm__n_components": 1,
          "pca__n_components": 0.75
        },
        {
          "gmm__n_components": 1,
          "pca__n_components": 0.9
        },
        {
          "gmm__n_components": 2,
          "pca__n_components": 0.5
        },
        {
          "gmm__n_components": 2,
          "pca__n_components": 0.75
        },
        {
          "gmm__n_components": 2,
          "pca__n_components": 0.9
        },
        {
          "gmm__n_components": 4,
          "pca__n_components": 0.5
        },
        {
          "gmm__n_components": 4,
          "pca__n_components": 0.75
        },
        {
          "gmm__n_components": 4,
          "pca__n_components": 0.9
        },
        {
          "gmm__n_components": 8,
          "pca__n_components": 0.5
        },
        {
          "gmm__n_components": 8,
          "pca__n_components": 0.75
        },
        {
          "gmm__n_components": 8,
          "pca__n_components": 0.9
        }
      ],
      "rank_test_score": [
        2,
        5,
        9,
        1,
        6,
        10,
        3,
        7,
        11,
        4,
        8,
        12
      ],
      "split0_test_score": [
        -76.88608969232966,
        -259.15168432986326,
        -609.0020760811943,
        -76.80579226424284,
        -269.3650910494418,
        -758.9966578122891,
        -78.03087791383922,
        -304.4515408456543,
        -1632.368324718527,
        -81.85161638950315,
        -425.980220926298,
        -32720061.604072873
      ],
      "split0_train_score": [
        -76.82940594815804,
        -254.3542557568268,
        -538.8665536128779,
        -75.64715073444604,
        -243.50733387973298,
        -487.8194631818144,
        -73.69469942730473,
        -227.36731040223242,
        -388.55661436667435,
        -70.89549728273286,
        -192.85081155831355,
        78.1940279386114
      ],
      "split1_test_score": [
        -76.7214881927467,
        -256.6621565195681,
        -603.5153310482887,
        -76.55363115413753,
        -265.4114620489634,
        -693.5549576887252,
        -77.63695436575748,
        -301.6320858576718,
        -1099.3000281147572,
        -81.57055974594252,
        -423.8507674908468,
        -64244244.12337414
      ],
      "split1_train_score": [
        -76.8791711090167,
        -254.59406356912095,
        -538.9008388151175,
        -75.5862034871932,
        -243.57473688181494,
        -489.04611003113024,
        -73.64364272048417,
        -226.9056640525516,
        -328.5892174302238,
        -71.0091281894933,
        -190.0902653477504,
        137.58381063603358
      ],
      "split2_test_score": [
        -75.9129464160616,
        -255.38497833815254,
        -587.0340167136477,
        -75.9040776576911,
        -262.82228719483606,
        -680.1092821502051,
        -76.7380301560499,
        -294.37078765572716,
        -1209.9210961922454,
        -79.79141668220709,
        -384.36281280999515,
        -20757371.180129666
      ],
      "split2_train_score": [
        -76.84547538465772,
        -257.0300450872907,
        -539.4545947421572,
        -75.35776729373642,
        -246.20358203280946,
        -489.6624103990067,
        -73.53616482237274,
        -227.5575456408906,
        -364.035423470033,
        -70.91406403190746,
        -196.84198271652875,
        127.1333183853479
      ],
      "split3_test_score": [
        -76.30273440910405,
        -256.3140005803938,
        -602.3788855205131,
        -76.17570084588469,
        -266.32851941711556,
        -712.9066922975995,
        -77.0859460752049,
        -298.56983962888535,
        -1287.9605053855123,
        -79.93462797674302,
        -414.0818695527511,
        -27679128.74493299
      ],
      "split3_train_score": [
        -76.81202785313091,
        -254.31494530649434,
        -540.4109411183197,
        -75.58175871988021,
        -244.2831752787444,
        -489.1465179289959,
        -73.57094842429645,
        -226.6290498283913,
        -346.4427128493237,
        -70.94646689445526,
        -200.11527862888136,
        93.01897145509129
      ],
      "std_fit_time": [
        2.9772298203712917,
        1.2156218971792263,
        1.3774495669139393,
        1.294738803234344,
        1.3182896993495046,
        1.788607526487773,
        0.8618169888989476,
        0.4069600978971423,
        1.7219204813554503,
        2.677479799143125,
        0.5922146422601536,
        0.5375638039342785
      ],
      "std_score_time": [
        0.0034996940443307732,
        0.006956435957392453,
        0.008991616742782012,
        0.005854893020323515,
        0.0034348827185863287,
        0.008174413257637845,
        0.009113320682385248,
        0.0043402049329871245,
        0.004890129433816645,
        0.0024204565756148376,
        0.004560201697846858,
        0.009601483826693138
      ],
      "std_test_score": [
        0.37863311149657886,
        1.3946183781018608,
        8.14856286497505,
        0.3456904383401573,
        2.339056376767663,
        29.896452660510807,
        0.49702492658731734,
        3.739771177544631,
        199.78306348445594,
        0.9307453994343863,
        16.59263582132231,
        16677036.16310655
      ],
      "std_train_score": [
        0.024747666844236436,
        1.1347516639237663,
        0.6241871512139203,
        0.11014435632870757,
        1.0890621261918467,
        0.6763063363928845,
        0.06179612511179509,
        0.3672452332179688,
        22.15801560329932,
        0.043206036846634245,
        3.817096321639058,
        24.239695922348478
      ]
    },
    "xval_grid": {
      "gmm__n_components": [
        1,
        2,
        4,
        8
      ],
      "pca__n_components": [
        0.5,
        0.75,
        0.9
      ]
    }
  }
]