[
  {
    "fold_id": 0,
    "test": {
      "accuracy": 0.9024691358024691,
      "confusion_matrix": [
        [
          378,
          27
        ],
        [
          52,
          353
        ]
      ],
      "f1_macro": 0.9023761394408635,
      "f1_micro": 0.9024691358024691,
      "f1_weighted": 0.9023761394408635,
      "per_class": {
        "y=0": {
          "accuracy": 0.9024691358024691,
          "confusion_matrix": [
            [
              353,
              52
            ],
            [
              27,
              378
            ]
          ],
          "f1": 0.9053892215568863,
          "precision": 0.8790697674418605,
          "recall": 0.9333333333333333
        },
        "y=1": {
          "accuracy": 0.9024691358024691,
          "confusion_matrix": [
            [
              378,
              27
            ],
            [
              52,
              353
            ]
          ],
          "f1": 0.8993630573248407,
          "precision": 0.9289473684210526,
          "recall": 0.8716049382716049
        }
      },
      "precision_macro": 0.9040085679314566,
      "precision_micro": 0.9024691358024691,
      "precision_weighted": 0.9040085679314565,
      "recall_macro": 0.9024691358024691,
      "recall_micro": 0.9024691358024691,
      "recall_weighted": 0.9024691358024691
    },
    "train": {
      "accuracy": 0.9965732087227415,
      "confusion_matrix": [
        [
          1599,
          6
        ],
        [
          5,
          1600
        ]
      ],
      "f1_macro": 0.9965732083901756,
      "f1_micro": 0.9965732087227415,
      "f1_weighted": 0.9965732083901755,
      "per_class": {
        "y=0": {
          "accuracy": 0.9965732087227415,
          "confusion_matrix": [
            [
              1600,
              5
            ],
            [
              6,
              1599
            ]
          ],
          "f1": 0.9965721408538486,
          "precision": 0.9968827930174564,
          "recall": 0.9962616822429906
        },
        "y=1": {
          "accuracy": 0.9965732087227415,
          "confusion_matrix": [
            [
              1599,
              6
            ],
            [
              5,
              1600
            ]
          ],
          "f1": 0.9965742759265026,
          "precision": 0.9962640099626401,
          "recall": 0.9968847352024922
        }
      },
      "precision_macro": 0.9965734014900482,
      "precision_micro": 0.9965732087227415,
      "precision_weighted": 0.9965734014900482,
      "recall_macro": 0.9965732087227415,
      "recall_micro": 0.9965732087227415,
      "recall_weighted": 0.9965732087227415
    },
    "xval": {
      "mean_fit_time": [
        0.3372917175292969,
        0.2127261757850647,
        0.20945096015930176,
        0.23487639427185059,
        0.24638009071350098,
        0.21605199575424194,
        0.20800304412841797,
        0.21372991800308228,
        0.34145909547805786,
        0.31026744842529297,
        0.22751468420028687,
        0.2686784267425537,
        0.2971014380455017,
        0.36850953102111816,
        0.36021673679351807,
        0.3253607749938965,
        0.3271869421005249,
        0.2807682752609253,
        0.3232297897338867,
        0.24380093812942505,
        0.4174410104751587,
        0.3930494785308838,
        0.34703075885772705,
        0.28972673416137695,
        0.3549273610115051,
        0.2802363634109497,
        0.24830496311187744,
        0.229864239692688,
        0.18318229913711548,
        0.20511221885681152,
        0.231137216091156
      ],
      "mean_score_time": [
        0.027566075325012207,
        0.024188876152038574,
        0.021329224109649658,
        0.024568557739257812,
        0.024273455142974854,
        0.024979770183563232,
        0.02167344093322754,
        0.024678468704223633,
        0.0419543981552124,
        0.03639107942581177,
        0.02162778377532959,
        0.02354484796524048,
        0.024539828300476074,
        0.021917223930358887,
        0.02104741334915161,
        0.02194279432296753,
        0.02240365743637085,
        0.022617459297180176,
        0.025858938694000244,
        0.021851003170013428,
        0.03256833553314209,
        0.04936027526855469,
        0.033729612827301025,
        0.023508548736572266,
        0.04483067989349365,
        0.028160154819488525,
        0.027959465980529785,
        0.0261228084564209,
        0.02194046974182129,
        0.02794557809829712,
        0.022485315799713135
      ],
      "mean_test_score": [
        0.9118380062305296,
        0.9121495327102803,
        0.9130841121495327,
        0.9049844236760125,
        0.907165109034268,
        0.9137071651090343,
        0.9068535825545171,
        0.9109034267912772,
        0.9043613707165109,
        0.9077881619937694,
        0.902803738317757,
        0.9090342679127725,
        0.9161993769470405,
        0.9124610591900312,
        0.9146417445482866,
        0.908411214953271,
        0.9034267912772586,
        0.9080996884735203,
        0.8990654205607477,
        0.9118380062305296,
        0.9143302180685359,
        0.9105919003115265,
        0.8890965732087227,
        0.8897196261682243,
        0.8535825545171339,
        0.7922118380062305,
        0.6420560747663552,
        0.5,
        0.5,
        0.5,
        0.5
      ],
      "mean_train_score": [
        0.9961575034578147,
        0.9983376556016598,
        0.9980273167358229,
        0.9947030601659751,
        0.996262102351314,
        0.9964661134163209,
        0.9963684301521438,
        0.9974044778699862,
        0.9985451244813278,
        0.9960524723374827,
        0.9943875345781467,
        0.9977178423236515,
        0.9989626556016598,
        0.9983367911479945,
        0.9965694156293223,
        0.9989626556016598,
        1.0,
        0.9971970089903182,
        0.9943961791147995,
        0.9890988070539419,
        0.9726871542185339,
        0.9491186894882435,
        0.9261730636237897,
        0.9102740318118949,
        0.8785096818810512,
        0.8248050656984786,
        0.6574312759336098,
        0.5004149377593361,
        0.5,
        0.5,
        0.5
      ],
      "param_clf__alpha": [
        1e-10,
        3.1622776601683795e-10,
        1e-09,
        3.1622776601683795e-09,
        1e-08,
        3.162277660168379e-08,
        1e-07,
        3.162277660168379e-07,
        1e-06,
        3.162277660168379e-06,
        1e-05,
        3.1622776601683795e-05,
        0.0001,
        0.00031622776601683794,
        0.001,
        0.0031622776601683794,
        0.01,
        0.03162277660168379,
        0.1,
        0.31622776601683794,
        1.0,
        3.1622776601683795,
        10.0,
        31.622776601683793,
        100.0,
        316.22776601683796,
        1000.0,
        3162.2776601683795,
        10000.0,
        31622.776601683792,
        100000.0
      ],
      "params": [
        {
          "clf__alpha": 1e-10
        },
        {
          "clf__alpha": 3.1622776601683795e-10
        },
        {
          "clf__alpha": 1e-09
        },
        {
          "clf__alpha": 3.1622776601683795e-09
        },
        {
          "clf__alpha": 1e-08
        },
        {
          "clf__alpha": 3.162277660168379e-08
        },
        {
          "clf__alpha": 1e-07
        },
        {
          "clf__alpha": 3.162277660168379e-07
        },
        {
          "clf__alpha": 1e-06
        },
        {
          "clf__alpha": 3.162277660168379e-06
        },
        {
          "clf__alpha": 1e-05
        },
        {
          "clf__alpha": 3.1622776601683795e-05
        },
        {
          "clf__alpha": 0.0001
        },
        {
          "clf__alpha": 0.00031622776601683794
        },
        {
          "clf__alpha": 0.001
        },
        {
          "clf__alpha": 0.0031622776601683794
        },
        {
          "clf__alpha": 0.01
        },
        {
          "clf__alpha": 0.03162277660168379
        },
        {
          "clf__alpha": 0.1
        },
        {
          "clf__alpha": 0.31622776601683794
        },
        {
          "clf__alpha": 1.0
        },
        {
          "clf__alpha": 3.1622776601683795
        },
        {
          "clf__alpha": 10.0
        },
        {
          "clf__alpha": 31.622776601683793
        },
        {
          "clf__alpha": 100.0
        },
        {
          "clf__alpha": 316.22776601683796
        },
        {
          "clf__alpha": 1000.0
        },
        {
          "clf__alpha": 3162.2776601683795
        },
        {
          "clf__alpha": 10000.0
        },
        {
          "clf__alpha": 31622.776601683792
        },
        {
          "clf__alpha": 100000.0
        }
      ],
      "rank_test_score": [
        8,
        7,
        5,
        18,
        16,
        4,
        17,
        10,
        19,
        15,
        21,
        12,
        1,
        6,
        2,
        13,
        20,
        14,
        22,
        8,
        3,
        11,
        24,
        23,
        25,
        26,
        27,
        28,
        28,
        28,
        28
      ],
      "split0_test_score": [
        0.9209876543209876,
        0.9246913580246914,
        0.9197530864197531,
        0.9148148148148149,
        0.9209876543209876,
        0.9234567901234568,
        0.9148148148148149,
        0.9296296296296296,
        0.9222222222222223,
        0.9234567901234568,
        0.928395061728395,
        0.9296296296296296,
        0.9308641975308642,
        0.9197530864197531,
        0.9308641975308642,
        0.9148148148148149,
        0.9197530864197531,
        0.9148148148148149,
        0.9234567901234568,
        0.9382716049382716,
        0.9395061728395062,
        0.9259259259259259,
        0.9185185185185185,
        0.9074074074074074,
        0.8987654320987655,
        0.7901234567901234,
        0.6444444444444445,
        0.5,
        0.5,
        0.5,
        0.5
      ],
      "split0_train_score": [
        0.9958333333333333,
        0.9975,
        0.9983333333333333,
        0.99375,
        0.9966666666666667,
        0.9933333333333333,
        0.9991666666666666,
        0.9979166666666667,
        0.9975,
        0.9945833333333334,
        0.9895833333333334,
        1.0,
        1.0,
        0.9966666666666667,
        0.9929166666666667,
        1.0,
        1.0,
        0.9979166666666667,
        0.9979166666666667,
        0.99125,
        0.9704166666666667,
        0.9504166666666667,
        0.9308333333333333,
        0.9041666666666667,
        0.8833333333333333,
        0.8120833333333334,
        0.66375,
        0.5,
        0.5,
        0.5,
        0.5
      ],
      "split1_test_score": [
        0.94125,
        0.94125,
        0.95,
        0.94125,
        0.94,
        0.94125,
        0.9475,
        0.9375,
        0.92625,
        0.9225,
        0.92125,
        0.9375,
        0.94375,
        0.945,
        0.93375,
        0.9425,
        0.94,
        0.925,
        0.915,
        0.94625,
        0.9225,
        0.93625,
        0.90375,
        0.92625,
        0.875,
        0.83375,
        0.66,
        0.5,
        0.5,
        0.5,
        0.5
      ],
      "split1_train_score": [
        0.9970954356846473,
        0.9991701244813278,
        0.9970954356846473,
        0.9941908713692946,
        0.9954356846473029,
        0.9975103734439834,
        0.9929460580912863,
        0.9966804979253112,
        0.9995850622406639,
        0.9937759336099585,
        0.9970954356846473,
        0.995850622406639,
        0.9970954356846473,
        1.0,
        0.9937759336099585,
        0.9966804979253112,
        1.0,
        0.9908713692946058,
        0.9933609958506224,
        0.9954356846473029,
        0.9680497925311203,
        0.9431535269709543,
        0.9087136929460581,
        0.9008298755186722,
        0.862240663900415,
        0.8244813278008298,
        0.6327800829875518,
        0.5004149377593361,
        0.5,
        0.5,
        0.5
      ],
      "split2_test_score": [
        0.91125,
        0.90125,
        0.90125,
        0.895,
        0.89,
        0.91,
        0.89125,
        0.9,
        0.89,
        0.90375,
        0.89625,
        0.8975,
        0.91375,
        0.90125,
        0.9025,
        0.89125,
        0.8825,
        0.905,
        0.8925,
        0.9175,
        0.91375,
        0.91,
        0.89125,
        0.9025,
        0.845,
        0.78875,
        0.64375,
        0.5,
        0.5,
        0.5,
        0.5
      ],
      "split2_train_score": [
        0.9929460580912863,
        0.9970954356846473,
        0.9987551867219917,
        0.9937759336099585,
        0.9991701244813278,
        0.9966804979253112,
        0.9970954356846473,
        0.9979253112033195,
        0.9970954356846473,
        0.9987551867219917,
        0.9950207468879668,
        0.9962655601659751,
        0.9995850622406639,
        1.0,
        1.0,
        0.9995850622406639,
        1.0,
        1.0,
        0.9929460580912863,
        0.9929460580912863,
        0.9755186721991701,
        0.9489626556016597,
        0.9261410788381743,
        0.9099585062240664,
        0.8630705394190872,
        0.8045643153526971,
        0.6547717842323652,
        0.5008298755186722,
        0.5,
        0.5,
        0.5
      ],
      "split3_test_score": [
        0.87375,
        0.88125,
        0.88125,
        0.86875,
        0.8775,
        0.88,
        0.87375,
        0.87625,
        0.87875,
        0.88125,
        0.865,
        0.87125,
        0.87625,
        0.88375,
        0.89125,
        0.885,
        0.87125,
        0.8875,
        0.865,
        0.845,
        0.88125,
        0.87,
        0.8425,
        0.8225,
        0.795,
        0.75625,
        0.62,
        0.5,
        0.5,
        0.5,
        0.5
      ],
      "split3_train_score": [
        0.9987551867219917,
        0.9995850622406639,
        0.9979253112033195,
        0.9970954356846473,
        0.9937759336099585,
        0.9983402489626556,
        0.9962655601659751,
        0.9970954356846473,
        1.0,
        0.9970954356846473,
        0.995850622406639,
        0.9987551867219917,
        0.9991701244813278,
        0.9966804979253112,
        0.9995850622406639,
        0.9995850622406639,
        1.0,
        1.0,
        0.9933609958506224,
        0.9767634854771784,
        0.9767634854771784,
        0.953941908713693,
        0.9390041493775934,
        0.9261410788381743,
        0.9053941908713693,
        0.8580912863070539,
        0.6784232365145229,
        0.5004149377593361,
        0.5,
        0.5,
        0.5
      ],
      "std_fit_time": [
        0.06292560292818032,
        0.015887100185771566,
        0.004915305348869021,
        0.039890774967967085,
        0.049999274767337266,
        0.03240387393749543,
        0.01654459861850274,
        0.009232979092739567,
        0.09133565960895926,
        0.12323753899291665,
        0.052893044608411474,
        0.08734201675138326,
        0.06885508108108135,
        0.07945774653712043,
        0.05071462673537419,
        0.041681051339849104,
        0.04280267044783262,
        0.02716329823275663,
        0.06896668455440073,
        0.05143000445090349,
        0.08648066935372882,
        0.11013800746068347,
        0.08407188713020897,
        0.027030594922249063,
        0.1088259624447662,
        0.09165023204917398,
        0.04252905115616965,
        0.026491432979693474,
        0.024754327965849397,
        0.02359502712233435,
        0.041102880554514686
      ],
      "std_score_time": [
        0.004685474333525229,
        0.0039260203524311916,
        0.0005952812856554704,
        0.0023188169795887413,
        0.0019263767908610059,
        0.0036628772723021398,
        0.0010555051019898807,
        0.003025917389563659,
        0.018678098288728434,
        0.02207959421049341,
        0.0005034627192415337,
        0.0016785932265611248,
        0.0015222228149919083,
        0.0005894463496973684,
        0.000434711622245038,
        0.0009471176835708828,
        0.0019219592922842545,
        0.002103231427831251,
        0.004747040528052775,
        0.0006159632786027156,
        0.006353805710213847,
        0.04269412415383157,
        0.011757985087063183,
        0.0037358639804474553,
        0.021757693894899868,
        0.005719369534035354,
        0.009395665256359077,
        0.0008006852889780635,
        0.0008855106272696875,
        0.008033126800663164,
        0.0002880094153497278
      ],
      "std_test_score": [
        0.024461145276834705,
        0.022766219337565376,
        0.02526505394640075,
        0.02653703107674431,
        0.024691193176060087,
        0.022352414879596043,
        0.027595763375108027,
        0.024365730833909575,
        0.020366125515819667,
        0.017189388185733272,
        0.024838122485952675,
        0.026418435822166682,
        0.025351039088644632,
        0.02267271553278915,
        0.01817998406812218,
        0.022581972340312707,
        0.027709016935325983,
        0.013809855587956155,
        0.022657378118093662,
        0.039909654654996574,
        0.021198567956332275,
        0.02518201549969663,
        0.028534604013269634,
        0.039728212579539256,
        0.038770171881377914,
        0.027502808102648043,
        0.014270199724210774,
        0.0,
        0.0,
        0.0,
        0.0
      ],
      "std_train_score": [
        0.0021240375947072635,
        0.0010599298311517692,
        0.0006128311955421805,
        0.0013922720025758908,
        0.0019675026191788673,
        0.0019015214183297985,
        0.0022406403879522826,
        0.0005369494289890593,
        0.0012641218401341111,
        0.0019832697483695297,
        0.0028703075543590833,
        0.001723365946663495,
        0.001117254109364001,
        0.0016632160407938545,
        0.00324072331376518,
        0.0013284490119155241,
        0.0,
        0.0037498380608972045,
        0.0020396012089714493,
        0.00727573274094998,
        0.0035809987345691496,
        0.003890877114606908,
        0.011081352837944676,
        0.009725671375780481,
        0.01767125139172862,
        0.020491508836343365,
        0.01654798244976221,
        0.00029340530339690667,
        0.0,
        0.0,
        0.0
      ]
    },
    "xval_grid": {
      "clf__alpha": [
        1e-10,
        3.1622776601683795e-10,
        1e-09,
        3.1622776601683795e-09,
        1e-08,
        3.162277660168379e-08,
        1e-07,
        3.162277660168379e-07,
        1e-06,
        3.162277660168379e-06,
        1e-05,
        3.1622776601683795e-05,
        0.0001,
        0.00031622776601683794,
        0.001,
        0.0031622776601683794,
        0.01,
        0.03162277660168379,
        0.1,
        0.31622776601683794,
        1.0,
        3.1622776601683795,
        10.0,
        31.622776601683793,
        100.0,
        316.22776601683796,
        1000.0,
        3162.2776601683795,
        10000.0,
        31622.776601683792,
        100000.0
      ]
    }
  },
  {
    "fold_id": 1,
    "test": {
      "accuracy": 0.9234567901234568,
      "confusion_matrix": [
        [
          372,
          33
        ],
        [
          29,
          376
        ]
      ],
      "f1_macro": 0.9234549234549234,
      "f1_micro": 0.9234567901234567,
      "f1_weighted": 0.9234549234549233,
      "per_class": {
        "y=0": {
          "accuracy": 0.9234567901234568,
          "confusion_matrix": [
            [
              376,
              29
            ],
            [
              33,
              372
            ]
          ],
          "f1": 0.923076923076923,
          "precision": 0.9276807980049875,
          "recall": 0.9185185185185185
        },
        "y=1": {
          "accuracy": 0.9234567901234568,
          "confusion_matrix": [
            [
              372,
              33
            ],
            [
              29,
              376
            ]
          ],
          "f1": 0.9238329238329238,
          "precision": 0.9193154034229829,
          "recall": 0.928395061728395
        }
      },
      "precision_macro": 0.9234981007139852,
      "precision_micro": 0.9234567901234568,
      "precision_weighted": 0.9234981007139852,
      "recall_macro": 0.9234567901234567,
      "recall_micro": 0.9234567901234568,
      "recall_weighted": 0.9234567901234568
    },
    "train": {
      "accuracy": 0.997196261682243,
      "confusion_matrix": [
        [
          1602,
          3
        ],
        [
          6,
          1599
        ]
      ],
      "f1_macro": 0.9971962592333472,
      "f1_micro": 0.997196261682243,
      "f1_weighted": 0.9971962592333472,
      "per_class": {
        "y=0": {
          "accuracy": 0.997196261682243,
          "confusion_matrix": [
            [
              1599,
              6
            ],
            [
              3,
              1602
            ]
          ],
          "f1": 0.9971988795518207,
          "precision": 0.996268656716418,
          "recall": 0.9981308411214953
        },
        "y=1": {
          "accuracy": 0.997196261682243,
          "confusion_matrix": [
            [
              1602,
              3
            ],
            [
              6,
              1599
            ]
          ],
          "f1": 0.9971936389148736,
          "precision": 0.99812734082397,
          "recall": 0.9962616822429906
        }
      },
      "precision_macro": 0.997197998770194,
      "precision_micro": 0.997196261682243,
      "precision_weighted": 0.997197998770194,
      "recall_macro": 0.997196261682243,
      "recall_micro": 0.997196261682243,
      "recall_weighted": 0.997196261682243
    },
    "xval": {
      "mean_fit_time": [
        0.22726476192474365,
        0.2530593276023865,
        0.23123931884765625,
        0.1948975920677185,
        0.21226471662521362,
        0.2240523099899292,
        0.20132774114608765,
        0.2166779637336731,
        0.23228305578231812,
        0.2099916934967041,
        0.2068173885345459,
        0.19889569282531738,
        0.2542443871498108,
        0.5009526610374451,
        0.3928757905960083,
        0.3275042772293091,
        0.30890774726867676,
        0.2621115446090698,
        0.2281225323677063,
        0.29209744930267334,
        0.35524773597717285,
        0.369176983833313,
        0.287048876285553,
        0.20710796117782593,
        0.20990967750549316,
        0.19282573461532593,
        0.2030896544456482,
        0.22275298833847046,
        0.1954938769340515,
        0.17507541179656982,
        0.18539875745773315
      ],
      "mean_score_time": [
        0.023004233837127686,
        0.020951032638549805,
        0.025164484977722168,
        0.020946919918060303,
        0.021696627140045166,
        0.020093441009521484,
        0.02035510540008545,
        0.020374536514282227,
        0.020930469036102295,
        0.02124422788619995,
        0.02043205499649048,
        0.02004605531692505,
        0.025989174842834473,
        0.022287070751190186,
        0.02009671926498413,
        0.020665466785430908,
        0.020642518997192383,
        0.020352661609649658,
        0.020413517951965332,
        0.02053886651992798,
        0.020164966583251953,
        0.019989728927612305,
        0.02092844247817993,
        0.019999206066131592,
        0.020249247550964355,
        0.020953774452209473,
        0.020212233066558838,
        0.020175695419311523,
        0.02265465259552002,
        0.021935880184173584,
        0.020601749420166016
      ],
      "mean_test_score": [
        0.8996884735202493,
        0.9040498442367602,
        0.8931464174454828,
        0.9046728971962616,
        0.8953271028037383,
        0.8987538940809969,
        0.897196261682243,
        0.8975077881619937,
        0.8912772585669781,
        0.8993769470404984,
        0.8968847352024922,
        0.9003115264797508,
        0.9006230529595015,
        0.9065420560747663,
        0.9006230529595015,
        0.8937694704049844,
        0.8909657320872274,
        0.8943925233644859,
        0.9065420560747663,
        0.8956386292834891,
        0.8950155763239875,
        0.8975077881619937,
        0.8862928348909658,
        0.8719626168224299,
        0.8585669781931464,
        0.7987538940809968,
        0.6221183800623052,
        0.5006230529595016,
        0.5,
        0.5,
        0.5
      ],
      "mean_train_score": [
        0.9941874135546335,
        0.9955389868603043,
        0.9971926867219917,
        0.9948102524204703,
        0.9965750345781466,
        0.9979235822959889,
        0.9969865145228216,
        0.9960533367911479,
        0.9943875345781467,
        0.9967781811894882,
        0.9968866701244814,
        0.9967812067773167,
        0.9978207123098202,
        0.998026020055325,
        0.9994813278008299,
        0.9981254322268327,
        0.9992708333333333,
        0.9982365145228216,
        0.9963649723374828,
        0.9862997060857538,
        0.96584586791148,
        0.9450730463347166,
        0.921175224757953,
        0.8993628976486859,
        0.8668706777316736,
        0.8260775414937759,
        0.6416597510373444,
        0.5004158022130014,
        0.5,
        0.5,
        0.5
      ],
      "param_clf__alpha": [
        1e-10,
        3.1622776601683795e-10,
        1e-09,
        3.1622776601683795e-09,
        1e-08,
        3.162277660168379e-08,
        1e-07,
        3.162277660168379e-07,
        1e-06,
        3.162277660168379e-06,
        1e-05,
        3.1622776601683795e-05,
        0.0001,
        0.00031622776601683794,
        0.001,
        0.0031622776601683794,
        0.01,
        0.03162277660168379,
        0.1,
        0.31622776601683794,
        1.0,
        3.1622776601683795,
        10.0,
        31.622776601683793,
        100.0,
        316.22776601683796,
        1000.0,
        3162.2776601683795,
        10000.0,
        31622.776601683792,
        100000.0
      ],
      "params": [
        {
          "clf__alpha": 1e-10
        },
        {
          "clf__alpha": 3.1622776601683795e-10
        },
        {
          "clf__alpha": 1e-09
        },
        {
          "clf__alpha": 3.1622776601683795e-09
        },
        {
          "clf__alpha": 1e-08
        },
        {
          "clf__alpha": 3.162277660168379e-08
        },
        {
          "clf__alpha": 1e-07
        },
        {
          "clf__alpha": 3.162277660168379e-07
        },
        {
          "clf__alpha": 1e-06
        },
        {
          "clf__alpha": 3.162277660168379e-06
        },
        {
          "clf__alpha": 1e-05
        },
        {
          "clf__alpha": 3.1622776601683795e-05
        },
        {
          "clf__alpha": 0.0001
        },
        {
          "clf__alpha": 0.00031622776601683794
        },
        {
          "clf__alpha": 0.001
        },
        {
          "clf__alpha": 0.0031622776601683794
        },
        {
          "clf__alpha": 0.01
        },
        {
          "clf__alpha": 0.03162277660168379
        },
        {
          "clf__alpha": 0.1
        },
        {
          "clf__alpha": 0.31622776601683794
        },
        {
          "clf__alpha": 1.0
        },
        {
          "clf__alpha": 3.1622776601683795
        },
        {
          "clf__alpha": 10.0
        },
        {
          "clf__alpha": 31.622776601683793
        },
        {
          "clf__alpha": 100.0
        },
        {
          "clf__alpha": 316.22776601683796
        },
        {
          "clf__alpha": 1000.0
        },
        {
          "clf__alpha": 3162.2776601683795
        },
        {
          "clf__alpha": 10000.0
        },
        {
          "clf__alpha": 31622.776601683792
        },
        {
          "clf__alpha": 100000.0
        }
      ],
      "rank_test_score": [
        8,
        4,
        20,
        3,
        16,
        10,
        13,
        11,
        21,
        9,
        14,
        7,
        5,
        1,
        5,
        19,
        22,
        18,
        1,
        15,
        17,
        11,
        23,
        24,
        25,
        26,
        27,
        28,
        29,
        29,
        29
      ],
      "split0_test_score": [
        0.8925925925925926,
        0.9037037037037037,
        0.8740740740740741,
        0.8950617283950617,
        0.8876543209876543,
        0.8839506172839506,
        0.8753086419753087,
        0.9,
        0.8827160493827161,
        0.8925925925925926,
        0.8901234567901235,
        0.8888888888888888,
        0.8962962962962963,
        0.8987654320987655,
        0.8901234567901235,
        0.8691358024691358,
        0.8827160493827161,
        0.8876543209876543,
        0.9061728395061729,
        0.9037037037037037,
        0.8925925925925926,
        0.8962962962962963,
        0.8728395061728395,
        0.8382716049382716,
        0.8111111111111111,
        0.828395061728395,
        0.5851851851851851,
        0.5,
        0.5,
        0.5,
        0.5
      ],
      "split0_train_score": [
        0.9966666666666667,
        0.9995833333333334,
        0.99375,
        0.9970833333333333,
        0.9983333333333333,
        0.9983333333333333,
        0.995,
        0.9954166666666666,
        0.9895833333333334,
        0.9941666666666666,
        0.99875,
        0.9970833333333333,
        0.9991666666666666,
        0.9970833333333333,
        1.0,
        0.9929166666666667,
        0.9970833333333333,
        1.0,
        0.9958333333333333,
        0.9929166666666667,
        0.9754166666666667,
        0.9504166666666667,
        0.9129166666666667,
        0.8858333333333334,
        0.8633333333333333,
        0.83875,
        0.66,
        0.5008333333333334,
        0.5,
        0.5,
        0.5
      ],
      "split1_test_score": [
        0.92375,
        0.93125,
        0.93,
        0.92375,
        0.92875,
        0.9225,
        0.915,
        0.92625,
        0.9125,
        0.92875,
        0.915,
        0.93,
        0.92875,
        0.91875,
        0.92125,
        0.93625,
        0.925,
        0.90125,
        0.9275,
        0.93875,
        0.9,
        0.9275,
        0.9225,
        0.91125,
        0.88125,
        0.82,
        0.65375,
        0.5,
        0.5,
        0.5,
        0.5
      ],
      "split1_train_score": [
        0.9892116182572614,
        0.9954356846473029,
        0.9979253112033195,
        0.9854771784232366,
        0.9896265560165975,
        0.9962655601659751,
        0.9975103734439834,
        0.9937759336099585,
        0.9962655601659751,
        0.9987551867219917,
        0.9925311203319502,
        0.9941908713692946,
        0.9954356846473029,
        0.9966804979253112,
        0.9995850622406639,
        0.9995850622406639,
        1.0,
        0.9937759336099585,
        0.9991701244813278,
        0.9863070539419088,
        0.9485477178423236,
        0.9352697095435685,
        0.912448132780083,
        0.8854771784232365,
        0.8639004149377594,
        0.8195020746887967,
        0.6153526970954357,
        0.5,
        0.5,
        0.5,
        0.5
      ],
      "split2_test_score": [
        0.8975,
        0.89375,
        0.8925,
        0.91375,
        0.90375,
        0.895,
        0.91375,
        0.9,
        0.8825,
        0.89375,
        0.885,
        0.90625,
        0.895,
        0.92375,
        0.90375,
        0.8975,
        0.87375,
        0.90375,
        0.91125,
        0.88125,
        0.91,
        0.9025,
        0.89875,
        0.91125,
        0.89875,
        0.79875,
        0.6425,
        0.5,
        0.5,
        0.5,
        0.5
      ],
      "split2_train_score": [
        0.9937759336099585,
        0.9892116182572614,
        0.9970954356846473,
        0.9970954356846473,
        0.9987551867219917,
        0.9970954356846473,
        0.9983402489626556,
        0.9991701244813278,
        0.9983402489626556,
        0.9991701244813278,
        0.9991701244813278,
        0.9991701244813278,
        0.9975103734439834,
        1.0,
        1.0,
        1.0,
        1.0,
        1.0,
        1.0,
        0.9838174273858921,
        0.9651452282157676,
        0.9423236514522821,
        0.9215767634854771,
        0.9070539419087137,
        0.8771784232365145,
        0.7966804979253111,
        0.6323651452282157,
        0.5,
        0.5,
        0.5,
        0.5
      ],
      "split3_test_score": [
        0.885,
        0.8875,
        0.87625,
        0.88625,
        0.86125,
        0.89375,
        0.885,
        0.86375,
        0.8875,
        0.8825,
        0.8975,
        0.87625,
        0.8825,
        0.885,
        0.8875,
        0.8725,
        0.8825,
        0.885,
        0.88125,
        0.85875,
        0.8775,
        0.86375,
        0.85125,
        0.8275,
        0.84375,
        0.7475,
        0.6075,
        0.5025,
        0.5,
        0.5,
        0.5
      ],
      "split3_train_score": [
        0.9970954356846473,
        0.9979253112033195,
        1.0,
        0.9995850622406639,
        0.9995850622406639,
        1.0,
        0.9970954356846473,
        0.995850622406639,
        0.9933609958506224,
        0.9950207468879668,
        0.9970954356846473,
        0.9966804979253112,
        0.9991701244813278,
        0.9983402489626556,
        0.9983402489626556,
        1.0,
        1.0,
        0.9991701244813278,
        0.9904564315352697,
        0.9821576763485477,
        0.9742738589211618,
        0.9522821576763485,
        0.9377593360995851,
        0.9190871369294605,
        0.8630705394190872,
        0.8493775933609958,
        0.6589211618257261,
        0.5008298755186722,
        0.5,
        0.5,
        0.5
      ],
      "std_fit_time": [
        0.031047876114769852,
        0.061400489707656075,
        0.03903907600139361,
        0.021136633785932814,
        0.013267601367440809,
        0.011692889192208402,
        0.010729870764025241,
        0.02287347712907653,
        0.012508882721376346,
        0.02809569269305385,
        0.023428229130597004,
        0.012422591798987869,
        0.020362759572236582,
        0.19052127520636056,
        0.018707485899108013,
        0.04362049615077741,
        0.03553163201041392,
        0.012059115040357732,
        0.027961773333510374,
        0.11715363170295068,
        0.03709184622218906,
        0.07019042173916754,
        0.045425039302931784,
        0.0174142362422623,
        0.027225888416574678,
        0.031215086563612927,
        0.03492932519080872,
        0.03280744124202647,
        0.0294757784748857,
        0.009819616509965039,
        0.024475395082163127
      ],
      "std_score_time": [
        0.002651691026121448,
        0.000546201588536221,
        0.0068209215557470445,
        0.0008307500531749167,
        0.0006436563682422521,
        0.00024022011802348495,
        0.0006486133187228375,
        0.0007189332477970272,
        0.0007251322330927182,
        0.0013154888549298258,
        0.0008957108752593585,
        0.00022457899880922756,
        0.004486840675585214,
        0.001917324920031379,
        0.00027094749888572397,
        0.0004082630618961423,
        0.0005361594675736497,
        0.00027590187857983616,
        0.00040306896129677625,
        0.0009505926555680122,
        0.0003177472572385425,
        6.080608670027415e-05,
        0.0014350058899205106,
        0.00015897660526560791,
        0.0003020929222478108,
        0.0018639602443656965,
        0.00038642758615518326,
        0.00010173505435427108,
        0.004034510652168213,
        0.0029079899255381367,
        0.0007135319800237271
      ],
      "std_test_score": [
        0.014558753219836629,
        0.01670677233204848,
        0.022394895587230366,
        0.014803064729368627,
        0.024501976092851842,
        0.014338015083025544,
        0.017471325110937956,
        0.022203829938889474,
        0.012389556305902277,
        0.017478944507557315,
        0.011340931542720709,
        0.02014115664821176,
        0.017077020003776405,
        0.015551656364499646,
        0.013386958825360727,
        0.02681565281006014,
        0.019939406178345383,
        0.008184443314158931,
        0.016566499807612642,
        0.029501580933824576,
        0.01183602486561226,
        0.022688623800729887,
        0.026778865983541844,
        0.03935047121405216,
        0.03396515577406549,
        0.0314466962148291,
        0.027392513208194164,
        0.0010814052933152281,
        0.0,
        0.0,
        0.0
      ],
      "std_train_score": [
        0.003143689841905365,
        0.003940099841690345,
        0.00225162697296671,
        0.005483931948067797,
        0.004036901619194778,
        0.0014066156713569214,
        0.0012313741177794142,
        0.001958786149917997,
        0.003289569214723069,
        0.0022101203029472054,
        0.0026315660299112177,
        0.0017690525749192202,
        0.0015343706773420416,
        0.0012936793155915373,
        0.0006802322120645205,
        0.00301204943146869,
        0.0012629537138523115,
        0.002597507059242504,
        0.00375085987140059,
        0.004095800874311152,
        0.01075114078911889,
        0.0067858335716459925,
        0.010241580669978446,
        0.014353223383496788,
        0.005958731724216488,
        0.02006805020347461,
        0.018793428496864495,
        0.00041580401019847057,
        0.0,
        0.0,
        0.0
      ]
    },
    "xval_grid": {
      "clf__alpha": [
        1e-10,
        3.1622776601683795e-10,
        1e-09,
        3.1622776601683795e-09,
        1e-08,
        3.162277660168379e-08,
        1e-07,
        3.162277660168379e-07,
        1e-06,
        3.162277660168379e-06,
        1e-05,
        3.1622776601683795e-05,
        0.0001,
        0.00031622776601683794,
        0.001,
        0.0031622776601683794,
        0.01,
        0.03162277660168379,
        0.1,
        0.31622776601683794,
        1.0,
        3.1622776601683795,
        10.0,
        31.622776601683793,
        100.0,
        316.22776601683796,
        1000.0,
        3162.2776601683795,
        10000.0,
        31622.776601683792,
        100000.0
      ]
    }
  },
  {
    "fold_id": 2,
    "test": {
      "accuracy": 0.945,
      "confusion_matrix": [
        [
          388,
          12
        ],
        [
          32,
          368
        ]
      ],
      "f1_macro": 0.9449656035021889,
      "f1_micro": 0.945,
      "f1_weighted": 0.9449656035021888,
      "per_class": {
        "y=0": {
          "accuracy": 0.945,
          "confusion_matrix": [
            [
              368,
              32
            ],
            [
              12,
              388
            ]
          ],
          "f1": 0.9463414634146342,
          "precision": 0.9238095238095239,
          "recall": 0.97
        },
        "y=1": {
          "accuracy": 0.945,
          "confusion_matrix": [
            [
              388,
              12
            ],
            [
              32,
              368
            ]
          ],
          "f1": 0.9435897435897437,
          "precision": 0.968421052631579,
          "recall": 0.92
        }
      },
      "precision_macro": 0.9461152882205515,
      "precision_micro": 0.945,
      "precision_weighted": 0.9461152882205514,
      "recall_macro": 0.9450000000000001,
      "recall_micro": 0.945,
      "recall_weighted": 0.945
    },
    "train": {
      "accuracy": 0.9565217391304348,
      "confusion_matrix": [
        [
          1577,
          33
        ],
        [
          107,
          1503
        ]
      ],
      "f1_macro": 0.9564987642483918,
      "f1_micro": 0.9565217391304348,
      "f1_weighted": 0.9564987642483918,
      "per_class": {
        "y=0": {
          "accuracy": 0.9565217391304348,
          "confusion_matrix": [
            [
              1503,
              107
            ],
            [
              33,
              1577
            ]
          ],
          "f1": 0.9574984820886461,
          "precision": 0.9364608076009501,
          "recall": 0.9795031055900622
        },
        "y=1": {
          "accuracy": 0.9565217391304348,
          "confusion_matrix": [
            [
              1577,
              33
            ],
            [
              107,
              1503
            ]
          ],
          "f1": 0.9554990464081374,
          "precision": 0.978515625,
          "recall": 0.9335403726708075
        }
      },
      "precision_macro": 0.957488216300475,
      "precision_micro": 0.9565217391304348,
      "precision_weighted": 0.957488216300475,
      "recall_macro": 0.9565217391304348,
      "recall_micro": 0.9565217391304348,
      "recall_weighted": 0.9565217391304348
    },
    "xval": {
      "mean_fit_time": [
        0.23719024658203125,
        0.18959873914718628,
        0.19475501775741577,
        0.2004137635231018,
        0.19691330194473267,
        0.19407719373703003,
        0.2065795660018921,
        0.21302008628845215,
        0.21952849626541138,
        0.22801119089126587,
        0.22006070613861084,
        0.22037899494171143,
        0.23906314373016357,
        0.2887987494468689,
        0.3256761431694031,
        0.36608266830444336,
        0.3034922480583191,
        0.2896566390991211,
        0.220755934715271,
        0.2481759786605835,
        0.30520355701446533,
        0.31626152992248535,
        0.3080139756202698,
        0.2491404414176941,
        0.21258610486984253,
        0.20121270418167114,
        0.1891629695892334,
        0.18716007471084595,
        0.20693182945251465,
        0.18466705083847046,
        0.18740630149841309
      ],
      "mean_score_time": [
        0.02777576446533203,
        0.02044677734375,
        0.021023988723754883,
        0.020602047443389893,
        0.02070009708404541,
        0.0210229754447937,
        0.020089268684387207,
        0.020521163940429688,
        0.02035468816757202,
        0.020402491092681885,
        0.020956575870513916,
        0.02090156078338623,
        0.020474493503570557,
        0.020375728607177734,
        0.020096540451049805,
        0.02023226022720337,
        0.020833849906921387,
        0.02106165885925293,
        0.021240592002868652,
        0.02628427743911743,
        0.02114647626876831,
        0.02044975757598877,
        0.020569682121276855,
        0.020664095878601074,
        0.02221083641052246,
        0.020282745361328125,
        0.02129220962524414,
        0.020614802837371826,
        0.021527886390686035,
        0.02203547954559326,
        0.020709455013275146
      ],
      "mean_test_score": [
        0.8962732919254658,
        0.8959627329192547,
        0.8928571428571429,
        0.8900621118012423,
        0.8888198757763975,
        0.884472049689441,
        0.8962732919254658,
        0.8972049689440994,
        0.8922360248447205,
        0.9003105590062112,
        0.8962732919254658,
        0.8962732919254658,
        0.8878881987577639,
        0.8909937888198758,
        0.8922360248447205,
        0.8925465838509317,
        0.8953416149068323,
        0.8857142857142857,
        0.8975155279503105,
        0.8996894409937888,
        0.903416149068323,
        0.901863354037267,
        0.8875776397515528,
        0.8695652173913043,
        0.8375776397515527,
        0.7922360248447204,
        0.6229813664596273,
        0.5003105590062111,
        0.5,
        0.5,
        0.5
      ],
      "mean_train_score": [
        0.9971044374335586,
        0.9944116285449744,
        0.9979295977504201,
        0.9961686842015021,
        0.9943138952710813,
        0.9960619491786976,
        0.9959595007029938,
        0.9960718082370289,
        0.9954468296697645,
        0.9963791536641404,
        0.9981336373924077,
        0.9982416583793423,
        0.9964841740681047,
        0.9968965398991805,
        0.9943001783203594,
        0.999792531120332,
        0.9991735537190083,
        0.9972107438016529,
        0.9981370666300882,
        0.9885077672233463,
        0.9691467199341586,
        0.9451339117314221,
        0.9157269126573162,
        0.8930527931140907,
        0.8660381159768183,
        0.8163664654847227,
        0.6279572888446898,
        0.500103734439834,
        0.5,
        0.5,
        0.5
      ],
      "param_clf__alpha": [
        1e-10,
        3.1622776601683795e-10,
        1e-09,
        3.1622776601683795e-09,
        1e-08,
        3.162277660168379e-08,
        1e-07,
        3.162277660168379e-07,
        1e-06,
        3.162277660168379e-06,
        1e-05,
        3.1622776601683795e-05,
        0.0001,
        0.00031622776601683794,
        0.001,
        0.0031622776601683794,
        0.01,
        0.03162277660168379,
        0.1,
        0.31622776601683794,
        1.0,
        3.1622776601683795,
        10.0,
        31.622776601683793,
        100.0,
        316.22776601683796,
        1000.0,
        3162.2776601683795,
        10000.0,
        31622.776601683792,
        100000.0
      ],
      "params": [
        {
          "clf__alpha": 1e-10
        },
        {
          "clf__alpha": 3.1622776601683795e-10
        },
        {
          "clf__alpha": 1e-09
        },
        {
          "clf__alpha": 3.1622776601683795e-09
        },
        {
          "clf__alpha": 1e-08
        },
        {
          "clf__alpha": 3.162277660168379e-08
        },
        {
          "clf__alpha": 1e-07
        },
        {
          "clf__alpha": 3.162277660168379e-07
        },
        {
          "clf__alpha": 1e-06
        },
        {
          "clf__alpha": 3.162277660168379e-06
        },
        {
          "clf__alpha": 1e-05
        },
        {
          "clf__alpha": 3.1622776601683795e-05
        },
        {
          "clf__alpha": 0.0001
        },
        {
          "clf__alpha": 0.00031622776601683794
        },
        {
          "clf__alpha": 0.001
        },
        {
          "clf__alpha": 0.0031622776601683794
        },
        {
          "clf__alpha": 0.01
        },
        {
          "clf__alpha": 0.03162277660168379
        },
        {
          "clf__alpha": 0.1
        },
        {
          "clf__alpha": 0.31622776601683794
        },
        {
          "clf__alpha": 1.0
        },
        {
          "clf__alpha": 3.1622776601683795
        },
        {
          "clf__alpha": 10.0
        },
        {
          "clf__alpha": 31.622776601683793
        },
        {
          "clf__alpha": 100.0
        },
        {
          "clf__alpha": 316.22776601683796
        },
        {
          "clf__alpha": 1000.0
        },
        {
          "clf__alpha": 3162.2776601683795
        },
        {
          "clf__alpha": 10000.0
        },
        {
          "clf__alpha": 31622.776601683792
        },
        {
          "clf__alpha": 100000.0
        }
      ],
      "rank_test_score": [
        7,
        11,
        13,
        18,
        19,
        23,
        7,
        6,
        15,
        3,
        7,
        7,
        20,
        17,
        15,
        14,
        12,
        22,
        5,
        4,
        1,
        2,
        21,
        24,
        25,
        26,
        27,
        28,
        29,
        29,
        29
      ],
      "split0_test_score": [
        0.9037037037037037,
        0.8975308641975308,
        0.8925925925925926,
        0.8728395061728395,
        0.8827160493827161,
        0.8864197530864197,
        0.9012345679012346,
        0.9012345679012346,
        0.9024691358024691,
        0.9024691358024691,
        0.8938271604938272,
        0.8987654320987655,
        0.8950617283950617,
        0.8938271604938272,
        0.891358024691358,
        0.9,
        0.8925925925925926,
        0.8987654320987655,
        0.8962962962962963,
        0.8876543209876543,
        0.8938271604938272,
        0.8876543209876543,
        0.8654320987654321,
        0.8444444444444444,
        0.854320987654321,
        0.817283950617284,
        0.5777777777777777,
        0.5,
        0.5,
        0.5,
        0.5
      ],
      "split0_train_score": [
        0.9975103734439834,
        0.995850622406639,
        0.9991701244813278,
        0.9954356846473029,
        0.9975103734439834,
        0.9912863070539419,
        0.9954356846473029,
        0.9995850622406639,
        1.0,
        0.9983402489626556,
        0.9979253112033195,
        0.9979253112033195,
        0.9995850622406639,
        0.9975103734439834,
        0.9946058091286307,
        0.9991701244813278,
        1.0,
        1.0,
        0.9975103734439834,
        0.9863070539419088,
        0.9680497925311203,
        0.9468879668049792,
        0.9132780082987552,
        0.8871369294605809,
        0.8726141078838174,
        0.8232365145228215,
        0.6323651452282157,
        0.5004149377593361,
        0.5,
        0.5,
        0.5
      ],
      "split1_test_score": [
        0.9222222222222223,
        0.9222222222222223,
        0.9024691358024691,
        0.9148148148148149,
        0.9148148148148149,
        0.9160493827160494,
        0.9185185185185185,
        0.9209876543209876,
        0.9024691358024691,
        0.9308641975308642,
        0.9123456790123456,
        0.9296296296296296,
        0.9123456790123456,
        0.9135802469135802,
        0.9111111111111111,
        0.917283950617284,
        0.9333333333333333,
        0.9209876543209876,
        0.928395061728395,
        0.9395061728395062,
        0.928395061728395,
        0.9320987654320988,
        0.908641975308642,
        0.9012345679012346,
        0.8444444444444444,
        0.8246913580246914,
        0.6296296296296297,
        0.5,
        0.5,
        0.5,
        0.5
      ],
      "split1_train_score": [
        0.9995850622406639,
        0.9946058091286307,
        0.9966804979253112,
        0.995850622406639,
        0.9983402489626556,
        0.9966804979253112,
        0.9933609958506224,
        0.9979253112033195,
        0.9925311203319502,
        0.9966804979253112,
        0.9954356846473029,
        1.0,
        0.9970954356846473,
        0.9983402489626556,
        0.9879668049792532,
        1.0,
        1.0,
        1.0,
        0.9991701244813278,
        0.9892116182572614,
        0.9659751037344398,
        0.9427385892116182,
        0.9103734439834025,
        0.8879668049792531,
        0.8522821576763485,
        0.8195020746887967,
        0.6302904564315353,
        0.5,
        0.5,
        0.5,
        0.5
      ],
      "split2_test_score": [
        0.91,
        0.8975,
        0.91,
        0.9,
        0.89875,
        0.89375,
        0.90625,
        0.90375,
        0.9175,
        0.9025,
        0.90875,
        0.9,
        0.8875,
        0.89125,
        0.89875,
        0.89875,
        0.89125,
        0.85625,
        0.90375,
        0.9125,
        0.9225,
        0.9225,
        0.92,
        0.9125,
        0.85625,
        0.79125,
        0.64,
        0.5,
        0.5,
        0.5,
        0.5
      ],
      "split2_train_score": [
        0.9942148760330578,
        0.993801652892562,
        0.9991735537190083,
        0.996694214876033,
        0.9962809917355372,
        0.9983471074380166,
        0.9950413223140496,
        0.9971074380165289,
        0.9979338842975206,
        0.990495867768595,
        0.9991735537190083,
        0.9971074380165289,
        0.9942148760330578,
        0.9971074380165289,
        1.0,
        1.0,
        1.0,
        0.9888429752066116,
        0.9987603305785124,
        0.990909090909091,
        0.9661157024793389,
        0.9392561983471074,
        0.9194214876033058,
        0.8871900826446281,
        0.8566115702479339,
        0.7876033057851239,
        0.6190082644628099,
        0.5,
        0.5,
        0.5,
        0.5
      ],
      "split3_test_score": [
        0.84875,
        0.86625,
        0.86625,
        0.8725,
        0.85875,
        0.84125,
        0.85875,
        0.8625,
        0.84625,
        0.865,
        0.87,
        0.85625,
        0.85625,
        0.865,
        0.8675,
        0.85375,
        0.86375,
        0.86625,
        0.86125,
        0.85875,
        0.86875,
        0.865,
        0.85625,
        0.82,
        0.795,
        0.735,
        0.645,
        0.50125,
        0.5,
        0.5,
        0.5
      ],
      "split3_train_score": [
        0.9971074380165289,
        0.9933884297520661,
        0.996694214876033,
        0.996694214876033,
        0.9851239669421488,
        0.9979338842975206,
        1.0,
        0.9896694214876033,
        0.9913223140495868,
        1.0,
        1.0,
        0.9979338842975206,
        0.9950413223140496,
        0.9946280991735538,
        0.9946280991735538,
        1.0,
        0.996694214876033,
        1.0,
        0.9971074380165289,
        0.987603305785124,
        0.9764462809917356,
        0.9516528925619835,
        0.9198347107438016,
        0.9099173553719008,
        0.8826446280991735,
        0.8351239669421487,
        0.6301652892561983,
        0.5,
        0.5,
        0.5,
        0.5
      ],
      "std_fit_time": [
        0.01687557845388811,
        0.0038238445498041613,
        0.008640594593104645,
        0.016976968890565786,
        0.016624311258484733,
        0.013153378088035694,
        0.006913049016974203,
        0.023000740213597725,
        0.01947449855808183,
        0.021838299722145234,
        0.027460782836634064,
        0.006906016858556219,
        0.018816508556821435,
        0.01441567659708213,
        0.07018103333896648,
        0.04747339253520626,
        0.036343986159623136,
        0.05853926161827288,
        0.016326852457376292,
        0.04054455390084506,
        0.057451163021739554,
        0.052171762946979484,
        0.03914362183341039,
        0.03689555285460765,
        0.026573364610960392,
        0.017107880525465323,
        0.026391258103447286,
        0.02726582609785092,
        0.060958173666432566,
        0.012738580633715333,
        0.029973942730245468
      ],
      "std_score_time": [
        0.0013971043016649876,
        0.00037852983560112693,
        0.0010979843559405283,
        0.00035224589656686686,
        0.0011295472971143345,
        0.0014043174123826061,
        0.000571704922010257,
        0.000567542870500216,
        0.000420967697980951,
        0.0007947261321009717,
        0.0006837621301582421,
        0.0007862656973703794,
        0.0004347746445811835,
        0.0004453750633405093,
        0.0007719491960875792,
        0.0006336268868261108,
        0.0014021788607276764,
        0.0010936011900368483,
        0.000980834004218967,
        0.0072424021839210635,
        0.001690045434200156,
        0.0009906167802480176,
        0.0007471464167152987,
        0.000971284642757011,
        0.0012131599596741094,
        0.0006308656745396845,
        0.0021299368126000613,
        0.0008642096232998891,
        0.0009744292822049084,
        0.0015278600566355303,
        0.0005791984833135619
      ],
      "std_test_score": [
        0.02812814848749167,
        0.019849619421193634,
        0.01649719533629498,
        0.01816330526819244,
        0.02070023115040372,
        0.0271533897763197,
        0.022476985115246092,
        0.021359968739471883,
        0.027141377983801666,
        0.023387318396108893,
        0.01663314892295321,
        0.026131982154841873,
        0.020301299013726244,
        0.017269482555957207,
        0.01588628503648367,
        0.023482472127630622,
        0.024841539220065,
        0.025800126595909554,
        0.024013594457691526,
        0.029873406618188093,
        0.023856604340564365,
        0.026910505967153543,
        0.027202659327152236,
        0.038462799129126514,
        0.024887816913089233,
        0.035170185576635433,
        0.02678700199943261,
        0.0005401405941281278,
        0.0,
        0.0,
        0.0
      ],
      "std_train_score": [
        0.001914931954988748,
        0.0009390707507055279,
        0.0012422514078577855,
        0.0005456227248643571,
        0.005356147121553077,
        0.0028246880188303406,
        0.002459435750890274,
        0.003802680372760554,
        0.003620420929301141,
        0.00359375445217917,
        0.0017238825485823863,
        0.0010692312083427607,
        0.0020748905379937123,
        0.0013830571953347144,
        0.0042661612526503434,
        0.00035934664057445456,
        0.0014314469484040357,
        0.004831133450863602,
        0.0008527229774058172,
        0.0017264813322179638,
        0.004293397765481642,
        0.004633004016627067,
        0.0040367266612573015,
        0.009742298910818311,
        0.012217876938873856,
        0.017579767032703524,
        0.005240066127702963,
        0.00017967332028722728,
        0.0,
        0.0,
        0.0
      ]
    },
    "xval_grid": {
      "clf__alpha": [
        1e-10,
        3.1622776601683795e-10,
        1e-09,
        3.1622776601683795e-09,
        1e-08,
        3.162277660168379e-08,
        1e-07,
        3.162277660168379e-07,
        1e-06,
        3.162277660168379e-06,
        1e-05,
        3.1622776601683795e-05,
        0.0001,
        0.00031622776601683794,
        0.001,
        0.0031622776601683794,
        0.01,
        0.03162277660168379,
        0.1,
        0.31622776601683794,
        1.0,
        3.1622776601683795,
        10.0,
        31.622776601683793,
        100.0,
        316.22776601683796,
        1000.0,
        3162.2776601683795,
        10000.0,
        31622.776601683792,
        100000.0
      ]
    }
  },
  {
    "fold_id": 3,
    "test": {
      "accuracy": 0.92625,
      "confusion_matrix": [
        [
          374,
          26
        ],
        [
          33,
          367
        ]
      ],
      "f1_macro": 0.926244353083283,
      "f1_micro": 0.92625,
      "f1_weighted": 0.926244353083283,
      "per_class": {
        "y=0": {
          "accuracy": 0.92625,
          "confusion_matrix": [
            [
              367,
              33
            ],
            [
              26,
              374
            ]
          ],
          "f1": 0.9268897149938043,
          "precision": 0.918918918918919,
          "recall": 0.935
        },
        "y=1": {
          "accuracy": 0.92625,
          "confusion_matrix": [
            [
              374,
              26
            ],
            [
              33,
              367
            ]
          ],
          "f1": 0.9255989911727617,
          "precision": 0.9338422391857506,
          "recall": 0.9175
        }
      },
      "precision_macro": 0.9263805790523347,
      "precision_micro": 0.92625,
      "precision_weighted": 0.9263805790523348,
      "recall_macro": 0.92625,
      "recall_micro": 0.92625,
      "recall_weighted": 0.92625
    },
    "train": {
      "accuracy": 0.9583850931677018,
      "confusion_matrix": [
        [
          1586,
          24
        ],
        [
          110,
          1500
        ]
      ],
      "f1_macro": 0.9583553871806245,
      "f1_micro": 0.9583850931677018,
      "f1_weighted": 0.9583553871806245,
      "per_class": {
        "y=0": {
          "accuracy": 0.9583850931677018,
          "confusion_matrix": [
            [
              1500,
              110
            ],
            [
              24,
              1586
            ]
          ],
          "f1": 0.9594676346037507,
          "precision": 0.9351415094339622,
          "recall": 0.9850931677018634
        },
        "y=1": {
          "accuracy": 0.9583850931677018,
          "confusion_matrix": [
            [
              1586,
              24
            ],
            [
              110,
              1500
            ]
          ],
          "f1": 0.9572431397574984,
          "precision": 0.984251968503937,
          "recall": 0.9316770186335404
        }
      },
      "precision_macro": 0.9596967389689497,
      "precision_micro": 0.9583850931677018,
      "precision_weighted": 0.9596967389689497,
      "recall_macro": 0.9583850931677018,
      "recall_micro": 0.9583850931677018,
      "recall_weighted": 0.9583850931677018
    },
    "xval": {
      "mean_fit_time": [
        0.23706501722335815,
        0.21953588724136353,
        0.2163865566253662,
        0.20315921306610107,
        0.20810699462890625,
        0.20967721939086914,
        0.20234912633895874,
        0.2015274167060852,
        0.20550823211669922,
        0.21400701999664307,
        0.2210635542869568,
        0.20508605241775513,
        0.23505151271820068,
        0.25154125690460205,
        0.37120044231414795,
        0.30097198486328125,
        0.3110847473144531,
        0.27427393198013306,
        0.22180432081222534,
        0.21046018600463867,
        0.3879210352897644,
        0.28081029653549194,
        0.2489110231399536,
        0.23212724924087524,
        0.21972805261611938,
        0.20604383945465088,
        0.18826287984848022,
        0.2426062822341919,
        0.18107104301452637,
        0.20913803577423096,
        0.1919587254524231
      ],
      "mean_score_time": [
        0.0248984694480896,
        0.020754218101501465,
        0.02049773931503296,
        0.02024155855178833,
        0.02093029022216797,
        0.02035897970199585,
        0.02039247751235962,
        0.020771801471710205,
        0.020740747451782227,
        0.020426511764526367,
        0.02013528347015381,
        0.020474493503570557,
        0.020544111728668213,
        0.020180821418762207,
        0.020863890647888184,
        0.0213623046875,
        0.020485341548919678,
        0.022304534912109375,
        0.02042752504348755,
        0.02020704746246338,
        0.020465314388275146,
        0.020424187183380127,
        0.020162642002105713,
        0.020354926586151123,
        0.02070993185043335,
        0.020795166492462158,
        0.0204465389251709,
        0.022211194038391113,
        0.020201504230499268,
        0.022900938987731934,
        0.020497560501098633
      ],
      "mean_test_score": [
        0.9021739130434783,
        0.9,
        0.8962732919254658,
        0.9012422360248448,
        0.9037267080745341,
        0.8984472049689441,
        0.901863354037267,
        0.8937888198757764,
        0.9009316770186335,
        0.9012422360248448,
        0.9040372670807454,
        0.8996894409937888,
        0.8968944099378882,
        0.8978260869565218,
        0.8972049689440994,
        0.906832298136646,
        0.9006211180124224,
        0.8900621118012423,
        0.906832298136646,
        0.9043478260869565,
        0.9124223602484473,
        0.901863354037267,
        0.8937888198757764,
        0.8850931677018633,
        0.8385093167701864,
        0.8096273291925465,
        0.6114906832298137,
        0.5,
        0.5,
        0.5,
        0.5
      ],
      "mean_train_score": [
        0.9970011316484346,
        0.9964816021398444,
        0.9987581873049621,
        0.9974152120983506,
        0.9976149651932376,
        0.9973093343849662,
        0.9973063338019958,
        0.9979308837145503,
        0.9963744384623299,
        0.9978280065841363,
        0.9983423922362059,
        0.9972060285998423,
        0.9992755735400021,
        0.9973093343849663,
        0.9984495559137204,
        0.9975185178834746,
        0.9997933884297521,
        0.9969925585542334,
        0.9980316175714139,
        0.9890285826960666,
        0.9683232742361373,
        0.9480337608449642,
        0.9255632522890161,
        0.8980350468090943,
        0.8698570007887247,
        0.8224657933541374,
        0.6340733342477967,
        0.500207468879668,
        0.5,
        0.5,
        0.5
      ],
      "param_clf__alpha": [
        1e-10,
        3.1622776601683795e-10,
        1e-09,
        3.1622776601683795e-09,
        1e-08,
        3.162277660168379e-08,
        1e-07,
        3.162277660168379e-07,
        1e-06,
        3.162277660168379e-06,
        1e-05,
        3.1622776601683795e-05,
        0.0001,
        0.00031622776601683794,
        0.001,
        0.0031622776601683794,
        0.01,
        0.03162277660168379,
        0.1,
        0.31622776601683794,
        1.0,
        3.1622776601683795,
        10.0,
        31.622776601683793,
        100.0,
        316.22776601683796,
        1000.0,
        3162.2776601683795,
        10000.0,
        31622.776601683792,
        100000.0
      ],
      "params": [
        {
          "clf__alpha": 1e-10
        },
        {
          "clf__alpha": 3.1622776601683795e-10
        },
        {
          "clf__alpha": 1e-09
        },
        {
          "clf__alpha": 3.1622776601683795e-09
        },
        {
          "clf__alpha": 1e-08
        },
        {
          "clf__alpha": 3.162277660168379e-08
        },
        {
          "clf__alpha": 1e-07
        },
        {
          "clf__alpha": 3.162277660168379e-07
        },
        {
          "clf__alpha": 1e-06
        },
        {
          "clf__alpha": 3.162277660168379e-06
        },
        {
          "clf__alpha": 1e-05
        },
        {
          "clf__alpha": 3.1622776601683795e-05
        },
        {
          "clf__alpha": 0.0001
        },
        {
          "clf__alpha": 0.00031622776601683794
        },
        {
          "clf__alpha": 0.001
        },
        {
          "clf__alpha": 0.0031622776601683794
        },
        {
          "clf__alpha": 0.01
        },
        {
          "clf__alpha": 0.03162277660168379
        },
        {
          "clf__alpha": 0.1
        },
        {
          "clf__alpha": 0.31622776601683794
        },
        {
          "clf__alpha": 1.0
        },
        {
          "clf__alpha": 3.1622776601683795
        },
        {
          "clf__alpha": 10.0
        },
        {
          "clf__alpha": 31.622776601683793
        },
        {
          "clf__alpha": 100.0
        },
        {
          "clf__alpha": 316.22776601683796
        },
        {
          "clf__alpha": 1000.0
        },
        {
          "clf__alpha": 3162.2776601683795
        },
        {
          "clf__alpha": 10000.0
        },
        {
          "clf__alpha": 31622.776601683792
        },
        {
          "clf__alpha": 100000.0
        }
      ],
      "rank_test_score": [
        7,
        14,
        20,
        10,
        6,
        16,
        8,
        21,
        12,
        10,
        5,
        15,
        19,
        17,
        18,
        2,
        13,
        23,
        2,
        4,
        1,
        8,
        21,
        24,
        25,
        26,
        27,
        28,
        28,
        28,
        28
      ],
      "split0_test_score": [
        0.8864197530864197,
        0.8802469135802469,
        0.8839506172839506,
        0.8790123456790123,
        0.8962962962962963,
        0.8802469135802469,
        0.891358024691358,
        0.8901234567901235,
        0.8728395061728395,
        0.8851851851851852,
        0.8950617283950617,
        0.8962962962962963,
        0.8765432098765432,
        0.8901234567901235,
        0.8888888888888888,
        0.9,
        0.8802469135802469,
        0.8555555555555555,
        0.891358024691358,
        0.891358024691358,
        0.891358024691358,
        0.8950617283950617,
        0.8864197530864197,
        0.8493827160493828,
        0.8135802469135802,
        0.8209876543209876,
        0.5839506172839506,
        0.5,
        0.5,
        0.5,
        0.5
      ],
      "split0_train_score": [
        1.0,
        0.9991701244813278,
        1.0,
        0.9991701244813278,
        0.9987551867219917,
        0.9991701244813278,
        0.9983402489626556,
        1.0,
        0.9904564315352697,
        0.9987551867219917,
        0.9962655601659751,
        0.9983402489626556,
        0.9987551867219917,
        0.9954356846473029,
        1.0,
        1.0,
        1.0,
        0.9975103734439834,
        1.0,
        0.9892116182572614,
        0.9684647302904564,
        0.950207468879668,
        0.9327800829875519,
        0.895850622406639,
        0.8692946058091287,
        0.8307053941908714,
        0.6526970954356847,
        0.5008298755186722,
        0.5,
        0.5,
        0.5
      ],
      "split1_test_score": [
        0.9061728395061729,
        0.9098765432098765,
        0.9,
        0.9185185185185185,
        0.9111111111111111,
        0.9308641975308642,
        0.9148148148148149,
        0.8950617283950617,
        0.9209876543209876,
        0.9135802469135802,
        0.9135802469135802,
        0.9074074074074074,
        0.9135802469135802,
        0.9049382716049382,
        0.9209876543209876,
        0.9148148148148149,
        0.9197530864197531,
        0.9049382716049382,
        0.9197530864197531,
        0.928395061728395,
        0.9358024691358025,
        0.928395061728395,
        0.9148148148148149,
        0.9061728395061729,
        0.8617283950617284,
        0.8358024691358025,
        0.6246913580246913,
        0.5,
        0.5,
        0.5,
        0.5
      ],
      "split1_train_score": [
        0.9970954356846473,
        0.9950207468879668,
        0.9979253112033195,
        0.9987551867219917,
        0.9925311203319502,
        0.9962655601659751,
        0.9941908713692946,
        0.9970954356846473,
        1.0,
        0.9987551867219917,
        0.9991701244813278,
        0.9970954356846473,
        1.0,
        1.0,
        0.9991701244813278,
        0.9979253112033195,
        1.0,
        0.9912863070539419,
        0.9946058091286307,
        0.9904564315352697,
        0.9684647302904564,
        0.9464730290456431,
        0.912448132780083,
        0.9020746887966805,
        0.8522821576763485,
        0.8161825726141079,
        0.6302904564315353,
        0.5,
        0.5,
        0.5,
        0.5
      ],
      "split2_test_score": [
        0.95125,
        0.93875,
        0.9475,
        0.94,
        0.935,
        0.9175,
        0.94,
        0.93875,
        0.94875,
        0.94125,
        0.94,
        0.93125,
        0.93375,
        0.9425,
        0.91125,
        0.9475,
        0.93125,
        0.9375,
        0.94875,
        0.94375,
        0.94875,
        0.92625,
        0.92875,
        0.92875,
        0.88375,
        0.83375,
        0.63375,
        0.5,
        0.5,
        0.5,
        0.5
      ],
      "split2_train_score": [
        0.9954545454545455,
        0.9917355371900827,
        0.9983471074380166,
        0.9950413223140496,
        0.9991735537190083,
        0.993801652892562,
        0.9975206611570248,
        0.9962809917355372,
        0.9958677685950413,
        0.993801652892562,
        1.0,
        0.9942148760330578,
        0.9987603305785124,
        0.9971074380165289,
        0.9946280991735538,
        0.9975206611570248,
        1.0,
        1.0,
        0.9995867768595041,
        0.9867768595041322,
        0.965702479338843,
        0.9363636363636364,
        0.9169421487603305,
        0.890495867768595,
        0.8661157024793389,
        0.806198347107438,
        0.6033057851239669,
        0.5,
        0.5,
        0.5,
        0.5
      ],
      "split3_test_score": [
        0.865,
        0.87125,
        0.85375,
        0.8675,
        0.8725,
        0.865,
        0.86125,
        0.85125,
        0.86125,
        0.865,
        0.8675,
        0.86375,
        0.86375,
        0.85375,
        0.8675,
        0.865,
        0.87125,
        0.8625,
        0.8675,
        0.85375,
        0.87375,
        0.8575,
        0.845,
        0.85625,
        0.795,
        0.7475,
        0.60375,
        0.5,
        0.5,
        0.5,
        0.5
      ],
      "split3_train_score": [
        0.9954545454545455,
        1.0,
        0.9987603305785124,
        0.996694214876033,
        1.0,
        1.0,
        0.9991735537190083,
        0.9983471074380166,
        0.9991735537190083,
        1.0,
        0.9979338842975206,
        0.9991735537190083,
        0.9995867768595041,
        0.996694214876033,
        1.0,
        0.9946280991735538,
        0.9991735537190083,
        0.9991735537190083,
        0.9979338842975206,
        0.9896694214876033,
        0.9706611570247934,
        0.9590909090909091,
        0.9400826446280992,
        0.9037190082644628,
        0.8917355371900827,
        0.8367768595041323,
        0.65,
        0.5,
        0.5,
        0.5,
        0.5
      ],
      "std_fit_time": [
        0.046414832535597216,
        0.02902120130423154,
        0.009385242878574387,
        0.011348763550837969,
        0.020687338451165688,
        0.017511663039124784,
        0.012121835933872064,
        0.011265936314265578,
        0.017906638079701963,
        0.021445260684071925,
        0.03139666162472773,
        0.009482184358458164,
        0.03908520690213407,
        0.032164539038253906,
        0.02270647093621447,
        0.022798175950334,
        0.007951849913024943,
        0.010417805196524757,
        0.009413494554204226,
        0.014380930578516096,
        0.1449438728909368,
        0.07580438541019177,
        0.031772066536562636,
        0.035794741740670925,
        0.03510146212973787,
        0.031063353204263938,
        0.017690154378651,
        0.06595477943811702,
        0.016427115773599725,
        0.02258033226409687,
        0.02913310598050919
      ],
      "std_score_time": [
        0.003487147973907704,
        0.0006620898214983502,
        0.00045700990235894524,
        0.0007456396955893666,
        0.00044830507373370845,
        0.000720959341301995,
        0.0010832831484493626,
        0.0006435275945671697,
        0.0011189230944200653,
        0.0006884196205691888,
        0.000772715267741967,
        0.0006328623554234159,
        0.0009985431829517104,
        0.0006035334876314834,
        0.0005230700819062151,
        0.0006377545025164761,
        0.0006982763556966127,
        0.0015126092039032624,
        0.0009208632880657496,
        0.0006790196606692061,
        0.0005660581126362359,
        0.000758393617407183,
        0.00042020570718673814,
        0.0002878976842212205,
        0.0012026783100472554,
        0.0012115597012940676,
        0.0005744949092012659,
        0.0019373808687660906,
        0.0005156708200796836,
        0.0029114450131684537,
        0.0007633006835148289
      ],
      "std_test_score": [
        0.03175155653384113,
        0.026478408691436972,
        0.03380695781970116,
        0.029248342083582374,
        0.022646285082052846,
        0.0267545221453766,
        0.02900172130635117,
        0.03091282990402604,
        0.035482591115017725,
        0.02876031572818744,
        0.026384939064682925,
        0.024212728266523216,
        0.02801123237310757,
        0.0317198433141471,
        0.02068609551877063,
        0.02955396799861602,
        0.02537517572932608,
        0.03321182095203689,
        0.030383075190544208,
        0.03478063769241071,
        0.03079874070871254,
        0.028730431536221766,
        0.031936402696408545,
        0.03335832603562802,
        0.035647938576173675,
        0.036171024587334406,
        0.01930318623571597,
        0.0,
        0.0,
        0.0,
        0.0
      ],
      "std_train_score": [
        0.0018564726197498479,
        0.0033266539667245977,
        0.000775366465110871,
        0.0016606052485861147,
        0.002969140150380431,
        0.0024543591478748787,
        0.001891264997469706,
        0.001403086004471026,
        0.003750308754847816,
        0.0023795170447107965,
        0.0014064951432650778,
        0.00187861886745571,
        0.0005380332126685595,
        0.001671031039899411,
        0.002232179675056844,
        0.0019155781902592574,
        0.0003578617371009969,
        0.003414340434224138,
        0.002123603369038711,
        0.0013741530131420208,
        0.0017588548446208696,
        0.008148822355286023,
        0.011283009184316333,
        0.005249691795446908,
        0.014158558071384523,
        0.012008396089355867,
        0.01975762768164443,
        0.00035934664057445456,
        0.0,
        0.0,
        0.0
      ]
    },
    "xval_grid": {
      "clf__alpha": [
        1e-10,
        3.1622776601683795e-10,
        1e-09,
        3.1622776601683795e-09,
        1e-08,
        3.162277660168379e-08,
        1e-07,
        3.162277660168379e-07,
        1e-06,
        3.162277660168379e-06,
        1e-05,
        3.1622776601683795e-05,
        0.0001,
        0.00031622776601683794,
        0.001,
        0.0031622776601683794,
        0.01,
        0.03162277660168379,
        0.1,
        0.31622776601683794,
        1.0,
        3.1622776601683795,
        10.0,
        31.622776601683793,
        100.0,
        316.22776601683796,
        1000.0,
        3162.2776601683795,
        10000.0,
        31622.776601683792,
        100000.0
      ]
    }
  },
  {
    "fold_id": 4,
    "test": {
      "accuracy": 0.87375,
      "confusion_matrix": [
        [
          372,
          28
        ],
        [
          73,
          327
        ]
      ],
      "f1_macro": 0.8733492691719895,
      "f1_micro": 0.87375,
      "f1_weighted": 0.8733492691719895,
      "per_class": {
        "y=0": {
          "accuracy": 0.87375,
          "confusion_matrix": [
            [
              327,
              73
            ],
            [
              28,
              372
            ]
          ],
          "f1": 0.8804733727810651,
          "precision": 0.8359550561797753,
          "recall": 0.93
        },
        "y=1": {
          "accuracy": 0.87375,
          "confusion_matrix": [
            [
              372,
              28
            ],
            [
              73,
              327
            ]
          ],
          "f1": 0.866225165562914,
          "precision": 0.9211267605633803,
          "recall": 0.8175
        }
      },
      "precision_macro": 0.8785409083715778,
      "precision_micro": 0.87375,
      "precision_weighted": 0.8785409083715777,
      "recall_macro": 0.87375,
      "recall_micro": 0.87375,
      "recall_weighted": 0.87375
    },
    "train": {
      "accuracy": 0.9658385093167702,
      "confusion_matrix": [
        [
          1583,
          27
        ],
        [
          83,
          1527
        ]
      ],
      "f1_macro": 0.9658281737927756,
      "f1_micro": 0.9658385093167702,
      "f1_weighted": 0.9658281737927756,
      "per_class": {
        "y=0": {
          "accuracy": 0.9658385093167702,
          "confusion_matrix": [
            [
              1527,
              83
            ],
            [
              27,
              1583
            ]
          ],
          "f1": 0.9664224664224664,
          "precision": 0.9501800720288115,
          "recall": 0.9832298136645963
        },
        "y=1": {
          "accuracy": 0.9658385093167702,
          "confusion_matrix": [
            [
              1583,
              27
            ],
            [
              83,
              1527
            ]
          ],
          "f1": 0.9652338811630847,
          "precision": 0.9826254826254827,
          "recall": 0.9484472049689441
        }
      },
      "precision_macro": 0.9664027773271471,
      "precision_micro": 0.9658385093167702,
      "precision_weighted": 0.9664027773271471,
      "recall_macro": 0.9658385093167702,
      "recall_micro": 0.9658385093167702,
      "recall_weighted": 0.9658385093167702
    },
    "xval": {
      "mean_fit_time": [
        0.23702341318130493,
        0.19395869970321655,
        0.1976480484008789,
        0.1989879012107849,
        0.1888902187347412,
        0.19764113426208496,
        0.2046779990196228,
        0.20400983095169067,
        0.18758028745651245,
        0.19353950023651123,
        0.21650195121765137,
        0.19974100589752197,
        0.2111944556236267,
        0.23823344707489014,
        0.3070167899131775,
        0.3066102862358093,
        0.31772148609161377,
        0.26069629192352295,
        0.2099829912185669,
        0.2324010729789734,
        0.2816895842552185,
        0.26593077182769775,
        0.2590973377227783,
        0.28092384338378906,
        0.2126758098602295,
        0.20440375804901123,
        0.23725968599319458,
        0.1809672713279724,
        0.17808681726455688,
        0.23960870504379272,
        0.21282678842544556
      ],
      "mean_score_time": [
        0.025291085243225098,
        0.020792722702026367,
        0.02046746015548706,
        0.021931827068328857,
        0.020429790019989014,
        0.020358026027679443,
        0.02026200294494629,
        0.020573019981384277,
        0.02079141139984131,
        0.021010398864746094,
        0.021686196327209473,
        0.02017444372177124,
        0.02044743299484253,
        0.02117180824279785,
        0.020631909370422363,
        0.020550966262817383,
        0.02049022912979126,
        0.020471274852752686,
        0.02099764347076416,
        0.020099639892578125,
        0.02010554075241089,
        0.02053123712539673,
        0.0212477445602417,
        0.02428799867630005,
        0.020272493362426758,
        0.022270023822784424,
        0.02518320083618164,
        0.02242875099182129,
        0.020823240280151367,
        0.023764491081237793,
        0.022185027599334717
      ],
      "mean_test_score": [
        0.9074534161490683,
        0.9142857142857143,
        0.915527950310559,
        0.9183229813664596,
        0.9074534161490683,
        0.9111801242236025,
        0.9037267080745341,
        0.9062111801242236,
        0.9077639751552795,
        0.9074534161490683,
        0.9062111801242236,
        0.9040372670807454,
        0.9108695652173913,
        0.90527950310559,
        0.9096273291925466,
        0.9006211180124224,
        0.8928571428571429,
        0.8919254658385093,
        0.9093167701863354,
        0.9170807453416149,
        0.9186335403726708,
        0.9130434782608695,
        0.9024844720496894,
        0.8857142857142857,
        0.8673913043478261,
        0.8009316770186335,
        0.6478260869565218,
        0.5,
        0.5,
        0.5,
        0.5
      ],
      "mean_train_score": [
        0.9965857652343884,
        0.9966877850553822,
        0.9960675216899284,
        0.9985524330441343,
        0.9948261376496005,
        0.9971031514694284,
        0.9982416583793423,
        0.9962767051884367,
        0.9950284626727479,
        0.9964756009739035,
        0.9972086005281027,
        0.9965806213778677,
        0.9986565961386784,
        0.9968913960426597,
        0.9975176605740544,
        0.9977186996330716,
        0.9982365145228216,
        0.9970997222317479,
        0.9976213950138885,
        0.9900620692020163,
        0.9743265834504989,
        0.9535218270978362,
        0.9302304447721272,
        0.9063033675114023,
        0.8815811357635197,
        0.8337608449641645,
        0.6578898185933267,
        0.500103734439834,
        0.5,
        0.5,
        0.5
      ],
      "param_clf__alpha": [
        1e-10,
        3.1622776601683795e-10,
        1e-09,
        3.1622776601683795e-09,
        1e-08,
        3.162277660168379e-08,
        1e-07,
        3.162277660168379e-07,
        1e-06,
        3.162277660168379e-06,
        1e-05,
        3.1622776601683795e-05,
        0.0001,
        0.00031622776601683794,
        0.001,
        0.0031622776601683794,
        0.01,
        0.03162277660168379,
        0.1,
        0.31622776601683794,
        1.0,
        3.1622776601683795,
        10.0,
        31.622776601683793,
        100.0,
        316.22776601683796,
        1000.0,
        3162.2776601683795,
        10000.0,
        31622.776601683792,
        100000.0
      ],
      "params": [
        {
          "clf__alpha": 1e-10
        },
        {
          "clf__alpha": 3.1622776601683795e-10
        },
        {
          "clf__alpha": 1e-09
        },
        {
          "clf__alpha": 3.1622776601683795e-09
        },
        {
          "clf__alpha": 1e-08
        },
        {
          "clf__alpha": 3.162277660168379e-08
        },
        {
          "clf__alpha": 1e-07
        },
        {
          "clf__alpha": 3.162277660168379e-07
        },
        {
          "clf__alpha": 1e-06
        },
        {
          "clf__alpha": 3.162277660168379e-06
        },
        {
          "clf__alpha": 1e-05
        },
        {
          "clf__alpha": 3.1622776601683795e-05
        },
        {
          "clf__alpha": 0.0001
        },
        {
          "clf__alpha": 0.00031622776601683794
        },
        {
          "clf__alpha": 0.001
        },
        {
          "clf__alpha": 0.0031622776601683794
        },
        {
          "clf__alpha": 0.01
        },
        {
          "clf__alpha": 0.03162277660168379
        },
        {
          "clf__alpha": 0.1
        },
        {
          "clf__alpha": 0.31622776601683794
        },
        {
          "clf__alpha": 1.0
        },
        {
          "clf__alpha": 3.1622776601683795
        },
        {
          "clf__alpha": 10.0
        },
        {
          "clf__alpha": 31.622776601683793
        },
        {
          "clf__alpha": 100.0
        },
        {
          "clf__alpha": 316.22776601683796
        },
        {
          "clf__alpha": 1000.0
        },
        {
          "clf__alpha": 3162.2776601683795
        },
        {
          "clf__alpha": 10000.0
        },
        {
          "clf__alpha": 31622.776601683792
        },
        {
          "clf__alpha": 100000.0
        }
      ],
      "rank_test_score": [
        12,
        5,
        4,
        2,
        12,
        7,
        19,
        15,
        11,
        12,
        15,
        18,
        8,
        17,
        9,
        21,
        22,
        23,
        10,
        3,
        1,
        6,
        20,
        24,
        25,
        26,
        27,
        28,
        28,
        28,
        28
      ],
      "split0_test_score": [
        0.8839506172839506,
        0.8962962962962963,
        0.9,
        0.9037037037037037,
        0.9,
        0.8950617283950617,
        0.8938271604938272,
        0.9,
        0.8888888888888888,
        0.9,
        0.8987654320987655,
        0.8950617283950617,
        0.8987654320987655,
        0.8901234567901235,
        0.8962962962962963,
        0.8802469135802469,
        0.854320987654321,
        0.8493827160493828,
        0.9098765432098765,
        0.8938271604938272,
        0.8975308641975308,
        0.8864197530864197,
        0.8641975308641975,
        0.8419753086419753,
        0.8135802469135802,
        0.7679012345679013,
        0.6580246913580247,
        0.5,
        0.5,
        0.5,
        0.5
      ],
      "split0_train_score": [
        0.9962655601659751,
        0.995850622406639,
        0.9966804979253112,
        0.9991701244813278,
        0.9991701244813278,
        0.9966804979253112,
        0.9995850622406639,
        0.9966804979253112,
        0.9983402489626556,
        0.9954356846473029,
        0.9979253112033195,
        0.9954356846473029,
        1.0,
        0.9962655601659751,
        0.9970954356846473,
        0.991701244813278,
        0.9929460580912863,
        0.9925311203319502,
        0.9987551867219917,
        0.9875518672199171,
        0.9705394190871369,
        0.9543568464730291,
        0.924896265560166,
        0.9049792531120332,
        0.8738589211618257,
        0.8348547717842324,
        0.6742738589211619,
        0.5004149377593361,
        0.5,
        0.5,
        0.5
      ],
      "split1_test_score": [
        0.9234567901234568,
        0.9246913580246914,
        0.9209876543209876,
        0.9197530864197531,
        0.9098765432098765,
        0.9222222222222223,
        0.9123456790123456,
        0.9074074074074074,
        0.917283950617284,
        0.9123456790123456,
        0.9012345679012346,
        0.9037037037037037,
        0.917283950617284,
        0.9123456790123456,
        0.9234567901234568,
        0.9037037037037037,
        0.9209876543209876,
        0.9098765432098765,
        0.9246913580246914,
        0.9320987654320988,
        0.9271604938271605,
        0.9271604938271605,
        0.917283950617284,
        0.8987654320987655,
        0.8790123456790123,
        0.8246913580246914,
        0.654320987654321,
        0.5,
        0.5,
        0.5,
        0.5
      ],
      "split1_train_score": [
        0.9987551867219917,
        0.9979253112033195,
        0.9966804979253112,
        0.9995850622406639,
        0.9925311203319502,
        0.9991701244813278,
        0.9983402489626556,
        0.9991701244813278,
        0.9892116182572614,
        0.9929460580912863,
        1.0,
        0.9946058091286307,
        0.9995850622406639,
        0.9946058091286307,
        1.0,
        1.0,
        1.0,
        1.0,
        0.9987551867219917,
        0.9925311203319502,
        0.9775933609958506,
        0.9547717842323652,
        0.9381742738589212,
        0.8966804979253112,
        0.8966804979253112,
        0.845643153526971,
        0.6630705394190871,
        0.5,
        0.5,
        0.5,
        0.5
      ],
      "split2_test_score": [
        0.9125,
        0.93125,
        0.9275,
        0.935,
        0.9125,
        0.9225,
        0.91,
        0.92125,
        0.925,
        0.92125,
        0.93,
        0.91875,
        0.9225,
        0.9175,
        0.92625,
        0.9225,
        0.90625,
        0.9075,
        0.92125,
        0.94,
        0.9325,
        0.92875,
        0.92375,
        0.90375,
        0.88625,
        0.8075,
        0.625,
        0.5,
        0.5,
        0.5,
        0.5
      ],
      "split2_train_score": [
        0.9913223140495868,
        0.9958677685950413,
        0.996694214876033,
        0.9971074380165289,
        0.9929752066115702,
        0.9991735537190083,
        0.9995867768595041,
        0.9958677685950413,
        0.9987603305785124,
        0.9975206611570248,
        0.9925619834710744,
        0.9971074380165289,
        0.9979338842975206,
        0.9991735537190083,
        0.9975206611570248,
        1.0,
        1.0,
        0.9958677685950413,
        0.9958677685950413,
        0.9871900826446282,
        0.974793388429752,
        0.95,
        0.9235537190082644,
        0.9045454545454545,
        0.8661157024793389,
        0.8347107438016529,
        0.6471074380165289,
        0.5,
        0.5,
        0.5,
        0.5
      ],
      "split3_test_score": [
        0.91,
        0.905,
        0.91375,
        0.915,
        0.9075,
        0.905,
        0.89875,
        0.89625,
        0.9,
        0.89625,
        0.895,
        0.89875,
        0.905,
        0.90125,
        0.8925,
        0.89625,
        0.89,
        0.90125,
        0.88125,
        0.9025,
        0.9175,
        0.91,
        0.905,
        0.89875,
        0.89125,
        0.80375,
        0.65375,
        0.5,
        0.5,
        0.5,
        0.5
      ],
      "split3_train_score": [
        1.0,
        0.9971074380165289,
        0.9942148760330578,
        0.9983471074380166,
        0.9946280991735538,
        0.9933884297520661,
        0.9954545454545455,
        0.9933884297520661,
        0.993801652892562,
        1.0,
        0.9983471074380166,
        0.9991735537190083,
        0.9971074380165289,
        0.9975206611570248,
        0.9954545454545455,
        0.9991735537190083,
        1.0,
        1.0,
        0.9971074380165289,
        0.9929752066115702,
        0.9743801652892562,
        0.9549586776859504,
        0.934297520661157,
        0.9190082644628099,
        0.8896694214876033,
        0.8198347107438017,
        0.6471074380165289,
        0.5,
        0.5,
        0.5,
        0.5
      ],
      "std_fit_time": [
        0.02477412336892724,
        0.007413945172343264,
        0.00974971689424616,
        0.0059166799784563144,
        0.00813068910020617,
        0.020009612858905644,
        0.007982146332210744,
        0.015580554420768439,
        0.009107389259652186,
        0.01414988137546646,
        0.013521000460902027,
        0.002077087927540323,
        0.01133931263494874,
        0.030668596231947575,
        0.04452442949853776,
        0.027616923104711935,
        0.01525836052283507,
        0.021953374645183887,
        0.00295936700200286,
        0.026550168725411376,
        0.054017258488954785,
        0.041477009148742104,
        0.022285277428712433,
        0.0564239308399085,
        0.02940846171523436,
        0.03488215093324922,
        0.028395907413996307,
        0.01687157040868157,
        0.01943271378019098,
        0.0785145966338966,
        0.028033814583135454
      ],
      "std_score_time": [
        0.00501131744427571,
        0.0008498227498550414,
        0.0009858007334156659,
        0.002398538022444756,
        0.00029831254148023366,
        0.0006430787166698815,
        0.0005459927313431956,
        0.0009634903420856668,
        0.0005036713243199268,
        0.0014174750795016419,
        0.0014499232317463438,
        0.0006146613936358902,
        0.0008308997176601055,
        0.002301614192284936,
        0.0005681485350297094,
        0.0008066598867274037,
        0.0004803767372186773,
        0.0006190476396800303,
        0.0011665292929542907,
        0.0006549882138794499,
        0.0006417078326624816,
        0.000556886355626564,
        0.0016095847742039649,
        0.0027235260342023974,
        0.0005070074932677132,
        0.0033941013493141844,
        0.0027065760306664737,
        0.002053324040479148,
        0.0003228553796275775,
        0.0015905477244762072,
        0.0025297583369270167
      ],
      "std_test_score": [
        0.014536727955463132,
        0.014197425784319774,
        0.010224841992261795,
        0.01123029113085964,
        0.0046668634345989075,
        0.011719663022338267,
        0.007698723189290147,
        0.00953452116135829,
        0.014184629177190601,
        0.009923227074557705,
        0.013856468468615607,
        0.00900103040135288,
        0.009453631428431688,
        0.010558438134535747,
        0.01530835153958716,
        0.015181799517335564,
        0.024884065756209904,
        0.024863809786474796,
        0.017047944818694004,
        0.019392890297532123,
        0.013356747584571525,
        0.017088893393645364,
        0.02318988010960262,
        0.025438710931303905,
        0.03149859405335199,
        0.020715838681031922,
        0.013226603148296495,
        0.0,
        0.0,
        0.0,
        0.0
      ],
      "std_train_score": [
        0.00332301964657947,
        0.0008776172101646038,
        0.0010696401275335145,
        0.0009457847275463221,
        0.0026269036444107317,
        0.002373643631781314,
        0.0016875867547310153,
        0.002064236415274828,
        0.00388057688001513,
        0.002600607535176124,
        0.0027925272273635225,
        0.0017472548063487958,
        0.001182051873853404,
        0.001674798221428459,
        0.001627631398895587,
        0.0034905238019500295,
        0.003054446444882864,
        0.0031310164223405205,
        0.0012155579672254212,
        0.002698703569583174,
        0.0025117338308443976,
        0.002044960630105466,
        0.006178140125443678,
        0.008044525507375604,
        0.012167819532165775,
        0.009181849688303961,
        0.011486906758832084,
        0.00017967332028722728,
        0.0,
        0.0,
        0.0
      ]
    },
    "xval_grid": {
      "clf__alpha": [
        1e-10,
        3.1622776601683795e-10,
        1e-09,
        3.1622776601683795e-09,
        1e-08,
        3.162277660168379e-08,
        1e-07,
        3.162277660168379e-07,
        1e-06,
        3.162277660168379e-06,
        1e-05,
        3.1622776601683795e-05,
        0.0001,
        0.00031622776601683794,
        0.001,
        0.0031622776601683794,
        0.01,
        0.03162277660168379,
        0.1,
        0.31622776601683794,
        1.0,
        3.1622776601683795,
        10.0,
        31.622776601683793,
        100.0,
        316.22776601683796,
        1000.0,
        3162.2776601683795,
        10000.0,
        31622.776601683792,
        100000.0
      ]
    }
  }
]