[
  {
    "fold_id": 0,
    "test": {
      "accuracy": 0.8703703703703703,
      "confusion_matrix": [
        [
          341,
          64
        ],
        [
          41,
          364
        ]
      ],
      "f1_macro": 0.87026576831495,
      "f1_micro": 0.8703703703703703,
      "f1_weighted": 0.87026576831495,
      "per_class": {
        "y=0": {
          "accuracy": 0.8703703703703703,
          "confusion_matrix": [
            [
              364,
              41
            ],
            [
              64,
              341
            ]
          ],
          "f1": 0.866581956797967,
          "precision": 0.8926701570680629,
          "recall": 0.8419753086419753
        },
        "y=1": {
          "accuracy": 0.8703703703703703,
          "confusion_matrix": [
            [
              341,
              64
            ],
            [
              41,
              364
            ]
          ],
          "f1": 0.8739495798319328,
          "precision": 0.8504672897196262,
          "recall": 0.8987654320987655
        }
      },
      "precision_macro": 0.8715687233938445,
      "precision_micro": 0.8703703703703703,
      "precision_weighted": 0.8715687233938446,
      "recall_macro": 0.8703703703703705,
      "recall_micro": 0.8703703703703703,
      "recall_weighted": 0.8703703703703703
    },
    "train": {
      "accuracy": 0.973208722741433,
      "confusion_matrix": [
        [
          1560,
          45
        ],
        [
          41,
          1564
        ]
      ],
      "f1_macro": 0.9732086811404099,
      "f1_micro": 0.973208722741433,
      "f1_weighted": 0.9732086811404098,
      "per_class": {
        "y=0": {
          "accuracy": 0.973208722741433,
          "confusion_matrix": [
            [
              1564,
              41
            ],
            [
              45,
              1560
            ]
          ],
          "f1": 0.9731752963194011,
          "precision": 0.9743910056214866,
          "recall": 0.9719626168224299
        },
        "y=1": {
          "accuracy": 0.973208722741433,
          "confusion_matrix": [
            [
              1560,
              45
            ],
            [
              41,
              1564
            ]
          ],
          "f1": 0.9732420659614187,
          "precision": 0.9720323182100684,
          "recall": 0.9744548286604361
        }
      },
      "precision_macro": 0.9732116619157776,
      "precision_micro": 0.973208722741433,
      "precision_weighted": 0.9732116619157776,
      "recall_macro": 0.973208722741433,
      "recall_micro": 0.973208722741433,
      "recall_weighted": 0.973208722741433
    },
    "xval": {
      "mean_fit_time": [
        0.10133296251296997,
        0.05984699726104736,
        0.0612407922744751,
        0.052105486392974854,
        0.04859954118728638,
        0.06425970792770386,
        0.0556674599647522,
        0.06419450044631958,
        0.0943254828453064,
        0.0861666202545166,
        0.07107669115066528,
        0.07960975170135498,
        0.10413491725921631,
        0.21946001052856445,
        0.13432306051254272,
        0.15598046779632568,
        0.1458505392074585,
        0.09534257650375366,
        0.23682451248168945,
        0.4320470094680786,
        0.09051674604415894,
        0.08696979284286499,
        0.0674293041229248,
        0.06157338619232178,
        0.0576167106628418,
        0.06757503747940063,
        0.05306297540664673,
        0.053376972675323486,
        0.057181715965270996,
        0.0688772201538086,
        0.05027449131011963
      ],
      "mean_score_time": [
        0.006958484649658203,
        0.005639791488647461,
        0.005749166011810303,
        0.0057250261306762695,
        0.0060738325119018555,
        0.006645500659942627,
        0.006587982177734375,
        0.005766928195953369,
        0.015172958374023438,
        0.006539404392242432,
        0.005873739719390869,
        0.005730271339416504,
        0.006016790866851807,
        0.012939929962158203,
        0.006798446178436279,
        0.00866466760635376,
        0.006583809852600098,
        0.006667733192443848,
        0.04609459638595581,
        0.008738040924072266,
        0.006226301193237305,
        0.00582277774810791,
        0.00590670108795166,
        0.006405651569366455,
        0.006392538547515869,
        0.006197690963745117,
        0.006027340888977051,
        0.005602002143859863,
        0.0070258378982543945,
        0.007954835891723633,
        0.005810379981994629
      ],
      "mean_test_score": [
        0.8881619937694704,
        0.891588785046729,
        0.8928348909657321,
        0.8822429906542056,
        0.888785046728972,
        0.8925233644859814,
        0.8928348909657321,
        0.8856697819314642,
        0.8925233644859814,
        0.8950155763239875,
        0.897196261682243,
        0.9006230529595015,
        0.8878504672897196,
        0.8928348909657321,
        0.8912772585669781,
        0.8906542056074767,
        0.8962616822429906,
        0.9052959501557633,
        0.8953271028037383,
        0.8965732087227415,
        0.8866043613707165,
        0.8890965732087227,
        0.8532710280373832,
        0.8370716510903426,
        0.704361370716511,
        0.5155763239875389,
        0.5,
        0.5,
        0.5,
        0.5,
        0.5
      ],
      "mean_train_score": [
        0.9751819674965422,
        0.9723807053941909,
        0.9727027143845091,
        0.9667751556016598,
        0.9652282157676348,
        0.9683311721991702,
        0.9583614280774551,
        0.9690378630705394,
        0.9709197786998617,
        0.9746697786998617,
        0.9746719398340249,
        0.9788118084370678,
        0.972281725449516,
        0.9806919951590595,
        0.980792704011065,
        0.9862979771784233,
        0.983495418395574,
        0.977054806362379,
        0.9657352178423237,
        0.9457952973720609,
        0.9255489280774551,
        0.9071723720608575,
        0.8761324343015214,
        0.8507840594744122,
        0.7175734785615491,
        0.5200553250345781,
        0.5,
        0.5,
        0.5,
        0.5,
        0.5
      ],
      "param_clf__alpha": [
        1e-10,
        3.1622776601683795e-10,
        1e-09,
        3.1622776601683795e-09,
        1e-08,
        3.162277660168379e-08,
        1e-07,
        3.162277660168379e-07,
        1e-06,
        3.162277660168379e-06,
        1e-05,
        3.1622776601683795e-05,
        0.0001,
        0.00031622776601683794,
        0.001,
        0.0031622776601683794,
        0.01,
        0.03162277660168379,
        0.1,
        0.31622776601683794,
        1.0,
        3.1622776601683795,
        10.0,
        31.622776601683793,
        100.0,
        316.22776601683796,
        1000.0,
        3162.2776601683795,
        10000.0,
        31622.776601683792,
        100000.0
      ],
      "params": [
        {
          "clf__alpha": 1e-10
        },
        {
          "clf__alpha": 3.1622776601683795e-10
        },
        {
          "clf__alpha": 1e-09
        },
        {
          "clf__alpha": 3.1622776601683795e-09
        },
        {
          "clf__alpha": 1e-08
        },
        {
          "clf__alpha": 3.162277660168379e-08
        },
        {
          "clf__alpha": 1e-07
        },
        {
          "clf__alpha": 3.162277660168379e-07
        },
        {
          "clf__alpha": 1e-06
        },
        {
          "clf__alpha": 3.162277660168379e-06
        },
        {
          "clf__alpha": 1e-05
        },
        {
          "clf__alpha": 3.1622776601683795e-05
        },
        {
          "clf__alpha": 0.0001
        },
        {
          "clf__alpha": 0.00031622776601683794
        },
        {
          "clf__alpha": 0.001
        },
        {
          "clf__alpha": 0.0031622776601683794
        },
        {
          "clf__alpha": 0.01
        },
        {
          "clf__alpha": 0.03162277660168379
        },
        {
          "clf__alpha": 0.1
        },
        {
          "clf__alpha": 0.31622776601683794
        },
        {
          "clf__alpha": 1.0
        },
        {
          "clf__alpha": 3.1622776601683795
        },
        {
          "clf__alpha": 10.0
        },
        {
          "clf__alpha": 31.622776601683793
        },
        {
          "clf__alpha": 100.0
        },
        {
          "clf__alpha": 316.22776601683796
        },
        {
          "clf__alpha": 1000.0
        },
        {
          "clf__alpha": 3162.2776601683795
        },
        {
          "clf__alpha": 10000.0
        },
        {
          "clf__alpha": 31622.776601683792
        },
        {
          "clf__alpha": 100000.0
        }
      ],
      "rank_test_score": [
        18,
        13,
        8,
        22,
        17,
        11,
        8,
        21,
        11,
        7,
        3,
        2,
        19,
        8,
        14,
        15,
        5,
        1,
        6,
        4,
        20,
        16,
        23,
        24,
        25,
        26,
        27,
        27,
        27,
        27,
        27
      ],
      "split0_test_score": [
        0.8716049382716049,
        0.8703703703703703,
        0.8888888888888888,
        0.8716049382716049,
        0.8851851851851852,
        0.8777777777777778,
        0.8728395061728395,
        0.8592592592592593,
        0.8814814814814815,
        0.8679012345679012,
        0.8950617283950617,
        0.8962962962962963,
        0.8728395061728395,
        0.8827160493827161,
        0.8530864197530864,
        0.8790123456790123,
        0.8839506172839506,
        0.8975308641975308,
        0.8938271604938272,
        0.891358024691358,
        0.8864197530864197,
        0.8938271604938272,
        0.8827160493827161,
        0.8382716049382716,
        0.717283950617284,
        0.5185185185185185,
        0.5,
        0.5,
        0.5,
        0.5,
        0.5
      ],
      "split0_train_score": [
        0.9754166666666667,
        0.975,
        0.9854166666666667,
        0.97125,
        0.98,
        0.97125,
        0.9604166666666667,
        0.9525,
        0.9666666666666667,
        0.9816666666666667,
        0.98375,
        0.9745833333333334,
        0.9795833333333334,
        0.9870833333333333,
        0.9841666666666666,
        0.99125,
        0.9895833333333334,
        0.9808333333333333,
        0.96875,
        0.9466666666666667,
        0.9291666666666667,
        0.9141666666666667,
        0.8916666666666667,
        0.8558333333333333,
        0.7408333333333333,
        0.5333333333333333,
        0.5,
        0.5,
        0.5,
        0.5,
        0.5
      ],
      "split1_test_score": [
        0.90875,
        0.91625,
        0.88625,
        0.8825,
        0.91125,
        0.93125,
        0.9275,
        0.9125,
        0.9175,
        0.9225,
        0.9325,
        0.91,
        0.92125,
        0.91375,
        0.92125,
        0.9075,
        0.9275,
        0.925,
        0.9225,
        0.92625,
        0.90375,
        0.91625,
        0.8625,
        0.85625,
        0.7375,
        0.515,
        0.5,
        0.5,
        0.5,
        0.5,
        0.5
      ],
      "split1_train_score": [
        0.9742738589211618,
        0.9755186721991701,
        0.958091286307054,
        0.9556016597510374,
        0.9572614107883818,
        0.9705394190871369,
        0.962240663900415,
        0.9796680497925311,
        0.970954356846473,
        0.9713692946058091,
        0.9655601659751037,
        0.9705394190871369,
        0.9705394190871369,
        0.9721991701244813,
        0.9692946058091286,
        0.9804979253112033,
        0.9767634854771784,
        0.9730290456431535,
        0.9634854771784233,
        0.9452282157676348,
        0.9099585062240664,
        0.895850622406639,
        0.8402489626556017,
        0.8311203319502075,
        0.6871369294605809,
        0.5124481327800829,
        0.5,
        0.5,
        0.5,
        0.5,
        0.5
      ],
      "split2_test_score": [
        0.90625,
        0.905,
        0.905,
        0.8925,
        0.9025,
        0.8925,
        0.895,
        0.8925,
        0.88875,
        0.91,
        0.9,
        0.91,
        0.8875,
        0.8975,
        0.91625,
        0.9075,
        0.89875,
        0.92125,
        0.90875,
        0.92125,
        0.9075,
        0.9025,
        0.8625,
        0.87625,
        0.69,
        0.5175,
        0.5,
        0.5,
        0.5,
        0.5,
        0.5
      ],
      "split2_train_score": [
        0.9730290456431535,
        0.9597510373443984,
        0.966804979253112,
        0.9614107883817428,
        0.975103734439834,
        0.9551867219917013,
        0.9589211618257262,
        0.9672199170124481,
        0.9692946058091286,
        0.9697095435684647,
        0.9759336099585062,
        0.9784232365145228,
        0.9780082987551867,
        0.9775933609958506,
        0.9759336099585062,
        0.9892116182572614,
        0.9784232365145228,
        0.975103734439834,
        0.9659751037344398,
        0.946058091286307,
        0.9240663900414938,
        0.9087136929460581,
        0.8738589211618257,
        0.8526970954356846,
        0.6954356846473029,
        0.5141078838174273,
        0.5,
        0.5,
        0.5,
        0.5,
        0.5
      ],
      "split3_test_score": [
        0.86625,
        0.875,
        0.89125,
        0.8825,
        0.85625,
        0.86875,
        0.87625,
        0.87875,
        0.8825,
        0.88,
        0.86125,
        0.88625,
        0.87,
        0.8775,
        0.875,
        0.86875,
        0.875,
        0.8775,
        0.85625,
        0.8475,
        0.84875,
        0.84375,
        0.805,
        0.7775,
        0.6725,
        0.51125,
        0.5,
        0.5,
        0.5,
        0.5,
        0.5
      ],
      "split3_train_score": [
        0.9780082987551867,
        0.979253112033195,
        0.9804979253112033,
        0.9788381742738589,
        0.9485477178423236,
        0.9763485477178423,
        0.9518672199170124,
        0.9767634854771784,
        0.9767634854771784,
        0.9759336099585062,
        0.9734439834024896,
        0.991701244813278,
        0.9609958506224067,
        0.9858921161825727,
        0.9937759336099585,
        0.9842323651452282,
        0.9892116182572614,
        0.979253112033195,
        0.9647302904564315,
        0.9452282157676348,
        0.9390041493775934,
        0.9099585062240664,
        0.8987551867219917,
        0.8634854771784233,
        0.7468879668049793,
        0.5203319502074689,
        0.5,
        0.5,
        0.5,
        0.5,
        0.5
      ],
      "std_fit_time": [
        0.039786000428226,
        0.0038507813819315478,
        0.0036818494638689034,
        0.003375842449276913,
        0.00333986987071419,
        0.007425819307482909,
        0.0061187490322762595,
        0.013310774714782732,
        0.031568813472118325,
        0.00355821067474058,
        0.0033831905291289814,
        0.013630787971087875,
        0.024799161445107964,
        0.021844478730334748,
        0.028023362032381656,
        0.030975068796351615,
        0.0809282095520519,
        0.010889578514307515,
        0.18060638071265614,
        0.22217277893690432,
        0.002471392654893766,
        0.03846338072302585,
        0.007425544014671669,
        0.0022520026800823094,
        0.003547900919546836,
        0.01481820012144385,
        0.009029691155416887,
        0.006451401885179439,
        0.008810710139916217,
        0.01443344298791621,
        0.006817169435814072
      ],
      "std_score_time": [
        0.0021566705319473124,
        0.0001609880740107396,
        0.00020587629814118393,
        0.0001847019745802521,
        0.0007533176270711437,
        0.0007721802204624655,
        0.00111269607312506,
        0.00017813756298359497,
        0.013185326223842995,
        0.0007413646778591103,
        9.286065074027185e-05,
        0.0003609905500520264,
        0.0005574392947413896,
        0.003194414793259599,
        0.0014102118490334384,
        0.004010126048475219,
        0.0010534042781412953,
        0.0009444419970315064,
        0.062223035244102984,
        0.002914012360502944,
        0.0003379105436585573,
        0.0001732365293532237,
        0.00022228671446869588,
        0.0006118055663714164,
        0.0005445587178606595,
        0.00018231173615930476,
        0.0001696151311819884,
        0.00018737307637226448,
        0.0018220009470780157,
        0.0017943552776325316,
        0.00026307961558227606
      ],
      "std_test_score": [
        0.019390977949925718,
        0.0194572645169802,
        0.007227984991972979,
        0.0074033100082838465,
        0.020969785859888644,
        0.023863975559202267,
        0.02168151915859971,
        0.01946723754090649,
        0.014656912560538367,
        0.022043691551144145,
        0.02521415713665899,
        0.010001791197713085,
        0.020354713404690875,
        0.014102736095347576,
        0.02851997872868717,
        0.017182058777279397,
        0.019890918748717408,
        0.019182328307617826,
        0.02469925484508538,
        0.031277569138075896,
        0.023220937049189632,
        0.027324884302218827,
        0.029016213719999528,
        0.03686463101308257,
        0.0249042785462642,
        0.002802512135240724,
        0.0,
        0.0,
        0.0,
        0.0,
        0.0
      ],
      "std_train_score": [
        0.001837319091470373,
        0.007474055591861582,
        0.010847661109282867,
        0.008932582172434471,
        0.012820301001402709,
        0.007912818579892114,
        0.003929393010658063,
        0.010600612648856795,
        0.003704060388248353,
        0.004638179558948376,
        0.0064910570736579675,
        0.007946712928864265,
        0.0073572026203546055,
        0.006115964213892946,
        0.00916194482754568,
        0.004210676581495908,
        0.005932613231123193,
        0.003127428852427078,
        0.001950491528128421,
        0.000606528684627411,
        0.010480818018292483,
        0.0068417904438860585,
        0.022615778240048023,
        0.012011901024915214,
        0.026536887089219717,
        0.008210107442908473,
        0.0,
        0.0,
        0.0,
        0.0,
        0.0
      ]
    },
    "xval_grid": {
      "clf__alpha": [
        1e-10,
        3.1622776601683795e-10,
        1e-09,
        3.1622776601683795e-09,
        1e-08,
        3.162277660168379e-08,
        1e-07,
        3.162277660168379e-07,
        1e-06,
        3.162277660168379e-06,
        1e-05,
        3.1622776601683795e-05,
        0.0001,
        0.00031622776601683794,
        0.001,
        0.0031622776601683794,
        0.01,
        0.03162277660168379,
        0.1,
        0.31622776601683794,
        1.0,
        3.1622776601683795,
        10.0,
        31.622776601683793,
        100.0,
        316.22776601683796,
        1000.0,
        3162.2776601683795,
        10000.0,
        31622.776601683792,
        100000.0
      ]
    }
  },
  {
    "fold_id": 1,
    "test": {
      "accuracy": 0.9135802469135802,
      "confusion_matrix": [
        [
          380,
          25
        ],
        [
          45,
          360
        ]
      ],
      "f1_macro": 0.9135275278328504,
      "f1_micro": 0.9135802469135802,
      "f1_weighted": 0.9135275278328503,
      "per_class": {
        "y=0": {
          "accuracy": 0.9135802469135802,
          "confusion_matrix": [
            [
              360,
              45
            ],
            [
              25,
              380
            ]
          ],
          "f1": 0.9156626506024096,
          "precision": 0.8941176470588236,
          "recall": 0.9382716049382716
        },
        "y=1": {
          "accuracy": 0.9135802469135802,
          "confusion_matrix": [
            [
              380,
              25
            ],
            [
              45,
              360
            ]
          ],
          "f1": 0.9113924050632912,
          "precision": 0.935064935064935,
          "recall": 0.8888888888888888
        }
      },
      "precision_macro": 0.9145912910618793,
      "precision_micro": 0.9135802469135802,
      "precision_weighted": 0.9145912910618793,
      "recall_macro": 0.9135802469135802,
      "recall_micro": 0.9135802469135802,
      "recall_weighted": 0.9135802469135802
    },
    "train": {
      "accuracy": 0.9566978193146417,
      "confusion_matrix": [
        [
          1555,
          50
        ],
        [
          89,
          1516
        ]
      ],
      "f1_macro": 0.9566914264865138,
      "f1_micro": 0.9566978193146418,
      "f1_weighted": 0.9566914264865138,
      "per_class": {
        "y=0": {
          "accuracy": 0.9566978193146417,
          "confusion_matrix": [
            [
              1516,
              89
            ],
            [
              50,
              1555
            ]
          ],
          "f1": 0.9572176054170514,
          "precision": 0.9458637469586375,
          "recall": 0.9688473520249221
        },
        "y=1": {
          "accuracy": 0.9566978193146417,
          "confusion_matrix": [
            [
              1555,
              50
            ],
            [
              89,
              1516
            ]
          ],
          "f1": 0.9561652475559762,
          "precision": 0.9680715197956578,
          "recall": 0.9445482866043614
        }
      },
      "precision_macro": 0.9569676333771476,
      "precision_micro": 0.9566978193146417,
      "precision_weighted": 0.9569676333771475,
      "recall_macro": 0.9566978193146418,
      "recall_micro": 0.9566978193146417,
      "recall_weighted": 0.9566978193146417
    },
    "xval": {
      "mean_fit_time": [
        0.0729365348815918,
        0.06514674425125122,
        0.07015269994735718,
        0.0668153166770935,
        0.05809187889099121,
        0.06691086292266846,
        0.06101804971694946,
        0.06313318014144897,
        0.08067703247070312,
        0.1230514645576477,
        0.07442736625671387,
        0.08425891399383545,
        0.13608646392822266,
        0.10667747259140015,
        0.1346403956413269,
        0.12835514545440674,
        0.1041947603225708,
        0.16231626272201538,
        0.1125531792640686,
        0.2428392767906189,
        0.0938643217086792,
        0.08352917432785034,
        0.08335959911346436,
        0.07557928562164307,
        0.08134818077087402,
        0.08401024341583252,
        0.0761878490447998,
        0.08605194091796875,
        0.07029271125793457,
        0.08990174531936646,
        0.1042974591255188
      ],
      "mean_score_time": [
        0.008705735206604004,
        0.006183505058288574,
        0.006237983703613281,
        0.007006645202636719,
        0.006277620792388916,
        0.006659269332885742,
        0.008273780345916748,
        0.0060389041900634766,
        0.006457984447479248,
        0.010377347469329834,
        0.007511496543884277,
        0.0064095258712768555,
        0.006993412971496582,
        0.006075501441955566,
        0.00720667839050293,
        0.005725204944610596,
        0.0065062642097473145,
        0.006115436553955078,
        0.005649983882904053,
        0.007955729961395264,
        0.006450951099395752,
        0.005872964859008789,
        0.007112085819244385,
        0.00789785385131836,
        0.007844805717468262,
        0.008630990982055664,
        0.00976651906967163,
        0.008611321449279785,
        0.008427977561950684,
        0.009968936443328857,
        0.012552499771118164
      ],
      "mean_test_score": [
        0.8797507788161993,
        0.8847352024922118,
        0.8728971962616823,
        0.8794392523364486,
        0.8772585669781932,
        0.883177570093458,
        0.8791277258566979,
        0.8872274143302181,
        0.8822429906542056,
        0.8772585669781932,
        0.8713395638629283,
        0.878816199376947,
        0.8713395638629283,
        0.8847352024922118,
        0.8763239875389408,
        0.8850467289719626,
        0.8862928348909658,
        0.8906542056074767,
        0.8943925233644859,
        0.8828660436137071,
        0.878816199376947,
        0.8638629283489097,
        0.838006230529595,
        0.8171339563862928,
        0.6906542056074766,
        0.509968847352025,
        0.5,
        0.5,
        0.5,
        0.5,
        0.5
      ],
      "mean_train_score": [
        0.9705191044260028,
        0.9670854944674966,
        0.9598327282157677,
        0.9660433955739973,
        0.969382347856155,
        0.961077541493776,
        0.9672052213001383,
        0.9648072268326419,
        0.9726919087136929,
        0.969589816735823,
        0.9715508298755187,
        0.9750924965421853,
        0.975816908713693,
        0.9689687067773168,
        0.9757123098201936,
        0.9840123616874136,
        0.9801707295988935,
        0.9752913208852005,
        0.961689142461964,
        0.9406055497925312,
        0.9198469917012448,
        0.8935840248962655,
        0.874867306362379,
        0.8475267980636237,
        0.7141277662517289,
        0.511116009681881,
        0.5,
        0.5,
        0.5,
        0.5,
        0.5
      ],
      "param_clf__alpha": [
        1e-10,
        3.1622776601683795e-10,
        1e-09,
        3.1622776601683795e-09,
        1e-08,
        3.162277660168379e-08,
        1e-07,
        3.162277660168379e-07,
        1e-06,
        3.162277660168379e-06,
        1e-05,
        3.1622776601683795e-05,
        0.0001,
        0.00031622776601683794,
        0.001,
        0.0031622776601683794,
        0.01,
        0.03162277660168379,
        0.1,
        0.31622776601683794,
        1.0,
        3.1622776601683795,
        10.0,
        31.622776601683793,
        100.0,
        316.22776601683796,
        1000.0,
        3162.2776601683795,
        10000.0,
        31622.776601683792,
        100000.0
      ],
      "params": [
        {
          "clf__alpha": 1e-10
        },
        {
          "clf__alpha": 3.1622776601683795e-10
        },
        {
          "clf__alpha": 1e-09
        },
        {
          "clf__alpha": 3.1622776601683795e-09
        },
        {
          "clf__alpha": 1e-08
        },
        {
          "clf__alpha": 3.162277660168379e-08
        },
        {
          "clf__alpha": 1e-07
        },
        {
          "clf__alpha": 3.162277660168379e-07
        },
        {
          "clf__alpha": 1e-06
        },
        {
          "clf__alpha": 3.162277660168379e-06
        },
        {
          "clf__alpha": 1e-05
        },
        {
          "clf__alpha": 3.1622776601683795e-05
        },
        {
          "clf__alpha": 0.0001
        },
        {
          "clf__alpha": 0.00031622776601683794
        },
        {
          "clf__alpha": 0.001
        },
        {
          "clf__alpha": 0.0031622776601683794
        },
        {
          "clf__alpha": 0.01
        },
        {
          "clf__alpha": 0.03162277660168379
        },
        {
          "clf__alpha": 0.1
        },
        {
          "clf__alpha": 0.31622776601683794
        },
        {
          "clf__alpha": 1.0
        },
        {
          "clf__alpha": 3.1622776601683795
        },
        {
          "clf__alpha": 10.0
        },
        {
          "clf__alpha": 31.622776601683793
        },
        {
          "clf__alpha": 100.0
        },
        {
          "clf__alpha": 316.22776601683796
        },
        {
          "clf__alpha": 1000.0
        },
        {
          "clf__alpha": 3162.2776601683795
        },
        {
          "clf__alpha": 10000.0
        },
        {
          "clf__alpha": 31622.776601683792
        },
        {
          "clf__alpha": 100000.0
        }
      ],
      "rank_test_score": [
        11,
        6,
        19,
        12,
        16,
        8,
        13,
        3,
        10,
        16,
        20,
        14,
        20,
        6,
        18,
        5,
        4,
        2,
        1,
        9,
        14,
        22,
        23,
        24,
        25,
        26,
        27,
        27,
        27,
        27,
        27
      ],
      "split0_test_score": [
        0.8419753086419753,
        0.8592592592592593,
        0.8345679012345679,
        0.8333333333333334,
        0.8271604938271605,
        0.8481481481481481,
        0.8333333333333334,
        0.8320987654320988,
        0.828395061728395,
        0.8271604938271605,
        0.8246913580246914,
        0.8333333333333334,
        0.808641975308642,
        0.8345679012345679,
        0.8296296296296296,
        0.8246913580246914,
        0.8271604938271605,
        0.8629629629629629,
        0.8740740740740741,
        0.8691358024691358,
        0.8716049382716049,
        0.8641975308641975,
        0.8012345679012346,
        0.7407407407407407,
        0.6246913580246913,
        0.5024691358024691,
        0.5,
        0.5,
        0.5,
        0.5,
        0.5
      ],
      "split0_train_score": [
        0.9804166666666667,
        0.9704166666666667,
        0.97875,
        0.9658333333333333,
        0.9845833333333334,
        0.97875,
        0.9858333333333333,
        0.9741666666666666,
        0.975,
        0.9845833333333334,
        0.975,
        0.9891666666666666,
        0.9875,
        0.9858333333333333,
        0.9866666666666667,
        0.9879166666666667,
        0.9845833333333334,
        0.9808333333333333,
        0.9683333333333334,
        0.94375,
        0.9325,
        0.915,
        0.8720833333333333,
        0.8158333333333333,
        0.7191666666666666,
        0.5158333333333334,
        0.5,
        0.5,
        0.5,
        0.5,
        0.5
      ],
      "split1_test_score": [
        0.91,
        0.91625,
        0.92375,
        0.9025,
        0.895,
        0.8975,
        0.9025,
        0.91,
        0.91375,
        0.90125,
        0.905,
        0.91,
        0.90875,
        0.9125,
        0.90375,
        0.925,
        0.915,
        0.9125,
        0.91875,
        0.9125,
        0.89375,
        0.87875,
        0.87375,
        0.84625,
        0.69375,
        0.51375,
        0.5,
        0.5,
        0.5,
        0.5,
        0.5
      ],
      "split1_train_score": [
        0.9526970954356846,
        0.9726141078838174,
        0.9464730290456431,
        0.9556016597510374,
        0.9647302904564315,
        0.9294605809128631,
        0.9452282157676348,
        0.9597510373443984,
        0.9692946058091286,
        0.9605809128630706,
        0.9647302904564315,
        0.9639004149377594,
        0.9697095435684647,
        0.9684647302904564,
        0.9543568464730291,
        0.9796680497925311,
        0.975103734439834,
        0.970954356846473,
        0.9630705394190872,
        0.9356846473029046,
        0.8954356846473029,
        0.8697095435684647,
        0.8655601659751038,
        0.84149377593361,
        0.7203319502074689,
        0.5037344398340249,
        0.5,
        0.5,
        0.5,
        0.5,
        0.5
      ],
      "split2_test_score": [
        0.9,
        0.915,
        0.8875,
        0.91625,
        0.925,
        0.915,
        0.90875,
        0.93,
        0.925,
        0.925,
        0.9025,
        0.91875,
        0.905,
        0.92875,
        0.90875,
        0.9125,
        0.92125,
        0.92625,
        0.915,
        0.9,
        0.905,
        0.88,
        0.86375,
        0.88875,
        0.735,
        0.51375,
        0.5,
        0.5,
        0.5,
        0.5,
        0.5
      ],
      "split2_train_score": [
        0.9697095435684647,
        0.9630705394190872,
        0.9406639004149377,
        0.9659751037344398,
        0.9601659751037345,
        0.9605809128630706,
        0.9614107883817428,
        0.9663900414937759,
        0.9738589211618257,
        0.9734439834024896,
        0.9680497925311203,
        0.9639004149377594,
        0.9692946058091286,
        0.9643153526970955,
        0.9821576763485477,
        0.9817427385892116,
        0.9721991701244813,
        0.975103734439834,
        0.9526970954356846,
        0.9323651452282158,
        0.9174273858921161,
        0.8767634854771784,
        0.8626556016597511,
        0.8609958506224067,
        0.7053941908713693,
        0.5141078838174273,
        0.5,
        0.5,
        0.5,
        0.5,
        0.5
      ],
      "split3_test_score": [
        0.8675,
        0.84875,
        0.84625,
        0.86625,
        0.8625,
        0.8725,
        0.8725,
        0.8775,
        0.8625,
        0.85625,
        0.85375,
        0.85375,
        0.86375,
        0.86375,
        0.86375,
        0.87875,
        0.8825,
        0.86125,
        0.87,
        0.85,
        0.845,
        0.8325,
        0.81375,
        0.79375,
        0.71,
        0.51,
        0.5,
        0.5,
        0.5,
        0.5,
        0.5
      ],
      "split3_train_score": [
        0.979253112033195,
        0.962240663900415,
        0.9734439834024896,
        0.9767634854771784,
        0.9680497925311203,
        0.9755186721991701,
        0.9763485477178423,
        0.9589211618257262,
        0.9726141078838174,
        0.9597510373443984,
        0.9784232365145228,
        0.983402489626556,
        0.9767634854771784,
        0.9572614107883818,
        0.9796680497925311,
        0.9867219917012449,
        0.9887966804979254,
        0.9742738589211618,
        0.9626556016597511,
        0.9506224066390041,
        0.9340248962655602,
        0.9128630705394191,
        0.8991701244813278,
        0.8717842323651452,
        0.7116182572614108,
        0.5107883817427386,
        0.5,
        0.5,
        0.5,
        0.5,
        0.5
      ],
      "std_fit_time": [
        0.01313865826987795,
        0.014833999816863432,
        0.009090107792339286,
        0.014835270802389616,
        0.003390664091270685,
        0.011692389503553386,
        0.004073328720945107,
        0.00888881715141236,
        0.007582671307806721,
        0.06924982877594467,
        0.01828606158412067,
        0.008245714831523874,
        0.03155189479678037,
        0.028720466725613944,
        0.030771605456196928,
        0.021738996028074175,
        0.015379655649367592,
        0.07508899619409304,
        0.046199370129434904,
        0.06720206468191878,
        0.030616271952225493,
        0.010870504363709226,
        0.009968646622752217,
        0.01207691056664987,
        0.015116073422476567,
        0.022578202853266328,
        0.010255531104530868,
        0.010082866299409502,
        0.01001555795526616,
        0.029201900433408083,
        0.015535407446399644
      ],
      "std_score_time": [
        0.0022186562520894867,
        0.00068917084315687,
        0.00017012163873425835,
        0.0017932250260150571,
        0.0008544371774108851,
        0.0011636496936006972,
        0.0043966334516441306,
        0.00027316756027848436,
        0.000505825184232972,
        0.005675858523655104,
        0.0012632130757554963,
        0.0007220847539175533,
        0.000945280695857869,
        0.0005383336958892367,
        0.0011102026737260576,
        0.00015519249124236825,
        0.00048308894631072125,
        0.0002936253300920393,
        0.00029480543471008757,
        0.0028348806634691595,
        0.000511527946988577,
        0.00026080273699232576,
        0.0013519630943305632,
        0.0006125428029572373,
        0.0005116135093682611,
        0.000924162372977593,
        0.002851637552858355,
        0.0019784916405974477,
        0.002068620322094432,
        0.002742998346009341,
        0.0028356893157803786
      ],
      "std_test_score": [
        0.02697616992043832,
        0.031020892199021453,
        0.03528900400310159,
        0.03240365856716756,
        0.03652510020586506,
        0.025328782359860504,
        0.029915809344263966,
        0.03708998860972633,
        0.03913864996646072,
        0.038141833410992594,
        0.033919994911442486,
        0.03630951042838546,
        0.04046549124998697,
        0.03767968852467596,
        0.03223494439110121,
        0.03891967985619127,
        0.037361022217298916,
        0.029046301416207676,
        0.022497904817680638,
        0.024673805507077547,
        0.022903277441570953,
        0.019112890509218657,
        0.031167442690910117,
        0.055663169373225435,
        0.04103301356338423,
        0.0046172896103491845,
        0.0,
        0.0,
        0.0,
        0.0,
        0.0
      ],
      "std_train_score": [
        0.011096441100904242,
        0.0045070645045340585,
        0.016500416363615454,
        0.007483297475863705,
        0.009211797163604221,
        0.019498338916920092,
        0.015388073311199681,
        0.0061301555784680495,
        0.002135235551087616,
        0.010217901809518901,
        0.005429175075774295,
        0.01137611127577643,
        0.007369378769092278,
        0.010528343943157123,
        0.012582173670569942,
        0.0034135731657159987,
        0.006765691040568659,
        0.003556458089561347,
        0.005653416732210373,
        0.0071123930024638215,
        0.015515137778929029,
        0.020513696616987057,
        0.014440620383849474,
        0.021276228274504445,
        0.006050937742309673,
        0.004631397379862484,
        0.0,
        0.0,
        0.0,
        0.0,
        0.0
      ]
    },
    "xval_grid": {
      "clf__alpha": [
        1e-10,
        3.1622776601683795e-10,
        1e-09,
        3.1622776601683795e-09,
        1e-08,
        3.162277660168379e-08,
        1e-07,
        3.162277660168379e-07,
        1e-06,
        3.162277660168379e-06,
        1e-05,
        3.1622776601683795e-05,
        0.0001,
        0.00031622776601683794,
        0.001,
        0.0031622776601683794,
        0.01,
        0.03162277660168379,
        0.1,
        0.31622776601683794,
        1.0,
        3.1622776601683795,
        10.0,
        31.622776601683793,
        100.0,
        316.22776601683796,
        1000.0,
        3162.2776601683795,
        10000.0,
        31622.776601683792,
        100000.0
      ]
    }
  },
  {
    "fold_id": 2,
    "test": {
      "accuracy": 0.92875,
      "confusion_matrix": [
        [
          375,
          25
        ],
        [
          32,
          368
        ]
      ],
      "f1_macro": 0.9287445445041886,
      "f1_micro": 0.92875,
      "f1_weighted": 0.9287445445041886,
      "per_class": {
        "y=0": {
          "accuracy": 0.92875,
          "confusion_matrix": [
            [
              368,
              32
            ],
            [
              25,
              375
            ]
          ],
          "f1": 0.9293680297397771,
          "precision": 0.9213759213759214,
          "recall": 0.9375
        },
        "y=1": {
          "accuracy": 0.92875,
          "confusion_matrix": [
            [
              375,
              25
            ],
            [
              32,
              368
            ]
          ],
          "f1": 0.9281210592686003,
          "precision": 0.9363867684478372,
          "recall": 0.92
        }
      },
      "precision_macro": 0.9288813449118793,
      "precision_micro": 0.92875,
      "precision_weighted": 0.9288813449118792,
      "recall_macro": 0.92875,
      "recall_micro": 0.92875,
      "recall_weighted": 0.92875
    },
    "train": {
      "accuracy": 0.9627329192546584,
      "confusion_matrix": [
        [
          1572,
          38
        ],
        [
          82,
          1528
        ]
      ],
      "f1_macro": 0.9627259594013928,
      "f1_micro": 0.9627329192546584,
      "f1_weighted": 0.9627259594013927,
      "per_class": {
        "y=0": {
          "accuracy": 0.9627329192546584,
          "confusion_matrix": [
            [
              1528,
              82
            ],
            [
              38,
              1572
            ]
          ],
          "f1": 0.9632352941176471,
          "precision": 0.9504232164449818,
          "recall": 0.9763975155279503
        },
        "y=1": {
          "accuracy": 0.9627329192546584,
          "confusion_matrix": [
            [
              1572,
              38
            ],
            [
              82,
              1528
            ]
          ],
          "f1": 0.9622166246851385,
          "precision": 0.9757343550446999,
          "recall": 0.9490683229813665
        }
      },
      "precision_macro": 0.9630787857448408,
      "precision_micro": 0.9627329192546584,
      "precision_weighted": 0.9630787857448408,
      "recall_macro": 0.9627329192546583,
      "recall_micro": 0.9627329192546584,
      "recall_weighted": 0.9627329192546584
    },
    "xval": {
      "mean_fit_time": [
        0.06653857231140137,
        0.06385421752929688,
        0.09118831157684326,
        0.08605855703353882,
        0.05783069133758545,
        0.06362998485565186,
        0.06270480155944824,
        0.07505649328231812,
        0.16771578788757324,
        0.1509903073310852,
        0.135189950466156,
        0.14257770776748657,
        0.12738150358200073,
        0.11281365156173706,
        0.12302923202514648,
        0.13190889358520508,
        0.1256316900253296,
        0.13067001104354858,
        0.20732003450393677,
        0.1677979826927185,
        0.15457892417907715,
        0.07140213251113892,
        0.07062411308288574,
        0.06793743371963501,
        0.05104875564575195,
        0.053561270236968994,
        0.05809074640274048,
        0.05464065074920654,
        0.06826204061508179,
        0.057069361209869385,
        0.052803754806518555
      ],
      "mean_score_time": [
        0.0061293840408325195,
        0.0072212815284729,
        0.0081024169921875,
        0.011370241641998291,
        0.00542980432510376,
        0.005699217319488525,
        0.006059765815734863,
        0.007107973098754883,
        0.0197945237159729,
        0.010673582553863525,
        0.010319292545318604,
        0.01663309335708618,
        0.0058860182762146,
        0.005279421806335449,
        0.005751669406890869,
        0.006075441837310791,
        0.006268143653869629,
        0.006459712982177734,
        0.005258023738861084,
        0.005310118198394775,
        0.00610882043838501,
        0.005209565162658691,
        0.005388200283050537,
        0.005246222019195557,
        0.005089521408081055,
        0.005087792873382568,
        0.00572049617767334,
        0.005356192588806152,
        0.006376028060913086,
        0.005422353744506836,
        0.0051541924476623535
      ],
      "mean_test_score": [
        0.8729813664596273,
        0.877639751552795,
        0.8701863354037267,
        0.8748447204968944,
        0.8729813664596273,
        0.8714285714285714,
        0.8847826086956522,
        0.8832298136645963,
        0.8822981366459627,
        0.8742236024844721,
        0.8714285714285714,
        0.8742236024844721,
        0.8720496894409938,
        0.8667701863354037,
        0.8704968944099379,
        0.8798136645962733,
        0.8763975155279503,
        0.8881987577639752,
        0.886335403726708,
        0.8770186335403727,
        0.8717391304347826,
        0.8708074534161491,
        0.8419254658385094,
        0.8021739130434783,
        0.6708074534161491,
        0.5065217391304347,
        0.5,
        0.5,
        0.5,
        0.5,
        0.5
      ],
      "mean_train_score": [
        0.9646981413531772,
        0.9555960872398066,
        0.9585786667123898,
        0.9576622029422859,
        0.9643920818901958,
        0.9614892321936834,
        0.9577543637049484,
        0.9703971057233978,
        0.9668769932444018,
        0.97204271115531,
        0.9667591131991359,
        0.9687373546860534,
        0.9658482219402627,
        0.9658396488460614,
        0.9721507321422448,
        0.9772037138644079,
        0.9747453791022256,
        0.9729844655533075,
        0.9572459792188197,
        0.9367498542573985,
        0.9174946846815952,
        0.8966877850553822,
        0.862833493364425,
        0.8286487088920134,
        0.67455548506567,
        0.5055913720379959,
        0.5,
        0.5,
        0.5,
        0.5,
        0.5
      ],
      "param_clf__alpha": [
        1e-10,
        3.1622776601683795e-10,
        1e-09,
        3.1622776601683795e-09,
        1e-08,
        3.162277660168379e-08,
        1e-07,
        3.162277660168379e-07,
        1e-06,
        3.162277660168379e-06,
        1e-05,
        3.1622776601683795e-05,
        0.0001,
        0.00031622776601683794,
        0.001,
        0.0031622776601683794,
        0.01,
        0.03162277660168379,
        0.1,
        0.31622776601683794,
        1.0,
        3.1622776601683795,
        10.0,
        31.622776601683793,
        100.0,
        316.22776601683796,
        1000.0,
        3162.2776601683795,
        10000.0,
        31622.776601683792,
        100000.0
      ],
      "params": [
        {
          "clf__alpha": 1e-10
        },
        {
          "clf__alpha": 3.1622776601683795e-10
        },
        {
          "clf__alpha": 1e-09
        },
        {
          "clf__alpha": 3.1622776601683795e-09
        },
        {
          "clf__alpha": 1e-08
        },
        {
          "clf__alpha": 3.162277660168379e-08
        },
        {
          "clf__alpha": 1e-07
        },
        {
          "clf__alpha": 3.162277660168379e-07
        },
        {
          "clf__alpha": 1e-06
        },
        {
          "clf__alpha": 3.162277660168379e-06
        },
        {
          "clf__alpha": 1e-05
        },
        {
          "clf__alpha": 3.1622776601683795e-05
        },
        {
          "clf__alpha": 0.0001
        },
        {
          "clf__alpha": 0.00031622776601683794
        },
        {
          "clf__alpha": 0.001
        },
        {
          "clf__alpha": 0.0031622776601683794
        },
        {
          "clf__alpha": 0.01
        },
        {
          "clf__alpha": 0.03162277660168379
        },
        {
          "clf__alpha": 0.1
        },
        {
          "clf__alpha": 0.31622776601683794
        },
        {
          "clf__alpha": 1.0
        },
        {
          "clf__alpha": 3.1622776601683795
        },
        {
          "clf__alpha": 10.0
        },
        {
          "clf__alpha": 31.622776601683793
        },
        {
          "clf__alpha": 100.0
        },
        {
          "clf__alpha": 316.22776601683796
        },
        {
          "clf__alpha": 1000.0
        },
        {
          "clf__alpha": 3162.2776601683795
        },
        {
          "clf__alpha": 10000.0
        },
        {
          "clf__alpha": 31622.776601683792
        },
        {
          "clf__alpha": 100000.0
        }
      ],
      "rank_test_score": [
        13,
        7,
        21,
        10,
        13,
        17,
        3,
        4,
        5,
        11,
        17,
        11,
        15,
        22,
        20,
        6,
        9,
        1,
        2,
        8,
        16,
        19,
        23,
        24,
        25,
        26,
        27,
        27,
        27,
        27,
        27
      ],
      "split0_test_score": [
        0.8444444444444444,
        0.8679012345679012,
        0.8358024691358025,
        0.8580246913580247,
        0.8654320987654321,
        0.8382716049382716,
        0.8691358024691358,
        0.8691358024691358,
        0.8790123456790123,
        0.8481481481481481,
        0.8432098765432099,
        0.845679012345679,
        0.8629629629629629,
        0.8444444444444444,
        0.8444444444444444,
        0.8555555555555555,
        0.8555555555555555,
        0.8629629629629629,
        0.8753086419753087,
        0.8617283950617284,
        0.8530864197530864,
        0.8654320987654321,
        0.8049382716049382,
        0.737037037037037,
        0.7074074074074074,
        0.5,
        0.5,
        0.5,
        0.5,
        0.5,
        0.5
      ],
      "split0_train_score": [
        0.9643153526970955,
        0.9556016597510374,
        0.9593360995850623,
        0.9672199170124481,
        0.9630705394190872,
        0.9680497925311203,
        0.9535269709543569,
        0.9688796680497925,
        0.9759336099585062,
        0.9713692946058091,
        0.962240663900415,
        0.9813278008298755,
        0.9734439834024896,
        0.9730290456431535,
        0.9697095435684647,
        0.9630705394190872,
        0.9780082987551867,
        0.9763485477178423,
        0.958091286307054,
        0.9352697095435685,
        0.9153526970954357,
        0.9037344398340249,
        0.8560165975103734,
        0.7867219917012448,
        0.6991701244813278,
        0.5087136929460581,
        0.5,
        0.5,
        0.5,
        0.5,
        0.5
      ],
      "split1_test_score": [
        0.8716049382716049,
        0.8777777777777778,
        0.8814814814814815,
        0.8777777777777778,
        0.8888888888888888,
        0.8703703703703703,
        0.8987654320987655,
        0.891358024691358,
        0.8888888888888888,
        0.8987654320987655,
        0.891358024691358,
        0.8827160493827161,
        0.8716049382716049,
        0.8716049382716049,
        0.8950617283950617,
        0.8938271604938272,
        0.8888888888888888,
        0.9012345679012346,
        0.8925925925925926,
        0.8901234567901235,
        0.8962962962962963,
        0.8827160493827161,
        0.8530864197530864,
        0.828395061728395,
        0.6555555555555556,
        0.5111111111111111,
        0.5,
        0.5,
        0.5,
        0.5,
        0.5
      ],
      "split1_train_score": [
        0.9634854771784233,
        0.9614107883817428,
        0.9448132780082987,
        0.9497925311203319,
        0.9684647302904564,
        0.9535269709543569,
        0.9526970954356846,
        0.9755186721991701,
        0.9609958506224067,
        0.9659751037344398,
        0.9605809128630706,
        0.9564315352697096,
        0.9676348547717842,
        0.9597510373443984,
        0.9721991701244813,
        0.9701244813278008,
        0.9755186721991701,
        0.9726141078838174,
        0.9560165975103735,
        0.9385892116182573,
        0.9195020746887966,
        0.8900414937759336,
        0.8668049792531121,
        0.8452282157676348,
        0.6705394190871369,
        0.5037344398340249,
        0.5,
        0.5,
        0.5,
        0.5,
        0.5
      ],
      "split2_test_score": [
        0.9025,
        0.89875,
        0.9,
        0.9,
        0.8825,
        0.9125,
        0.91375,
        0.905,
        0.91125,
        0.89125,
        0.9025,
        0.9,
        0.89875,
        0.8925,
        0.8925,
        0.91125,
        0.89125,
        0.9175,
        0.92375,
        0.90875,
        0.90625,
        0.91125,
        0.88625,
        0.85875,
        0.67375,
        0.5075,
        0.5,
        0.5,
        0.5,
        0.5,
        0.5
      ],
      "split2_train_score": [
        0.9623966942148761,
        0.9442148760330579,
        0.9714876033057851,
        0.943801652892562,
        0.9648760330578512,
        0.9566115702479339,
        0.9541322314049587,
        0.9590909090909091,
        0.9636363636363636,
        0.9723140495867768,
        0.971900826446281,
        0.9582644628099174,
        0.9487603305785124,
        0.9516528925619835,
        0.9743801652892562,
        0.984297520661157,
        0.9669421487603306,
        0.9665289256198347,
        0.9524793388429752,
        0.9305785123966942,
        0.9049586776859504,
        0.8913223140495867,
        0.8574380165289256,
        0.8194214876033058,
        0.628099173553719,
        0.5045454545454545,
        0.5,
        0.5,
        0.5,
        0.5,
        0.5
      ],
      "split3_test_score": [
        0.87375,
        0.86625,
        0.86375,
        0.86375,
        0.855,
        0.865,
        0.8575,
        0.8675,
        0.85,
        0.85875,
        0.84875,
        0.86875,
        0.855,
        0.85875,
        0.85,
        0.85875,
        0.87,
        0.87125,
        0.85375,
        0.8475,
        0.83125,
        0.82375,
        0.82375,
        0.785,
        0.64625,
        0.5075,
        0.5,
        0.5,
        0.5,
        0.5,
        0.5
      ],
      "split3_train_score": [
        0.968595041322314,
        0.9611570247933884,
        0.9586776859504132,
        0.9698347107438017,
        0.9611570247933884,
        0.9677685950413223,
        0.9706611570247934,
        0.978099173553719,
        0.9669421487603306,
        0.9785123966942149,
        0.9723140495867768,
        0.9789256198347107,
        0.9735537190082645,
        0.9789256198347107,
        0.9723140495867768,
        0.9913223140495868,
        0.9785123966942149,
        0.9764462809917356,
        0.9623966942148761,
        0.9425619834710743,
        0.9301652892561983,
        0.9016528925619834,
        0.8710743801652893,
        0.8632231404958678,
        0.7004132231404959,
        0.5053719008264462,
        0.5,
        0.5,
        0.5,
        0.5,
        0.5
      ],
      "std_fit_time": [
        0.0042444633024338015,
        0.007355771323731558,
        0.014156472195783575,
        0.021246350877537765,
        0.0027044586006029023,
        0.005844281703156835,
        0.011175496811010144,
        0.016273193383667738,
        0.025001429940276404,
        0.05623698428208444,
        0.011804591025114301,
        0.0641364355396481,
        0.011884547719407487,
        0.005454795408097653,
        0.030890880048525533,
        0.03906230435955997,
        0.011236967143985794,
        0.006308197880261185,
        0.024201047579380408,
        0.07207511656839082,
        0.03973567471164187,
        0.017819099184543753,
        0.011431880279463664,
        0.011042920989689599,
        0.005400241518311038,
        0.006458765011719681,
        0.006482201360329882,
        0.006286426382153044,
        0.0107904904251638,
        0.015221964867427495,
        0.003484868790757129
      ],
      "std_score_time": [
        0.0002551667811676546,
        0.0019181352083819379,
        0.0016752633260227697,
        0.004235514802568735,
        0.00040447665831322866,
        0.0009652651613357687,
        0.0006936970064457057,
        0.0025213242981705995,
        0.008569603525804737,
        0.004042510530858525,
        0.0015539407619904774,
        0.013755189258312147,
        0.0007287543679081886,
        0.0001758839648547504,
        0.000563072289949224,
        0.0008888111664626537,
        0.0001540189095686592,
        0.0008180580611018782,
        0.00027669415356300646,
        0.000330589622251068,
        0.0011458365952758105,
        0.0002563410271432462,
        0.0003971209232759137,
        0.0005196909084647319,
        0.00019265777635961746,
        0.00030492736043736147,
        0.00041538704020880804,
        0.00019519468271819867,
        0.0008927237711801327,
        0.0005568078203698091,
        0.0002880165204571606
      ],
      "std_test_score": [
        0.020541695982379447,
        0.012915516368097719,
        0.023677357566402372,
        0.01615946210588183,
        0.013447391357954858,
        0.026574397123783983,
        0.022453798889112968,
        0.01567833397751979,
        0.021933226675162457,
        0.02130867020845871,
        0.025843040785075416,
        0.01989028736761328,
        0.016436586033005324,
        0.017655664001027225,
        0.023392134204889923,
        0.0235198633925174,
        0.014611545466108095,
        0.02208220436693131,
        0.025534834135371606,
        0.023846435341466084,
        0.03069883780985004,
        0.03161431571085802,
        0.030751615862224198,
        0.04592131448561669,
        0.023398021533141616,
        0.004058710373342726,
        0.0,
        0.0,
        0.0,
        0.0,
        0.0
      ],
      "std_train_score": [
        0.0023505089797642466,
        0.006968980833493054,
        0.009443384979883031,
        0.011108177468548757,
        0.002694102014000606,
        0.0065126903007465455,
        0.007469135960987718,
        0.0073431088684289365,
        0.0056372881411231885,
        0.004449713619426698,
        0.005382403664820055,
        0.01143934806486726,
        0.010152073252810078,
        0.010738543976068373,
        0.001655203358771901,
        0.011174962184139173,
        0.004645574565715456,
        0.004034611988019789,
        0.003587361457314836,
        0.004400010517969519,
        0.00903207364259564,
        0.00606772409983313,
        0.006310034762108998,
        0.02878047339809517,
        0.029363330691308313,
        0.0018933565483665446,
        0.0,
        0.0,
        0.0,
        0.0,
        0.0
      ]
    },
    "xval_grid": {
      "clf__alpha": [
        1e-10,
        3.1622776601683795e-10,
        1e-09,
        3.1622776601683795e-09,
        1e-08,
        3.162277660168379e-08,
        1e-07,
        3.162277660168379e-07,
        1e-06,
        3.162277660168379e-06,
        1e-05,
        3.1622776601683795e-05,
        0.0001,
        0.00031622776601683794,
        0.001,
        0.0031622776601683794,
        0.01,
        0.03162277660168379,
        0.1,
        0.31622776601683794,
        1.0,
        3.1622776601683795,
        10.0,
        31.622776601683793,
        100.0,
        316.22776601683796,
        1000.0,
        3162.2776601683795,
        10000.0,
        31622.776601683792,
        100000.0
      ]
    }
  },
  {
    "fold_id": 3,
    "test": {
      "accuracy": 0.92,
      "confusion_matrix": [
        [
          365,
          35
        ],
        [
          29,
          371
        ]
      ],
      "f1_macro": 0.9199954997468607,
      "f1_micro": 0.92,
      "f1_weighted": 0.9199954997468606,
      "per_class": {
        "y=0": {
          "accuracy": 0.92,
          "confusion_matrix": [
            [
              371,
              29
            ],
            [
              35,
              365
            ]
          ],
          "f1": 0.9193954659949621,
          "precision": 0.9263959390862944,
          "recall": 0.9125
        },
        "y=1": {
          "accuracy": 0.92,
          "confusion_matrix": [
            [
              365,
              35
            ],
            [
              29,
              371
            ]
          ],
          "f1": 0.9205955334987592,
          "precision": 0.9137931034482759,
          "recall": 0.9275
        }
      },
      "precision_macro": 0.9200945212672851,
      "precision_micro": 0.92,
      "precision_weighted": 0.9200945212672852,
      "recall_macro": 0.9199999999999999,
      "recall_micro": 0.92,
      "recall_weighted": 0.92
    },
    "train": {
      "accuracy": 0.9509316770186336,
      "confusion_matrix": [
        [
          1566,
          44
        ],
        [
          114,
          1496
        ]
      ],
      "f1_macro": 0.9509084768659237,
      "f1_micro": 0.9509316770186336,
      "f1_weighted": 0.9509084768659237,
      "per_class": {
        "y=0": {
          "accuracy": 0.9509316770186336,
          "confusion_matrix": [
            [
              1496,
              114
            ],
            [
              44,
              1566
            ]
          ],
          "f1": 0.9519756838905775,
          "precision": 0.9321428571428572,
          "recall": 0.9726708074534162
        },
        "y=1": {
          "accuracy": 0.9509316770186336,
          "confusion_matrix": [
            [
              1566,
              44
            ],
            [
              114,
              1496
            ]
          ],
          "f1": 0.9498412698412699,
          "precision": 0.9714285714285714,
          "recall": 0.929192546583851
        }
      },
      "precision_macro": 0.9517857142857142,
      "precision_micro": 0.9509316770186336,
      "precision_weighted": 0.9517857142857142,
      "recall_macro": 0.9509316770186336,
      "recall_micro": 0.9509316770186336,
      "recall_weighted": 0.9509316770186336
    },
    "xval": {
      "mean_fit_time": [
        0.07832121849060059,
        0.059384047985076904,
        0.060411036014556885,
        0.06049823760986328,
        0.05626356601715088,
        0.05799376964569092,
        0.05546081066131592,
        0.057766735553741455,
        0.06607842445373535,
        0.06490582227706909,
        0.06980913877487183,
        0.08417618274688721,
        0.11461830139160156,
        0.11441129446029663,
        0.12119346857070923,
        0.12904417514801025,
        0.09338432550430298,
        0.11541694402694702,
        0.10450828075408936,
        0.23232334852218628,
        0.12184441089630127,
        0.07008880376815796,
        0.07797831296920776,
        0.06504517793655396,
        0.06992000341415405,
        0.12097448110580444,
        0.09688597917556763,
        0.06352013349533081,
        0.0644882321357727,
        0.0763084888458252,
        0.05700427293777466
      ],
      "mean_score_time": [
        0.006093740463256836,
        0.005639374256134033,
        0.004919767379760742,
        0.0054947733879089355,
        0.004959046840667725,
        0.005079805850982666,
        0.005132198333740234,
        0.00516897439956665,
        0.005186319351196289,
        0.00525975227355957,
        0.005307555198669434,
        0.005119740962982178,
        0.0049481987953186035,
        0.005062103271484375,
        0.006021380424499512,
        0.005244791507720947,
        0.005277037620544434,
        0.005293428897857666,
        0.004971742630004883,
        0.005208194255828857,
        0.005074262619018555,
        0.004990816116333008,
        0.0057716965675354,
        0.005395293235778809,
        0.0062233805656433105,
        0.005813777446746826,
        0.006785333156585693,
        0.006624996662139893,
        0.006895184516906738,
        0.007601261138916016,
        0.006096065044403076
      ],
      "mean_test_score": [
        0.8748447204968944,
        0.8798136645962733,
        0.8630434782608696,
        0.8785714285714286,
        0.877639751552795,
        0.8677018633540373,
        0.8748447204968944,
        0.8717391304347826,
        0.8627329192546583,
        0.8673913043478261,
        0.8751552795031056,
        0.8645962732919255,
        0.8586956521739131,
        0.8704968944099379,
        0.8633540372670807,
        0.8624223602484472,
        0.8742236024844721,
        0.8798136645962733,
        0.8866459627329193,
        0.8795031055900621,
        0.8850931677018633,
        0.8673913043478261,
        0.8487577639751552,
        0.815527950310559,
        0.6580745341614906,
        0.5055900621118012,
        0.5,
        0.5,
        0.5,
        0.5,
        0.5
      ],
      "mean_train_score": [
        0.9679087651315113,
        0.9670733171016083,
        0.9637752477624224,
        0.9596297280614519,
        0.959231079181098,
        0.95902361030143,
        0.9653239772298619,
        0.9576587737046054,
        0.9609774184698741,
        0.9634683309900209,
        0.9675945612290389,
        0.9694686396214122,
        0.9724619354617469,
        0.9711073865779637,
        0.9762996810808957,
        0.9847874729947532,
        0.9777476766914716,
        0.971738794965879,
        0.9628356366379754,
        0.940266108844004,
        0.9176087068344707,
        0.8966980727684235,
        0.874422602105552,
        0.8244346044374335,
        0.6872758135866397,
        0.5070423682315421,
        0.5,
        0.5,
        0.5,
        0.5,
        0.5
      ],
      "param_clf__alpha": [
        1e-10,
        3.1622776601683795e-10,
        1e-09,
        3.1622776601683795e-09,
        1e-08,
        3.162277660168379e-08,
        1e-07,
        3.162277660168379e-07,
        1e-06,
        3.162277660168379e-06,
        1e-05,
        3.1622776601683795e-05,
        0.0001,
        0.00031622776601683794,
        0.001,
        0.0031622776601683794,
        0.01,
        0.03162277660168379,
        0.1,
        0.31622776601683794,
        1.0,
        3.1622776601683795,
        10.0,
        31.622776601683793,
        100.0,
        316.22776601683796,
        1000.0,
        3162.2776601683795,
        10000.0,
        31622.776601683792,
        100000.0
      ],
      "params": [
        {
          "clf__alpha": 1e-10
        },
        {
          "clf__alpha": 3.1622776601683795e-10
        },
        {
          "clf__alpha": 1e-09
        },
        {
          "clf__alpha": 3.1622776601683795e-09
        },
        {
          "clf__alpha": 1e-08
        },
        {
          "clf__alpha": 3.162277660168379e-08
        },
        {
          "clf__alpha": 1e-07
        },
        {
          "clf__alpha": 3.162277660168379e-07
        },
        {
          "clf__alpha": 1e-06
        },
        {
          "clf__alpha": 3.162277660168379e-06
        },
        {
          "clf__alpha": 1e-05
        },
        {
          "clf__alpha": 3.1622776601683795e-05
        },
        {
          "clf__alpha": 0.0001
        },
        {
          "clf__alpha": 0.00031622776601683794
        },
        {
          "clf__alpha": 0.001
        },
        {
          "clf__alpha": 0.0031622776601683794
        },
        {
          "clf__alpha": 0.01
        },
        {
          "clf__alpha": 0.03162277660168379
        },
        {
          "clf__alpha": 0.1
        },
        {
          "clf__alpha": 0.31622776601683794
        },
        {
          "clf__alpha": 1.0
        },
        {
          "clf__alpha": 3.1622776601683795
        },
        {
          "clf__alpha": 10.0
        },
        {
          "clf__alpha": 31.622776601683793
        },
        {
          "clf__alpha": 100.0
        },
        {
          "clf__alpha": 316.22776601683796
        },
        {
          "clf__alpha": 1000.0
        },
        {
          "clf__alpha": 3162.2776601683795
        },
        {
          "clf__alpha": 10000.0
        },
        {
          "clf__alpha": 31622.776601683792
        },
        {
          "clf__alpha": 100000.0
        }
      ],
      "rank_test_score": [
        9,
        3,
        19,
        6,
        7,
        14,
        9,
        12,
        20,
        15,
        8,
        17,
        22,
        13,
        18,
        21,
        11,
        3,
        1,
        5,
        2,
        15,
        23,
        24,
        25,
        26,
        27,
        27,
        27,
        27,
        27
      ],
      "split0_test_score": [
        0.8629629629629629,
        0.8506172839506173,
        0.8481481481481481,
        0.8530864197530864,
        0.8580246913580247,
        0.8419753086419753,
        0.8481481481481481,
        0.8493827160493828,
        0.8592592592592593,
        0.8679012345679012,
        0.8629629629629629,
        0.8432098765432099,
        0.8530864197530864,
        0.8407407407407408,
        0.8580246913580247,
        0.8469135802469135,
        0.8530864197530864,
        0.8580246913580247,
        0.8765432098765432,
        0.8518518518518519,
        0.8814814814814815,
        0.8604938271604938,
        0.8604938271604938,
        0.7432098765432099,
        0.6222222222222222,
        0.5,
        0.5,
        0.5,
        0.5,
        0.5,
        0.5
      ],
      "split0_train_score": [
        0.9726141078838174,
        0.966804979253112,
        0.9767634854771784,
        0.9717842323651452,
        0.9721991701244813,
        0.9701244813278008,
        0.9734439834024896,
        0.9738589211618257,
        0.9659751037344398,
        0.9684647302904564,
        0.9663900414937759,
        0.9821576763485477,
        0.979253112033195,
        0.9651452282157676,
        0.983402489626556,
        0.9883817427385893,
        0.9796680497925311,
        0.9738589211618257,
        0.9680497925311203,
        0.9356846473029046,
        0.924896265560166,
        0.9066390041493776,
        0.8954356846473029,
        0.8053941908713693,
        0.7157676348547718,
        0.5107883817427386,
        0.5,
        0.5,
        0.5,
        0.5,
        0.5
      ],
      "split1_test_score": [
        0.8876543209876543,
        0.8839506172839506,
        0.8592592592592593,
        0.8740740740740741,
        0.8765432098765432,
        0.8740740740740741,
        0.8777777777777778,
        0.8790123456790123,
        0.8888888888888888,
        0.8679012345679012,
        0.8691358024691358,
        0.8790123456790123,
        0.8395061728395061,
        0.891358024691358,
        0.8592592592592593,
        0.8765432098765432,
        0.8938271604938272,
        0.8901234567901235,
        0.8938271604938272,
        0.9012345679012346,
        0.8753086419753087,
        0.8938271604938272,
        0.8197530864197531,
        0.8493827160493828,
        0.6419753086419753,
        0.5061728395061729,
        0.5,
        0.5,
        0.5,
        0.5,
        0.5
      ],
      "split1_train_score": [
        0.9630705394190872,
        0.9601659751037345,
        0.9576763485477179,
        0.9497925311203319,
        0.9634854771784233,
        0.9647302904564315,
        0.9601659751037345,
        0.9398340248962656,
        0.9601659751037345,
        0.9688796680497925,
        0.9651452282157676,
        0.9634854771784233,
        0.9639004149377594,
        0.966804979253112,
        0.9746887966804979,
        0.9858921161825727,
        0.9800829875518672,
        0.9692946058091286,
        0.9568464730290457,
        0.941908713692946,
        0.9203319502074688,
        0.8970954356846473,
        0.845643153526971,
        0.8473029045643153,
        0.6672199170124481,
        0.5062240663900415,
        0.5,
        0.5,
        0.5,
        0.5,
        0.5
      ],
      "split2_test_score": [
        0.885,
        0.92125,
        0.90125,
        0.92125,
        0.92625,
        0.91625,
        0.9125,
        0.91625,
        0.86875,
        0.88125,
        0.91125,
        0.8875,
        0.88,
        0.9,
        0.90125,
        0.88375,
        0.90125,
        0.91125,
        0.9075,
        0.92125,
        0.92625,
        0.8825,
        0.89875,
        0.8675,
        0.735,
        0.51125,
        0.5,
        0.5,
        0.5,
        0.5,
        0.5
      ],
      "split2_train_score": [
        0.9615702479338843,
        0.9652892561983472,
        0.9603305785123967,
        0.9433884297520662,
        0.9417355371900826,
        0.9396694214876034,
        0.9599173553719008,
        0.9524793388429752,
        0.9409090909090909,
        0.9487603305785124,
        0.9603305785123967,
        0.9586776859504132,
        0.9632231404958678,
        0.9698347107438017,
        0.9636363636363636,
        0.9743801652892562,
        0.9702479338842975,
        0.9681818181818181,
        0.959504132231405,
        0.9314049586776859,
        0.9004132231404959,
        0.8673553719008265,
        0.8615702479338843,
        0.8404958677685951,
        0.6714876033057852,
        0.5037190082644628,
        0.5,
        0.5,
        0.5,
        0.5,
        0.5
      ],
      "split3_test_score": [
        0.86375,
        0.86375,
        0.84375,
        0.86625,
        0.85,
        0.83875,
        0.86125,
        0.8425,
        0.83375,
        0.8525,
        0.8575,
        0.84875,
        0.8625,
        0.85,
        0.835,
        0.8425,
        0.84875,
        0.86,
        0.86875,
        0.84375,
        0.8575,
        0.8325,
        0.81625,
        0.8025,
        0.63375,
        0.505,
        0.5,
        0.5,
        0.5,
        0.5,
        0.5
      ],
      "split3_train_score": [
        0.9743801652892562,
        0.9760330578512396,
        0.9603305785123967,
        0.9735537190082645,
        0.959504132231405,
        0.9615702479338843,
        0.9677685950413223,
        0.9644628099173553,
        0.9768595041322314,
        0.9677685950413223,
        0.9785123966942149,
        0.9735537190082645,
        0.9834710743801653,
        0.9826446280991735,
        0.9834710743801653,
        0.990495867768595,
        0.9809917355371901,
        0.9756198347107438,
        0.9669421487603306,
        0.9520661157024793,
        0.9247933884297521,
        0.915702479338843,
        0.8950413223140495,
        0.8045454545454546,
        0.6946280991735537,
        0.5074380165289256,
        0.5,
        0.5,
        0.5,
        0.5,
        0.5
      ],
      "std_fit_time": [
        0.01380818213120331,
        0.0033652132393843597,
        0.006726934493024204,
        0.005685047821705502,
        0.006775104524781177,
        0.006693123485519337,
        0.0019296598586685844,
        0.004267604787602449,
        0.004808423840445908,
        0.015148936098303449,
        0.006790094446387796,
        0.013191971704648994,
        0.014228142884667602,
        0.014844744097167224,
        0.019725379004126443,
        0.004978762711345507,
        0.006086122891516165,
        0.007310415714970582,
        0.016432615856517865,
        0.11934267327517788,
        0.03624395021168521,
        0.019085929253626992,
        0.01049199333922506,
        0.008557411530906363,
        0.013909352459531406,
        0.07465296145211812,
        0.04755419829247036,
        0.014076587383091739,
        0.01230021201379118,
        0.019220476178001517,
        0.00716072048111251
      ],
      "std_score_time": [
        0.0015664320919514477,
        0.0005938150450336629,
        0.00022423929628552912,
        0.00046926649767769347,
        0.00011666215692200161,
        0.0003930549335984506,
        0.00019231048611729877,
        0.0002393541680087502,
        0.00016554020216696198,
        0.0006569186226160651,
        0.0006377100359558955,
        0.0001874084061964333,
        0.00010335966158158682,
        0.0002613425447857841,
        0.0016957564848323026,
        0.00038548990086337867,
        0.00035102755721839156,
        0.0005984521329815378,
        0.00013745808091059308,
        0.0002623405320690207,
        0.0001368278596297824,
        0.0001906461062151166,
        0.0006558365640785111,
        0.0004837705234459515,
        0.00016030279987845213,
        0.0001628228166567946,
        0.0021841931983109094,
        0.0029536924981448183,
        0.001773774146176381,
        0.004087348236614946,
        0.00045041561853002355
      ],
      "std_test_score": [
        0.0115322968235205,
        0.026634976864257618,
        0.022684003552355156,
        0.02566560562681546,
        0.02956281667577729,
        0.03115329123860518,
        0.024075774131025258,
        0.029045956491540827,
        0.01981979964771605,
        0.010146026346224602,
        0.021157413642961358,
        0.018974983185195672,
        0.014727707855895911,
        0.025550724367392384,
        0.0238306091061197,
        0.01795223693902976,
        0.02348938740891722,
        0.02211847712924085,
        0.01504206944630129,
        0.03258394469284387,
        0.025246160694283135,
        0.023386760899660467,
        0.03361167521887155,
        0.04813689332092352,
        0.044785453375466536,
        0.003998954813698265,
        0.0,
        0.0,
        0.0,
        0.0,
        0.0
      ],
      "std_train_score": [
        0.00564810806215929,
        0.005728071365732015,
        0.007576648055873374,
        0.01324914821024596,
        0.011095492694819478,
        0.011585179366413506,
        0.005651265396699644,
        0.012779748647629745,
        0.013044287201812294,
        0.008500942914755104,
        0.0066972881854312745,
        0.009082158892690623,
        0.009027405289642125,
        0.0068699651895484425,
        0.008136850255804597,
        0.006225689442438743,
        0.004356362290667467,
        0.0030896419316922222,
        0.004770216605003234,
        0.007769299914928714,
        0.01009738673796797,
        0.018173755647272735,
        0.02156455963603198,
        0.01961529354023555,
        0.019476566392679945,
        0.00254477377068559,
        0.0,
        0.0,
        0.0,
        0.0,
        0.0
      ]
    },
    "xval_grid": {
      "clf__alpha": [
        1e-10,
        3.1622776601683795e-10,
        1e-09,
        3.1622776601683795e-09,
        1e-08,
        3.162277660168379e-08,
        1e-07,
        3.162277660168379e-07,
        1e-06,
        3.162277660168379e-06,
        1e-05,
        3.1622776601683795e-05,
        0.0001,
        0.00031622776601683794,
        0.001,
        0.0031622776601683794,
        0.01,
        0.03162277660168379,
        0.1,
        0.31622776601683794,
        1.0,
        3.1622776601683795,
        10.0,
        31.622776601683793,
        100.0,
        316.22776601683796,
        1000.0,
        3162.2776601683795,
        10000.0,
        31622.776601683792,
        100000.0
      ]
    }
  },
  {
    "fold_id": 4,
    "test": {
      "accuracy": 0.875,
      "confusion_matrix": [
        [
          379,
          21
        ],
        [
          79,
          321
        ]
      ],
      "f1_macro": 0.8743394969810063,
      "f1_micro": 0.875,
      "f1_weighted": 0.8743394969810063,
      "per_class": {
        "y=0": {
          "accuracy": 0.875,
          "confusion_matrix": [
            [
              321,
              79
            ],
            [
              21,
              379
            ]
          ],
          "f1": 0.8834498834498834,
          "precision": 0.8275109170305677,
          "recall": 0.9475
        },
        "y=1": {
          "accuracy": 0.875,
          "confusion_matrix": [
            [
              379,
              21
            ],
            [
              79,
              321
            ]
          ],
          "f1": 0.8652291105121294,
          "precision": 0.9385964912280702,
          "recall": 0.8025
        }
      },
      "precision_macro": 0.8830537041293189,
      "precision_micro": 0.875,
      "precision_weighted": 0.8830537041293189,
      "recall_macro": 0.875,
      "recall_micro": 0.875,
      "recall_weighted": 0.875
    },
    "train": {
      "accuracy": 0.9630434782608696,
      "confusion_matrix": [
        [
          1560,
          50
        ],
        [
          69,
          1541
        ]
      ],
      "f1_macro": 0.9630421914886701,
      "f1_micro": 0.9630434782608696,
      "f1_weighted": 0.9630421914886701,
      "per_class": {
        "y=0": {
          "accuracy": 0.9630434782608696,
          "confusion_matrix": [
            [
              1541,
              69
            ],
            [
              50,
              1560
            ]
          ],
          "f1": 0.9632602655140475,
          "precision": 0.9576427255985267,
          "recall": 0.968944099378882
        },
        "y=1": {
          "accuracy": 0.9630434782608696,
          "confusion_matrix": [
            [
              1560,
              50
            ],
            [
              69,
              1541
            ]
          ],
          "f1": 0.9628241174632927,
          "precision": 0.9685732243871779,
          "recall": 0.9571428571428572
        }
      },
      "precision_macro": 0.9631079749928523,
      "precision_micro": 0.9630434782608696,
      "precision_weighted": 0.9631079749928524,
      "recall_macro": 0.9630434782608697,
      "recall_micro": 0.9630434782608696,
      "recall_weighted": 0.9630434782608696
    },
    "xval": {
      "mean_fit_time": [
        0.08363091945648193,
        0.06977272033691406,
        0.05997282266616821,
        0.06329846382141113,
        0.059540748596191406,
        0.061785995960235596,
        0.06154978275299072,
        0.05901223421096802,
        0.06397497653961182,
        0.07078433036804199,
        0.08189404010772705,
        0.08747267723083496,
        0.1310269832611084,
        0.1297202706336975,
        0.13043564558029175,
        0.1241716742515564,
        0.14969611167907715,
        0.10113435983657837,
        0.10653179883956909,
        0.10946917533874512,
        0.13132399320602417,
        0.08122092485427856,
        0.05959820747375488,
        0.06774473190307617,
        0.07503151893615723,
        0.057708024978637695,
        0.05267840623855591,
        0.05349075794219971,
        0.04812902212142944,
        0.06276637315750122,
        0.058174848556518555
      ],
      "mean_score_time": [
        0.007867813110351562,
        0.00688403844833374,
        0.005119264125823975,
        0.005652904510498047,
        0.005368530750274658,
        0.0056188106536865234,
        0.007862448692321777,
        0.00507277250289917,
        0.00496906042098999,
        0.00504225492477417,
        0.0059067606925964355,
        0.005695760250091553,
        0.005213260650634766,
        0.005408287048339844,
        0.004935026168823242,
        0.01055234670639038,
        0.007834196090698242,
        0.006086170673370361,
        0.005572915077209473,
        0.005917072296142578,
        0.005174219608306885,
        0.004991352558135986,
        0.0050574541091918945,
        0.006199002265930176,
        0.0061713457107543945,
        0.005555450916290283,
        0.005213797092437744,
        0.005180180072784424,
        0.005080044269561768,
        0.005893528461456299,
        0.005115628242492676
      ],
      "mean_test_score": [
        0.8869565217391304,
        0.8962732919254658,
        0.8928571428571429,
        0.8981366459627329,
        0.8888198757763975,
        0.8916149068322982,
        0.8944099378881988,
        0.8925465838509317,
        0.8981366459627329,
        0.896583850931677,
        0.8913043478260869,
        0.8990683229813664,
        0.8975155279503105,
        0.8909937888198758,
        0.893167701863354,
        0.8891304347826087,
        0.8962732919254658,
        0.9049689440993789,
        0.9114906832298136,
        0.9012422360248448,
        0.8925465838509317,
        0.881055900621118,
        0.8562111801242236,
        0.8173913043478261,
        0.6962732919254658,
        0.510248447204969,
        0.5,
        0.5,
        0.5,
        0.5,
        0.5
      ],
      "mean_train_score": [
        0.9676884366105414,
        0.9747406639004149,
        0.9722638969857,
        0.9705141284592436,
        0.9671774801961525,
        0.9664594835568053,
        0.9703876753197764,
        0.9696705359898494,
        0.9721597338911561,
        0.9769212304104797,
        0.9751641747539521,
        0.9792025307774082,
        0.9778406947635541,
        0.9845740029491444,
        0.982810946126676,
        0.9830261307911251,
        0.9829116799835396,
        0.9780597373203936,
        0.9660496896539899,
        0.9526915229244539,
        0.929711343918247,
        0.9038291725249477,
        0.8716509207503172,
        0.8238203422379204,
        0.7077307876958951,
        0.5149214704571173,
        0.5,
        0.5,
        0.5,
        0.5,
        0.5
      ],
      "param_clf__alpha": [
        1e-10,
        3.1622776601683795e-10,
        1e-09,
        3.1622776601683795e-09,
        1e-08,
        3.162277660168379e-08,
        1e-07,
        3.162277660168379e-07,
        1e-06,
        3.162277660168379e-06,
        1e-05,
        3.1622776601683795e-05,
        0.0001,
        0.00031622776601683794,
        0.001,
        0.0031622776601683794,
        0.01,
        0.03162277660168379,
        0.1,
        0.31622776601683794,
        1.0,
        3.1622776601683795,
        10.0,
        31.622776601683793,
        100.0,
        316.22776601683796,
        1000.0,
        3162.2776601683795,
        10000.0,
        31622.776601683792,
        100000.0
      ],
      "params": [
        {
          "clf__alpha": 1e-10
        },
        {
          "clf__alpha": 3.1622776601683795e-10
        },
        {
          "clf__alpha": 1e-09
        },
        {
          "clf__alpha": 3.1622776601683795e-09
        },
        {
          "clf__alpha": 1e-08
        },
        {
          "clf__alpha": 3.162277660168379e-08
        },
        {
          "clf__alpha": 1e-07
        },
        {
          "clf__alpha": 3.162277660168379e-07
        },
        {
          "clf__alpha": 1e-06
        },
        {
          "clf__alpha": 3.162277660168379e-06
        },
        {
          "clf__alpha": 1e-05
        },
        {
          "clf__alpha": 3.1622776601683795e-05
        },
        {
          "clf__alpha": 0.0001
        },
        {
          "clf__alpha": 0.00031622776601683794
        },
        {
          "clf__alpha": 0.001
        },
        {
          "clf__alpha": 0.0031622776601683794
        },
        {
          "clf__alpha": 0.01
        },
        {
          "clf__alpha": 0.03162277660168379
        },
        {
          "clf__alpha": 0.1
        },
        {
          "clf__alpha": 0.31622776601683794
        },
        {
          "clf__alpha": 1.0
        },
        {
          "clf__alpha": 3.1622776601683795
        },
        {
          "clf__alpha": 10.0
        },
        {
          "clf__alpha": 31.622776601683793
        },
        {
          "clf__alpha": 100.0
        },
        {
          "clf__alpha": 316.22776601683796
        },
        {
          "clf__alpha": 1000.0
        },
        {
          "clf__alpha": 3162.2776601683795
        },
        {
          "clf__alpha": 10000.0
        },
        {
          "clf__alpha": 31622.776601683792
        },
        {
          "clf__alpha": 100000.0
        }
      ],
      "rank_test_score": [
        21,
        9,
        13,
        5,
        20,
        16,
        11,
        14,
        5,
        8,
        17,
        4,
        7,
        18,
        12,
        19,
        9,
        2,
        1,
        3,
        14,
        22,
        23,
        24,
        25,
        26,
        27,
        27,
        27,
        27,
        27
      ],
      "split0_test_score": [
        0.8580246913580247,
        0.8666666666666667,
        0.8518518518518519,
        0.8592592592592593,
        0.8666666666666667,
        0.8617283950617284,
        0.8728395061728395,
        0.8567901234567902,
        0.8654320987654321,
        0.8691358024691358,
        0.8518518518518519,
        0.8555555555555555,
        0.8493827160493828,
        0.8604938271604938,
        0.8716049382716049,
        0.8629629629629629,
        0.8666666666666667,
        0.8753086419753087,
        0.8839506172839506,
        0.8740740740740741,
        0.8530864197530864,
        0.8382716049382716,
        0.8012345679012346,
        0.7641975308641975,
        0.6481481481481481,
        0.5061728395061729,
        0.5,
        0.5,
        0.5,
        0.5,
        0.5
      ],
      "split0_train_score": [
        0.9651452282157676,
        0.9821576763485477,
        0.9771784232365145,
        0.975103734439834,
        0.9564315352697096,
        0.9784232365145228,
        0.9676348547717842,
        0.9721991701244813,
        0.9742738589211618,
        0.987136929460581,
        0.9829875518672199,
        0.9867219917012449,
        0.9755186721991701,
        0.9842323651452282,
        0.9825726141078838,
        0.9887966804979254,
        0.9788381742738589,
        0.9821576763485477,
        0.9684647302904564,
        0.9497925311203319,
        0.9244813278008299,
        0.9016597510373444,
        0.8651452282157677,
        0.8278008298755186,
        0.7331950207468879,
        0.5356846473029045,
        0.5,
        0.5,
        0.5,
        0.5,
        0.5
      ],
      "split1_test_score": [
        0.8888888888888888,
        0.8925925925925926,
        0.8851851851851852,
        0.9074074074074074,
        0.8740740740740741,
        0.8925925925925926,
        0.8901234567901235,
        0.891358024691358,
        0.908641975308642,
        0.8851851851851852,
        0.8938271604938272,
        0.9160493827160494,
        0.9049382716049382,
        0.8876543209876543,
        0.8827160493827161,
        0.8802469135802469,
        0.8901234567901235,
        0.9111111111111111,
        0.9271604938271605,
        0.908641975308642,
        0.9024691358024691,
        0.8790123456790123,
        0.8641975308641975,
        0.8024691358024691,
        0.7098765432098766,
        0.5098765432098765,
        0.5,
        0.5,
        0.5,
        0.5,
        0.5
      ],
      "split1_train_score": [
        0.9572614107883818,
        0.966804979253112,
        0.9742738589211618,
        0.9825726141078838,
        0.9713692946058091,
        0.9543568464730291,
        0.9676348547717842,
        0.9688796680497925,
        0.9763485477178423,
        0.9726141078838174,
        0.9759336099585062,
        0.9813278008298755,
        0.9742738589211618,
        0.983402489626556,
        0.9784232365145228,
        0.9804979253112033,
        0.9796680497925311,
        0.9796680497925311,
        0.9676348547717842,
        0.9556016597510374,
        0.9360995850622407,
        0.9049792531120332,
        0.8929460580912864,
        0.8302904564315353,
        0.750207468879668,
        0.508298755186722,
        0.5,
        0.5,
        0.5,
        0.5,
        0.5
      ],
      "split2_test_score": [
        0.905,
        0.925,
        0.92375,
        0.925,
        0.92125,
        0.91375,
        0.91875,
        0.91875,
        0.91625,
        0.92875,
        0.91125,
        0.92875,
        0.92375,
        0.92,
        0.90625,
        0.9175,
        0.93375,
        0.92875,
        0.9275,
        0.92,
        0.91625,
        0.915,
        0.8875,
        0.84375,
        0.72875,
        0.5125,
        0.5,
        0.5,
        0.5,
        0.5,
        0.5
      ],
      "split2_train_score": [
        0.968595041322314,
        0.9698347107438017,
        0.9698347107438017,
        0.9619834710743802,
        0.9727272727272728,
        0.9632231404958678,
        0.9661157024793389,
        0.9661157024793389,
        0.9752066115702479,
        0.9706611570247934,
        0.9723140495867768,
        0.9731404958677686,
        0.9797520661157024,
        0.9855371900826446,
        0.9805785123966942,
        0.987603305785124,
        0.9859504132231405,
        0.9735537190082645,
        0.9640495867768595,
        0.9516528925619835,
        0.9235537190082644,
        0.9078512396694215,
        0.8652892561983471,
        0.793801652892562,
        0.6628099173553719,
        0.5041322314049587,
        0.5,
        0.5,
        0.5,
        0.5,
        0.5
      ],
      "split3_test_score": [
        0.89625,
        0.90125,
        0.91125,
        0.90125,
        0.89375,
        0.89875,
        0.89625,
        0.90375,
        0.9025,
        0.90375,
        0.90875,
        0.89625,
        0.9125,
        0.89625,
        0.9125,
        0.89625,
        0.895,
        0.905,
        0.9075,
        0.9025,
        0.89875,
        0.8925,
        0.8725,
        0.86,
        0.69875,
        0.5125,
        0.5,
        0.5,
        0.5,
        0.5,
        0.5
      ],
      "split3_train_score": [
        0.9797520661157024,
        0.9801652892561984,
        0.9677685950413223,
        0.9623966942148761,
        0.9681818181818181,
        0.9698347107438017,
        0.9801652892561984,
        0.9714876033057851,
        0.9628099173553719,
        0.9772727272727273,
        0.9694214876033058,
        0.9756198347107438,
        0.9818181818181818,
        0.9851239669421488,
        0.9896694214876033,
        0.9752066115702479,
        0.9871900826446282,
        0.9768595041322314,
        0.9640495867768595,
        0.9537190082644628,
        0.9347107438016529,
        0.9008264462809917,
        0.8632231404958678,
        0.8433884297520661,
        0.6847107438016529,
        0.5115702479338843,
        0.5,
        0.5,
        0.5,
        0.5,
        0.5
      ],
      "std_fit_time": [
        0.025556674570105666,
        0.011639396553416028,
        0.005816733700631761,
        0.012853219724067088,
        0.00400081999445824,
        0.009702450022170983,
        0.01053784481970348,
        0.0033711593135631293,
        0.00784081150554091,
        0.01269492990423474,
        0.015548917155932242,
        0.01089789430089146,
        0.026895658572603263,
        0.019621199290865508,
        0.022042222721256475,
        0.008726481008382117,
        0.02572894349451905,
        0.01957177538485909,
        0.04611316230168601,
        0.06617185839333267,
        0.08217899174566524,
        0.0144819895358457,
        0.004303021405788112,
        0.0026714246323652417,
        0.012108326236405394,
        0.009405619746073983,
        0.0069175472662656445,
        0.008682195950609616,
        0.003941474186289541,
        0.017628096996362103,
        0.004380596264070713
      ],
      "std_score_time": [
        0.004218852011206431,
        0.002219218297194457,
        5.102641509405611e-05,
        0.0007452058264112305,
        0.0002509551977841595,
        0.0003982941675125565,
        0.0031623611174169883,
        0.0006287411966308888,
        0.00018102819661455365,
        0.00021462031921558764,
        0.0007389695182509155,
        0.00022725539289310576,
        0.00011316509665210263,
        0.0010849129051532182,
        0.00023427825325759622,
        0.008105506191982638,
        0.0007726097616943449,
        0.0009304751775320764,
        0.0005313674218256389,
        0.000964224204046133,
        0.0005554170320809936,
        0.00020573212098995864,
        0.0003574763016591522,
        0.0012492636279864018,
        0.0007540504716771485,
        0.00044778618851774047,
        0.0002951139246800913,
        0.0005177824821262768,
        0.00024638829190072305,
        0.001646584131049321,
        0.00018661135805621672
      ],
      "std_test_score": [
        0.01771570176680168,
        0.020858693076961768,
        0.027548770087131195,
        0.024156315254323005,
        0.021106502871784127,
        0.018955379789977075,
        0.016422432883746414,
        0.022885466370434683,
        0.01957201178182312,
        0.02218152857740831,
        0.02382430328140643,
        0.027742980446477758,
        0.02869542322888705,
        0.021276968249189905,
        0.016727642624127067,
        0.020115935026573144,
        0.024069915301137074,
        0.01926905006332132,
        0.01789390367753297,
        0.016948674140650353,
        0.023782609737027,
        0.02793414957639375,
        0.03294679774237122,
        0.03730246870864315,
        0.029878478651197363,
        0.002594654409538613,
        0.0,
        0.0,
        0.0,
        0.0,
        0.0
      ],
      "std_train_score": [
        0.008086158936362045,
        0.006547558726401146,
        0.003684467418125185,
        0.008734077131058086,
        0.00641980397549408,
        0.008824274533733734,
        0.005679074048162367,
        0.00239572732189652,
        0.005447894519016162,
        0.006368356938415699,
        0.005071955470259301,
        0.005259349858414118,
        0.0030654465592971584,
        0.0008245225439320298,
        0.0042228912615342755,
        0.0055178455632319936,
        0.0036963906251466505,
        0.0032064206688186647,
        0.002021508889707598,
        0.0021798812458240975,
        0.00572435667189974,
        0.0027938532512671132,
        0.012321781178201398,
        0.01831487386310569,
        0.03535711605287578,
        0.012274040105106108,
        0.0,
        0.0,
        0.0,
        0.0,
        0.0
      ]
    },
    "xval_grid": {
      "clf__alpha": [
        1e-10,
        3.1622776601683795e-10,
        1e-09,
        3.1622776601683795e-09,
        1e-08,
        3.162277660168379e-08,
        1e-07,
        3.162277660168379e-07,
        1e-06,
        3.162277660168379e-06,
        1e-05,
        3.1622776601683795e-05,
        0.0001,
        0.00031622776601683794,
        0.001,
        0.0031622776601683794,
        0.01,
        0.03162277660168379,
        0.1,
        0.31622776601683794,
        1.0,
        3.1622776601683795,
        10.0,
        31.622776601683793,
        100.0,
        316.22776601683796,
        1000.0,
        3162.2776601683795,
        10000.0,
        31622.776601683792,
        100000.0
      ]
    }
  }
]