[
  {
    "fold_id": 0,
    "test": {
      "accuracy": 0.817283950617284,
      "confusion_matrix": [
        [
          325,
          80
        ],
        [
          68,
          337
        ]
      ],
      "f1_macro": 0.8172438395258219,
      "f1_micro": 0.817283950617284,
      "f1_weighted": 0.8172438395258219,
      "per_class": {
        "y=0": {
          "accuracy": 0.817283950617284,
          "confusion_matrix": [
            [
              337,
              68
            ],
            [
              80,
              325
            ]
          ],
          "f1": 0.8145363408521303,
          "precision": 0.8269720101781171,
          "recall": 0.8024691358024691
        },
        "y=1": {
          "accuracy": 0.817283950617284,
          "confusion_matrix": [
            [
              325,
              80
            ],
            [
              68,
              337
            ]
          ],
          "f1": 0.8199513381995135,
          "precision": 0.8081534772182254,
          "recall": 0.8320987654320988
        }
      },
      "precision_macro": 0.8175627436981712,
      "precision_micro": 0.817283950617284,
      "precision_weighted": 0.8175627436981712,
      "recall_macro": 0.817283950617284,
      "recall_micro": 0.817283950617284,
      "recall_weighted": 0.817283950617284
    },
    "train": {
      "accuracy": 0.9221183800623053,
      "confusion_matrix": [
        [
          1475,
          130
        ],
        [
          120,
          1485
        ]
      ],
      "f1_macro": 0.9221176242236024,
      "f1_micro": 0.9221183800623053,
      "f1_weighted": 0.9221176242236025,
      "per_class": {
        "y=0": {
          "accuracy": 0.9221183800623053,
          "confusion_matrix": [
            [
              1485,
              120
            ],
            [
              130,
              1475
            ]
          ],
          "f1": 0.921875,
          "precision": 0.9247648902821317,
          "recall": 0.9190031152647975
        },
        "y=1": {
          "accuracy": 0.9221183800623053,
          "confusion_matrix": [
            [
              1475,
              130
            ],
            [
              120,
              1485
            ]
          ],
          "f1": 0.922360248447205,
          "precision": 0.9195046439628483,
          "recall": 0.9252336448598131
        }
      },
      "precision_macro": 0.92213476712249,
      "precision_micro": 0.9221183800623053,
      "precision_weighted": 0.9221347671224899,
      "recall_macro": 0.9221183800623053,
      "recall_micro": 0.9221183800623053,
      "recall_weighted": 0.9221183800623053
    },
    "xval": {
      "mean_fit_time": [
        1.4498465061187744,
        1.2320225238800049,
        0.7511682510375977,
        0.594676673412323,
        0.49103105068206787,
        0.560478150844574,
        0.5278396606445312,
        0.6329382061958313,
        0.7049760222434998,
        0.5870969891548157,
        0.6114807724952698,
        0.6634801030158997
      ],
      "mean_score_time": [
        0.009574174880981445,
        0.01496434211730957,
        0.019229233264923096,
        0.009954512119293213,
        0.012121200561523438,
        0.015821456909179688,
        0.010426640510559082,
        0.014650702476501465,
        0.019039928913116455,
        0.011090755462646484,
        0.015605449676513672,
        0.02841264009475708
      ],
      "mean_test_score": [
        -71.9129875425757,
        -175.98444418449276,
        -320.38812908742483,
        -71.28422466337135,
        -177.3648191061847,
        -333.8428002506596,
        -71.60686986506018,
        -184.82097658525527,
        -406.2993420621595,
        -73.61889443760052,
        -210.08584438731802,
        -910.3793258636925
      ],
      "mean_train_score": [
        -72.54586686656563,
        -174.2089137201255,
        -299.1804154237814,
        -70.77158224552679,
        -167.16295801068046,
        -280.2769722523301,
        -68.8894583325643,
        -158.5144367381383,
        -250.75941228872134,
        -66.32733644090682,
        -142.91173680938718,
        -133.707151843125
      ],
      "param_gmm__n_components": [
        1,
        1,
        1,
        2,
        2,
        2,
        4,
        4,
        4,
        8,
        8,
        8
      ],
      "param_pca__n_components": [
        0.5,
        0.75,
        0.9,
        0.5,
        0.75,
        0.9,
        0.5,
        0.75,
        0.9,
        0.5,
        0.75,
        0.9
      ],
      "params": [
        {
          "gmm__n_components": 1,
          "pca__n_components": 0.5
        },
        {
          "gmm__n_components": 1,
          "pca__n_components": 0.75
        },
        {
          "gmm__n_components": 1,
          "pca__n_components": 0.9
        },
        {
          "gmm__n_components": 2,
          "pca__n_components": 0.5
        },
        {
          "gmm__n_components": 2,
          "pca__n_components": 0.75
        },
        {
          "gmm__n_components": 2,
          "pca__n_components": 0.9
        },
        {
          "gmm__n_components": 4,
          "pca__n_components": 0.5
        },
        {
          "gmm__n_components": 4,
          "pca__n_components": 0.75
        },
        {
          "gmm__n_components": 4,
          "pca__n_components": 0.9
        },
        {
          "gmm__n_components": 8,
          "pca__n_components": 0.5
        },
        {
          "gmm__n_components": 8,
          "pca__n_components": 0.75
        },
        {
          "gmm__n_components": 8,
          "pca__n_components": 0.9
        }
      ],
      "rank_test_score": [
        3,
        5,
        9,
        1,
        6,
        10,
        2,
        7,
        11,
        4,
        8,
        12
      ],
      "split0_test_score": [
        -71.11322006289231,
        -173.78979364354996,
        -319.5970268134327,
        -70.66398958554232,
        -174.76637543349946,
        -337.39176864421347,
        -70.95700710362885,
        -181.20002586019405,
        -408.6966164476024,
        -72.61749724989714,
        -204.47763779473922,
        -880.857578068072
      ],
      "split0_train_score": [
        -72.0718408190623,
        -173.07616821755423,
        -298.5741274871751,
        -70.37003698941867,
        -165.96759793404004,
        -279.79341419529067,
        -68.51907981469687,
        -157.58683405406947,
        -249.36785397314034,
        -65.90712142364823,
        -144.38909786143213,
        -126.41577465674177
      ],
      "split1_test_score": [
        -73.24868161093808,
        -174.19918106890148,
        -314.3738822768482,
        -72.75374803689151,
        -175.21038533307313,
        -325.92869441484584,
        -73.14394228370442,
        -183.77220057833358,
        -394.93154749295206,
        -75.22394811425156,
        -201.4572556333447,
        -1061.185063979575
      ],
      "split1_train_score": [
        -74.31718219551543,
        -174.88845309106966,
        -300.48394153563976,
        -72.33430831878196,
        -167.55231832974326,
        -280.849829433029,
        -70.3466347298916,
        -158.72858986385415,
        -251.12626747273637,
        -67.73806629930021,
        -138.82825754513806,
        -146.24693486306003
      ],
      "split2_test_score": [
        -71.72744354404769,
        -178.25226736904588,
        -324.7022983220843,
        -71.07138996931678,
        -179.65626517153927,
        -335.76676401721517,
        -71.27928257534796,
        -188.5638086954831,
        -411.2472614251853,
        -73.30823349943152,
        -216.37055165038714,
        -937.3263124526474
      ],
      "split2_train_score": [
        -71.88226804282439,
        -174.59781479867848,
        -299.850849011854,
        -70.20447638290597,
        -167.65000966765555,
        -281.92159670523614,
        -68.28468980243557,
        -158.7590062680702,
        -252.62823375643484,
        -65.8584626423119,
        -144.14190571366262,
        -134.64681007272875
      ],
      "split3_test_score": [
        -71.5726020459208,
        -177.72396778823543,
        -322.889197715759,
        -70.65552400020762,
        -179.8587310325355,
        -336.23961182144456,
        -71.05537078207732,
        -185.79313309107366,
        -410.2919769530803,
        -73.33841635166817,
        -218.10803505320814,
        -762.5173708019215
      ],
      "split3_train_score": [
        -71.91217640886043,
        -174.27321877319963,
        -297.81274366045676,
        -70.17750729100054,
        -167.4819061112829,
        -278.54304867576445,
        -68.40742898323317,
        -158.98331676655937,
        -249.91529395257373,
        -65.80569539836694,
        -144.28768611731596,
        -127.5190877799694
      ],
      "std_fit_time": [
        0.24833958364901798,
        0.584490299407908,
        0.07419489228612948,
        0.16547901543093776,
        0.019255722874340766,
        0.025789313182133757,
        0.017141678780610133,
        0.10578085694503998,
        0.041546904281106495,
        0.05200164292079538,
        0.04426628423547885,
        0.005552988560311194
      ],
      "std_score_time": [
        0.003219267865479564,
        0.0029378899237492845,
        0.007014378585178729,
        0.002338832472644238,
        0.0002391722806069802,
        0.0005790936740231343,
        0.000287547163541614,
        0.001937971751844242,
        0.001144300015714216,
        0.0009463064071254395,
        0.00027187428928259464,
        0.0011345790257221132
      ],
      "std_test_score": [
        0.8021763042686889,
        2.0113587658300482,
        3.920462526291214,
        0.8631698839506603,
        2.391480988435372,
        4.5980364176401265,
        0.8932640861996588,
        2.7035910949596587,
        6.612902592456632,
        0.9688875673653229,
        7.23698984423688,
        107.31976414576026
      ],
      "std_train_score": [
        1.0252055505289581,
        0.6892505565846826,
        1.0472311868186441,
        0.9052465801853042,
        0.6927182649401129,
        1.2523252676993266,
        0.845375740141051,
        0.5445114867403683,
        1.252601963445368,
        0.8152747098928069,
        2.359234548041369,
        7.899136565146545
      ]
    },
    "xval_grid": {
      "gmm__n_components": [
        1,
        2,
        4,
        8
      ],
      "pca__n_components": [
        0.5,
        0.75,
        0.9
      ]
    }
  },
  {
    "fold_id": 1,
    "test": {
      "accuracy": 0.8975308641975308,
      "confusion_matrix": [
        [
          363,
          42
        ],
        [
          41,
          364
        ]
      ],
      "f1_macro": 0.8975307080181497,
      "f1_micro": 0.8975308641975308,
      "f1_weighted": 0.8975307080181496,
      "per_class": {
        "y=0": {
          "accuracy": 0.8975308641975308,
          "confusion_matrix": [
            [
              364,
              41
            ],
            [
              42,
              363
            ]
          ],
          "f1": 0.8974042027194067,
          "precision": 0.8985148514851485,
          "recall": 0.8962962962962963
        },
        "y=1": {
          "accuracy": 0.8975308641975308,
          "confusion_matrix": [
            [
              363,
              42
            ],
            [
              41,
              364
            ]
          ],
          "f1": 0.8976572133168927,
          "precision": 0.896551724137931,
          "recall": 0.8987654320987655
        }
      },
      "precision_macro": 0.8975332878115398,
      "precision_micro": 0.8975308641975308,
      "precision_weighted": 0.8975332878115398,
      "recall_macro": 0.8975308641975308,
      "recall_micro": 0.8975308641975308,
      "recall_weighted": 0.8975308641975308
    },
    "train": {
      "accuracy": 0.9190031152647975,
      "confusion_matrix": [
        [
          1471,
          134
        ],
        [
          126,
          1479
        ]
      ],
      "f1_macro": 0.9190026121803145,
      "f1_micro": 0.9190031152647975,
      "f1_weighted": 0.9190026121803146,
      "per_class": {
        "y=0": {
          "accuracy": 0.9190031152647975,
          "confusion_matrix": [
            [
              1479,
              126
            ],
            [
              134,
              1471
            ]
          ],
          "f1": 0.9188007495315429,
          "precision": 0.9211020663744521,
          "recall": 0.9165109034267913
        },
        "y=1": {
          "accuracy": 0.9190031152647975,
          "confusion_matrix": [
            [
              1471,
              134
            ],
            [
              126,
              1479
            ]
          ],
          "f1": 0.9192044748290863,
          "precision": 0.91692498450093,
          "recall": 0.9214953271028037
        }
      },
      "precision_macro": 0.919013525437691,
      "precision_micro": 0.9190031152647975,
      "precision_weighted": 0.9190135254376911,
      "recall_macro": 0.9190031152647975,
      "recall_micro": 0.9190031152647975,
      "recall_weighted": 0.9190031152647975
    },
    "xval": {
      "mean_fit_time": [
        0.46868300437927246,
        0.6096627116203308,
        0.5236005187034607,
        0.720786452293396,
        0.61402827501297,
        0.5733373761177063,
        0.5153822302818298,
        0.6942142248153687,
        1.0699389576911926,
        0.9307765364646912,
        1.1305915117263794,
        0.9130542278289795
      ],
      "mean_score_time": [
        0.006032288074493408,
        0.01619023084640503,
        0.015178263187408447,
        0.01387101411819458,
        0.014023542404174805,
        0.016788482666015625,
        0.010766088962554932,
        0.0137595534324646,
        0.02694547176361084,
        0.01529151201248169,
        0.022913455963134766,
        0.0625162124633789
      ],
      "mean_test_score": [
        -72.0260208749722,
        -175.349410121663,
        -319.9776852102523,
        -71.33282141929675,
        -176.2456809736907,
        -333.39577531313205,
        -71.8812094711773,
        -184.04900976142213,
        -392.3417377301402,
        -73.62505920228826,
        -209.21072623398817,
        -853.5929246948418
      ],
      "mean_train_score": [
        -72.68889667814709,
        -173.60421200498328,
        -298.50960485652615,
        -70.82992568395541,
        -166.56785385741733,
        -280.7129989277284,
        -68.93910807522536,
        -157.64274724195792,
        -248.74697037119026,
        -66.32179978444151,
        -140.47681867913764,
        -134.75427023337326
      ],
      "param_gmm__n_components": [
        1,
        1,
        1,
        2,
        2,
        2,
        4,
        4,
        4,
        8,
        8,
        8
      ],
      "param_pca__n_components": [
        0.5,
        0.75,
        0.9,
        0.5,
        0.75,
        0.9,
        0.5,
        0.75,
        0.9,
        0.5,
        0.75,
        0.9
      ],
      "params": [
        {
          "gmm__n_components": 1,
          "pca__n_components": 0.5
        },
        {
          "gmm__n_components": 1,
          "pca__n_components": 0.75
        },
        {
          "gmm__n_components": 1,
          "pca__n_components": 0.9
        },
        {
          "gmm__n_components": 2,
          "pca__n_components": 0.5
        },
        {
          "gmm__n_components": 2,
          "pca__n_components": 0.75
        },
        {
          "gmm__n_components": 2,
          "pca__n_components": 0.9
        },
        {
          "gmm__n_components": 4,
          "pca__n_components": 0.5
        },
        {
          "gmm__n_components": 4,
          "pca__n_components": 0.75
        },
        {
          "gmm__n_components": 4,
          "pca__n_components": 0.9
        },
        {
          "gmm__n_components": 8,
          "pca__n_components": 0.5
        },
        {
          "gmm__n_components": 8,
          "pca__n_components": 0.75
        },
        {
          "gmm__n_components": 8,
          "pca__n_components": 0.9
        }
      ],
      "rank_test_score": [
        3,
        5,
        9,
        1,
        6,
        10,
        2,
        7,
        11,
        4,
        8,
        12
      ],
      "split0_test_score": [
        -72.05470141335908,
        -176.11537611193668,
        -323.8580298118255,
        -71.38091886554048,
        -176.51230834637306,
        -338.45712012906046,
        -72.25685412462984,
        -185.13989461279857,
        -399.4187780603229,
        -73.4745386244621,
        -210.77542216625895,
        -1046.0510531300938
      ],
      "split0_train_score": [
        -72.0718408190623,
        -173.07616821755423,
        -298.5741274871751,
        -70.28350377165799,
        -166.03406488152973,
        -279.5076209224247,
        -68.36272419025389,
        -157.4040005500004,
        -249.47138793170177,
        -65.78085580123641,
        -137.10089630826053,
        -127.76455633234917
      ],
      "split1_test_score": [
        -73.22673454615031,
        -174.25575971840132,
        -312.65614503144695,
        -72.66734529972027,
        -175.92161408223365,
        -326.7425952184724,
        -72.96491236708947,
        -181.80641703338787,
        -380.2611680365667,
        -74.71017383780983,
        -206.8641501923742,
        -738.2395426777971
      ],
      "split1_train_score": [
        -74.50658700817732,
        -175.30004559184601,
        -299.5219566438892,
        -72.5651354988638,
        -167.79466502234138,
        -279.5422091596167,
        -70.50979678554361,
        -158.40585620287231,
        -246.18129042637233,
        -67.95462596230371,
        -142.58473660986718,
        -145.3063915682703
      ],
      "split2_test_score": [
        -71.4734922998539,
        -175.86750448784295,
        -323.1121031380966,
        -70.76988042874663,
        -176.6700439320806,
        -333.743547415787,
        -71.21375869234441,
        -184.7895418740059,
        -395.3811315959133,
        -72.97196903181873,
        -213.21261077894383,
        -628.1905041269341
      ],
      "split2_train_score": [
        -72.08368988468996,
        -173.0962991452191,
        -298.9581454056404,
        -70.25073642934048,
        -166.1169756295769,
        -285.72999946854685,
        -68.47097211207348,
        -157.40985603179416,
        -249.90401241641408,
        -65.80852457542193,
        -143.51295774894564,
        -125.72067942860686
      ],
      "split3_test_score": [
        -71.34879673379567,
        -175.14942559359267,
        -320.2359585521206,
        -70.51253986510162,
        -175.87542469191695,
        -334.5765716790093,
        -71.08461714247731,
        -184.44654946485397,
        -394.21741022363074,
        -73.3454368222852,
        -205.9711630992224,
        -999.4848722391017
      ],
      "split3_train_score": [
        -72.09346900065874,
        -172.9443350653138,
        -296.98418988939994,
        -70.22032703595936,
        -166.32570989622133,
        -278.0721661603254,
        -68.41293921303047,
        -157.35127618316474,
        -249.43119071027283,
        -65.743192798804,
        -138.70868404947726,
        -140.2254536042668
      ],
      "std_fit_time": [
        0.07574415208897915,
        0.19633455846009684,
        0.0728197458510126,
        0.23575573033458946,
        0.14780300245449998,
        0.01273836810802273,
        0.025441788063463245,
        0.05216910713212489,
        0.3907137617176808,
        0.22453449937463993,
        0.28526471510638585,
        0.28908934910840867
      ],
      "std_score_time": [
        0.0013678972897163749,
        0.006841303124631921,
        0.0035511035400317176,
        0.006104089456585691,
        0.0017179549544318097,
        0.0010724499276297975,
        0.0005719123375876293,
        0.00206100522775004,
        0.00671763715892103,
        0.002706734109820164,
        0.00506390649893683,
        0.030982308439028668
      ],
      "std_test_score": [
        0.7415512139731051,
        0.7231851467324624,
        4.429904582143428,
        0.831327528348778,
        0.35093884498772315,
        4.227707371682648,
        0.7729596176021246,
        1.3151930694985903,
        7.224168204718579,
        0.6518851394897925,
        2.9320506305563576,
        175.01241407839464
      ],
      "std_train_score": [
        1.0494719447276923,
        0.9808280741796126,
        0.9430136209747166,
        1.0020729404954987,
        0.716226427089515,
        2.9566863609768865,
        0.9076461809421708,
        0.44117144145843656,
        1.4928494689727068,
        0.9429977736056024,
        2.654459002164964,
        8.242314228881058
      ]
    },
    "xval_grid": {
      "gmm__n_components": [
        1,
        2,
        4,
        8
      ],
      "pca__n_components": [
        0.5,
        0.75,
        0.9
      ]
    }
  },
  {
    "fold_id": 2,
    "test": {
      "accuracy": 0.8875,
      "confusion_matrix": [
        [
          357,
          43
        ],
        [
          47,
          353
        ]
      ],
      "f1_macro": 0.8874971874296858,
      "f1_micro": 0.8875,
      "f1_weighted": 0.8874971874296859,
      "per_class": {
        "y=0": {
          "accuracy": 0.8875,
          "confusion_matrix": [
            [
              353,
              47
            ],
            [
              43,
              357
            ]
          ],
          "f1": 0.8880597014925373,
          "precision": 0.8836633663366337,
          "recall": 0.8925
        },
        "y=1": {
          "accuracy": 0.8875,
          "confusion_matrix": [
            [
              357,
              43
            ],
            [
              47,
              353
            ]
          ],
          "f1": 0.8869346733668342,
          "precision": 0.8914141414141414,
          "recall": 0.8825
        }
      },
      "precision_macro": 0.8875387538753876,
      "precision_micro": 0.8875,
      "precision_weighted": 0.8875387538753876,
      "recall_macro": 0.8875,
      "recall_micro": 0.8875,
      "recall_weighted": 0.8875
    },
    "train": {
      "accuracy": 0.9149068322981366,
      "confusion_matrix": [
        [
          1470,
          140
        ],
        [
          134,
          1476
        ]
      ],
      "f1_macro": 0.9149065368461216,
      "f1_micro": 0.9149068322981366,
      "f1_weighted": 0.9149065368461216,
      "per_class": {
        "y=0": {
          "accuracy": 0.9149068322981366,
          "confusion_matrix": [
            [
              1476,
              134
            ],
            [
              140,
              1470
            ]
          ],
          "f1": 0.9147479775980087,
          "precision": 0.9164588528678305,
          "recall": 0.9130434782608695
        },
        "y=1": {
          "accuracy": 0.9149068322981366,
          "confusion_matrix": [
            [
              1470,
              140
            ],
            [
              134,
              1476
            ]
          ],
          "f1": 0.9150650960942344,
          "precision": 0.9133663366336634,
          "recall": 0.9167701863354037
        }
      },
      "precision_macro": 0.9149125947507469,
      "precision_micro": 0.9149068322981366,
      "precision_weighted": 0.9149125947507469,
      "recall_macro": 0.9149068322981366,
      "recall_micro": 0.9149068322981366,
      "recall_weighted": 0.9149068322981366
    },
    "xval": {
      "mean_fit_time": [
        0.6232959628105164,
        0.6509076952934265,
        0.5061204433441162,
        0.5450487732887268,
        0.8426985740661621,
        0.6784456372261047,
        0.4986725449562073,
        0.547752320766449,
        0.6422967314720154,
        0.5726689696311951,
        0.6245957612991333,
        0.6319655179977417
      ],
      "mean_score_time": [
        0.007297635078430176,
        0.013836026191711426,
        0.015645980834960938,
        0.00881814956665039,
        0.013587415218353271,
        0.01777571439743042,
        0.009948968887329102,
        0.012379109859466553,
        0.01907932758331299,
        0.011416018009185791,
        0.01690816879272461,
        0.02769756317138672
      ],
      "mean_test_score": [
        -73.74886392780299,
        -176.42900574268984,
        -321.7978184140922,
        -73.03660353877584,
        -177.4498857409984,
        -335.13601006187196,
        -73.45455678323228,
        -185.22980813843557,
        -399.77110991985523,
        -75.60584515908313,
        -211.6143028131267,
        -903.3041248608754
      ],
      "mean_train_score": [
        -74.39968854903684,
        -174.9764538599756,
        -300.64414156068324,
        -72.44595917347519,
        -167.78599724878688,
        -282.3444329423845,
        -70.39568519235502,
        -158.45232102838543,
        -250.63914568572028,
        -67.76893319988285,
        -143.08405442257197,
        -142.6355963633801
      ],
      "param_gmm__n_components": [
        1,
        1,
        1,
        2,
        2,
        2,
        4,
        4,
        4,
        8,
        8,
        8
      ],
      "param_pca__n_components": [
        0.5,
        0.75,
        0.9,
        0.5,
        0.75,
        0.9,
        0.5,
        0.75,
        0.9,
        0.5,
        0.75,
        0.9
      ],
      "params": [
        {
          "gmm__n_components": 1,
          "pca__n_components": 0.5
        },
        {
          "gmm__n_components": 1,
          "pca__n_components": 0.75
        },
        {
          "gmm__n_components": 1,
          "pca__n_components": 0.9
        },
        {
          "gmm__n_components": 2,
          "pca__n_components": 0.5
        },
        {
          "gmm__n_components": 2,
          "pca__n_components": 0.75
        },
        {
          "gmm__n_components": 2,
          "pca__n_components": 0.9
        },
        {
          "gmm__n_components": 4,
          "pca__n_components": 0.5
        },
        {
          "gmm__n_components": 4,
          "pca__n_components": 0.75
        },
        {
          "gmm__n_components": 4,
          "pca__n_components": 0.9
        },
        {
          "gmm__n_components": 8,
          "pca__n_components": 0.5
        },
        {
          "gmm__n_components": 8,
          "pca__n_components": 0.75
        },
        {
          "gmm__n_components": 8,
          "pca__n_components": 0.9
        }
      ],
      "rank_test_score": [
        3,
        5,
        9,
        1,
        6,
        10,
        2,
        7,
        11,
        4,
        8,
        12
      ],
      "split0_test_score": [
        -74.21742634579992,
        -177.29688651511384,
        -324.04578449220094,
        -73.50282195064447,
        -177.68117681933754,
        -337.7807365012874,
        -73.77788909877651,
        -186.6223328307344,
        -391.09244566708327,
        -75.91625749818928,
        -213.51197078964051,
        -1044.7542993874733
      ],
      "split0_train_score": [
        -74.31718219551543,
        -174.88845309106966,
        -300.48394153563976,
        -72.343339594277,
        -167.55231373595137,
        -280.44172006324567,
        -70.32086189001079,
        -158.41063156184444,
        -250.15032602832738,
        -67.73855189297142,
        -144.99402265984983,
        -134.74508729407938
      ],
      "split1_test_score": [
        -73.32238774353483,
        -175.36073297099722,
        -317.9840907334429,
        -72.74290845695273,
        -177.60972582600425,
        -334.4241499304178,
        -73.43461315044894,
        -185.50304354746106,
        -405.9956525208626,
        -75.10164785081001,
        -212.6034463866848,
        -987.9891593131771
      ],
      "split1_train_score": [
        -74.50658700817732,
        -175.30004559184601,
        -299.5219566438892,
        -72.57137049621022,
        -168.1586782902448,
        -279.44897302265986,
        -70.47897617364468,
        -158.53375839860072,
        -249.75535945599773,
        -67.85757792779229,
        -141.5424678527309,
        -139.9696288010516
      ],
      "split2_test_score": [
        -73.86331820191684,
        -176.66737147531802,
        -323.33733442840537,
        -73.10161061861781,
        -177.23244175037217,
        -337.14754640231126,
        -73.35459172693768,
        -184.10924021445717,
        -412.1954545404222,
        -75.42982908277709,
        -210.7550507300452,
        -814.650008262276
      ],
      "split2_train_score": [
        -74.40919466647021,
        -174.95995506436995,
        -302.25819746853824,
        -72.44727234314776,
        -167.78291710138038,
        -282.6786400156212,
        -70.42971021497728,
        -158.78684550212645,
        -251.95841291850445,
        -67.84749836451934,
        -141.65238738740103,
        -148.39823067440884
      ],
      "split3_test_score": [
        -73.59179734203873,
        -176.39353690932106,
        -321.8436360223515,
        -72.79691658726274,
        -177.27130942873774,
        -331.167446584622,
        -73.24734079823142,
        -184.6637939598231,
        -389.8315634716998,
        -75.9780685166707,
        -209.55065820176037,
        -762.9963423683389
      ],
      "split3_train_score": [
        -74.36579032598438,
        -174.75736169261677,
        -300.31247059466574,
        -72.42185426026576,
        -167.65007986757104,
        -286.8083986680115,
        -70.35319249078731,
        -158.07804865097012,
        -250.69248434005152,
        -67.63210461424836,
        -144.14733979030603,
        -147.42943868398064
      ],
      "std_fit_time": [
        0.12309573945965445,
        0.210568634471683,
        0.10627133647558418,
        0.13689049332058523,
        0.4538831330947594,
        0.24080917007686403,
        0.05653477912046455,
        0.022891360782214393,
        0.08570758681773356,
        0.026340608720042843,
        0.02196764188109006,
        0.012768054136790621
      ],
      "std_score_time": [
        0.0012915448624121948,
        0.006812164862356966,
        0.0029231899708500883,
        0.0009711864565439953,
        0.0027563228682942623,
        0.0022182014060731607,
        0.0004526812631877388,
        9.349692950921114e-05,
        0.0006133505157564472,
        0.0002615477010119587,
        0.0017072713214572705,
        0.0005132732571334417
      ],
      "std_test_score": [
        0.3322127122868127,
        0.7006971342066112,
        2.349312176380591,
        0.30281797370114044,
        0.19888125565518613,
        2.6086746756594525,
        0.19886933871338114,
        0.9477006384057405,
        9.570255011267756,
        0.36098029653749253,
        1.547085927662605,
        116.96501519559524
      ],
      "std_train_score": [
        0.06977469944897742,
        0.2004553144202951,
        1.0000181421960015,
        0.08191695361826408,
        0.23020760448882172,
        2.830313092863865,
        0.062247983880722474,
        0.25512570083974007,
        0.831163912962535,
        0.09175437119952204,
        1.5169635866227258,
        5.602597496106849
      ]
    },
    "xval_grid": {
      "gmm__n_components": [
        1,
        2,
        4,
        8
      ],
      "pca__n_components": [
        0.5,
        0.75,
        0.9
      ]
    }
  },
  {
    "fold_id": 3,
    "test": {
      "accuracy": 0.86,
      "confusion_matrix": [
        [
          330,
          70
        ],
        [
          42,
          358
        ]
      ],
      "f1_macro": 0.8598282896548273,
      "f1_micro": 0.8599999999999999,
      "f1_weighted": 0.8598282896548273,
      "per_class": {
        "y=0": {
          "accuracy": 0.86,
          "confusion_matrix": [
            [
              358,
              42
            ],
            [
              70,
              330
            ]
          ],
          "f1": 0.8549222797927462,
          "precision": 0.8870967741935484,
          "recall": 0.825
        },
        "y=1": {
          "accuracy": 0.86,
          "confusion_matrix": [
            [
              330,
              70
            ],
            [
              42,
              358
            ]
          ],
          "f1": 0.8647342995169083,
          "precision": 0.8364485981308412,
          "recall": 0.895
        }
      },
      "precision_macro": 0.8617726861621948,
      "precision_micro": 0.86,
      "precision_weighted": 0.8617726861621946,
      "recall_macro": 0.86,
      "recall_micro": 0.86,
      "recall_weighted": 0.86
    },
    "train": {
      "accuracy": 0.9232919254658385,
      "confusion_matrix": [
        [
          1480,
          130
        ],
        [
          117,
          1493
        ]
      ],
      "f1_macro": 0.9232906751402432,
      "f1_micro": 0.9232919254658385,
      "f1_weighted": 0.9232906751402433,
      "per_class": {
        "y=0": {
          "accuracy": 0.9232919254658385,
          "confusion_matrix": [
            [
              1493,
              117
            ],
            [
              130,
              1480
            ]
          ],
          "f1": 0.9229809791082008,
          "precision": 0.9267376330619912,
          "recall": 0.9192546583850931
        },
        "y=1": {
          "accuracy": 0.9232919254658385,
          "confusion_matrix": [
            [
              1480,
              130
            ],
            [
              117,
              1493
            ]
          ],
          "f1": 0.9236003711722858,
          "precision": 0.9199014171287738,
          "recall": 0.9273291925465839
        }
      },
      "precision_macro": 0.9233195250953825,
      "precision_micro": 0.9232919254658385,
      "precision_weighted": 0.9233195250953825,
      "recall_macro": 0.9232919254658385,
      "recall_micro": 0.9232919254658385,
      "recall_weighted": 0.9232919254658385
    },
    "xval": {
      "mean_fit_time": [
        0.4309183359146118,
        0.3898833990097046,
        0.40866583585739136,
        0.42839890718460083,
        0.4688849449157715,
        0.5328899621963501,
        0.49297183752059937,
        0.5269511938095093,
        0.6942230463027954,
        0.5413025617599487,
        0.5897578597068787,
        0.6185848116874695
      ],
      "mean_score_time": [
        0.007288455963134766,
        0.00932389497756958,
        0.012385427951812744,
        0.009409129619598389,
        0.011527955532073975,
        0.015780508518218994,
        0.0098036527633667,
        0.012412011623382568,
        0.01848888397216797,
        0.01231473684310913,
        0.015187084674835205,
        0.02904975414276123
      ],
      "mean_test_score": [
        -72.04210823388487,
        -175.9541000137755,
        -321.3620672015709,
        -71.49106151000638,
        -177.12147109424313,
        -336.5700968937432,
        -71.72728840930846,
        -184.612164328545,
        -400.8949679453098,
        -73.79238125539312,
        -214.18597476299936,
        -886.594492282855
      ],
      "mean_train_score": [
        -72.59453889055281,
        -174.29446666642835,
        -300.2041567705952,
        -70.79966017570074,
        -167.4375343122349,
        -281.3759532593724,
        -68.87715449502545,
        -158.46108678096735,
        -252.10488916434588,
        -66.28516966362345,
        -142.68782525598965,
        -134.39423049285682
      ],
      "param_gmm__n_components": [
        1,
        1,
        1,
        2,
        2,
        2,
        4,
        4,
        4,
        8,
        8,
        8
      ],
      "param_pca__n_components": [
        0.5,
        0.75,
        0.9,
        0.5,
        0.75,
        0.9,
        0.5,
        0.75,
        0.9,
        0.5,
        0.75,
        0.9
      ],
      "params": [
        {
          "gmm__n_components": 1,
          "pca__n_components": 0.5
        },
        {
          "gmm__n_components": 1,
          "pca__n_components": 0.75
        },
        {
          "gmm__n_components": 1,
          "pca__n_components": 0.9
        },
        {
          "gmm__n_components": 2,
          "pca__n_components": 0.5
        },
        {
          "gmm__n_components": 2,
          "pca__n_components": 0.75
        },
        {
          "gmm__n_components": 2,
          "pca__n_components": 0.9
        },
        {
          "gmm__n_components": 4,
          "pca__n_components": 0.5
        },
        {
          "gmm__n_components": 4,
          "pca__n_components": 0.75
        },
        {
          "gmm__n_components": 4,
          "pca__n_components": 0.9
        },
        {
          "gmm__n_components": 8,
          "pca__n_components": 0.5
        },
        {
          "gmm__n_components": 8,
          "pca__n_components": 0.75
        },
        {
          "gmm__n_components": 8,
          "pca__n_components": 0.9
        }
      ],
      "rank_test_score": [
        3,
        5,
        9,
        1,
        6,
        10,
        2,
        7,
        11,
        4,
        8,
        12
      ],
      "split0_test_score": [
        -72.18788725463847,
        -178.60539107692298,
        -326.44410487254714,
        -71.68529101137128,
        -180.01175019986385,
        -342.21057759042975,
        -71.82210380336163,
        -189.45671288486216,
        -412.4620804438632,
        -73.57623677207366,
        -219.3619751662938,
        -811.4042037026859
      ],
      "split0_train_score": [
        -71.88226804282439,
        -174.59781479867848,
        -299.850849011854,
        -70.23434055262369,
        -167.7069921594813,
        -281.21685661001146,
        -68.38908808135908,
        -158.7568554053344,
        -252.29473419487317,
        -65.82930484302973,
        -142.127122148905,
        -118.16448158965774
      ],
      "split1_test_score": [
        -71.25414879812581,
        -173.7084200064572,
        -319.81619545609493,
        -70.61620721129323,
        -175.21381995925523,
        -335.4669322103535,
        -71.02547208560371,
        -183.04080401730477,
        -409.2233771181765,
        -72.87028330540042,
        -209.29376305567158,
        -732.3596737490054
      ],
      "split1_train_score": [
        -72.08368988468996,
        -173.0962991452191,
        -298.9581454056404,
        -70.23115503858523,
        -166.53454458434513,
        -280.06773798699993,
        -68.31550108723422,
        -157.41911273806002,
        -251.20775887339659,
        -65.77511260387402,
        -142.07074137802468,
        -120.35314630037222
      ],
      "split2_test_score": [
        -73.24959627879377,
        -174.16555040752814,
        -315.5918273860712,
        -72.83350744064154,
        -175.26690980418417,
        -330.309446260191,
        -72.79611184642677,
        -181.1053430695326,
        -376.854458023548,
        -75.08305597080884,
        -206.40017102149656,
        -1151.1411087586948
      ],
      "split2_train_score": [
        -74.40919466647021,
        -174.95995506436995,
        -302.25819746853824,
        -72.44778451281988,
        -167.82852508069814,
        -282.7438315817873,
        -70.51037728282415,
        -158.72745650006328,
        -252.88650131334617,
        -67.78983946113314,
        -141.99361165908866,
        -148.80185573260502
      ],
      "split3_test_score": [
        -71.484827859169,
        -177.33196842599577,
        -323.5519390175014,
        -70.8377481866863,
        -177.98112156403624,
        -338.2367150638321,
        -71.27305341346236,
        -184.8048824894169,
        -404.791262174759,
        -73.65417700370598,
        -221.68444244983598,
        -854.340796759959
      ],
      "split3_train_score": [
        -72.00300296822668,
        -174.52379765744578,
        -299.74943519634814,
        -70.28536059877413,
        -167.68007542441498,
        -281.47538685869085,
        -68.29365152868431,
        -158.94092248041167,
        -252.03056227576755,
        -65.7464217464569,
        -144.55982583794022,
        -150.25743834879236
      ],
      "std_fit_time": [
        0.07165746758055612,
        0.016586793514692565,
        0.013068559679040246,
        0.04109320684236022,
        0.015486389990650199,
        0.022458740752817247,
        0.032397599789140905,
        0.039372045955589643,
        0.06123950063200146,
        0.011868283928698167,
        0.04379545780896101,
        0.021029984463626486
      ],
      "std_score_time": [
        0.0011350620661311729,
        0.0005333368825641717,
        0.0011103995670761026,
        0.0007379236121836441,
        0.0003418853165428458,
        0.0010543478587225243,
        0.00047148781063912227,
        0.00032211684054478536,
        0.0005282425249792185,
        0.0019563034215366124,
        0.0003355397141965329,
        0.002133618817512829
      ],
      "std_test_score": [
        0.7751973557371731,
        2.0744382964738795,
        4.069603816404873,
        0.8693701879065909,
        2.013689376764191,
        4.328678229075035,
        0.6791515137062508,
        3.0967021076917614,
        14.087810008047635,
        0.8026566125443425,
        6.464514355583207,
        158.27893955394939
      ],
      "std_train_score": [
        1.0501412761847138,
        0.7111773705371077,
        1.235235361467134,
        0.9517880873117176,
        0.5243324213316726,
        0.9510148642782105,
        0.9436042286025598,
        0.6071210980860989,
        0.6035987765861661,
        0.8692311914336028,
        1.0818386182425945,
        15.163919540235774
      ]
    },
    "xval_grid": {
      "gmm__n_components": [
        1,
        2,
        4,
        8
      ],
      "pca__n_components": [
        0.5,
        0.75,
        0.9
      ]
    }
  },
  {
    "fold_id": 4,
    "test": {
      "accuracy": 0.8325,
      "confusion_matrix": [
        [
          355,
          45
        ],
        [
          89,
          311
        ]
      ],
      "f1_macro": 0.8319917751197372,
      "f1_micro": 0.8325,
      "f1_weighted": 0.8319917751197372,
      "per_class": {
        "y=0": {
          "accuracy": 0.8325,
          "confusion_matrix": [
            [
              311,
              89
            ],
            [
              45,
              355
            ]
          ],
          "f1": 0.8412322274881517,
          "precision": 0.7995495495495496,
          "recall": 0.8875
        },
        "y=1": {
          "accuracy": 0.8325,
          "confusion_matrix": [
            [
              355,
              45
            ],
            [
              89,
              311
            ]
          ],
          "f1": 0.8227513227513227,
          "precision": 0.8735955056179775,
          "recall": 0.7775
        }
      },
      "precision_macro": 0.8365725275837635,
      "precision_micro": 0.8325,
      "precision_weighted": 0.8365725275837635,
      "recall_macro": 0.8325,
      "recall_micro": 0.8325,
      "recall_weighted": 0.8325
    },
    "train": {
      "accuracy": 0.9270186335403726,
      "confusion_matrix": [
        [
          1494,
          116
        ],
        [
          119,
          1491
        ]
      ],
      "f1_macro": 0.9270185701908811,
      "f1_micro": 0.9270186335403726,
      "f1_weighted": 0.9270185701908812,
      "per_class": {
        "y=0": {
          "accuracy": 0.9270186335403726,
          "confusion_matrix": [
            [
              1491,
              119
            ],
            [
              116,
              1494
            ]
          ],
          "f1": 0.9270865653118213,
          "precision": 0.926224426534408,
          "recall": 0.9279503105590062
        },
        "y=1": {
          "accuracy": 0.9270186335403726,
          "confusion_matrix": [
            [
              1494,
              116
            ],
            [
              119,
              1491
            ]
          ],
          "f1": 0.9269505750699409,
          "precision": 0.9278158058494088,
          "recall": 0.9260869565217391
        }
      },
      "precision_macro": 0.9270201161919084,
      "precision_micro": 0.9270186335403726,
      "precision_weighted": 0.9270201161919084,
      "recall_macro": 0.9270186335403727,
      "recall_micro": 0.9270186335403726,
      "recall_weighted": 0.9270186335403726
    },
    "xval": {
      "mean_fit_time": [
        0.418010950088501,
        0.7253280282020569,
        0.40154021978378296,
        0.7599181532859802,
        0.4641185402870178,
        0.7871827483177185,
        0.4860115647315979,
        0.5575480461120605,
        0.6495335698127747,
        0.5699901580810547,
        0.593185544013977,
        0.645559549331665
      ],
      "mean_score_time": [
        0.007613062858581543,
        0.01238638162612915,
        0.01517575979232788,
        0.012395977973937988,
        0.01233220100402832,
        0.019519805908203125,
        0.010498225688934326,
        0.012835681438446045,
        0.020040035247802734,
        0.011753857135772705,
        0.0166165828704834,
        0.031440794467926025
      ],
      "mean_test_score": [
        -72.09038803966334,
        -176.01312360949103,
        -319.6378718818181,
        -71.43333017994996,
        -177.25640082418005,
        -333.17896147453274,
        -71.7987469628151,
        -184.81191195114417,
        -390.5854038711925,
        -73.72143450520988,
        -211.056711260346,
        -691.8234660564444
      ],
      "mean_train_score": [
        -72.59360967593256,
        -174.124678297144,
        -298.7147098352176,
        -70.77243934557696,
        -167.20241876407508,
        -280.7624063652452,
        -68.87081048697534,
        -158.1235379136755,
        -247.65209560097554,
        -66.29352077610528,
        -141.4317531264733,
        -122.35661962333023
      ],
      "param_gmm__n_components": [
        1,
        1,
        1,
        2,
        2,
        2,
        4,
        4,
        4,
        8,
        8,
        8
      ],
      "param_pca__n_components": [
        0.5,
        0.75,
        0.9,
        0.5,
        0.75,
        0.9,
        0.5,
        0.75,
        0.9,
        0.5,
        0.75,
        0.9
      ],
      "params": [
        {
          "gmm__n_components": 1,
          "pca__n_components": 0.5
        },
        {
          "gmm__n_components": 1,
          "pca__n_components": 0.75
        },
        {
          "gmm__n_components": 1,
          "pca__n_components": 0.9
        },
        {
          "gmm__n_components": 2,
          "pca__n_components": 0.5
        },
        {
          "gmm__n_components": 2,
          "pca__n_components": 0.75
        },
        {
          "gmm__n_components": 2,
          "pca__n_components": 0.9
        },
        {
          "gmm__n_components": 4,
          "pca__n_components": 0.5
        },
        {
          "gmm__n_components": 4,
          "pca__n_components": 0.75
        },
        {
          "gmm__n_components": 4,
          "pca__n_components": 0.9
        },
        {
          "gmm__n_components": 8,
          "pca__n_components": 0.5
        },
        {
          "gmm__n_components": 8,
          "pca__n_components": 0.75
        },
        {
          "gmm__n_components": 8,
          "pca__n_components": 0.9
        }
      ],
      "rank_test_score": [
        3,
        5,
        9,
        1,
        6,
        10,
        2,
        7,
        11,
        4,
        8,
        12
      ],
      "split0_test_score": [
        -72.2833174899492,
        -178.64356581653348,
        -324.1468239324152,
        -71.46197676896394,
        -179.23149428058082,
        -336.04025801445005,
        -71.84069189671986,
        -186.9898383798179,
        -390.3041399555364,
        -73.97101830513428,
        -217.62380788893088,
        -775.0407820160287
      ],
      "split0_train_score": [
        -71.91217640886043,
        -174.27321877319963,
        -297.81274366045676,
        -70.17511662397733,
        -167.23371326725365,
        -279.49351770369094,
        -68.36388401880221,
        -158.52063947112342,
        -249.93220163213198,
        -65.79189069085928,
        -140.69433980615457,
        -145.81380297515224
      ],
      "split1_test_score": [
        -71.20868646618783,
        -173.54472222736732,
        -317.663451668412,
        -70.69647369523942,
        -175.39825133939573,
        -335.2769258166814,
        -70.88638870541912,
        -183.06654709502004,
        -379.20749667365925,
        -72.43829578855706,
        -213.7596603589347,
        -682.152820064091
      ],
      "split1_train_score": [
        -72.09346900065874,
        -172.9443350653138,
        -296.98418988939994,
        -70.29627900170023,
        -166.24159058701576,
        -278.62383238748805,
        -68.46527499404223,
        -157.4015353901439,
        -238.1353670736534,
        -65.8306632274793,
        -142.60761389076586,
        -118.81661890812052
      ],
      "split2_test_score": [
        -73.30389972435474,
        -174.20422490783727,
        -313.9391495898094,
        -72.73328560924487,
        -175.8166928230641,
        -329.4025485290795,
        -73.16514635210412,
        -182.52035980602653,
        -386.7056702931976,
        -75.31662023239137,
        -200.45916676185058,
        -628.7194614204528
      ],
      "split2_train_score": [
        -74.36579032598438,
        -174.75736169261677,
        -300.31247059466574,
        -72.41929387109302,
        -167.63782570792043,
        -280.4102448430603,
        -70.34371131056973,
        -157.93793025985138,
        -250.46205944814267,
        -67.7379454481094,
        -140.71785974793227,
        -112.77624359964328
      ],
      "split3_test_score": [
        -71.57425812970146,
        -177.6579559759145,
        -322.7703806886711,
        -70.85043727004786,
        -178.57770305403443,
        -331.93412277689436,
        -71.31364106356095,
        -186.66549550405537,
        -406.2700482012915,
        -73.17272313121593,
        -212.2683344600782,
        -680.4614673506147
      ],
      "split3_train_score": [
        -72.00300296822668,
        -174.52379765744578,
        -299.74943519634814,
        -70.19906788553725,
        -167.6965454941104,
        -284.5220305267417,
        -68.31037162448716,
        -158.63404653358336,
        -252.07875424997403,
        -65.81358373797312,
        -141.70719906104043,
        -112.01981301040486
      ],
      "std_fit_time": [
        0.05079858186465633,
        0.039396628012504965,
        0.009779075333962162,
        0.09538632003152377,
        0.027312769138750238,
        0.1954172532808639,
        0.02600792736637536,
        0.04285103631937918,
        0.022701918069284215,
        0.00466973217568379,
        0.029540129926599844,
        0.03597884714941564
      ],
      "std_score_time": [
        0.0011622011260313562,
        0.002027160459415226,
        0.006229715413557621,
        0.0032640090398791876,
        0.001633444339680136,
        0.004689867476898338,
        0.0003460661639318989,
        0.0006632383505731312,
        0.0012238433357514,
        0.0010433000931120756,
        0.0020274256082873482,
        0.005784987161249683
      ],
      "std_test_score": [
        0.798103788961054,
        2.1813707303327035,
        4.074458947652048,
        0.800655569128617,
        1.6728919283819705,
        2.6636147993091814,
        0.8556656562392342,
        2.029228412934933,
        9.871415292484201,
        1.0662289650161945,
        6.399516301285509,
        52.79183666304061
      ],
      "std_train_score": [
        1.0251746841564617,
        0.7026483759016428,
        1.3630607360536509,
        0.9518938709515873,
        0.5826470981315521,
        2.260661886880513,
        0.8521974587639681,
        0.49346898156619,
        5.551085681945517,
        0.8340521635978833,
        0.7924552291423892,
        13.796777083552291
      ]
    },
    "xval_grid": {
      "gmm__n_components": [
        1,
        2,
        4,
        8
      ],
      "pca__n_components": [
        0.5,
        0.75,
        0.9
      ]
    }
  }
]