{
  "fold_id": 0,
  "test": {
    "accuracy": 0.8654320987654321,
    "confusion_matrix": [
      [
        343,
        62
      ],
      [
        47,
        358
      ]
    ],
    "f1_macro": 0.8653859348198971,
    "f1_micro": 0.8654320987654321,
    "f1_weighted": 0.865385934819897,
    "per_class": {
      "y=0": {
        "accuracy": 0.8654320987654321,
        "confusion_matrix": [
          [
            358,
            47
          ],
          [
            62,
            343
          ]
        ],
        "f1": 0.8628930817610063,
        "precision": 0.8794871794871795,
        "recall": 0.8469135802469135
      },
      "y=1": {
        "accuracy": 0.8654320987654321,
        "confusion_matrix": [
          [
            343,
            62
          ],
          [
            47,
            358
          ]
        ],
        "f1": 0.8678787878787878,
        "precision": 0.8523809523809524,
        "recall": 0.8839506172839506
      }
    },
    "precision_macro": 0.865934065934066,
    "precision_micro": 0.8654320987654321,
    "precision_weighted": 0.865934065934066,
    "recall_macro": 0.865432098765432,
    "recall_micro": 0.8654320987654321,
    "recall_weighted": 0.8654320987654321
  },
  "train": {
    "accuracy": 0.9230529595015576,
    "confusion_matrix": [
      [
        1454,
        151
      ],
      [
        96,
        1509
      ]
    ],
    "f1_macro": 0.9230303633358654,
    "f1_micro": 0.9230529595015576,
    "f1_weighted": 0.9230303633358654,
    "per_class": {
      "y=0": {
        "accuracy": 0.9230529595015576,
        "confusion_matrix": [
          [
            1509,
            96
          ],
          [
            151,
            1454
          ]
        ],
        "f1": 0.9217115689381933,
        "precision": 0.9380645161290323,
        "recall": 0.9059190031152647
      },
      "y=1": {
        "accuracy": 0.9230529595015576,
        "confusion_matrix": [
          [
            1454,
            151
          ],
          [
            96,
            1509
          ]
        ],
        "f1": 0.9243491577335375,
        "precision": 0.9090361445783133,
        "recall": 0.9401869158878504
      }
    },
    "precision_macro": 0.9235503303536727,
    "precision_micro": 0.9230529595015576,
    "precision_weighted": 0.9235503303536727,
    "recall_macro": 0.9230529595015575,
    "recall_micro": 0.9230529595015576,
    "recall_weighted": 0.9230529595015576
  },
  "xval": {
    "mean_fit_time": [
      0.6551457047462463,
      0.6323064565658569,
      0.5921221971511841,
      0.7598769664764404,
      0.46785271167755127,
      0.4223959445953369,
      0.4670489430427551,
      0.4336521029472351,
      0.44735169410705566,
      0.43093883991241455,
      0.41277027130126953,
      0.4222941994667053,
      0.41241443157196045,
      0.3936656713485718,
      0.4382914900779724,
      0.439866304397583,
      0.6428859233856201,
      0.4770752191543579,
      0.43239057064056396,
      0.4321507215499878,
      0.3983304500579834,
      0.40052759647369385,
      0.40841352939605713,
      0.5087552666664124,
      0.42021268606185913,
      0.38981300592422485,
      0.38426774740219116,
      0.4652288556098938,
      0.4522937536239624,
      0.48458874225616455,
      0.42936158180236816,
      0.38596653938293457,
      0.3910332918167114,
      0.38586699962615967,
      0.3955427408218384,
      0.3928278088569641,
      0.37495797872543335,
      0.5443416833877563,
      0.6139645576477051,
      0.615071713924408,
      0.6177740097045898,
      0.5767108201980591,
      0.5009902715682983,
      0.3860487937927246,
      0.44023287296295166,
      0.3801919221878052,
      0.38525158166885376,
      0.39888089895248413
    ],
    "mean_score_time": [
      0.00863415002822876,
      0.008075237274169922,
      0.0075598955154418945,
      0.010685265064239502,
      0.008553564548492432,
      0.009974658489227295,
      0.0069463253021240234,
      0.006171107292175293,
      0.007049441337585449,
      0.007595539093017578,
      0.008263468742370605,
      0.010142385959625244,
      0.006129741668701172,
      0.006229817867279053,
      0.006716012954711914,
      0.0069825053215026855,
      0.011819958686828613,
      0.01240307092666626,
      0.006621837615966797,
      0.006223738193511963,
      0.0066852569580078125,
      0.007517218589782715,
      0.007535994052886963,
      0.009751081466674805,
      0.006139039993286133,
      0.0064435601234436035,
      0.006512045860290527,
      0.013631761074066162,
      0.009282588958740234,
      0.010612666606903076,
      0.006193876266479492,
      0.006273746490478516,
      0.006692707538604736,
      0.006881117820739746,
      0.008379817008972168,
      0.010618031024932861,
      0.006184220314025879,
      0.007752716541290283,
      0.010620951652526855,
      0.012223005294799805,
      0.010469555854797363,
      0.015897691249847412,
      0.006947994232177734,
      0.006369054317474365,
      0.007403671741485596,
      0.0076277852058410645,
      0.00761789083480835,
      0.00972282886505127
    ],
    "mean_test_score": [
      0.8545171339563863,
      0.8604361370716511,
      0.8538940809968847,
      0.8517133956386292,
      0.8570093457943925,
      0.8616822429906542,
      0.8610591900311526,
      0.8651090342679127,
      0.8616822429906542,
      0.8601246105919003,
      0.859190031152648,
      0.8660436137071651,
      0.8660436137071651,
      0.8635514018691589,
      0.8679127725856698,
      0.8719626168224299,
      0.8719626168224299,
      0.870404984423676,
      0.8635514018691589,
      0.8654205607476636,
      0.8710280373831776,
      0.874766355140187,
      0.8757009345794392,
      0.8728971962616823,
      0.863239875389408,
      0.8629283489096573,
      0.8722741433021807,
      0.8713395638629283,
      0.8716510903426792,
      0.8710280373831776,
      0.8551401869158879,
      0.8473520249221184,
      0.8644859813084113,
      0.8607476635514019,
      0.859190031152648,
      0.8638629283489097,
      0.8610591900311526,
      0.8433021806853582,
      0.8489096573208723,
      0.8545171339563863,
      0.8570093457943925,
      0.8448598130841122,
      0.8090342679127726,
      0.82398753894081,
      0.8143302180685358,
      0.8199376947040499,
      0.8068535825545171,
      0.8093457943925234
    ],
    "mean_train_score": [
      0.8994757088520055,
      0.9131837828492393,
      0.9228392980636237,
      0.9396654564315352,
      0.9630290456431536,
      0.9821399550484095,
      0.9075756396957122,
      0.9146421161825726,
      0.9246114280774551,
      0.9413295297372062,
      0.9579451936376211,
      0.972066908713693,
      0.9067448997233748,
      0.9155748616874135,
      0.9236743603042878,
      0.9353077455048411,
      0.9472475795297373,
      0.9572164591977871,
      0.9007213865836791,
      0.906955826417704,
      0.9125613762102351,
      0.922946490318119,
      0.9298020401106502,
      0.9320829011065008,
      0.8917924446749654,
      0.8964674100968187,
      0.9011410788381742,
      0.9050868775933609,
      0.9101737551867219,
      0.9076737551867219,
      0.8795318983402489,
      0.8791130705394191,
      0.8880567081604426,
      0.8830497925311203,
      0.8861795470262793,
      0.8908558091286306,
      0.8683195020746888,
      0.867794346473029,
      0.8635494467496542,
      0.8715357019363762,
      0.8647795643153527,
      0.8683169087136929,
      0.8288580567081605,
      0.8273923755186723,
      0.8275255013831259,
      0.8372653008298756,
      0.8227277835408022,
      0.8263628112033196
    ],
    "param_clf__alpha": [
      0.01,
      0.01,
      0.01,
      0.01,
      0.01,
      0.01,
      0.03162277660168379,
      0.03162277660168379,
      0.03162277660168379,
      0.03162277660168379,
      0.03162277660168379,
      0.03162277660168379,
      0.1,
      0.1,
      0.1,
      0.1,
      0.1,
      0.1,
      0.31622776601683794,
      0.31622776601683794,
      0.31622776601683794,
      0.31622776601683794,
      0.31622776601683794,
      0.31622776601683794,
      1.0,
      1.0,
      1.0,
      1.0,
      1.0,
      1.0,
      3.1622776601683795,
      3.1622776601683795,
      3.1622776601683795,
      3.1622776601683795,
      3.1622776601683795,
      3.1622776601683795,
      10.0,
      10.0,
      10.0,
      10.0,
      10.0,
      10.0,
      31.622776601683793,
      31.622776601683793,
      31.622776601683793,
      31.622776601683793,
      31.622776601683793,
      31.622776601683793
    ],
    "param_pca__n_components": [
      0.75,
      0.8,
      0.85,
      0.9,
      0.95,
      0.99,
      0.75,
      0.8,
      0.85,
      0.9,
      0.95,
      0.99,
      0.75,
      0.8,
      0.85,
      0.9,
      0.95,
      0.99,
      0.75,
      0.8,
      0.85,
      0.9,
      0.95,
      0.99,
      0.75,
      0.8,
      0.85,
      0.9,
      0.95,
      0.99,
      0.75,
      0.8,
      0.85,
      0.9,
      0.95,
      0.99,
      0.75,
      0.8,
      0.85,
      0.9,
      0.95,
      0.99,
      0.75,
      0.8,
      0.85,
      0.9,
      0.95,
      0.99
    ],
    "params": [
      {
        "clf__alpha": 0.01,
        "pca__n_components": 0.75
      },
      {
        "clf__alpha": 0.01,
        "pca__n_components": 0.8
      },
      {
        "clf__alpha": 0.01,
        "pca__n_components": 0.85
      },
      {
        "clf__alpha": 0.01,
        "pca__n_components": 0.9
      },
      {
        "clf__alpha": 0.01,
        "pca__n_components": 0.95
      },
      {
        "clf__alpha": 0.01,
        "pca__n_components": 0.99
      },
      {
        "clf__alpha": 0.03162277660168379,
        "pca__n_components": 0.75
      },
      {
        "clf__alpha": 0.03162277660168379,
        "pca__n_components": 0.8
      },
      {
        "clf__alpha": 0.03162277660168379,
        "pca__n_components": 0.85
      },
      {
        "clf__alpha": 0.03162277660168379,
        "pca__n_components": 0.9
      },
      {
        "clf__alpha": 0.03162277660168379,
        "pca__n_components": 0.95
      },
      {
        "clf__alpha": 0.03162277660168379,
        "pca__n_components": 0.99
      },
      {
        "clf__alpha": 0.1,
        "pca__n_components": 0.75
      },
      {
        "clf__alpha": 0.1,
        "pca__n_components": 0.8
      },
      {
        "clf__alpha": 0.1,
        "pca__n_components": 0.85
      },
      {
        "clf__alpha": 0.1,
        "pca__n_components": 0.9
      },
      {
        "clf__alpha": 0.1,
        "pca__n_components": 0.95
      },
      {
        "clf__alpha": 0.1,
        "pca__n_components": 0.99
      },
      {
        "clf__alpha": 0.31622776601683794,
        "pca__n_components": 0.75
      },
      {
        "clf__alpha": 0.31622776601683794,
        "pca__n_components": 0.8
      },
      {
        "clf__alpha": 0.31622776601683794,
        "pca__n_components": 0.85
      },
      {
        "clf__alpha": 0.31622776601683794,
        "pca__n_components": 0.9
      },
      {
        "clf__alpha": 0.31622776601683794,
        "pca__n_components": 0.95
      },
      {
        "clf__alpha": 0.31622776601683794,
        "pca__n_components": 0.99
      },
      {
        "clf__alpha": 1.0,
        "pca__n_components": 0.75
      },
      {
        "clf__alpha": 1.0,
        "pca__n_components": 0.8
      },
      {
        "clf__alpha": 1.0,
        "pca__n_components": 0.85
      },
      {
        "clf__alpha": 1.0,
        "pca__n_components": 0.9
      },
      {
        "clf__alpha": 1.0,
        "pca__n_components": 0.95
      },
      {
        "clf__alpha": 1.0,
        "pca__n_components": 0.99
      },
      {
        "clf__alpha": 3.1622776601683795,
        "pca__n_components": 0.75
      },
      {
        "clf__alpha": 3.1622776601683795,
        "pca__n_components": 0.8
      },
      {
        "clf__alpha": 3.1622776601683795,
        "pca__n_components": 0.85
      },
      {
        "clf__alpha": 3.1622776601683795,
        "pca__n_components": 0.9
      },
      {
        "clf__alpha": 3.1622776601683795,
        "pca__n_components": 0.95
      },
      {
        "clf__alpha": 3.1622776601683795,
        "pca__n_components": 0.99
      },
      {
        "clf__alpha": 10.0,
        "pca__n_components": 0.75
      },
      {
        "clf__alpha": 10.0,
        "pca__n_components": 0.8
      },
      {
        "clf__alpha": 10.0,
        "pca__n_components": 0.85
      },
      {
        "clf__alpha": 10.0,
        "pca__n_components": 0.9
      },
      {
        "clf__alpha": 10.0,
        "pca__n_components": 0.95
      },
      {
        "clf__alpha": 10.0,
        "pca__n_components": 0.99
      },
      {
        "clf__alpha": 31.622776601683793,
        "pca__n_components": 0.75
      },
      {
        "clf__alpha": 31.622776601683793,
        "pca__n_components": 0.8
      },
      {
        "clf__alpha": 31.622776601683793,
        "pca__n_components": 0.85
      },
      {
        "clf__alpha": 31.622776601683793,
        "pca__n_components": 0.9
      },
      {
        "clf__alpha": 31.622776601683793,
        "pca__n_components": 0.95
      },
      {
        "clf__alpha": 31.622776601683793,
        "pca__n_components": 0.99
      }
    ],
    "rank_test_score": [
      35,
      28,
      37,
      38,
      32,
      23,
      25,
      16,
      23,
      29,
      30,
      13,
      13,
      19,
      12,
      5,
      5,
      11,
      19,
      15,
      9,
      2,
      1,
      3,
      21,
      22,
      4,
      8,
      7,
      9,
      34,
      40,
      17,
      27,
      30,
      18,
      25,
      42,
      39,
      35,
      32,
      41,
      47,
      43,
      45,
      44,
      48,
      46
    ],
    "split0_test_score": [
      0.8728395061728395,
      0.8888888888888888,
      0.8518518518518519,
      0.8679012345679012,
      0.8839506172839506,
      0.8888888888888888,
      0.8901234567901235,
      0.8950617283950617,
      0.8814814814814815,
      0.8814814814814815,
      0.8839506172839506,
      0.8987654320987655,
      0.8864197530864197,
      0.8888888888888888,
      0.8864197530864197,
      0.8938271604938272,
      0.8925925925925926,
      0.9,
      0.891358024691358,
      0.8987654320987655,
      0.8938271604938272,
      0.9049382716049382,
      0.8987654320987655,
      0.8975308641975308,
      0.8950617283950617,
      0.8987654320987655,
      0.9024691358024691,
      0.908641975308642,
      0.8950617283950617,
      0.8925925925925926,
      0.8839506172839506,
      0.8802469135802469,
      0.8975308641975308,
      0.8753086419753087,
      0.8864197530864197,
      0.8851851851851852,
      0.8753086419753087,
      0.8728395061728395,
      0.8765432098765432,
      0.8740740740740741,
      0.8679012345679012,
      0.8728395061728395,
      0.8246913580246914,
      0.8123456790123457,
      0.8604938271604938,
      0.837037037037037,
      0.8209876543209876,
      0.8209876543209876
    ],
    "split0_train_score": [
      0.8945833333333333,
      0.9091666666666667,
      0.9170833333333334,
      0.9375,
      0.96,
      0.9829166666666667,
      0.9029166666666667,
      0.915,
      0.9254166666666667,
      0.9416666666666667,
      0.9591666666666666,
      0.9725,
      0.9020833333333333,
      0.9141666666666667,
      0.9220833333333334,
      0.9366666666666666,
      0.9466666666666667,
      0.9566666666666667,
      0.8954166666666666,
      0.9054166666666666,
      0.9091666666666667,
      0.9204166666666667,
      0.9291666666666667,
      0.9279166666666666,
      0.8879166666666667,
      0.8945833333333333,
      0.9,
      0.90375,
      0.9075,
      0.8975,
      0.86875,
      0.865,
      0.8866666666666667,
      0.86,
      0.8770833333333333,
      0.885,
      0.86,
      0.85375,
      0.8616666666666667,
      0.8604166666666667,
      0.8475,
      0.8575,
      0.8191666666666667,
      0.80625,
      0.8345833333333333,
      0.82375,
      0.8095833333333333,
      0.81375
    ],
    "split1_test_score": [
      0.8825,
      0.86375,
      0.88125,
      0.885,
      0.8675,
      0.88375,
      0.885,
      0.87625,
      0.8825,
      0.88125,
      0.87125,
      0.87875,
      0.885,
      0.88125,
      0.885,
      0.88875,
      0.89125,
      0.8825,
      0.8875,
      0.88125,
      0.89,
      0.8975,
      0.89375,
      0.89125,
      0.89375,
      0.88375,
      0.89375,
      0.89125,
      0.8925,
      0.89125,
      0.89375,
      0.87,
      0.89375,
      0.89375,
      0.89125,
      0.89375,
      0.89375,
      0.8925,
      0.86375,
      0.8925,
      0.88,
      0.8825,
      0.8075,
      0.835,
      0.80625,
      0.84625,
      0.81625,
      0.8325
    ],
    "split1_train_score": [
      0.8800829875518672,
      0.8950207468879668,
      0.9136929460580913,
      0.9311203319502075,
      0.9614107883817428,
      0.9788381742738589,
      0.8896265560165975,
      0.8966804979253112,
      0.912448132780083,
      0.9327800829875519,
      0.9535269709543569,
      0.9692946058091286,
      0.8929460580912864,
      0.8995850622406639,
      0.9112033195020747,
      0.9236514522821577,
      0.9427385892116182,
      0.9489626556016597,
      0.8921161825726142,
      0.8941908713692946,
      0.9029045643153527,
      0.912448132780083,
      0.921161825726141,
      0.929045643153527,
      0.8813278008298755,
      0.8896265560165975,
      0.8871369294605809,
      0.8900414937759336,
      0.9045643153526971,
      0.9078838174273859,
      0.8738589211618257,
      0.8746887966804979,
      0.8759336099585062,
      0.887551867219917,
      0.8759336099585062,
      0.883402489626556,
      0.8672199170124482,
      0.8697095435684647,
      0.8419087136929461,
      0.8734439834024896,
      0.8551867219917012,
      0.8564315352697095,
      0.8024896265560166,
      0.8278008298755186,
      0.8120331950207469,
      0.8319502074688797,
      0.8153526970954357,
      0.8286307053941909
    ],
    "split2_test_score": [
      0.85,
      0.85375,
      0.85,
      0.83625,
      0.84,
      0.845,
      0.84625,
      0.8575,
      0.8525,
      0.84875,
      0.8525,
      0.8525,
      0.85375,
      0.85875,
      0.86,
      0.86375,
      0.86125,
      0.86125,
      0.86,
      0.85375,
      0.86,
      0.85625,
      0.8675,
      0.86875,
      0.84125,
      0.83375,
      0.86,
      0.85875,
      0.86125,
      0.865,
      0.84375,
      0.835,
      0.84875,
      0.83625,
      0.86375,
      0.8425,
      0.855,
      0.82125,
      0.83625,
      0.85875,
      0.86125,
      0.83375,
      0.79875,
      0.8475,
      0.84125,
      0.79375,
      0.84125,
      0.8375
    ],
    "split2_train_score": [
      0.9058091286307054,
      0.921161825726141,
      0.9273858921161826,
      0.9456431535269709,
      0.9688796680497925,
      0.9850622406639005,
      0.9161825726141078,
      0.9186721991701244,
      0.9311203319502075,
      0.9468879668049792,
      0.9630705394190872,
      0.9780082987551867,
      0.9120331950207469,
      0.9190871369294605,
      0.9311203319502075,
      0.941908713692946,
      0.9522821576763485,
      0.9663900414937759,
      0.904149377593361,
      0.9087136929460581,
      0.9153526970954357,
      0.9282157676348548,
      0.9340248962655602,
      0.937344398340249,
      0.8933609958506225,
      0.8908713692946059,
      0.9087136929460581,
      0.9132780082987552,
      0.9149377593360996,
      0.9066390041493776,
      0.8846473029045643,
      0.879253112033195,
      0.8921161825726142,
      0.8842323651452282,
      0.8937759336099586,
      0.8900414937759336,
      0.8597510373443984,
      0.8655601659751038,
      0.8717842323651452,
      0.8701244813278008,
      0.870539419087137,
      0.8734439834024896,
      0.8352697095435685,
      0.8307053941908714,
      0.8186721991701245,
      0.8319502074688797,
      0.821161825726141,
      0.8182572614107884
    ],
    "split3_test_score": [
      0.8125,
      0.835,
      0.8325,
      0.8175,
      0.83625,
      0.82875,
      0.8225,
      0.83125,
      0.83,
      0.82875,
      0.82875,
      0.83375,
      0.83875,
      0.825,
      0.84,
      0.84125,
      0.8425,
      0.8375,
      0.815,
      0.8275,
      0.84,
      0.84,
      0.8425,
      0.83375,
      0.8225,
      0.835,
      0.8325,
      0.82625,
      0.8375,
      0.835,
      0.79875,
      0.80375,
      0.8175,
      0.8375,
      0.795,
      0.83375,
      0.82,
      0.78625,
      0.81875,
      0.7925,
      0.81875,
      0.79,
      0.805,
      0.80125,
      0.74875,
      0.8025,
      0.74875,
      0.74625
    ],
    "split3_train_score": [
      0.9174273858921161,
      0.9273858921161826,
      0.933195020746888,
      0.9443983402489626,
      0.9618257261410789,
      0.9817427385892116,
      0.9215767634854771,
      0.9282157676348548,
      0.9294605809128631,
      0.9439834024896265,
      0.9560165975103735,
      0.9684647302904564,
      0.9199170124481327,
      0.9294605809128631,
      0.9302904564315353,
      0.9390041493775934,
      0.9473029045643153,
      0.9568464730290457,
      0.9112033195020747,
      0.9195020746887966,
      0.9228215767634855,
      0.9307053941908714,
      0.9348547717842324,
      0.9340248962655602,
      0.9045643153526971,
      0.9107883817427386,
      0.9087136929460581,
      0.9132780082987552,
      0.9136929460580913,
      0.9186721991701244,
      0.8908713692946059,
      0.8975103734439834,
      0.8975103734439834,
      0.9004149377593361,
      0.8979253112033195,
      0.9049792531120332,
      0.8863070539419087,
      0.8821576763485477,
      0.8788381742738589,
      0.8821576763485477,
      0.8858921161825726,
      0.8858921161825726,
      0.85850622406639,
      0.8448132780082988,
      0.8448132780082988,
      0.8614107883817428,
      0.8448132780082988,
      0.8448132780082988
    ],
    "std_fit_time": [
      0.11073089363599592,
      0.09283870393523125,
      0.2402329193148918,
      0.11612169273968431,
      0.048351814517825636,
      0.006596706361244988,
      0.06089663027851139,
      0.02813244388453267,
      0.032331775436624854,
      0.03742432835935655,
      0.019455560464153955,
      0.026448548222811674,
      0.02217185030037772,
      0.008462731585929388,
      0.04324011135898617,
      0.03420429554946226,
      0.1530898752584414,
      0.0519870718869158,
      0.06363052022330234,
      0.07185865296478298,
      0.007904452227503274,
      0.016873225215041383,
      0.012298859505446283,
      0.11622289746374334,
      0.0408298874610874,
      0.02339686101576148,
      0.006544213799604231,
      0.055096711201081526,
      0.03912735420259296,
      0.018185662219611258,
      0.07000443627667181,
      0.011559987029551222,
      0.019415295731459024,
      0.006373873563913395,
      0.00901113906899424,
      0.01444474992855843,
      0.003330640253613044,
      0.09522772997658988,
      0.02856770384236901,
      0.03436773119105889,
      0.04134575731403334,
      0.01990158765519445,
      0.08094835864011393,
      0.011434339925648851,
      0.06951007627914421,
      0.0073847643501262486,
      0.009418613947389111,
      0.027726534080837223
    ],
    "std_score_time": [
      0.001129171349907946,
      0.0005923368651328637,
      0.0010674737662913643,
      0.0036055340366859603,
      0.0009193141608139754,
      0.0004250067598476907,
      0.0007673510765087235,
      0.0002005299040661676,
      0.000828532254490385,
      0.0006648858771085866,
      0.0011901348782663984,
      0.00028219195098507,
      0.0003597534510876423,
      0.0002530192598598759,
      0.0004832868981419193,
      0.00023560028753989742,
      0.004963612253207868,
      0.003680133266052619,
      0.0006415407822654101,
      0.00020554325353840656,
      0.0004333943197341646,
      0.0011384028592785675,
      0.00026823734524442083,
      0.0005095889684538575,
      6.451348590690222e-05,
      0.00021186776803914118,
      0.00018815217996633214,
      0.0058290025147017,
      0.0025805375694255292,
      0.0015189595411647394,
      0.0001795294275320238,
      0.00027257797749641804,
      0.0002956818337671635,
      0.00031292838139479885,
      0.0011897365229017786,
      0.0014379937707042101,
      0.00025955394019187264,
      0.0007118680593652617,
      0.0023475505356716753,
      0.003130391895778902,
      0.0006196175612141433,
      0.004056558249399646,
      0.0010625200414174007,
      0.00011067661304582047,
      0.0012670458270902533,
      0.0010440161789869976,
      0.00021159930126577855,
      0.00028617631928143454
    ],
    "std_test_score": [
      0.026924565337969823,
      0.019478316149787057,
      0.017475855754914508,
      0.02633592139115139,
      0.01975063936766112,
      0.025451780123989295,
      0.027950005988514097,
      0.023610711733107893,
      0.021865445688322625,
      0.022447432073860876,
      0.020809445916398547,
      0.024820153490845036,
      0.02043633538036931,
      0.024823451495323567,
      0.019208629067320505,
      0.02104178983560672,
      0.021095982686344206,
      0.023413681333739216,
      0.030473970537620344,
      0.02711701200061891,
      0.022161062047651715,
      0.027298270874998,
      0.02251449837553624,
      0.024965673295673826,
      0.03196356172263748,
      0.028960215960142414,
      0.027871461892156377,
      0.03156106528487048,
      0.023754011352363394,
      0.02349058219903951,
      0.037493837047868524,
      0.0302110519819295,
      0.03317958376854882,
      0.02468198207687411,
      0.03840989292446987,
      0.02602046562286952,
      0.027329054720142566,
      0.0419019317502513,
      0.022676190135375033,
      0.03767046820921955,
      0.023042407206348,
      0.03648909613978191,
      0.009636434479500293,
      0.018194743444116604,
      0.04250254710971528,
      0.022204084901409682,
      0.03476562069520954,
      0.036844652797604724
    ],
    "std_train_score": [
      0.013805686258623686,
      0.012363071761607657,
      0.007821435206483719,
      0.005827551066964374,
      0.003444983107417068,
      0.002247363530622654,
      0.01238937444186873,
      0.011437147741908368,
      0.00732247011811088,
      0.0052712893170649665,
      0.0035707611387917814,
      0.003746633037639348,
      0.010168687874821397,
      0.010756462886883941,
      0.008019872929629067,
      0.006981261007656551,
      0.0033918465257569675,
      0.006178977414124871,
      0.007480167604041394,
      0.009025125075844203,
      0.007379723174608478,
      0.007151597574164186,
      0.005441038859764749,
      0.003809105656814757,
      0.008516329305715402,
      0.008466890387575256,
      0.008833278405534389,
      0.009517616040519815,
      0.00429229606313694,
      0.007509758659731231,
      0.00870607499490579,
      0.011802895036935039,
      0.007980489414260767,
      0.014615987471052529,
      0.009790153154775567,
      0.008514359218357368,
      0.010809646294976653,
      0.01015145870526897,
      0.013905242460265367,
      0.007779658853411394,
      0.014743827014321484,
      0.012180336904843544,
      0.020672084252732204,
      0.013798829785615814,
      0.012913875570290539,
      0.014336739173462832,
      0.01339206631820102,
      0.011940959061905515
    ]
  },
  "xval_grid": {
    "clf__alpha": [
      0.01,
      0.03162277660168379,
      0.1,
      0.31622776601683794,
      1.0,
      3.1622776601683795,
      10.0,
      31.622776601683793
    ],
    "pca__n_components": [
      0.75,
      0.8,
      0.85,
      0.9,
      0.95,
      0.99
    ]
  }
}