{
  "fold_id": 3,
  "test": {
    "accuracy": 0.87125,
    "confusion_matrix": [
      [
        337,
        63
      ],
      [
        40,
        360
      ]
    ],
    "f1_macro": 0.8711434920426415,
    "f1_micro": 0.8712500000000001,
    "f1_weighted": 0.8711434920426416,
    "per_class": {
      "y=0": {
        "accuracy": 0.87125,
        "confusion_matrix": [
          [
            360,
            40
          ],
          [
            63,
            337
          ]
        ],
        "f1": 0.8674388674388674,
        "precision": 0.8938992042440318,
        "recall": 0.8425
      },
      "y=1": {
        "accuracy": 0.87125,
        "confusion_matrix": [
          [
            337,
            63
          ],
          [
            40,
            360
          ]
        ],
        "f1": 0.8748481166464155,
        "precision": 0.851063829787234,
        "recall": 0.9
      }
    },
    "precision_macro": 0.8724815170156329,
    "precision_micro": 0.87125,
    "precision_weighted": 0.872481517015633,
    "recall_macro": 0.8712500000000001,
    "recall_micro": 0.87125,
    "recall_weighted": 0.87125
  },
  "train": {
    "accuracy": 0.9496894409937888,
    "confusion_matrix": [
      [
        1517,
        93
      ],
      [
        69,
        1541
      ]
    ],
    "f1_macro": 0.9496866459152857,
    "f1_micro": 0.9496894409937888,
    "f1_weighted": 0.9496866459152857,
    "per_class": {
      "y=0": {
        "accuracy": 0.9496894409937888,
        "confusion_matrix": [
          [
            1541,
            69
          ],
          [
            93,
            1517
          ]
        ],
        "f1": 0.9493116395494369,
        "precision": 0.9564943253467844,
        "recall": 0.9422360248447205
      },
      "y=1": {
        "accuracy": 0.9496894409937888,
        "confusion_matrix": [
          [
            1517,
            93
          ],
          [
            69,
            1541
          ]
        ],
        "f1": 0.9500616522811345,
        "precision": 0.9430844553243574,
        "recall": 0.9571428571428572
      }
    },
    "precision_macro": 0.9497893903355709,
    "precision_micro": 0.9496894409937888,
    "precision_weighted": 0.9497893903355709,
    "recall_macro": 0.9496894409937888,
    "recall_micro": 0.9496894409937888,
    "recall_weighted": 0.9496894409937888
  },
  "xval": {
    "mean_fit_time": [
      0.3901156783103943,
      0.3581072688102722,
      0.3700774908065796,
      0.36298710107803345,
      0.37333381175994873,
      0.396511971950531,
      0.35579824447631836,
      0.3606302738189697,
      0.36706244945526123,
      0.47739505767822266,
      0.5301803350448608,
      0.4327465295791626,
      0.8494179844856262,
      0.38973963260650635,
      0.39133894443511963,
      0.3962228298187256,
      0.3630678057670593,
      0.42034924030303955,
      0.36283183097839355,
      0.3671966791152954,
      0.38192564249038696,
      0.42155200242996216,
      0.3842329978942871,
      0.4229271411895752,
      0.35772085189819336,
      0.35472583770751953,
      0.36704039573669434,
      0.3886168599128723,
      0.35889679193496704,
      0.3809548020362854,
      0.35355210304260254,
      0.3473441004753113,
      0.3537430763244629,
      0.4167557954788208,
      0.3591485023498535,
      0.36154264211654663,
      0.34569865465164185,
      0.35359710454940796,
      0.3514835238456726,
      0.3584703803062439,
      0.3669845461845398,
      0.41374194622039795,
      0.34663063287734985,
      0.3576037287712097,
      0.34680330753326416,
      0.3586536645889282,
      0.47265076637268066,
      0.3568117618560791
    ],
    "mean_score_time": [
      0.005994081497192383,
      0.005361974239349365,
      0.006167292594909668,
      0.005749881267547607,
      0.007539689540863037,
      0.008668005466461182,
      0.005169034004211426,
      0.005456864833831787,
      0.0062354207038879395,
      0.008809208869934082,
      0.009148836135864258,
      0.00939399003982544,
      0.008352696895599365,
      0.005527079105377197,
      0.006322741508483887,
      0.006317436695098877,
      0.007310748100280762,
      0.008972704410552979,
      0.005231201648712158,
      0.005698859691619873,
      0.0057392120361328125,
      0.006077706813812256,
      0.006807506084442139,
      0.00888282060623169,
      0.005211532115936279,
      0.005234897136688232,
      0.005760073661804199,
      0.006480515003204346,
      0.006917238235473633,
      0.009936749935150146,
      0.005421757698059082,
      0.005258142948150635,
      0.006039738655090332,
      0.006472289562225342,
      0.006712198257446289,
      0.008953630924224854,
      0.005264699459075928,
      0.005913913249969482,
      0.005741715431213379,
      0.0061190128326416016,
      0.007411479949951172,
      0.010291516780853271,
      0.005235493183135986,
      0.005255222320556641,
      0.005692243576049805,
      0.006486117839813232,
      0.006866157054901123,
      0.009024083614349365
    ],
    "mean_test_score": [
      0.8667701863354037,
      0.8698757763975156,
      0.8624223602484472,
      0.856832298136646,
      0.8546583850931677,
      0.8661490683229813,
      0.8652173913043478,
      0.8698757763975156,
      0.8683229813664596,
      0.8630434782608696,
      0.8664596273291926,
      0.8664596273291926,
      0.8708074534161491,
      0.8748447204968944,
      0.8698757763975156,
      0.8711180124223602,
      0.8751552795031056,
      0.8782608695652174,
      0.868944099378882,
      0.8739130434782608,
      0.8692546583850932,
      0.8717391304347826,
      0.8751552795031056,
      0.8767080745341614,
      0.8642857142857143,
      0.8711180124223602,
      0.8711180124223602,
      0.865527950310559,
      0.865527950310559,
      0.8736024844720497,
      0.8546583850931677,
      0.8580745341614907,
      0.8642857142857143,
      0.8633540372670807,
      0.8630434782608696,
      0.860248447204969,
      0.8388198757763975,
      0.8363354037267081,
      0.8428571428571429,
      0.8406832298136646,
      0.8434782608695652,
      0.85,
      0.8130434782608695,
      0.8083850931677019,
      0.8118012422360248,
      0.7959627329192547,
      0.8024844720496894,
      0.8220496894409938
    ],
    "mean_train_score": [
      0.9050701279105655,
      0.9137709612153219,
      0.9204026782346285,
      0.9446173828058022,
      0.9614952333596243,
      0.9801309968793938,
      0.9098384829052502,
      0.9188449470182778,
      0.929401426562875,
      0.9457597476081068,
      0.9619101711189603,
      0.9746390727341312,
      0.90724812249237,
      0.9151156510407736,
      0.9250535818387573,
      0.9385167689722574,
      0.9509344672679263,
      0.9622200884743322,
      0.9025912177223003,
      0.9083857720928638,
      0.9140847364630842,
      0.9235044237166078,
      0.9276426562875073,
      0.9360340008916018,
      0.8936889167038167,
      0.8931633860292857,
      0.8998945509413256,
      0.9030035835533761,
      0.9072541236583107,
      0.9143946538184562,
      0.8759781900483523,
      0.8810547477795685,
      0.8826009053187476,
      0.8875823017043311,
      0.8861270189636843,
      0.8831302938856692,
      0.8540357840951956,
      0.8589031583279038,
      0.8600433798566579,
      0.8607699495902061,
      0.8581817324508761,
      0.8637688179417715,
      0.8248469702685093,
      0.8246373581152909,
      0.8208013271149823,
      0.8145914063303727,
      0.8208129007921539,
      0.8258628819313467
    ],
    "param_clf__alpha": [
      0.01,
      0.01,
      0.01,
      0.01,
      0.01,
      0.01,
      0.03162277660168379,
      0.03162277660168379,
      0.03162277660168379,
      0.03162277660168379,
      0.03162277660168379,
      0.03162277660168379,
      0.1,
      0.1,
      0.1,
      0.1,
      0.1,
      0.1,
      0.31622776601683794,
      0.31622776601683794,
      0.31622776601683794,
      0.31622776601683794,
      0.31622776601683794,
      0.31622776601683794,
      1.0,
      1.0,
      1.0,
      1.0,
      1.0,
      1.0,
      3.1622776601683795,
      3.1622776601683795,
      3.1622776601683795,
      3.1622776601683795,
      3.1622776601683795,
      3.1622776601683795,
      10.0,
      10.0,
      10.0,
      10.0,
      10.0,
      10.0,
      31.622776601683793,
      31.622776601683793,
      31.622776601683793,
      31.622776601683793,
      31.622776601683793,
      31.622776601683793
    ],
    "param_pca__n_components": [
      0.75,
      0.8,
      0.85,
      0.9,
      0.95,
      0.99,
      0.75,
      0.8,
      0.85,
      0.9,
      0.95,
      0.99,
      0.75,
      0.8,
      0.85,
      0.9,
      0.95,
      0.99,
      0.75,
      0.8,
      0.85,
      0.9,
      0.95,
      0.99,
      0.75,
      0.8,
      0.85,
      0.9,
      0.95,
      0.99,
      0.75,
      0.8,
      0.85,
      0.9,
      0.95,
      0.99,
      0.75,
      0.8,
      0.85,
      0.9,
      0.95,
      0.99,
      0.75,
      0.8,
      0.85,
      0.9,
      0.95,
      0.99
    ],
    "params": [
      {
        "clf__alpha": 0.01,
        "pca__n_components": 0.75
      },
      {
        "clf__alpha": 0.01,
        "pca__n_components": 0.8
      },
      {
        "clf__alpha": 0.01,
        "pca__n_components": 0.85
      },
      {
        "clf__alpha": 0.01,
        "pca__n_components": 0.9
      },
      {
        "clf__alpha": 0.01,
        "pca__n_components": 0.95
      },
      {
        "clf__alpha": 0.01,
        "pca__n_components": 0.99
      },
      {
        "clf__alpha": 0.03162277660168379,
        "pca__n_components": 0.75
      },
      {
        "clf__alpha": 0.03162277660168379,
        "pca__n_components": 0.8
      },
      {
        "clf__alpha": 0.03162277660168379,
        "pca__n_components": 0.85
      },
      {
        "clf__alpha": 0.03162277660168379,
        "pca__n_components": 0.9
      },
      {
        "clf__alpha": 0.03162277660168379,
        "pca__n_components": 0.95
      },
      {
        "clf__alpha": 0.03162277660168379,
        "pca__n_components": 0.99
      },
      {
        "clf__alpha": 0.1,
        "pca__n_components": 0.75
      },
      {
        "clf__alpha": 0.1,
        "pca__n_components": 0.8
      },
      {
        "clf__alpha": 0.1,
        "pca__n_components": 0.85
      },
      {
        "clf__alpha": 0.1,
        "pca__n_components": 0.9
      },
      {
        "clf__alpha": 0.1,
        "pca__n_components": 0.95
      },
      {
        "clf__alpha": 0.1,
        "pca__n_components": 0.99
      },
      {
        "clf__alpha": 0.31622776601683794,
        "pca__n_components": 0.75
      },
      {
        "clf__alpha": 0.31622776601683794,
        "pca__n_components": 0.8
      },
      {
        "clf__alpha": 0.31622776601683794,
        "pca__n_components": 0.85
      },
      {
        "clf__alpha": 0.31622776601683794,
        "pca__n_components": 0.9
      },
      {
        "clf__alpha": 0.31622776601683794,
        "pca__n_components": 0.95
      },
      {
        "clf__alpha": 0.31622776601683794,
        "pca__n_components": 0.99
      },
      {
        "clf__alpha": 1.0,
        "pca__n_components": 0.75
      },
      {
        "clf__alpha": 1.0,
        "pca__n_components": 0.8
      },
      {
        "clf__alpha": 1.0,
        "pca__n_components": 0.85
      },
      {
        "clf__alpha": 1.0,
        "pca__n_components": 0.9
      },
      {
        "clf__alpha": 1.0,
        "pca__n_components": 0.95
      },
      {
        "clf__alpha": 1.0,
        "pca__n_components": 0.99
      },
      {
        "clf__alpha": 3.1622776601683795,
        "pca__n_components": 0.75
      },
      {
        "clf__alpha": 3.1622776601683795,
        "pca__n_components": 0.8
      },
      {
        "clf__alpha": 3.1622776601683795,
        "pca__n_components": 0.85
      },
      {
        "clf__alpha": 3.1622776601683795,
        "pca__n_components": 0.9
      },
      {
        "clf__alpha": 3.1622776601683795,
        "pca__n_components": 0.95
      },
      {
        "clf__alpha": 3.1622776601683795,
        "pca__n_components": 0.99
      },
      {
        "clf__alpha": 10.0,
        "pca__n_components": 0.75
      },
      {
        "clf__alpha": 10.0,
        "pca__n_components": 0.8
      },
      {
        "clf__alpha": 10.0,
        "pca__n_components": 0.85
      },
      {
        "clf__alpha": 10.0,
        "pca__n_components": 0.9
      },
      {
        "clf__alpha": 10.0,
        "pca__n_components": 0.95
      },
      {
        "clf__alpha": 10.0,
        "pca__n_components": 0.99
      },
      {
        "clf__alpha": 31.622776601683793,
        "pca__n_components": 0.75
      },
      {
        "clf__alpha": 31.622776601683793,
        "pca__n_components": 0.8
      },
      {
        "clf__alpha": 31.622776601683793,
        "pca__n_components": 0.85
      },
      {
        "clf__alpha": 31.622776601683793,
        "pca__n_components": 0.9
      },
      {
        "clf__alpha": 31.622776601683793,
        "pca__n_components": 0.95
      },
      {
        "clf__alpha": 31.622776601683793,
        "pca__n_components": 0.99
      }
    ],
    "rank_test_score": [
      19,
      13,
      31,
      34,
      35,
      22,
      25,
      13,
      18,
      29,
      20,
      20,
      12,
      5,
      13,
      9,
      3,
      1,
      17,
      6,
      16,
      8,
      3,
      2,
      26,
      9,
      9,
      23,
      23,
      7,
      35,
      33,
      26,
      28,
      29,
      32,
      41,
      42,
      39,
      40,
      38,
      37,
      44,
      46,
      45,
      48,
      47,
      43
    ],
    "split0_test_score": [
      0.8530864197530864,
      0.8654320987654321,
      0.8617283950617284,
      0.8407407407407408,
      0.845679012345679,
      0.8567901234567902,
      0.8567901234567902,
      0.8592592592592593,
      0.8617283950617284,
      0.8481481481481481,
      0.8530864197530864,
      0.8679012345679012,
      0.8567901234567902,
      0.8604938271604938,
      0.8580246913580247,
      0.8481481481481481,
      0.8580246913580247,
      0.8567901234567902,
      0.8530864197530864,
      0.8555555555555555,
      0.8567901234567902,
      0.8530864197530864,
      0.8580246913580247,
      0.8567901234567902,
      0.8469135802469135,
      0.8469135802469135,
      0.8481481481481481,
      0.8493827160493828,
      0.8518518518518519,
      0.8506172839506173,
      0.8395061728395061,
      0.8209876543209876,
      0.8296296296296296,
      0.8407407407407408,
      0.8333333333333334,
      0.8358024691358025,
      0.817283950617284,
      0.8222222222222222,
      0.7975308641975308,
      0.8246913580246914,
      0.8222222222222222,
      0.8049382716049382,
      0.7728395061728395,
      0.7888888888888889,
      0.7716049382716049,
      0.7950617283950617,
      0.8037037037037037,
      0.7888888888888889
    ],
    "split0_train_score": [
      0.9058091286307054,
      0.9136929460580913,
      0.929045643153527,
      0.950207468879668,
      0.9688796680497925,
      0.9821576763485477,
      0.9174273858921161,
      0.9244813278008299,
      0.9327800829875519,
      0.9481327800829875,
      0.9651452282157676,
      0.9771784232365145,
      0.9132780082987552,
      0.9153526970954357,
      0.9282157676348548,
      0.9414937759336099,
      0.9522821576763485,
      0.9639004149377594,
      0.904149377593361,
      0.908298755186722,
      0.9174273858921161,
      0.9273858921161826,
      0.9327800829875519,
      0.937344398340249,
      0.9008298755186722,
      0.8970954356846473,
      0.9074688796680498,
      0.9132780082987552,
      0.9153526970954357,
      0.9215767634854771,
      0.8921161825726142,
      0.8817427385892116,
      0.8825726141078838,
      0.8946058091286307,
      0.8954356846473029,
      0.8887966804979253,
      0.8614107883817428,
      0.8717842323651452,
      0.8643153526970955,
      0.8717842323651452,
      0.8775933609958506,
      0.875103734439834,
      0.8344398340248963,
      0.8485477178423236,
      0.8232365145228215,
      0.8174273858921162,
      0.8286307053941909,
      0.8128630705394191
    ],
    "split1_test_score": [
      0.8876543209876543,
      0.8827160493827161,
      0.8864197530864197,
      0.8716049382716049,
      0.854320987654321,
      0.8827160493827161,
      0.8814814814814815,
      0.8814814814814815,
      0.8777777777777778,
      0.8765432098765432,
      0.8777777777777778,
      0.8716049382716049,
      0.8888888888888888,
      0.8876543209876543,
      0.8925925925925926,
      0.8864197530864197,
      0.8839506172839506,
      0.8901234567901235,
      0.8901234567901235,
      0.8938271604938272,
      0.8925925925925926,
      0.8925925925925926,
      0.8864197530864197,
      0.8962962962962963,
      0.8975308641975308,
      0.8938271604938272,
      0.891358024691358,
      0.8950617283950617,
      0.8962962962962963,
      0.9,
      0.8777777777777778,
      0.8962962962962963,
      0.9012345679012346,
      0.9024691358024691,
      0.8888888888888888,
      0.8950617283950617,
      0.8740740740740741,
      0.8753086419753087,
      0.8938271604938272,
      0.891358024691358,
      0.8728395061728395,
      0.8839506172839506,
      0.854320987654321,
      0.8209876543209876,
      0.8395061728395061,
      0.8271604938271605,
      0.8444444444444444,
      0.8567901234567902
    ],
    "split1_train_score": [
      0.9020746887966805,
      0.916597510373444,
      0.9207468879668049,
      0.9394190871369295,
      0.9585062240663901,
      0.9846473029045644,
      0.9062240663900415,
      0.9174273858921161,
      0.9278008298755187,
      0.9473029045643153,
      0.9639004149377594,
      0.9734439834024896,
      0.9029045643153527,
      0.916597510373444,
      0.9236514522821577,
      0.9427385892116182,
      0.9522821576763485,
      0.9651452282157676,
      0.904149377593361,
      0.9091286307053942,
      0.916597510373444,
      0.924896265560166,
      0.9253112033195021,
      0.9435684647302904,
      0.8900414937759336,
      0.8850622406639004,
      0.8904564315352697,
      0.8941908713692946,
      0.9066390041493776,
      0.912448132780083,
      0.8547717842323651,
      0.879253112033195,
      0.875103734439834,
      0.8850622406639004,
      0.8755186721991701,
      0.8813278008298755,
      0.8452282157676348,
      0.8464730290456431,
      0.8576763485477178,
      0.8535269709543568,
      0.8423236514522822,
      0.8531120331950207,
      0.8174273858921162,
      0.8004149377593361,
      0.812448132780083,
      0.8070539419087137,
      0.8182572614107884,
      0.8224066390041493
    ],
    "split2_test_score": [
      0.89875,
      0.88875,
      0.8725,
      0.88625,
      0.89625,
      0.89375,
      0.895,
      0.90375,
      0.9,
      0.895,
      0.9,
      0.9,
      0.905,
      0.9125,
      0.89625,
      0.91,
      0.91625,
      0.9125,
      0.90375,
      0.90625,
      0.90125,
      0.905,
      0.915,
      0.91125,
      0.89875,
      0.90875,
      0.91125,
      0.89,
      0.8975,
      0.90625,
      0.88875,
      0.895,
      0.89625,
      0.87875,
      0.8975,
      0.885,
      0.8725,
      0.8625,
      0.8775,
      0.85875,
      0.8575,
      0.8925,
      0.81875,
      0.8125,
      0.83,
      0.82625,
      0.815,
      0.84
    ],
    "split2_train_score": [
      0.8929752066115703,
      0.9008264462809917,
      0.8933884297520661,
      0.9404958677685951,
      0.9557851239669422,
      0.9801652892561984,
      0.8921487603305785,
      0.9024793388429752,
      0.9161157024793388,
      0.9400826446280992,
      0.9524793388429752,
      0.9714876033057851,
      0.8917355371900827,
      0.8991735537190083,
      0.9136363636363637,
      0.9276859504132231,
      0.9442148760330579,
      0.9599173553719008,
      0.8851239669421488,
      0.8925619834710744,
      0.9045454545454545,
      0.9119834710743802,
      0.9190082644628099,
      0.9239669421487603,
      0.8785123966942149,
      0.8818181818181818,
      0.8892561983471075,
      0.8942148760330578,
      0.8971074380165289,
      0.9041322314049587,
      0.8669421487603306,
      0.8727272727272727,
      0.8764462809917355,
      0.8723140495867768,
      0.8702479338842976,
      0.8599173553719008,
      0.8363636363636363,
      0.8512396694214877,
      0.8400826446280992,
      0.843801652892562,
      0.8404958677685951,
      0.8516528925619835,
      0.8045454545454546,
      0.7946280991735537,
      0.8140495867768595,
      0.8107438016528926,
      0.8037190082644629,
      0.8206611570247934
    ],
    "split3_test_score": [
      0.8275,
      0.8425,
      0.82875,
      0.82875,
      0.8225,
      0.83125,
      0.8275,
      0.835,
      0.83375,
      0.8325,
      0.835,
      0.82625,
      0.8325,
      0.83875,
      0.8325,
      0.84,
      0.8425,
      0.85375,
      0.82875,
      0.84,
      0.82625,
      0.83625,
      0.84125,
      0.8425,
      0.81375,
      0.835,
      0.83375,
      0.8275,
      0.81625,
      0.8375,
      0.8125,
      0.82,
      0.83,
      0.83125,
      0.8325,
      0.825,
      0.79125,
      0.785,
      0.8025,
      0.7875,
      0.82125,
      0.81875,
      0.80625,
      0.81125,
      0.80625,
      0.735,
      0.74625,
      0.8025
    ],
    "split3_train_score": [
      0.9194214876033058,
      0.9239669421487603,
      0.9384297520661157,
      0.9483471074380165,
      0.9628099173553719,
      0.9735537190082645,
      0.9235537190082644,
      0.9309917355371901,
      0.9409090909090909,
      0.9475206611570248,
      0.9661157024793389,
      0.9764462809917356,
      0.9210743801652893,
      0.9293388429752066,
      0.9347107438016529,
      0.9421487603305785,
      0.9549586776859504,
      0.9599173553719008,
      0.9169421487603305,
      0.9235537190082644,
      0.9177685950413224,
      0.9297520661157025,
      0.9334710743801653,
      0.9392561983471074,
      0.9053719008264463,
      0.9086776859504132,
      0.912396694214876,
      0.9103305785123967,
      0.9099173553719008,
      0.9194214876033058,
      0.8900826446280992,
      0.890495867768595,
      0.8962809917355372,
      0.8983471074380165,
      0.903305785123967,
      0.9024793388429752,
      0.8731404958677685,
      0.8661157024793389,
      0.878099173553719,
      0.8739669421487604,
      0.8723140495867768,
      0.8752066115702479,
      0.8429752066115702,
      0.8549586776859505,
      0.8334710743801653,
      0.8231404958677686,
      0.8326446280991735,
      0.8475206611570248
    ],
    "std_fit_time": [
      0.042814074887733616,
      0.00404995745208426,
      0.012280010439997059,
      0.003794745738667385,
      0.00487213908413186,
      0.03768290315393544,
      0.0023005041684200085,
      0.006874038795318505,
      0.009769109802766254,
      0.12210721002612619,
      0.12538037826360787,
      0.03824753852321881,
      0.2805819047384785,
      0.009929389977988184,
      0.03690093442335397,
      0.025827709029871755,
      0.004572681360575448,
      0.03205033474831262,
      0.014690224999234133,
      0.011595717509873711,
      0.01570488596000736,
      0.03695717031447172,
      0.02144403020747943,
      0.054248348128232184,
      0.015747232970937837,
      0.0018287072821453199,
      0.02028352608713597,
      0.02829318854136446,
      0.004790299643058883,
      0.01155773646916574,
      0.017317483725738544,
      0.003007683030761806,
      0.005817696061748608,
      0.10538485617518242,
      0.007371158282002993,
      0.0036578209267722167,
      0.003087653445249659,
      0.005864246065770786,
      0.006999831652175577,
      0.011952105529203588,
      0.004922602644426189,
      0.061188993435675035,
      0.007093269484072779,
      0.014817336027917665,
      0.004325044305918655,
      0.006726574066905628,
      0.1231966305222521,
      0.005471765241534986
    ],
    "std_score_time": [
      0.0006978943915326722,
      0.0005851891957277792,
      0.0012672221164224029,
      0.00017163019551095504,
      0.001834818402375326,
      0.00047353331218832873,
      0.00020564901614959376,
      8.42981433970359e-05,
      0.0010767159016933662,
      0.0020498644918791977,
      0.0024648895489439607,
      0.0006076281287076085,
      0.0018325037283953842,
      0.0004312918083740463,
      0.0007167959617063096,
      0.00034407437254456837,
      0.0008713007625663838,
      0.0003483548526835512,
      0.0001546153561713256,
      0.0004802981294767923,
      0.00021493319200615823,
      0.0001973440839622398,
      0.00014997602939408557,
      0.00028864541754301587,
      0.00020534694607855797,
      0.00012279475453187667,
      0.0001285013660016032,
      0.0008769849861875567,
      0.00027072122577150183,
      0.0016210611968266418,
      0.00026023704633476043,
      7.721880074238816e-05,
      0.00034084525115058643,
      0.0007676767144319217,
      0.00020712901360419718,
      0.00033490611958270365,
      0.00020388813172228677,
      0.0010902766449709116,
      0.0002583545846497111,
      0.0001881217017420581,
      0.001232807730947939,
      0.0016447450046174598,
      0.0002510843874792035,
      0.0001860955902858877,
      8.624312200290778e-05,
      0.00037668744854518624,
      0.00021961912725497842,
      0.00020092444614513272
    ],
    "std_test_score": [
      0.02817884749942353,
      0.01792043191590114,
      0.02125823230526692,
      0.023042765434714885,
      0.026589945428353846,
      0.02414416737597887,
      0.025655816013205296,
      0.02548548809319157,
      0.024076830003172074,
      0.02423122762651262,
      0.024547809866353285,
      0.026236762841315684,
      0.028048573109101867,
      0.027731670580383595,
      0.026173129082557915,
      0.028421929952187272,
      0.027888836728958182,
      0.024328681628257666,
      0.029638810867033454,
      0.027019718183500182,
      0.029831313030722596,
      0.028012150000265676,
      0.028031789685249688,
      0.027990750358782648,
      0.035826581372928344,
      0.030871429444724208,
      0.031350288814670994,
      0.02816138171583676,
      0.033800388533549774,
      0.029947001955418957,
      0.030373307556902252,
      0.03758205658466917,
      0.034517314144293834,
      0.028783077723185113,
      0.030279104950400225,
      0.030267061476676838,
      0.035684022561371584,
      0.03545439255858775,
      0.04327980879500654,
      0.03865385440377718,
      0.0224080200154303,
      0.0386280441592352,
      0.029236284324922014,
      0.011908588266963564,
      0.026257721405924788,
      0.03736694606119489,
      0.035606917704574935,
      0.027481319056995013
    ],
    "std_train_score": [
      0.00951009232090649,
      0.008359335508701847,
      0.016804495938085653,
      0.00472146884476432,
      0.004944638397635168,
      0.004116011720854185,
      0.011955014025710607,
      0.010596648882347653,
      0.008984904453034107,
      0.0032917674314381397,
      0.005501221598853325,
      0.002295337705475569,
      0.011034397632787655,
      0.010708661841404486,
      0.007674292067695819,
      0.0062686587175220165,
      0.004030499805426153,
      0.002344413520087976,
      0.011356823894057825,
      0.010966064823304306,
      0.005523949028061066,
      0.006869650755056532,
      0.005923512591477611,
      0.0073225977281867315,
      0.010381664900459957,
      0.010612454138389474,
      0.010197140358143784,
      0.008862194069404146,
      0.00663350013944728,
      0.006818321184784167,
      0.015737948814064383,
      0.0063679040922145136,
      0.008384994581955954,
      0.01005834143131803,
      0.01366056027066271,
      0.015399537116903683,
      0.014223736898494573,
      0.010382437547148708,
      0.013677492698429732,
      0.012608121092925634,
      0.01688788214161018,
      0.011398093744710526,
      0.014898471070300583,
      0.027287217671077134,
      0.008393665567928898,
      0.006179545769208699,
      0.011178554180428957,
      0.013010169622156795
    ]
  },
  "xval_grid": {
    "clf__alpha": [
      0.01,
      0.03162277660168379,
      0.1,
      0.31622776601683794,
      1.0,
      3.1622776601683795,
      10.0,
      31.622776601683793
    ],
    "pca__n_components": [
      0.75,
      0.8,
      0.85,
      0.9,
      0.95,
      0.99
    ]
  }
}