{
  "fold_id": 0,
  "test": {
    "accuracy": 0.8135802469135802,
    "confusion_matrix": [
      [
        332,
        73
      ],
      [
        78,
        327
      ]
    ],
    "f1_macro": 0.8135731433144077,
    "f1_micro": 0.8135802469135801,
    "f1_weighted": 0.8135731433144077,
    "per_class": {
      "y=0": {
        "accuracy": 0.8135802469135802,
        "confusion_matrix": [
          [
            327,
            78
          ],
          [
            73,
            332
          ]
        ],
        "f1": 0.8147239263803681,
        "precision": 0.8097560975609757,
        "recall": 0.8197530864197531
      },
      "y=1": {
        "accuracy": 0.8135802469135802,
        "confusion_matrix": [
          [
            332,
            73
          ],
          [
            78,
            327
          ]
        ],
        "f1": 0.8124223602484473,
        "precision": 0.8175,
        "recall": 0.8074074074074075
      }
    },
    "precision_macro": 0.8136280487804879,
    "precision_micro": 0.8135802469135802,
    "precision_weighted": 0.8136280487804878,
    "recall_macro": 0.8135802469135802,
    "recall_micro": 0.8135802469135802,
    "recall_weighted": 0.8135802469135802
  },
  "train": {
    "accuracy": 0.8252336448598131,
    "confusion_matrix": [
      [
        1331,
        274
      ],
      [
        287,
        1318
      ]
    ],
    "f1_macro": 0.8252307784281553,
    "f1_micro": 0.8252336448598131,
    "f1_weighted": 0.8252307784281553,
    "per_class": {
      "y=0": {
        "accuracy": 0.8252336448598131,
        "confusion_matrix": [
          [
            1318,
            287
          ],
          [
            274,
            1331
          ]
        ],
        "f1": 0.8259385665529011,
        "precision": 0.8226205191594561,
        "recall": 0.8292834890965732
      },
      "y=1": {
        "accuracy": 0.8252336448598131,
        "confusion_matrix": [
          [
            1331,
            274
          ],
          [
            287,
            1318
          ]
        ],
        "f1": 0.8245229903034095,
        "precision": 0.8278894472361809,
        "recall": 0.821183800623053
      }
    },
    "precision_macro": 0.8252549831978184,
    "precision_micro": 0.8252336448598131,
    "precision_weighted": 0.8252549831978183,
    "recall_macro": 0.8252336448598131,
    "recall_micro": 0.8252336448598131,
    "recall_weighted": 0.8252336448598131
  },
  "xval": {
    "mean_fit_time": [
      0.4528883099555969,
      0.4112294912338257,
      0.5028243064880371,
      0.47126340866088867,
      0.5247038006782532,
      0.7745845913887024,
      1.8290452361106873,
      0.7263690233230591,
      1.0025916695594788,
      0.6110581755638123,
      0.5997920632362366,
      0.7413337230682373
    ],
    "mean_score_time": [
      0.005626976490020752,
      0.006515085697174072,
      0.0087699294090271,
      0.006297945976257324,
      0.008538007736206055,
      0.01751399040222168,
      0.013287842273712158,
      0.010757684707641602,
      0.021160781383514404,
      0.011452734470367432,
      0.012344777584075928,
      0.019377470016479492
    ],
    "mean_test_score": [
      -29.87271076599153,
      -82.44389935646123,
      -200.8061565740768,
      -29.744108855597084,
      -82.7113753013566,
      -214.42326045154982,
      -29.91877795297777,
      -84.88365124436157,
      -250.40294391530793,
      -30.36712777200173,
      -91.61270022411877,
      -404.0928509194253
    ],
    "mean_train_score": [
      -29.871537956876924,
      -81.99093622246956,
      -192.27388764572743,
      -29.500926895944257,
      -79.9701451724058,
      -177.65841760906824,
      -29.0729755140561,
      -77.3967529076802,
      -157.55399163698814,
      -28.541702627838873,
      -73.15115898618473,
      -118.42466823193536
    ],
    "param_gmm__n_components": [
      1,
      1,
      1,
      2,
      2,
      2,
      4,
      4,
      4,
      8,
      8,
      8
    ],
    "param_pca__n_components": [
      0.5,
      0.75,
      0.9,
      0.5,
      0.75,
      0.9,
      0.5,
      0.75,
      0.9,
      0.5,
      0.75,
      0.9
    ],
    "params": [
      {
        "gmm__n_components": 1,
        "pca__n_components": 0.5
      },
      {
        "gmm__n_components": 1,
        "pca__n_components": 0.75
      },
      {
        "gmm__n_components": 1,
        "pca__n_components": 0.9
      },
      {
        "gmm__n_components": 2,
        "pca__n_components": 0.5
      },
      {
        "gmm__n_components": 2,
        "pca__n_components": 0.75
      },
      {
        "gmm__n_components": 2,
        "pca__n_components": 0.9
      },
      {
        "gmm__n_components": 4,
        "pca__n_components": 0.5
      },
      {
        "gmm__n_components": 4,
        "pca__n_components": 0.75
      },
      {
        "gmm__n_components": 4,
        "pca__n_components": 0.9
      },
      {
        "gmm__n_components": 8,
        "pca__n_components": 0.5
      },
      {
        "gmm__n_components": 8,
        "pca__n_components": 0.75
      },
      {
        "gmm__n_components": 8,
        "pca__n_components": 0.9
      }
    ],
    "rank_test_score": [
      2,
      5,
      9,
      1,
      6,
      10,
      3,
      7,
      11,
      4,
      8,
      12
    ],
    "split0_test_score": [
      -30.077888359850203,
      -84.24732283182152,
      -203.31316169184328,
      -29.982138928812763,
      -84.74724324618293,
      -219.18975420895785,
      -30.34951619590557,
      -86.85882152925518,
      -252.0471170464056,
      -30.84658635470565,
      -94.58266230361991,
      -418.73982059644436
    ],
    "split0_train_score": [
      -29.88146717460101,
      -83.16646178508883,
      -192.5766580626743,
      -29.528570317640977,
      -81.20690944024702,
      -178.256708750718,
      -29.084503380527526,
      -78.54334393655459,
      -159.003315938546,
      -28.568401004739027,
      -74.25012225746508,
      -115.57567928051284
    ],
    "split1_test_score": [
      -29.562336711063182,
      -80.60171327119298,
      -195.92225993563613,
      -29.46813855586582,
      -80.97762496812244,
      -207.3181442939675,
      -29.537077483192824,
      -82.97622785262027,
      -243.67962444004465,
      -29.88434620247077,
      -88.19559026073824,
      -352.0642656373233
    ],
    "split1_train_score": [
      -29.88194583770525,
      -80.80232346588123,
      -190.96376778055506,
      -29.473913987040365,
      -78.86304433509486,
      -176.26124089187348,
      -29.049864606425,
      -76.24294205820979,
      -154.360231752115,
      -28.517506256727,
      -72.11193400752454,
      -120.50181117149712
    ],
    "split2_test_score": [
      -29.790156730172672,
      -83.02718201139669,
      -199.82344034952962,
      -29.644435518563146,
      -83.16027051884565,
      -212.28276735744348,
      -29.645018532071635,
      -85.58118257963827,
      -244.89443525217882,
      -30.071979388720948,
      -91.91398406629568,
      -425.10224752884176
    ],
    "split2_train_score": [
      -29.89226510216376,
      -83.2533221982875,
      -194.04086592527312,
      -29.516740870154106,
      -81.13111835815602,
      -178.92812561904418,
      -29.095900451201192,
      -78.40361833302731,
      -159.6560278269537,
      -28.526905513152954,
      -74.08817394508056,
      -119.19753868237738
    ],
    "split3_test_score": [
      -30.057896542956833,
      -81.87683651799172,
      -204.13442675532605,
      -29.878747043231407,
      -81.93491412296503,
      -218.8427947738628,
      -30.13811537270444,
      -84.09368338737141,
      -260.97004675846404,
      -30.65960590982578,
      -91.72143973982747,
      -420.28198279412914
    ],
    "split3_train_score": [
      -29.83047371303768,
      -80.74163744062066,
      -191.51425881440713,
      -29.48448240894157,
      -78.67950855612528,
      -177.18759517463732,
      -29.06163361807069,
      -76.39710730292907,
      -157.19639103033782,
      -28.553997736736502,
      -72.15440573466876,
      -118.42364379335407
    ],
    "std_fit_time": [
      0.06429361514706619,
      0.0024226479760546932,
      0.10153492994869645,
      0.02283110927211449,
      0.036689290218971694,
      0.22725717273537113,
      0.5537201922177009,
      0.24542885194512543,
      0.1479821240415507,
      0.0360087877743152,
      0.027402593108275447,
      0.0636486361450221
    ],
    "std_score_time": [
      0.0007336691417648626,
      0.0031569272860416634,
      0.0018041697573658788,
      0.001630611896070007,
      0.0003326768412838626,
      0.004408907043968147,
      0.004644514506673992,
      0.0008522990020153106,
      0.003175066194979665,
      0.0023429626094564017,
      0.0017232144576324172,
      0.0007526907582432533
    ],
    "std_test_score": [
      0.21183962833099218,
      1.3532855070767515,
      3.245286946252706,
      0.20067696440434268,
      1.4126140116712478,
      4.931938658170077,
      0.33733535259974534,
      1.472398348607292,
      6.88032911545543,
      0.3989044537173573,
      2.2718743507533303,
      30.06813370135505
    ],
    "std_train_score": [
      0.02409771784723269,
      1.2195313066673215,
      1.1733852935264664,
      0.02244080515291238,
      1.200922534085613,
      1.0178270069869677,
      0.018174137562526366,
      1.0792381321687683,
      2.0522595761204703,
      0.020422977316731674,
      1.0197086477882655,
      1.8047569517347561
    ]
  },
  "xval_grid": {
    "gmm__n_components": [
      1,
      2,
      4,
      8
    ],
    "pca__n_components": [
      0.5,
      0.75,
      0.9
    ]
  }
}