{
  "fold_id": 2,
  "test": {
    "accuracy": 0.78375,
    "confusion_matrix": [
      [
        332,
        68
      ],
      [
        105,
        295
      ]
    ],
    "f1_macro": 0.7832864361423106,
    "f1_micro": 0.78375,
    "f1_weighted": 0.7832864361423105,
    "per_class": {
      "y=0": {
        "accuracy": 0.78375,
        "confusion_matrix": [
          [
            295,
            105
          ],
          [
            68,
            332
          ]
        ],
        "f1": 0.7933094384707288,
        "precision": 0.7597254004576659,
        "recall": 0.83
      },
      "y=1": {
        "accuracy": 0.78375,
        "confusion_matrix": [
          [
            332,
            68
          ],
          [
            105,
            295
          ]
        ],
        "f1": 0.7732634338138924,
        "precision": 0.8126721763085399,
        "recall": 0.7375
      }
    },
    "precision_macro": 0.786198788383103,
    "precision_micro": 0.78375,
    "precision_weighted": 0.7861987883831029,
    "recall_macro": 0.78375,
    "recall_micro": 0.78375,
    "recall_weighted": 0.78375
  },
  "train": {
    "accuracy": 0.8319875776397515,
    "confusion_matrix": [
      [
        1373,
        237
      ],
      [
        304,
        1306
      ]
    ],
    "f1_macro": 0.8319148051348569,
    "f1_micro": 0.8319875776397515,
    "f1_weighted": 0.8319148051348569,
    "per_class": {
      "y=0": {
        "accuracy": 0.8319875776397515,
        "confusion_matrix": [
          [
            1306,
            304
          ],
          [
            237,
            1373
          ]
        ],
        "f1": 0.8354122299969576,
        "precision": 0.8187239117471675,
        "recall": 0.8527950310559006
      },
      "y=1": {
        "accuracy": 0.8319875776397515,
        "confusion_matrix": [
          [
            1373,
            237
          ],
          [
            304,
            1306
          ]
        ],
        "f1": 0.8284173802727562,
        "precision": 0.846403110823072,
        "recall": 0.8111801242236025
      }
    },
    "precision_macro": 0.8325635112851197,
    "precision_micro": 0.8319875776397515,
    "precision_weighted": 0.8325635112851196,
    "recall_macro": 0.8319875776397516,
    "recall_micro": 0.8319875776397515,
    "recall_weighted": 0.8319875776397515
  },
  "xval": {
    "mean_fit_time": [
      0.4444354176521301,
      0.4265507459640503,
      0.6313772201538086,
      0.6946439743041992,
      0.5577979683876038,
      0.5491812229156494,
      0.5198028683662415,
      1.1194289326667786,
      0.7867575883865356,
      0.7989642024040222,
      0.9232664704322815,
      1.0592817664146423
    ],
    "mean_score_time": [
      0.006146252155303955,
      0.006582975387573242,
      0.012773334980010986,
      0.007828474044799805,
      0.01039654016494751,
      0.014632225036621094,
      0.008649945259094238,
      0.01733076572418213,
      0.018797993659973145,
      0.017682015895843506,
      0.018423736095428467,
      0.025599181652069092
    ],
    "mean_test_score": [
      -29.147023551102603,
      -81.62317655322289,
      -200.22690272042357,
      -29.009033738390194,
      -81.89942314550672,
      -213.11700521755392,
      -29.121806176192635,
      -84.11189726745057,
      -253.01718288923857,
      -29.612571649569162,
      -91.03692411021615,
      -389.5660452477282
    ],
    "mean_train_score": [
      -29.15508093176689,
      -81.22376190219737,
      -191.35944903887716,
      -28.76529236926949,
      -79.26064139119386,
      -176.7988915461304,
      -28.339958518756806,
      -76.6084331914922,
      -156.35599198932425,
      -27.844628856607464,
      -72.25141602830173,
      -116.45961919366592
    ],
    "param_gmm__n_components": [
      1,
      1,
      1,
      2,
      2,
      2,
      4,
      4,
      4,
      8,
      8,
      8
    ],
    "param_pca__n_components": [
      0.5,
      0.75,
      0.9,
      0.5,
      0.75,
      0.9,
      0.5,
      0.75,
      0.9,
      0.5,
      0.75,
      0.9
    ],
    "params": [
      {
        "gmm__n_components": 1,
        "pca__n_components": 0.5
      },
      {
        "gmm__n_components": 1,
        "pca__n_components": 0.75
      },
      {
        "gmm__n_components": 1,
        "pca__n_components": 0.9
      },
      {
        "gmm__n_components": 2,
        "pca__n_components": 0.5
      },
      {
        "gmm__n_components": 2,
        "pca__n_components": 0.75
      },
      {
        "gmm__n_components": 2,
        "pca__n_components": 0.9
      },
      {
        "gmm__n_components": 4,
        "pca__n_components": 0.5
      },
      {
        "gmm__n_components": 4,
        "pca__n_components": 0.75
      },
      {
        "gmm__n_components": 4,
        "pca__n_components": 0.9
      },
      {
        "gmm__n_components": 8,
        "pca__n_components": 0.5
      },
      {
        "gmm__n_components": 8,
        "pca__n_components": 0.75
      },
      {
        "gmm__n_components": 8,
        "pca__n_components": 0.9
      }
    ],
    "rank_test_score": [
      3,
      5,
      9,
      1,
      6,
      10,
      2,
      7,
      11,
      4,
      8,
      12
    ],
    "split0_test_score": [
      -30.342567393588578,
      -81.90294291557417,
      -202.7294492774087,
      -30.220063022170645,
      -82.44064352242901,
      -217.11824361847604,
      -30.361218203537273,
      -85.09628669730417,
      -260.24385300981555,
      -31.006529988805344,
      -90.95907702154662,
      -408.23723404183676
    ],
    "split0_train_score": [
      -29.88194583770525,
      -80.80232346588123,
      -190.96376778055506,
      -29.473967185878468,
      -78.85193992332313,
      -176.49020074598124,
      -29.063557079746644,
      -76.19513125432513,
      -155.85834464943602,
      -28.50457826621124,
      -71.55416181155302,
      -123.53068787317444
    ],
    "split1_test_score": [
      -29.844895023260655,
      -81.34070570240176,
      -201.27235176180062,
      -29.787882064081497,
      -81.82170795043174,
      -215.49086668432352,
      -29.92671036846644,
      -83.54126055396999,
      -253.19972255577082,
      -30.492488874201154,
      -91.77711391675935,
      -414.29776527813823
    ],
    "split1_train_score": [
      -29.92272462275057,
      -80.65031040090209,
      -192.0532187670807,
      -29.52425307420604,
      -78.71460244735387,
      -177.4874047730093,
      -29.067042049978667,
      -76.12990137414782,
      -158.3935946255304,
      -28.588811565378315,
      -72.05727591095729,
      -113.70635386999584
    ],
    "split2_test_score": [
      -29.619166192315237,
      -82.31744973939665,
      -195.9844401351778,
      -29.43911593759188,
      -82.50446862361684,
      -205.68477805721363,
      -29.491046856286392,
      -84.64783469192571,
      -243.0190737638602,
      -29.81621434726362,
      -90.96852427300138,
      -342.75362433775706
    ],
    "split2_train_score": [
      -29.91478201927,
      -82.95406390976255,
      -192.49231081631473,
      -29.48204939348248,
      -80.886951957766,
      -177.66083796562305,
      -29.029794583096674,
      -78.15956932974309,
      -156.01126302410512,
      -28.52451882515955,
      -73.60361339179612,
      -117.18635409907958
    ],
    "split3_test_score": [
      -26.757797903812886,
      -80.93164166162488,
      -200.87701976232768,
      -26.564200459598354,
      -80.8250786707761,
      -214.09444376185627,
      -26.682695323735217,
      -83.15703521764776,
      -255.51346710516876,
      -27.106629943458167,
      -90.43470194558384,
      -392.4330209728742
    ],
    "split3_train_score": [
      -26.900871247341737,
      -80.48834983224363,
      -189.92849879155813,
      -26.580899823510958,
      -78.58907123633246,
      -175.557122699908,
      -26.199440362205237,
      -75.94913080775271,
      -155.16076565822544,
      -25.76060676968075,
      -71.79061299890056,
      -111.41508093241377
    ],
    "std_fit_time": [
      0.05065516595637624,
      0.012479021315305636,
      0.16431812048156896,
      0.11637067680974415,
      0.07300433761831279,
      0.03306201330776866,
      0.02077377259366638,
      0.3785021299825444,
      0.12409825664121864,
      0.22790080473983063,
      0.22833988761120952,
      0.07535656755487109
    ],
    "std_score_time": [
      0.0014068981301757044,
      0.0015443045805496887,
      0.004128036512173181,
      0.001628991072748184,
      0.0018584000918165945,
      0.00251454733113392,
      0.0010466171620181698,
      0.005544216746613073,
      0.003186881463612893,
      0.004178649531332261,
      0.0060569575142599115,
      0.009048657545245755
    ],
    "std_test_score": [
      1.3984571719948884,
      0.5275680757091605,
      2.5351585007098416,
      1.43265310566987,
      0.6729913233511642,
      4.4052221343380875,
      1.4357384772266804,
      0.7896571117795708,
      6.287223142653183,
      1.5013497474810804,
      0.48022134032759317,
      28.072209279800127
    ],
    "std_train_score": [
      1.301558342094332,
      1.0051409018093131,
      0.9961017155692953,
      1.2613041636593507,
      0.9435422552639534,
      0.8447310180182525,
      1.235914349078392,
      0.9000714060658509,
      1.2193114265831595,
      1.2036132638233545,
      0.8007232620704307,
      4.570448339737415
    ]
  },
  "xval_grid": {
    "gmm__n_components": [
      1,
      2,
      4,
      8
    ],
    "pca__n_components": [
      0.5,
      0.75,
      0.9
    ]
  }
}