[
  {
    "fold_id": 0,
    "test": {
      "accuracy": 0.8222222222222222,
      "confusion_matrix": [
        [
          332,
          73
        ],
        [
          71,
          334
        ]
      ],
      "f1_macro": 0.8222211383699947,
      "f1_micro": 0.8222222222222222,
      "f1_weighted": 0.8222211383699947,
      "per_class": {
        "y=0": {
          "accuracy": 0.8222222222222222,
          "confusion_matrix": [
            [
              334,
              71
            ],
            [
              73,
              332
            ]
          ],
          "f1": 0.8217821782178217,
          "precision": 0.8238213399503722,
          "recall": 0.8197530864197531
        },
        "y=1": {
          "accuracy": 0.8222222222222222,
          "confusion_matrix": [
            [
              332,
              73
            ],
            [
              71,
              334
            ]
          ],
          "f1": 0.8226600985221676,
          "precision": 0.8206388206388207,
          "recall": 0.8246913580246914
        }
      },
      "precision_macro": 0.8222300802945964,
      "precision_micro": 0.8222222222222222,
      "precision_weighted": 0.8222300802945964,
      "recall_macro": 0.8222222222222222,
      "recall_micro": 0.8222222222222222,
      "recall_weighted": 0.8222222222222222
    },
    "train": {
      "accuracy": 0.8666666666666667,
      "confusion_matrix": [
        [
          1377,
          228
        ],
        [
          200,
          1405
        ]
      ],
      "f1_macro": 0.8666565210656452,
      "f1_micro": 0.8666666666666667,
      "f1_weighted": 0.8666565210656452,
      "per_class": {
        "y=0": {
          "accuracy": 0.8666666666666667,
          "confusion_matrix": [
            [
              1405,
              200
            ],
            [
              228,
              1377
            ]
          ],
          "f1": 0.8654934003771212,
          "precision": 0.8731769181991123,
          "recall": 0.8579439252336448
        },
        "y=1": {
          "accuracy": 0.8666666666666667,
          "confusion_matrix": [
            [
              1377,
              228
            ],
            [
              200,
              1405
            ]
          ],
          "f1": 0.8678196417541691,
          "precision": 0.8603796693202694,
          "recall": 0.8753894080996885
        }
      },
      "precision_macro": 0.8667782937596908,
      "precision_micro": 0.8666666666666667,
      "precision_weighted": 0.8667782937596907,
      "recall_macro": 0.8666666666666667,
      "recall_micro": 0.8666666666666667,
      "recall_weighted": 0.8666666666666667
    },
    "xval": {
      "mean_fit_time": [
        0.4966977834701538,
        0.3712920546531677,
        0.36625832319259644,
        0.4155041575431824,
        0.43506377935409546,
        0.4519980549812317,
        0.4610779881477356,
        0.4833683371543884,
        0.5256397128105164,
        0.5554859042167664,
        1.0436046719551086,
        0.5591123700141907
      ],
      "mean_score_time": [
        0.006666719913482666,
        0.004528999328613281,
        0.006793797016143799,
        0.006602108478546143,
        0.008216619491577148,
        0.008977830410003662,
        0.007386207580566406,
        0.009982824325561523,
        0.011234760284423828,
        0.008776307106018066,
        0.011981785297393799,
        0.0138472318649292
      ],
      "mean_test_score": [
        -27.010437529782187,
        -64.48326266934403,
        -121.67880308244814,
        -26.89775697530153,
        -64.55841745774413,
        -123.55633866477524,
        -26.948763870490264,
        -65.45829487713806,
        -129.1251008548775,
        -27.338899362138104,
        -68.11532731889929,
        -145.55472445592807
      ],
      "mean_train_score": [
        -27.032516506580038,
        -64.22701187986655,
        -118.77633159179445,
        -26.721482949923555,
        -63.16839823605237,
        -115.6787533306885,
        -26.400007101725826,
        -61.69715272931609,
        -110.43141998602671,
        -26.000057495638426,
        -59.50293614166254,
        -102.36030082561187
      ],
      "param_gmm__n_components": [
        1,
        1,
        1,
        2,
        2,
        2,
        4,
        4,
        4,
        8,
        8,
        8
      ],
      "param_pca__n_components": [
        0.5,
        0.75,
        0.9,
        0.5,
        0.75,
        0.9,
        0.5,
        0.75,
        0.9,
        0.5,
        0.75,
        0.9
      ],
      "params": [
        {
          "gmm__n_components": 1,
          "pca__n_components": 0.5
        },
        {
          "gmm__n_components": 1,
          "pca__n_components": 0.75
        },
        {
          "gmm__n_components": 1,
          "pca__n_components": 0.9
        },
        {
          "gmm__n_components": 2,
          "pca__n_components": 0.5
        },
        {
          "gmm__n_components": 2,
          "pca__n_components": 0.75
        },
        {
          "gmm__n_components": 2,
          "pca__n_components": 0.9
        },
        {
          "gmm__n_components": 4,
          "pca__n_components": 0.5
        },
        {
          "gmm__n_components": 4,
          "pca__n_components": 0.75
        },
        {
          "gmm__n_components": 4,
          "pca__n_components": 0.9
        },
        {
          "gmm__n_components": 8,
          "pca__n_components": 0.5
        },
        {
          "gmm__n_components": 8,
          "pca__n_components": 0.75
        },
        {
          "gmm__n_components": 8,
          "pca__n_components": 0.9
        }
      ],
      "rank_test_score": [
        3,
        5,
        9,
        1,
        6,
        10,
        2,
        7,
        11,
        4,
        8,
        12
      ],
      "split0_test_score": [
        -27.062172173268266,
        -64.03523524865453,
        -122.38377926461334,
        -26.919572092042923,
        -63.95578815644392,
        -124.36771578991568,
        -26.990575860998895,
        -64.96614957611075,
        -130.37243924582398,
        -27.51451607945023,
        -67.31565218172538,
        -147.64458289848682
      ],
      "split0_train_score": [
        -27.057231917210963,
        -63.64655318260421,
        -118.82445442778064,
        -26.747026014077484,
        -62.73008224722153,
        -115.87781479075115,
        -26.414208638124727,
        -61.23314369770943,
        -110.70836991634967,
        -26.008923707556118,
        -59.1006413232637,
        -102.17607955808451
      ],
      "split1_test_score": [
        -26.845163883977463,
        -66.2784047633297,
        -120.34078318244333,
        -26.794891313043298,
        -66.51136444515711,
        -121.97756325716426,
        -26.845720392982695,
        -67.29505925910091,
        -127.32438389468447,
        -27.193202691434376,
        -69.8306511973959,
        -142.89739194634836
      ],
      "split1_train_score": [
        -27.05013889748096,
        -66.16192258992423,
        -118.99009653234744,
        -26.693835858064396,
        -64.98475615857143,
        -115.9608636651262,
        -26.33855883262008,
        -63.41801152861555,
        -110.52710655831241,
        -25.940822430484992,
        -61.203744313987,
        -101.98480612892061
      ],
      "split2_test_score": [
        -27.15332546158389,
        -64.16622908166835,
        -122.41854208444045,
        -26.968831991063222,
        -64.20586607428999,
        -124.06115977933676,
        -27.026781592208053,
        -65.14539386321263,
        -129.62732748030757,
        -27.359742920852753,
        -68.42756832676045,
        -144.98876053386186
      ],
      "split2_train_score": [
        -27.023106834058275,
        -63.570272580323056,
        -118.80559245664931,
        -26.73685048960458,
        -62.51862231072829,
        -115.65483461342113,
        -26.4320519525667,
        -61.116683659754806,
        -110.58729115092471,
        -26.060527757250174,
        -58.967865973583585,
        -102.44376342284913
      ],
      "split3_test_score": [
        -26.980441917255547,
        -63.45878192648215,
        -121.56329559601843,
        -26.90745981609741,
        -63.568184021351755,
        -123.80877361862005,
        -26.93145498589006,
        -64.4327286263908,
        -129.16066106880717,
        -27.285940547848668,
        -66.89743350893009,
        -146.66203921448334
      ],
      "split3_train_score": [
        -26.999588377569953,
        -63.52929916661472,
        -118.48518295040034,
        -26.708219437947754,
        -62.44013222768824,
        -115.22150025345547,
        -26.415208983591803,
        -61.02077203118456,
        -109.90291231852005,
        -25.98995608726243,
        -58.73949295581585,
        -102.83655419259323
      ],
      "std_fit_time": [
        0.10613937749085281,
        0.010549489914911753,
        0.009296833782896105,
        0.035992491366312294,
        0.02209405513070804,
        0.026033716127615864,
        0.0486754169380692,
        0.03509764742194218,
        0.04645345933521697,
        0.031970985818456824,
        0.39659748087454383,
        0.018743664305716525
      ],
      "std_score_time": [
        0.002070091115053853,
        0.00011123357420970554,
        0.00034341079916605857,
        0.001043489163555606,
        0.0006172349658046087,
        0.0003569419312635072,
        0.0015325435548713573,
        0.00022271505028529737,
        0.000637178057467131,
        0.0009228875622074716,
        0.0015250172209977347,
        0.0015741908154279943
      ],
      "std_test_score": [
        0.11311726342085626,
        1.0678938310045962,
        0.8433809475340069,
        0.06355804473794893,
        1.1478337471083535,
        0.9309709601258626,
        0.0684030864603284,
        1.0901577420313013,
        1.124230872579641,
        0.11781326012349416,
        1.1351720049247271,
        1.8020396450856426
      ],
      "std_train_score": [
        0.022881235766407593,
        1.117913379126657,
        0.1827805971312763,
        0.0213827725074452,
        1.0540229054474928,
        0.28673340725908164,
        0.03617852639986307,
        0.9963802710387697,
        0.3120390034441474,
        0.04285467783122638,
        0.9904210143595524,
        0.31965489881719167
      ]
    },
    "xval_grid": {
      "gmm__n_components": [
        1,
        2,
        4,
        8
      ],
      "pca__n_components": [
        0.5,
        0.75,
        0.9
      ]
    }
  },
  {
    "fold_id": 1,
    "test": {
      "accuracy": 0.8382716049382716,
      "confusion_matrix": [
        [
          348,
          57
        ],
        [
          74,
          331
        ]
      ],
      "f1_macro": 0.8382003351575378,
      "f1_micro": 0.8382716049382715,
      "f1_weighted": 0.8382003351575378,
      "per_class": {
        "y=0": {
          "accuracy": 0.8382716049382716,
          "confusion_matrix": [
            [
              331,
              74
            ],
            [
              57,
              348
            ]
          ],
          "f1": 0.8415961305925029,
          "precision": 0.8246445497630331,
          "recall": 0.8592592592592593
        },
        "y=1": {
          "accuracy": 0.8382716049382716,
          "confusion_matrix": [
            [
              348,
              57
            ],
            [
              74,
              331
            ]
          ],
          "f1": 0.8348045397225725,
          "precision": 0.8530927835051546,
          "recall": 0.817283950617284
        }
      },
      "precision_macro": 0.8388686666340939,
      "precision_micro": 0.8382716049382716,
      "precision_weighted": 0.8388686666340938,
      "recall_macro": 0.8382716049382717,
      "recall_micro": 0.8382716049382716,
      "recall_weighted": 0.8382716049382716
    },
    "train": {
      "accuracy": 0.8654205607476636,
      "confusion_matrix": [
        [
          1396,
          209
        ],
        [
          223,
          1382
        ]
      ],
      "f1_macro": 0.8654180007888272,
      "f1_micro": 0.8654205607476636,
      "f1_weighted": 0.8654180007888272,
      "per_class": {
        "y=0": {
          "accuracy": 0.8654205607476636,
          "confusion_matrix": [
            [
              1382,
              223
            ],
            [
              209,
              1396
            ]
          ],
          "f1": 0.8660049627791564,
          "precision": 0.862260654725139,
          "recall": 0.8697819314641745
        },
        "y=1": {
          "accuracy": 0.8654205607476636,
          "confusion_matrix": [
            [
              1396,
              209
            ],
            [
              223,
              1382
            ]
          ],
          "f1": 0.8648310387984981,
          "precision": 0.8686360779384035,
          "recall": 0.8610591900311526
        }
      },
      "precision_macro": 0.8654483663317712,
      "precision_micro": 0.8654205607476636,
      "precision_weighted": 0.8654483663317712,
      "recall_macro": 0.8654205607476635,
      "recall_micro": 0.8654205607476636,
      "recall_weighted": 0.8654205607476636
    },
    "xval": {
      "mean_fit_time": [
        0.3880155682563782,
        0.3905348777770996,
        0.4290180802345276,
        0.49481379985809326,
        0.5723339319229126,
        0.510695219039917,
        0.5132277011871338,
        0.562076210975647,
        0.5876954793930054,
        0.7678788900375366,
        0.5610634088516235,
        0.601261556148529
      ],
      "mean_score_time": [
        0.005375206470489502,
        0.0061359405517578125,
        0.007230103015899658,
        0.007082343101501465,
        0.009243309497833252,
        0.010513007640838623,
        0.007656276226043701,
        0.011026203632354736,
        0.015130996704101562,
        0.013610422611236572,
        0.01019829511642456,
        0.013158261775970459
      ],
      "mean_test_score": [
        -27.027129504020376,
        -65.20985048693232,
        -121.70868992122706,
        -26.89292780849429,
        -65.28536397722779,
        -123.7685080457051,
        -26.988942181512325,
        -66.2043566829487,
        -129.2713954523374,
        -27.30431305626267,
        -69.24972544692844,
        -145.03141982955088
      ],
      "mean_train_score": [
        -27.04411327637832,
        -64.91662137933606,
        -118.88829074258513,
        -26.715332072811044,
        -63.91122906500138,
        -115.7998711582533,
        -26.410692642814233,
        -62.400106227324116,
        -110.56790583372764,
        -25.984666349362726,
        -60.08684151621881,
        -101.6639465648306
      ],
      "param_gmm__n_components": [
        1,
        1,
        1,
        2,
        2,
        2,
        4,
        4,
        4,
        8,
        8,
        8
      ],
      "param_pca__n_components": [
        0.5,
        0.75,
        0.9,
        0.5,
        0.75,
        0.9,
        0.5,
        0.75,
        0.9,
        0.5,
        0.75,
        0.9
      ],
      "params": [
        {
          "gmm__n_components": 1,
          "pca__n_components": 0.5
        },
        {
          "gmm__n_components": 1,
          "pca__n_components": 0.75
        },
        {
          "gmm__n_components": 1,
          "pca__n_components": 0.9
        },
        {
          "gmm__n_components": 2,
          "pca__n_components": 0.5
        },
        {
          "gmm__n_components": 2,
          "pca__n_components": 0.75
        },
        {
          "gmm__n_components": 2,
          "pca__n_components": 0.9
        },
        {
          "gmm__n_components": 4,
          "pca__n_components": 0.5
        },
        {
          "gmm__n_components": 4,
          "pca__n_components": 0.75
        },
        {
          "gmm__n_components": 4,
          "pca__n_components": 0.9
        },
        {
          "gmm__n_components": 8,
          "pca__n_components": 0.5
        },
        {
          "gmm__n_components": 8,
          "pca__n_components": 0.75
        },
        {
          "gmm__n_components": 8,
          "pca__n_components": 0.9
        }
      ],
      "rank_test_score": [
        3,
        5,
        9,
        1,
        6,
        10,
        2,
        7,
        11,
        4,
        8,
        12
      ],
      "split0_test_score": [
        -27.29215106213317,
        -64.53879227745347,
        -123.45335113025078,
        -27.208983857168946,
        -64.66126541836393,
        -125.89786277008218,
        -27.202939667298207,
        -65.54231531137064,
        -131.70200200769054,
        -27.612207254389595,
        -68.77463666453181,
        -147.8058837318025
      ],
      "split0_train_score": [
        -27.057231917210963,
        -63.64655318260421,
        -118.82445442778064,
        -26.747070971400046,
        -62.730119675276704,
        -115.89394851454344,
        -26.459726848097333,
        -61.28733326947135,
        -110.71355004879617,
        -26.031361759156166,
        -59.045631398425506,
        -102.0634190006918
      ],
      "split1_test_score": [
        -26.771443420057604,
        -66.2795458936229,
        -120.3969438287263,
        -26.64440559369185,
        -66.42699445192049,
        -122.30800440452062,
        -26.78783193998462,
        -67.47126552064083,
        -127.19974739619403,
        -26.99356225331805,
        -70.59562093784622,
        -144.81246334541333
      ],
      "split1_train_score": [
        -27.07183320754196,
        -66.14567392740327,
        -119.07649204142751,
        -26.705295735191623,
        -65.04138011416704,
        -115.96603309425112,
        -26.38486134255539,
        -63.50713335905341,
        -110.66965140705048,
        -25.96687439093283,
        -60.93385425062106,
        -101.70923954240457
      ],
      "split2_test_score": [
        -27.109459770742983,
        -66.68500583029379,
        -122.06102934675,
        -26.857088282086952,
        -66.51811925142393,
        -123.95046758742588,
        -26.993241325747952,
        -67.40950500929078,
        -129.0122429699989,
        -27.37341703516021,
        -70.54815668296514,
        -145.29997464455303
      ],
      "split2_train_score": [
        -27.034651303356327,
        -66.22706849275708,
        -118.94383903907898,
        -26.72082747400773,
        -65.19842074563951,
        -115.8039598574718,
        -26.432892907601957,
        -63.56358037193812,
        -110.60540014820954,
        -26.03012525080067,
        -61.36876071096947,
        -101.52393926698676
      ],
      "split3_test_score": [
        -26.93215099367134,
        -63.34444617397764,
        -120.90162711406839,
        -26.857282800420972,
        -63.54287801918863,
        -122.89108048673695,
        -26.969080824446202,
        -64.40261640763731,
        -129.1412068535242,
        -27.23421700470624,
        -67.08642611215053,
        -142.1726767976565
      ],
      "split3_train_score": [
        -27.01273667740403,
        -63.6471899145797,
        -118.70837746205333,
        -26.688134110644782,
        -62.67499572492227,
        -115.53554316674686,
        -26.36528947300225,
        -61.242377908833596,
        -110.28302173085437,
        -25.910303996561236,
        -58.999119704859204,
        -101.35918844923926
      ],
      "std_fit_time": [
        0.038179776249202636,
        0.012227598623625786,
        0.030251681265026836,
        0.022097900100866635,
        0.10714139803603552,
        0.0388073322274793,
        0.09977771770478874,
        0.0509490177084089,
        0.07269822637165167,
        0.12189835151846516,
        0.029744607615248657,
        0.03135859574187548
      ],
      "std_score_time": [
        0.000893720167114084,
        0.0013282098753224798,
        0.0008172914711476191,
        0.0007850273859132073,
        0.00115364296310224,
        0.0021324754844194434,
        0.0014421489470066062,
        0.0006176531911615267,
        0.0040282957875975465,
        0.007729731096515532,
        0.0004375496508792932,
        0.0014033356590906147
      ],
      "std_test_score": [
        0.1948169172461852,
        1.344749838153726,
        1.1790552239879444,
        0.2030658461608761,
        1.2484138990927336,
        1.3696203370034565,
        0.14743974606657825,
        1.2967715506121062,
        1.6066474898596748,
        0.22450427249559998,
        1.4473740817796683,
        2.0022632628508146
      ],
      "std_train_score": [
        0.02244166447523052,
        1.270075910235995,
        0.13688426290927294,
        0.02166803138706828,
        1.2101028962709335,
        0.1630539347088955,
        0.037503029699040846,
        1.1355372815030529,
        0.16891504873907362,
        0.05023267441284188,
        1.0756398842563806,
        0.2617772112401663
      ]
    },
    "xval_grid": {
      "gmm__n_components": [
        1,
        2,
        4,
        8
      ],
      "pca__n_components": [
        0.5,
        0.75,
        0.9
      ]
    }
  },
  {
    "fold_id": 2,
    "test": {
      "accuracy": 0.8625,
      "confusion_matrix": [
        [
          354,
          46
        ],
        [
          64,
          336
        ]
      ],
      "f1_macro": 0.8624303553674049,
      "f1_micro": 0.8625,
      "f1_weighted": 0.8624303553674048,
      "per_class": {
        "y=0": {
          "accuracy": 0.8625,
          "confusion_matrix": [
            [
              336,
              64
            ],
            [
              46,
              354
            ]
          ],
          "f1": 0.8655256723716381,
          "precision": 0.84688995215311,
          "recall": 0.885
        },
        "y=1": {
          "accuracy": 0.8625,
          "confusion_matrix": [
            [
              354,
              46
            ],
            [
              64,
              336
            ]
          ],
          "f1": 0.8593350383631715,
          "precision": 0.8795811518324608,
          "recall": 0.84
        }
      },
      "precision_macro": 0.8632355519927855,
      "precision_micro": 0.8625,
      "precision_weighted": 0.8632355519927853,
      "recall_macro": 0.8625,
      "recall_micro": 0.8625,
      "recall_weighted": 0.8625
    },
    "train": {
      "accuracy": 0.8596273291925466,
      "confusion_matrix": [
        [
          1375,
          235
        ],
        [
          217,
          1393
        ]
      ],
      "f1_macro": 0.8596229425787388,
      "f1_micro": 0.8596273291925466,
      "f1_weighted": 0.8596229425787388,
      "per_class": {
        "y=0": {
          "accuracy": 0.8596273291925466,
          "confusion_matrix": [
            [
              1393,
              217
            ],
            [
              235,
              1375
            ]
          ],
          "f1": 0.8588382261086821,
          "precision": 0.8636934673366834,
          "recall": 0.8540372670807453
        },
        "y=1": {
          "accuracy": 0.8596273291925466,
          "confusion_matrix": [
            [
              1375,
              235
            ],
            [
              217,
              1393
            ]
          ],
          "f1": 0.8604076590487956,
          "precision": 0.8556511056511057,
          "recall": 0.8652173913043478
        }
      },
      "precision_macro": 0.8596722864938946,
      "precision_micro": 0.8596273291925466,
      "precision_weighted": 0.8596722864938945,
      "recall_macro": 0.8596273291925466,
      "recall_micro": 0.8596273291925466,
      "recall_weighted": 0.8596273291925466
    },
    "xval": {
      "mean_fit_time": [
        0.527388334274292,
        0.5532780885696411,
        0.3982470631599426,
        0.5137444734573364,
        0.4785885214805603,
        0.5279108285903931,
        0.5132237672805786,
        0.4886626601219177,
        0.5066375136375427,
        0.5320677757263184,
        0.5818802714347839,
        0.5604419708251953
      ],
      "mean_score_time": [
        0.00618976354598999,
        0.008542835712432861,
        0.008012712001800537,
        0.008438467979431152,
        0.00845789909362793,
        0.010611176490783691,
        0.007638812065124512,
        0.009724438190460205,
        0.01098644733428955,
        0.008966922760009766,
        0.009815752506256104,
        0.012764453887939453
      ],
      "mean_test_score": [
        -27.037567231440235,
        -66.45087315352912,
        -122.29172088372843,
        -26.877154028822794,
        -66.58194548537705,
        -124.36572158572896,
        -27.01779758361663,
        -67.64120058743482,
        -129.9701991235774,
        -27.32964381522093,
        -70.54354436094707,
        -147.15342996566523
      ],
      "mean_train_score": [
        -27.058151237282537,
        -66.14916417852444,
        -119.46071122162752,
        -26.69659572695209,
        -64.98631004052872,
        -116.3101418499329,
        -26.376760144562425,
        -63.406012075894076,
        -110.8327429042076,
        -25.973869070205435,
        -61.134689798160274,
        -102.6738746584869
      ],
      "param_gmm__n_components": [
        1,
        1,
        1,
        2,
        2,
        2,
        4,
        4,
        4,
        8,
        8,
        8
      ],
      "param_pca__n_components": [
        0.5,
        0.75,
        0.9,
        0.5,
        0.75,
        0.9,
        0.5,
        0.75,
        0.9,
        0.5,
        0.75,
        0.9
      ],
      "params": [
        {
          "gmm__n_components": 1,
          "pca__n_components": 0.5
        },
        {
          "gmm__n_components": 1,
          "pca__n_components": 0.75
        },
        {
          "gmm__n_components": 1,
          "pca__n_components": 0.9
        },
        {
          "gmm__n_components": 2,
          "pca__n_components": 0.5
        },
        {
          "gmm__n_components": 2,
          "pca__n_components": 0.75
        },
        {
          "gmm__n_components": 2,
          "pca__n_components": 0.9
        },
        {
          "gmm__n_components": 4,
          "pca__n_components": 0.5
        },
        {
          "gmm__n_components": 4,
          "pca__n_components": 0.75
        },
        {
          "gmm__n_components": 4,
          "pca__n_components": 0.9
        },
        {
          "gmm__n_components": 8,
          "pca__n_components": 0.5
        },
        {
          "gmm__n_components": 8,
          "pca__n_components": 0.75
        },
        {
          "gmm__n_components": 8,
          "pca__n_components": 0.9
        }
      ],
      "rank_test_score": [
        3,
        5,
        9,
        1,
        6,
        10,
        2,
        7,
        11,
        4,
        8,
        12
      ],
      "split0_test_score": [
        -27.28678063525693,
        -66.95099702814937,
        -122.76715038874514,
        -27.224839877555425,
        -67.3724250293007,
        -125.25508812073645,
        -27.35807765513912,
        -68.46360801485508,
        -129.82086841739044,
        -27.72387227972464,
        -70.75847172788362,
        -145.80685565189933
      ],
      "split0_train_score": [
        -27.05013889748096,
        -66.16192258992423,
        -118.99009653234744,
        -26.694066114804055,
        -64.98482213874345,
        -115.94510138959808,
        -26.33577100573816,
        -63.485306549556306,
        -110.49503540613756,
        -25.960925683309835,
        -61.18633998084736,
        -101.47784595240368
      ],
      "split1_test_score": [
        -26.968437155975682,
        -66.42496990651944,
        -121.77710129466274,
        -26.841308667060463,
        -66.53649186105145,
        -123.97623118144251,
        -27.01342135486237,
        -67.74000068364353,
        -130.17948924532243,
        -27.45614802095249,
        -71.19865600643476,
        -148.82035342757803
      ],
      "split1_train_score": [
        -27.07183320754196,
        -66.14567392740327,
        -119.07649204142751,
        -26.705254001896478,
        -65.06237145979189,
        -115.98618922020518,
        -26.32524315224247,
        -63.4863390695266,
        -110.48625969546606,
        -25.949181826825264,
        -61.05522452891234,
        -102.64071120918987
      ],
      "split2_test_score": [
        -27.047745127286234,
        -66.62485230893873,
        -123.8684446472085,
        -26.78826743143642,
        -66.45390652685649,
        -125.81933201489494,
        -26.9220778444619,
        -67.34017897897581,
        -131.26078313883164,
        -27.13115350660351,
        -70.11580980128196,
        -150.07012257135244
      ],
      "split2_train_score": [
        -27.065766368234232,
        -66.12894759360313,
        -120.93069394124731,
        -26.71553103191393,
        -64.92382529392664,
        -117.8147797088953,
        -26.447908806007906,
        -63.30586543643134,
        -112.26485924037851,
        -26.00305358957929,
        -61.10691205013875,
        -104.10878391731973
      ],
      "split3_test_score": [
        -26.84505496563769,
        -65.79674561266381,
        -120.75467708034797,
        -26.65030213315175,
        -65.95564570030459,
        -122.40598657420793,
        -26.773414681968532,
        -67.00949957821946,
        -128.61890620007057,
        -27.000892295225125,
        -70.09036442053268,
        -143.9123838474792
      ],
      "split3_train_score": [
        -27.044866475872993,
        -66.16011260316716,
        -118.84556237148787,
        -26.671531759193893,
        -64.97422126965292,
        -115.49449708103303,
        -26.39811761426116,
        -63.34653724806204,
        -110.08481727484835,
        -25.982315181107353,
        -61.190282632742644,
        -102.46815755503427
      ],
      "std_fit_time": [
        0.15277833430294321,
        0.08937810184616275,
        0.025550388211379733,
        0.16641020654222977,
        0.021118799223271572,
        0.03105934911783484,
        0.07391572827351123,
        0.021359804894315517,
        0.027206359784372993,
        0.04116481725824926,
        0.06274607967916095,
        0.016235675212250087
      ],
      "std_score_time": [
        0.0003734377221108575,
        0.00317204371248486,
        0.0005850465086244182,
        0.0022328993633803553,
        0.00041033780369483983,
        0.0012664937929576193,
        0.00111470308117977,
        0.00032144414675727224,
        0.0005675151889208338,
        0.0006974684619155619,
        0.00031217175186589775,
        0.0007741034919203508
      ],
      "std_test_score": [
        0.16142758207417507,
        0.42061220990375653,
        1.1524280440985362,
        0.21326219733876978,
        0.5091475975518239,
        1.3100664862831959,
        0.21505022987761582,
        0.5424471929385679,
        0.9402692829046728,
        0.28241993457212083,
        0.464821081200459,
        2.424551984447135
      ],
      "std_train_score": [
        0.01102121822208939,
        0.013262138047588148,
        0.8526957059831906,
        0.01634099841207601,
        0.04959343527944054,
        0.8898611295654008,
        0.04962958678214308,
        0.08109661522027152,
        0.843274409011176,
        0.02061591745770433,
        0.05666709126624002,
        0.9397963327074492
      ]
    },
    "xval_grid": {
      "gmm__n_components": [
        1,
        2,
        4,
        8
      ],
      "pca__n_components": [
        0.5,
        0.75,
        0.9
      ]
    }
  },
  {
    "fold_id": 3,
    "test": {
      "accuracy": 0.8375,
      "confusion_matrix": [
        [
          329,
          71
        ],
        [
          59,
          341
        ]
      ],
      "f1_macro": 0.8374634292715861,
      "f1_micro": 0.8375,
      "f1_weighted": 0.8374634292715862,
      "per_class": {
        "y=0": {
          "accuracy": 0.8375,
          "confusion_matrix": [
            [
              341,
              59
            ],
            [
              71,
              329
            ]
          ],
          "f1": 0.83502538071066,
          "precision": 0.8479381443298969,
          "recall": 0.8225
        },
        "y=1": {
          "accuracy": 0.8375,
          "confusion_matrix": [
            [
              329,
              71
            ],
            [
              59,
              341
            ]
          ],
          "f1": 0.8399014778325123,
          "precision": 0.8276699029126213,
          "recall": 0.8525
        }
      },
      "precision_macro": 0.8378040236212592,
      "precision_micro": 0.8375,
      "precision_weighted": 0.8378040236212592,
      "recall_macro": 0.8375,
      "recall_micro": 0.8375,
      "recall_weighted": 0.8375
    },
    "train": {
      "accuracy": 0.8711180124223602,
      "confusion_matrix": [
        [
          1413,
          197
        ],
        [
          218,
          1392
        ]
      ],
      "f1_macro": 0.8711125304411409,
      "f1_micro": 0.8711180124223602,
      "f1_weighted": 0.8711125304411409,
      "per_class": {
        "y=0": {
          "accuracy": 0.8711180124223602,
          "confusion_matrix": [
            [
              1392,
              218
            ],
            [
              197,
              1413
            ]
          ],
          "f1": 0.8719531008947856,
          "precision": 0.8663396689147762,
          "recall": 0.877639751552795
        },
        "y=1": {
          "accuracy": 0.8711180124223602,
          "confusion_matrix": [
            [
              1413,
              197
            ],
            [
              218,
              1392
            ]
          ],
          "f1": 0.8702719599874962,
          "precision": 0.8760226557583386,
          "recall": 0.8645962732919255
        }
      },
      "precision_macro": 0.8711811623365574,
      "precision_micro": 0.8711180124223602,
      "precision_weighted": 0.8711811623365574,
      "recall_macro": 0.8711180124223603,
      "recall_micro": 0.8711180124223602,
      "recall_weighted": 0.8711180124223602
    },
    "xval": {
      "mean_fit_time": [
        0.39691638946533203,
        0.3689870238304138,
        0.37242454290390015,
        0.42456477880477905,
        0.45750606060028076,
        0.6910256743431091,
        0.6194536685943604,
        0.8338559865951538,
        0.5074639916419983,
        0.9505854845046997,
        0.5814653038978577,
        0.5829879641532898
      ],
      "mean_score_time": [
        0.005515873432159424,
        0.00592273473739624,
        0.007938981056213379,
        0.007453024387359619,
        0.008943378925323486,
        0.0106925368309021,
        0.008668124675750732,
        0.01406550407409668,
        0.011848270893096924,
        0.010456264019012451,
        0.010147452354431152,
        0.013866245746612549
      ],
      "mean_test_score": [
        -27.02186886047552,
        -65.18005941654775,
        -122.10982325426167,
        -26.952134250205717,
        -65.37431237026648,
        -124.06906624759922,
        -27.05966986339839,
        -66.27336855410869,
        -129.94026121048427,
        -27.40329967211178,
        -69.08431981834602,
        -147.5931132028279
      ],
      "mean_train_score": [
        -27.03216214705148,
        -64.86585474979753,
        -119.31481373481347,
        -26.72826694415727,
        -63.81073013712542,
        -116.15394581819059,
        -26.405663898511758,
        -62.25470426928165,
        -110.85898216399971,
        -26.018563286294192,
        -60.15887042473948,
        -102.35931210040488
      ],
      "param_gmm__n_components": [
        1,
        1,
        1,
        2,
        2,
        2,
        4,
        4,
        4,
        8,
        8,
        8
      ],
      "param_pca__n_components": [
        0.5,
        0.75,
        0.9,
        0.5,
        0.75,
        0.9,
        0.5,
        0.75,
        0.9,
        0.5,
        0.75,
        0.9
      ],
      "params": [
        {
          "gmm__n_components": 1,
          "pca__n_components": 0.5
        },
        {
          "gmm__n_components": 1,
          "pca__n_components": 0.75
        },
        {
          "gmm__n_components": 1,
          "pca__n_components": 0.9
        },
        {
          "gmm__n_components": 2,
          "pca__n_components": 0.5
        },
        {
          "gmm__n_components": 2,
          "pca__n_components": 0.75
        },
        {
          "gmm__n_components": 2,
          "pca__n_components": 0.9
        },
        {
          "gmm__n_components": 4,
          "pca__n_components": 0.5
        },
        {
          "gmm__n_components": 4,
          "pca__n_components": 0.75
        },
        {
          "gmm__n_components": 4,
          "pca__n_components": 0.9
        },
        {
          "gmm__n_components": 8,
          "pca__n_components": 0.5
        },
        {
          "gmm__n_components": 8,
          "pca__n_components": 0.75
        },
        {
          "gmm__n_components": 8,
          "pca__n_components": 0.9
        }
      ],
      "rank_test_score": [
        2,
        5,
        9,
        1,
        6,
        10,
        3,
        7,
        11,
        4,
        8,
        12
      ],
      "split0_test_score": [
        -27.33788692472386,
        -64.56173528354066,
        -123.26033373301782,
        -27.307542246590604,
        -64.84279283119946,
        -125.51631020265725,
        -27.344963084627185,
        -65.7464822602668,
        -131.81979419203344,
        -27.748468149043788,
        -68.02911220754059,
        -151.34294432725065
      ],
      "split0_train_score": [
        -27.023106834058275,
        -63.570272580323056,
        -118.80559245664931,
        -26.734908962676187,
        -62.52279153125466,
        -115.7505423706765,
        -26.424877526073296,
        -61.12267624879204,
        -110.33009135567286,
        -26.021395096774736,
        -59.08910549125234,
        -103.10357059941288
      ],
      "split1_test_score": [
        -27.03034856393767,
        -66.49122642123255,
        -121.74869928383544,
        -26.95095445464859,
        -66.62013426137054,
        -123.94914861136348,
        -27.13930463432508,
        -67.62844437267341,
        -129.56904405734358,
        -27.626941000018714,
        -70.81838340107672,
        -147.04042695867977
      ],
      "split1_train_score": [
        -27.034651303356327,
        -66.22706849275708,
        -118.94383903907898,
        -26.76302344838691,
        -65.17591570453571,
        -115.76257819780079,
        -26.43356727026885,
        -63.57284013039589,
        -110.63915923368353,
        -26.002281968645473,
        -61.37510456545291,
        -101.71165968547182
      ],
      "split2_test_score": [
        -26.79042756693434,
        -66.30322068854757,
        -122.16721156558202,
        -26.6773183122778,
        -66.46413302728182,
        -123.59488559629075,
        -26.788123292105023,
        -67.28543338397287,
        -129.21497170211444,
        -27.024702889663327,
        -70.30462924387948,
        -144.3374704415785
      ],
      "split2_train_score": [
        -27.065766368234232,
        -66.12894759360313,
        -120.93069394124731,
        -26.7159309764887,
        -65.036261568188,
        -117.83401508992377,
        -26.390816597614776,
        -63.36716505047903,
        -112.25886508702945,
        -26.03929256856798,
        -61.29488496157653,
        -102.81159102043968
      ],
      "split3_test_score": [
        -26.92475616420983,
        -63.35539473697422,
        -121.2531811032573,
        -26.86829413479553,
        -63.56126058181364,
        -123.19932900110012,
        -26.961726842634334,
        -64.42276183046259,
        -129.13838094259052,
        -27.2059765271608,
        -67.1766687212382,
        -147.6116467727994
      ],
      "split3_train_score": [
        -27.005124082557085,
        -63.537130332506905,
        -118.57912950227828,
        -26.699204389077284,
        -62.5079517445233,
        -115.26864761436134,
        -26.373394200090114,
        -60.95613564745966,
        -110.20781297961297,
        -26.011283511188584,
        -58.87638668067617,
        -101.81042709629514
      ],
      "std_fit_time": [
        0.023259412662891,
        0.00932810734081806,
        0.008903321665959458,
        0.006156531239926528,
        0.023702659172986862,
        0.23863661159936844,
        0.17850854569749375,
        0.04817050634362988,
        0.013569959396390096,
        0.24672675570806696,
        0.060834430869471955,
        0.022561142167290486
      ],
      "std_score_time": [
        0.0013340487987786574,
        0.0012757315599559271,
        0.000735399788364187,
        0.0008037427548692903,
        0.0010035459901857973,
        0.0013371886025204383,
        0.0029008356205047193,
        0.0015117432227830753,
        0.0011179419129091997,
        0.0012171745801746279,
        8.361807283362577e-05,
        0.0029708820789531676
      ],
      "std_test_score": [
        0.2019682724993263,
        1.2919862535114655,
        0.7408891985028933,
        0.22865969368409983,
        1.254297791411052,
        0.8799416502771469,
        0.20681612951891357,
        1.279487776165161,
        1.1017077447849648,
        0.29637274132286473,
        1.5200713376797295,
        2.499482307769322
      ],
      "std_train_score": [
        0.022070881299900952,
        1.3126640965094012,
        0.9419698331894729,
        0.023711490897705356,
        1.2963097927107288,
        0.9902384338230323,
        0.024543519611280484,
        1.2188948932139256,
        0.8233682518640427,
        0.013745896880076755,
        1.1788676854981877,
        0.6081129280731201
      ]
    },
    "xval_grid": {
      "gmm__n_components": [
        1,
        2,
        4,
        8
      ],
      "pca__n_components": [
        0.5,
        0.75,
        0.9
      ]
    }
  },
  {
    "fold_id": 4,
    "test": {
      "accuracy": 0.81375,
      "confusion_matrix": [
        [
          330,
          70
        ],
        [
          79,
          321
        ]
      ],
      "f1_macro": 0.8137264247506326,
      "f1_micro": 0.81375,
      "f1_weighted": 0.8137264247506326,
      "per_class": {
        "y=0": {
          "accuracy": 0.81375,
          "confusion_matrix": [
            [
              321,
              79
            ],
            [
              70,
              330
            ]
          ],
          "f1": 0.815822002472188,
          "precision": 0.8068459657701712,
          "recall": 0.825
        },
        "y=1": {
          "accuracy": 0.81375,
          "confusion_matrix": [
            [
              330,
              70
            ],
            [
              79,
              321
            ]
          ],
          "f1": 0.8116308470290772,
          "precision": 0.8209718670076727,
          "recall": 0.8025
        }
      },
      "precision_macro": 0.8139089163889219,
      "precision_micro": 0.81375,
      "precision_weighted": 0.8139089163889218,
      "recall_macro": 0.81375,
      "recall_micro": 0.81375,
      "recall_weighted": 0.81375
    },
    "train": {
      "accuracy": 0.8726708074534162,
      "confusion_matrix": [
        [
          1432,
          178
        ],
        [
          232,
          1378
        ]
      ],
      "f1_macro": 0.8726349874255751,
      "f1_micro": 0.8726708074534162,
      "f1_weighted": 0.8726349874255751,
      "per_class": {
        "y=0": {
          "accuracy": 0.8726708074534162,
          "confusion_matrix": [
            [
              1378,
              232
            ],
            [
              178,
              1432
            ]
          ],
          "f1": 0.8747709224190593,
          "precision": 0.8605769230769231,
          "recall": 0.8894409937888199
        },
        "y=1": {
          "accuracy": 0.8726708074534162,
          "confusion_matrix": [
            [
              1432,
              178
            ],
            [
              232,
              1378
            ]
          ],
          "f1": 0.8704990524320909,
          "precision": 0.8856041131105399,
          "recall": 0.8559006211180125
        }
      },
      "precision_macro": 0.8730905180937315,
      "precision_micro": 0.8726708074534162,
      "precision_weighted": 0.8730905180937314,
      "recall_macro": 0.8726708074534162,
      "recall_micro": 0.8726708074534162,
      "recall_weighted": 0.8726708074534162
    },
    "xval": {
      "mean_fit_time": [
        0.4144662618637085,
        0.40686553716659546,
        0.42081332206726074,
        0.6929187774658203,
        0.484679639339447,
        0.48366647958755493,
        0.5018337368965149,
        0.6334197521209717,
        0.7043666243553162,
        0.6893073916435242,
        0.9073794484138489,
        0.6867237091064453
      ],
      "mean_score_time": [
        0.005642533302307129,
        0.006679654121398926,
        0.008617222309112549,
        0.007923722267150879,
        0.009271740913391113,
        0.010034382343292236,
        0.007516264915466309,
        0.012346029281616211,
        0.018665075302124023,
        0.01563948392868042,
        0.04035705327987671,
        0.014931738376617432
      ],
      "mean_test_score": [
        -26.990607123554536,
        -64.4512707638901,
        -121.60267555228091,
        -26.922877205855862,
        -64.4955355822841,
        -123.50025971172452,
        -27.020276850161853,
        -65.41268259864454,
        -128.804973959806,
        -27.24585989340202,
        -67.96382315272908,
        -145.85606290046832
      ],
      "mean_train_score": [
        -27.015578903351017,
        -64.21843300421713,
        -118.65456307155495,
        -26.70018805253065,
        -63.15378309456082,
        -115.38462004487315,
        -26.38212520409497,
        -61.67691022684677,
        -110.31780057308674,
        -25.97212858349685,
        -59.46104622851969,
        -102.32248524114712
      ],
      "param_gmm__n_components": [
        1,
        1,
        1,
        2,
        2,
        2,
        4,
        4,
        4,
        8,
        8,
        8
      ],
      "param_pca__n_components": [
        0.5,
        0.75,
        0.9,
        0.5,
        0.75,
        0.9,
        0.5,
        0.75,
        0.9,
        0.5,
        0.75,
        0.9
      ],
      "params": [
        {
          "gmm__n_components": 1,
          "pca__n_components": 0.5
        },
        {
          "gmm__n_components": 1,
          "pca__n_components": 0.75
        },
        {
          "gmm__n_components": 1,
          "pca__n_components": 0.9
        },
        {
          "gmm__n_components": 2,
          "pca__n_components": 0.5
        },
        {
          "gmm__n_components": 2,
          "pca__n_components": 0.75
        },
        {
          "gmm__n_components": 2,
          "pca__n_components": 0.9
        },
        {
          "gmm__n_components": 4,
          "pca__n_components": 0.5
        },
        {
          "gmm__n_components": 4,
          "pca__n_components": 0.75
        },
        {
          "gmm__n_components": 4,
          "pca__n_components": 0.9
        },
        {
          "gmm__n_components": 8,
          "pca__n_components": 0.5
        },
        {
          "gmm__n_components": 8,
          "pca__n_components": 0.75
        },
        {
          "gmm__n_components": 8,
          "pca__n_components": 0.9
        }
      ],
      "rank_test_score": [
        2,
        5,
        9,
        1,
        6,
        10,
        3,
        7,
        11,
        4,
        8,
        12
      ],
      "split0_test_score": [
        -27.25669458175207,
        -64.32484979141825,
        -123.16664400364898,
        -27.242401602931896,
        -64.53570670563273,
        -125.64226522847632,
        -27.32111415555838,
        -65.22202047501503,
        -130.70713293658233,
        -27.491178905631916,
        -67.94697833747139,
        -149.75703864161216
      ],
      "split0_train_score": [
        -26.999588377569953,
        -63.52929916661472,
        -118.48518295040034,
        -26.708219437947754,
        -62.439815735369805,
        -115.24252374575727,
        -26.401085485359044,
        -61.01914010689509,
        -110.46233649818551,
        -25.991250630083652,
        -58.88888627313079,
        -102.31544234668958
      ],
      "split1_test_score": [
        -26.96869047590816,
        -63.58711246932734,
        -121.38509408532062,
        -26.913935887304962,
        -63.49825714192423,
        -123.07860425420216,
        -27.177155263468645,
        -64.80506874863936,
        -128.083279261806,
        -27.409115457718908,
        -67.05507976552082,
        -144.94557418316734
      ],
      "split1_train_score": [
        -27.01273667740403,
        -63.6471899145797,
        -118.70837746205333,
        -26.68795523305085,
        -62.699306517061984,
        -115.5789280832051,
        -26.36532678983743,
        -61.19685168782835,
        -110.48366650698482,
        -25.905063885590724,
        -58.94163878820567,
        -102.12107355396122
      ],
      "split2_test_score": [
        -26.698042844066926,
        -65.99021839198382,
        -119.83010663256026,
        -26.63143246880741,
        -66.12844340764697,
        -121.49084777571456,
        -26.666894548483334,
        -66.78196394903864,
        -126.4544359477689,
        -26.966115384455883,
        -69.66930726930217,
        -143.21205057201757
      ],
      "split2_train_score": [
        -27.044866475872993,
        -66.16011260316716,
        -118.84556237148787,
        -26.70671181850016,
        -64.97423334393926,
        -115.53263925794649,
        -26.361811289876083,
        -63.40160768614843,
        -110.05891597828557,
        -25.935866210389605,
        -61.13702935666953,
        -102.73372892304728
      ],
      "split3_test_score": [
        -27.03594845735909,
        -63.91528464366892,
        -122.01202765028866,
        -26.899856575897612,
        -63.83169891539514,
        -123.76781721276464,
        -26.910221986653266,
        -64.85165567155558,
        -129.96029188958218,
        -27.111922643594536,
        -67.19549709115279,
        -145.47220711727815
      ],
      "split3_train_score": [
        -27.005124082557085,
        -63.537130332506905,
        -118.57912950227828,
        -26.697865720623835,
        -62.50177678187226,
        -115.18438909258371,
        -26.400277251307315,
        -61.09004142651523,
        -110.26628330889103,
        -26.05633360792342,
        -58.876630496072764,
        -102.11969614089035
      ],
      "std_fit_time": [
        0.04195152622942957,
        0.02597630140967732,
        0.011750124737365473,
        0.32682248273146,
        0.040245153789921245,
        0.027683554561043457,
        0.018929164223872585,
        0.09071592643240028,
        0.13762504102024195,
        0.09648020062540125,
        0.24272772262094042,
        0.08452166898238231
      ],
      "std_score_time": [
        0.0012766040554524289,
        0.0014999472606974393,
        0.0010270452300114366,
        0.0011408431713893585,
        0.0009361216778554898,
        0.0021958975737422087,
        0.0012019583003321972,
        0.003960066383699334,
        0.010451352562772798,
        0.008726850648056112,
        0.03559405348609392,
        0.001759234873008119
      ],
      "std_test_score": [
        0.19926798022665676,
        0.9228536812863494,
        1.2039351073686286,
        0.21665037180608354,
        1.011203982994913,
        1.4899146722475736,
        0.2509826496749593,
        0.8037642184652475,
        1.6569506246984345,
        0.21387602880173875,
        1.037846017016165,
        2.4103983027258757
      ],
      "std_train_score": [
        0.017541667146766967,
        1.1219978953907845,
        0.13579080419504383,
        0.008094716981676955,
        1.0553968082826726,
        0.173168338385243,
        0.01859993895199824,
        0.9977617509343023,
        0.17181196379153504,
        0.05759507837688056,
        0.9679375364374747,
        0.25043015752059394
      ]
    },
    "xval_grid": {
      "gmm__n_components": [
        1,
        2,
        4,
        8
      ],
      "pca__n_components": [
        0.5,
        0.75,
        0.9
      ]
    }
  }
]