{
  "fold_id": 0,
  "test": {
    "accuracy": 0.854320987654321,
    "confusion_matrix": [
      [
        327,
        78
      ],
      [
        40,
        365
      ]
    ],
    "f1_macro": 0.8539996578355655,
    "f1_micro": 0.854320987654321,
    "f1_weighted": 0.8539996578355655,
    "per_class": {
      "y=0": {
        "accuracy": 0.854320987654321,
        "confusion_matrix": [
          [
            365,
            40
          ],
          [
            78,
            327
          ]
        ],
        "f1": 0.8471502590673574,
        "precision": 0.8910081743869209,
        "recall": 0.8074074074074075
      },
      "y=1": {
        "accuracy": 0.854320987654321,
        "confusion_matrix": [
          [
            327,
            78
          ],
          [
            40,
            365
          ]
        ],
        "f1": 0.8608490566037735,
        "precision": 0.8239277652370203,
        "recall": 0.9012345679012346
      }
    },
    "precision_macro": 0.8574679698119706,
    "precision_micro": 0.854320987654321,
    "precision_weighted": 0.8574679698119706,
    "recall_macro": 0.854320987654321,
    "recall_micro": 0.854320987654321,
    "recall_weighted": 0.854320987654321
  },
  "train": {
    "accuracy": 0.8965732087227415,
    "confusion_matrix": [
      [
        1379,
        226
      ],
      [
        106,
        1499
      ]
    ],
    "f1_macro": 0.8964284673022538,
    "f1_micro": 0.8965732087227416,
    "f1_weighted": 0.8964284673022538,
    "per_class": {
      "y=0": {
        "accuracy": 0.8965732087227415,
        "confusion_matrix": [
          [
            1499,
            106
          ],
          [
            226,
            1379
          ]
        ],
        "f1": 0.8925566343042072,
        "precision": 0.9286195286195286,
        "recall": 0.859190031152648
      },
      "y=1": {
        "accuracy": 0.8965732087227415,
        "confusion_matrix": [
          [
            1379,
            226
          ],
          [
            106,
            1499
          ]
        ],
        "f1": 0.9003003003003003,
        "precision": 0.8689855072463768,
        "recall": 0.9339563862928348
      }
    },
    "precision_macro": 0.8988025179329526,
    "precision_micro": 0.8965732087227415,
    "precision_weighted": 0.8988025179329527,
    "recall_macro": 0.8965732087227414,
    "recall_micro": 0.8965732087227415,
    "recall_weighted": 0.8965732087227415
  },
  "xval": {
    "mean_fit_time": [
      0.1346203088760376,
      0.07197141647338867,
      0.09609073400497437,
      0.09237611293792725,
      0.1780698299407959,
      0.4079502820968628,
      0.15965169668197632,
      0.2753032445907593,
      0.11428976058959961,
      0.13503646850585938,
      0.09476715326309204,
      0.11851322650909424,
      0.17832815647125244,
      0.15573525428771973,
      0.16976457834243774,
      0.16629040241241455,
      0.138480544090271,
      0.1022527813911438,
      0.17176491022109985,
      0.1587701439857483,
      0.2102450132369995,
      0.09346252679824829,
      0.08825135231018066,
      0.07800757884979248,
      0.07003319263458252,
      0.07367712259292603,
      0.07061648368835449,
      0.13231247663497925,
      0.1141710877418518,
      0.06704360246658325,
      0.07694417238235474
    ],
    "mean_score_time": [
      0.009127974510192871,
      0.007219970226287842,
      0.008367657661437988,
      0.010792136192321777,
      0.012288331985473633,
      0.04663896560668945,
      0.014267563819885254,
      0.011778533458709717,
      0.03981226682662964,
      0.00955897569656372,
      0.006905853748321533,
      0.009102284908294678,
      0.00906836986541748,
      0.009007155895233154,
      0.006759166717529297,
      0.006383657455444336,
      0.007714271545410156,
      0.007201969623565674,
      0.006983757019042969,
      0.007904469966888428,
      0.008914411067962646,
      0.00701671838760376,
      0.00831294059753418,
      0.007243752479553223,
      0.006584107875823975,
      0.008120238780975342,
      0.00841057300567627,
      0.016970276832580566,
      0.02038276195526123,
      0.00860363245010376,
      0.007044017314910889
    ],
    "mean_test_score": [
      0.8193146417445483,
      0.822429906542056,
      0.8165109034267912,
      0.8127725856697819,
      0.8342679127725857,
      0.8242990654205608,
      0.8180685358255452,
      0.8280373831775701,
      0.832398753894081,
      0.8227414330218068,
      0.8342679127725857,
      0.8264797507788162,
      0.819626168224299,
      0.8267912772585669,
      0.8208722741433022,
      0.8314641744548287,
      0.8414330218068535,
      0.8445482866043613,
      0.8501557632398754,
      0.8532710280373832,
      0.8389408099688473,
      0.832398753894081,
      0.8077881619937695,
      0.7707165109034267,
      0.6872274143302181,
      0.5196261682242991,
      0.5,
      0.5,
      0.5,
      0.5,
      0.5
    ],
    "mean_train_score": [
      0.9675994121715077,
      0.9531699515905947,
      0.9652048755186723,
      0.968131051175657,
      0.9725743430152144,
      0.9736263831258645,
      0.957541061549101,
      0.9707144709543569,
      0.9719601486860304,
      0.9670889522821577,
      0.9728029910096819,
      0.9694640387275243,
      0.9741355463347164,
      0.9700873098201936,
      0.9821438450899032,
      0.9918979080221301,
      0.9848409405255878,
      0.9633415456431536,
      0.9386285442600277,
      0.9098590940525587,
      0.8774775242047026,
      0.8544238416320885,
      0.8260684647302904,
      0.790336704702628,
      0.6835066562932227,
      0.5272030601659751,
      0.5,
      0.5,
      0.5,
      0.5,
      0.5
    ],
    "param_clf__alpha": [
      1e-10,
      3.1622776601683795e-10,
      1e-09,
      3.1622776601683795e-09,
      1e-08,
      3.162277660168379e-08,
      1e-07,
      3.162277660168379e-07,
      1e-06,
      3.162277660168379e-06,
      1e-05,
      3.1622776601683795e-05,
      0.0001,
      0.00031622776601683794,
      0.001,
      0.0031622776601683794,
      0.01,
      0.03162277660168379,
      0.1,
      0.31622776601683794,
      1.0,
      3.1622776601683795,
      10.0,
      31.622776601683793,
      100.0,
      316.22776601683796,
      1000.0,
      3162.2776601683795,
      10000.0,
      31622.776601683792,
      100000.0
    ],
    "params": [
      {
        "clf__alpha": 1e-10
      },
      {
        "clf__alpha": 3.1622776601683795e-10
      },
      {
        "clf__alpha": 1e-09
      },
      {
        "clf__alpha": 3.1622776601683795e-09
      },
      {
        "clf__alpha": 1e-08
      },
      {
        "clf__alpha": 3.162277660168379e-08
      },
      {
        "clf__alpha": 1e-07
      },
      {
        "clf__alpha": 3.162277660168379e-07
      },
      {
        "clf__alpha": 1e-06
      },
      {
        "clf__alpha": 3.162277660168379e-06
      },
      {
        "clf__alpha": 1e-05
      },
      {
        "clf__alpha": 3.1622776601683795e-05
      },
      {
        "clf__alpha": 0.0001
      },
      {
        "clf__alpha": 0.00031622776601683794
      },
      {
        "clf__alpha": 0.001
      },
      {
        "clf__alpha": 0.0031622776601683794
      },
      {
        "clf__alpha": 0.01
      },
      {
        "clf__alpha": 0.03162277660168379
      },
      {
        "clf__alpha": 0.1
      },
      {
        "clf__alpha": 0.31622776601683794
      },
      {
        "clf__alpha": 1.0
      },
      {
        "clf__alpha": 3.1622776601683795
      },
      {
        "clf__alpha": 10.0
      },
      {
        "clf__alpha": 31.622776601683793
      },
      {
        "clf__alpha": 100.0
      },
      {
        "clf__alpha": 316.22776601683796
      },
      {
        "clf__alpha": 1000.0
      },
      {
        "clf__alpha": 3162.2776601683795
      },
      {
        "clf__alpha": 10000.0
      },
      {
        "clf__alpha": 31622.776601683792
      },
      {
        "clf__alpha": 100000.0
      }
    ],
    "rank_test_score": [
      19,
      16,
      21,
      22,
      6,
      14,
      20,
      11,
      8,
      15,
      6,
      13,
      18,
      12,
      17,
      10,
      4,
      3,
      2,
      1,
      5,
      8,
      23,
      24,
      25,
      26,
      27,
      27,
      27,
      27,
      27
    ],
    "split0_test_score": [
      0.8419753086419753,
      0.8271604938271605,
      0.8469135802469135,
      0.8419753086419753,
      0.8320987654320988,
      0.8197530864197531,
      0.828395061728395,
      0.8432098765432099,
      0.8432098765432099,
      0.8382716049382716,
      0.8592592592592593,
      0.8308641975308642,
      0.8296296296296296,
      0.8419753086419753,
      0.8382716049382716,
      0.8555555555555555,
      0.845679012345679,
      0.8432098765432099,
      0.8592592592592593,
      0.8493827160493828,
      0.828395061728395,
      0.817283950617284,
      0.8135802469135802,
      0.8049382716049382,
      0.7333333333333333,
      0.5123456790123457,
      0.5,
      0.5,
      0.5,
      0.5,
      0.5
    ],
    "split0_train_score": [
      0.9658333333333333,
      0.9558333333333333,
      0.9575,
      0.9783333333333334,
      0.9616666666666667,
      0.9758333333333333,
      0.9695833333333334,
      0.96875,
      0.9695833333333334,
      0.97375,
      0.9820833333333333,
      0.9633333333333334,
      0.9666666666666667,
      0.9641666666666666,
      0.9866666666666667,
      0.9895833333333334,
      0.9866666666666667,
      0.96125,
      0.9379166666666666,
      0.9041666666666667,
      0.8883333333333333,
      0.8645833333333334,
      0.83,
      0.7845833333333333,
      0.7004166666666667,
      0.52375,
      0.5,
      0.5,
      0.5,
      0.5,
      0.5
    ],
    "split1_test_score": [
      0.8075,
      0.82625,
      0.80375,
      0.76625,
      0.8325,
      0.82875,
      0.81125,
      0.8375,
      0.845,
      0.81625,
      0.83375,
      0.81625,
      0.815,
      0.82,
      0.80625,
      0.81625,
      0.84375,
      0.865,
      0.84875,
      0.85875,
      0.83375,
      0.83875,
      0.815,
      0.745,
      0.70125,
      0.53125,
      0.5,
      0.5,
      0.5,
      0.5,
      0.5
    ],
    "split1_train_score": [
      0.9746887966804979,
      0.9468879668049792,
      0.9585062240663901,
      0.962240663900415,
      0.9759336099585062,
      0.9551867219917013,
      0.9746887966804979,
      0.970954356846473,
      0.9601659751037345,
      0.9771784232365145,
      0.9618257261410789,
      0.9759336099585062,
      0.9734439834024896,
      0.9655601659751037,
      0.9626556016597511,
      0.991701244813278,
      0.9842323651452282,
      0.9572614107883818,
      0.9344398340248963,
      0.9066390041493776,
      0.8510373443983402,
      0.8535269709543568,
      0.8020746887966805,
      0.791701244813278,
      0.6643153526970954,
      0.5282157676348548,
      0.5,
      0.5,
      0.5,
      0.5,
      0.5
    ],
    "split2_test_score": [
      0.835,
      0.85375,
      0.7925,
      0.8525,
      0.84125,
      0.83875,
      0.83125,
      0.80875,
      0.82875,
      0.83625,
      0.83375,
      0.84,
      0.82375,
      0.82625,
      0.83125,
      0.845,
      0.86375,
      0.85625,
      0.8675,
      0.87625,
      0.87375,
      0.86,
      0.84625,
      0.81375,
      0.6575,
      0.5125,
      0.5,
      0.5,
      0.5,
      0.5,
      0.5
    ],
    "split2_train_score": [
      0.9721991701244813,
      0.9639004149377594,
      0.958091286307054,
      0.9697095435684647,
      0.9717842323651452,
      0.9817427385892116,
      0.9215767634854771,
      0.9634854771784233,
      0.9784232365145228,
      0.9564315352697096,
      0.9630705394190872,
      0.9634854771784233,
      0.970954356846473,
      0.9838174273858921,
      0.9908713692946058,
      0.9933609958506224,
      0.9775933609958506,
      0.9655601659751037,
      0.9377593360995851,
      0.9120331950207469,
      0.8780082987551867,
      0.8410788381742739,
      0.8269709543568464,
      0.7767634854771784,
      0.65850622406639,
      0.5120331950207468,
      0.5,
      0.5,
      0.5,
      0.5,
      0.5
    ],
    "split3_test_score": [
      0.7925,
      0.7825,
      0.8225,
      0.79,
      0.83125,
      0.81,
      0.80125,
      0.8225,
      0.8125,
      0.8,
      0.81,
      0.81875,
      0.81,
      0.81875,
      0.8075,
      0.80875,
      0.8125,
      0.81375,
      0.825,
      0.82875,
      0.82,
      0.81375,
      0.75625,
      0.71875,
      0.65625,
      0.5225,
      0.5,
      0.5,
      0.5,
      0.5,
      0.5
    ],
    "split3_train_score": [
      0.9576763485477179,
      0.946058091286307,
      0.9867219917012449,
      0.962240663900415,
      0.9809128630705394,
      0.9817427385892116,
      0.9643153526970955,
      0.9796680497925311,
      0.9796680497925311,
      0.9609958506224067,
      0.9842323651452282,
      0.975103734439834,
      0.9854771784232366,
      0.966804979253112,
      0.9883817427385893,
      0.9929460580912863,
      0.9908713692946058,
      0.9692946058091286,
      0.9443983402489626,
      0.916597510373444,
      0.8925311203319503,
      0.85850622406639,
      0.8452282157676348,
      0.808298755186722,
      0.7107883817427386,
      0.5448132780082987,
      0.5,
      0.5,
      0.5,
      0.5,
      0.5
    ],
    "std_fit_time": [
      0.05426284597395216,
      0.01265451373994351,
      0.016833162978263427,
      0.0127755060514395,
      0.062264985007257946,
      0.14247263008674854,
      0.05642333387443475,
      0.11339930442976773,
      0.017660167622248733,
      0.03237223458852521,
      0.007460074516389797,
      0.008128058329377744,
      0.015205555676724724,
      0.04424669450553606,
      0.006114103036102709,
      0.041395327829700936,
      0.011891453794051599,
      0.009482889251582093,
      0.03456398921781875,
      0.11850256832667984,
      0.1419699350564245,
      0.02564635578753193,
      0.023515811684229497,
      0.0022569072594876586,
      0.014031948607998881,
      0.011489359716701968,
      0.014629923814525454,
      0.03871336062809684,
      0.03625975321908224,
      0.00920301488838313,
      0.025875347638332526
    ],
    "std_score_time": [
      0.0030654763099767193,
      0.0006301439889696566,
      0.0006154349379009523,
      0.0048674988954344935,
      0.0017462111619746497,
      0.05265024604354163,
      0.0056250731162716386,
      0.004856937307449802,
      0.05447830009308674,
      0.0025524096848484785,
      0.000713282274156103,
      0.0010598464700366389,
      0.002718253270118581,
      0.004702484096164501,
      0.00031513971718310834,
      0.00021804203536148715,
      0.00035706133473714636,
      0.0005250870665584253,
      0.0007072896209274731,
      0.0018619468591215577,
      0.002590233124154019,
      0.001093226614851952,
      0.0010109666076816046,
      0.00036709480194812693,
      0.0004811604839202917,
      0.0012692588570016386,
      0.0030983663972989784,
      0.006522671527657724,
      0.009724002111488014,
      0.0012336048504483015,
      0.0008041128005883828
    ],
    "std_test_score": [
      0.020121536529163094,
      0.025516945644141534,
      0.020650542658139318,
      0.03573759716171287,
      0.004047902277786886,
      0.010637356731262418,
      0.012340715251534653,
      0.013444604159533823,
      0.013079260818566937,
      0.015675795800718734,
      0.01745018757952916,
      0.009559228746510256,
      0.007610300303559919,
      0.009266067960506406,
      0.014180384256392084,
      0.019452140966520957,
      0.01840214971593774,
      0.019370471590898122,
      0.015940080195631062,
      0.017109805240973525,
      0.020643730416219856,
      0.018553659685996867,
      0.03243579167173693,
      0.03993610594500203,
      0.03232344320368308,
      0.007858923376214678,
      0.0,
      0.0,
      0.0,
      0.0,
      0.0
    ],
    "std_train_score": [
      0.006576537312421378,
      0.00728488736678208,
      0.012428057755773594,
      0.006632712943503219,
      0.007078440316788899,
      0.01091606824795246,
      0.021085438610738208,
      0.005838270642828151,
      0.00784115784588833,
      0.008615007342589163,
      0.010392019831740918,
      0.006061977121099688,
      0.006982388699014421,
      0.007981836710072443,
      0.011350425023179296,
      0.0014692835812981342,
      0.004811369870262132,
      0.004519507842306143,
      0.0036089517772455067,
      0.004819379577852108,
      0.01615413397567138,
      0.008642548991316393,
      0.015484417977989268,
      0.011638629532314447,
      0.022492047147713842,
      0.011760035947073802,
      0.0,
      0.0,
      0.0,
      0.0,
      0.0
    ]
  },
  "xval_grid": {
    "clf__alpha": [
      1e-10,
      3.1622776601683795e-10,
      1e-09,
      3.1622776601683795e-09,
      1e-08,
      3.162277660168379e-08,
      1e-07,
      3.162277660168379e-07,
      1e-06,
      3.162277660168379e-06,
      1e-05,
      3.1622776601683795e-05,
      0.0001,
      0.00031622776601683794,
      0.001,
      0.0031622776601683794,
      0.01,
      0.03162277660168379,
      0.1,
      0.31622776601683794,
      1.0,
      3.1622776601683795,
      10.0,
      31.622776601683793,
      100.0,
      316.22776601683796,
      1000.0,
      3162.2776601683795,
      10000.0,
      31622.776601683792,
      100000.0
    ]
  }
}