{
  "fold_id": 2,
  "test": {
    "accuracy": 0.8625,
    "confusion_matrix": [
      [
        360,
        40
      ],
      [
        70,
        330
      ]
    ],
    "f1_macro": 0.8623063683304647,
    "f1_micro": 0.8625,
    "f1_weighted": 0.8623063683304647,
    "per_class": {
      "y=0": {
        "accuracy": 0.8625,
        "confusion_matrix": [
          [
            330,
            70
          ],
          [
            40,
            360
          ]
        ],
        "f1": 0.8674698795180723,
        "precision": 0.8372093023255814,
        "recall": 0.9
      },
      "y=1": {
        "accuracy": 0.8625,
        "confusion_matrix": [
          [
            360,
            40
          ],
          [
            70,
            330
          ]
        ],
        "f1": 0.8571428571428571,
        "precision": 0.8918918918918919,
        "recall": 0.825
      }
    },
    "precision_macro": 0.8645505971087366,
    "precision_micro": 0.8625,
    "precision_weighted": 0.8645505971087367,
    "recall_macro": 0.8625,
    "recall_micro": 0.8625,
    "recall_weighted": 0.8625
  },
  "train": {
    "accuracy": 0.9313664596273292,
    "confusion_matrix": [
      [
        1516,
        94
      ],
      [
        127,
        1483
      ]
    ],
    "f1_macro": 0.9313592502433852,
    "f1_micro": 0.9313664596273292,
    "f1_weighted": 0.9313592502433853,
    "per_class": {
      "y=0": {
        "accuracy": 0.9313664596273292,
        "confusion_matrix": [
          [
            1483,
            127
          ],
          [
            94,
            1516
          ]
        ],
        "f1": 0.9320627113433754,
        "precision": 0.9227023737066342,
        "recall": 0.9416149068322981
      },
      "y=1": {
        "accuracy": 0.9313664596273292,
        "confusion_matrix": [
          [
            1516,
            94
          ],
          [
            127,
            1483
          ]
        ],
        "f1": 0.930655789143395,
        "precision": 0.9403931515535827,
        "recall": 0.9211180124223602
      }
    },
    "precision_macro": 0.9315477626301085,
    "precision_micro": 0.9313664596273292,
    "precision_weighted": 0.9315477626301085,
    "recall_macro": 0.9313664596273292,
    "recall_micro": 0.9313664596273292,
    "recall_weighted": 0.9313664596273292
  },
  "xval": {
    "mean_fit_time": [
      0.15989691019058228,
      0.09771561622619629,
      0.09209448099136353,
      0.09828329086303711,
      0.08756780624389648,
      0.11100912094116211,
      0.11813396215438843,
      0.13055169582366943,
      0.21711832284927368,
      0.10942131280899048,
      0.11667817831039429,
      0.17613905668258667,
      0.3702293038368225,
      0.33940112590789795,
      0.7977327108383179,
      0.32031089067459106,
      0.15134698152542114,
      0.22103577852249146,
      0.2094782590866089,
      0.21083730459213257,
      0.1810394525527954,
      0.12954270839691162,
      0.09903150796890259,
      0.07883656024932861,
      0.0854564905166626,
      0.07086050510406494,
      0.07753682136535645,
      0.0825766921043396,
      0.07534253597259521,
      0.09675949811935425,
      0.13438254594802856
    ],
    "mean_score_time": [
      0.008982419967651367,
      0.007391393184661865,
      0.005894958972930908,
      0.006860494613647461,
      0.00729525089263916,
      0.00805652141571045,
      0.009464502334594727,
      0.013255417346954346,
      0.03855240345001221,
      0.008957326412200928,
      0.007666170597076416,
      0.020554184913635254,
      0.011222898960113525,
      0.029498517513275146,
      0.010656774044036865,
      0.007905423641204834,
      0.007364213466644287,
      0.010133683681488037,
      0.007961452007293701,
      0.008684754371643066,
      0.009443938732147217,
      0.007716953754425049,
      0.00805056095123291,
      0.006436705589294434,
      0.0073694586753845215,
      0.006182968616485596,
      0.0091325044631958,
      0.007300674915313721,
      0.006831467151641846,
      0.01102304458618164,
      0.008465230464935303
    ],
    "mean_test_score": [
      0.8291925465838509,
      0.8338509316770186,
      0.8295031055900621,
      0.8248447204968944,
      0.8307453416149069,
      0.8307453416149069,
      0.8270186335403726,
      0.8307453416149069,
      0.8400621118012422,
      0.8319875776397515,
      0.8341614906832299,
      0.827639751552795,
      0.827639751552795,
      0.8388198757763975,
      0.8381987577639751,
      0.8363354037267081,
      0.8419254658385094,
      0.8577639751552795,
      0.8583850931677018,
      0.848136645962733,
      0.837888198757764,
      0.8177018633540373,
      0.7996894409937888,
      0.7627329192546584,
      0.65,
      0.5229813664596273,
      0.5,
      0.5,
      0.5,
      0.5,
      0.5
    ],
    "mean_train_score": [
      0.9712308391344604,
      0.968844947018278,
      0.9696713932992695,
      0.967256781317513,
      0.9547400637838208,
      0.9704091080552792,
      0.9611844586948322,
      0.9628219196872535,
      0.9771184115771063,
      0.9757741504063646,
      0.9766018826514866,
      0.9630683961455369,
      0.974001234525565,
      0.9805399334727889,
      0.9894439491101128,
      0.9895343952539352,
      0.9795017317650285,
      0.9640774493330133,
      0.9383997462364116,
      0.9059930215013202,
      0.8764981482116525,
      0.8450374644216591,
      0.8074573059908782,
      0.7768950824731662,
      0.6613876410273997,
      0.5264034155207298,
      0.5,
      0.5,
      0.5,
      0.5,
      0.5
    ],
    "param_clf__alpha": [
      1e-10,
      3.1622776601683795e-10,
      1e-09,
      3.1622776601683795e-09,
      1e-08,
      3.162277660168379e-08,
      1e-07,
      3.162277660168379e-07,
      1e-06,
      3.162277660168379e-06,
      1e-05,
      3.1622776601683795e-05,
      0.0001,
      0.00031622776601683794,
      0.001,
      0.0031622776601683794,
      0.01,
      0.03162277660168379,
      0.1,
      0.31622776601683794,
      1.0,
      3.1622776601683795,
      10.0,
      31.622776601683793,
      100.0,
      316.22776601683796,
      1000.0,
      3162.2776601683795,
      10000.0,
      31622.776601683792,
      100000.0
    ],
    "params": [
      {
        "clf__alpha": 1e-10
      },
      {
        "clf__alpha": 3.1622776601683795e-10
      },
      {
        "clf__alpha": 1e-09
      },
      {
        "clf__alpha": 3.1622776601683795e-09
      },
      {
        "clf__alpha": 1e-08
      },
      {
        "clf__alpha": 3.162277660168379e-08
      },
      {
        "clf__alpha": 1e-07
      },
      {
        "clf__alpha": 3.162277660168379e-07
      },
      {
        "clf__alpha": 1e-06
      },
      {
        "clf__alpha": 3.162277660168379e-06
      },
      {
        "clf__alpha": 1e-05
      },
      {
        "clf__alpha": 3.1622776601683795e-05
      },
      {
        "clf__alpha": 0.0001
      },
      {
        "clf__alpha": 0.00031622776601683794
      },
      {
        "clf__alpha": 0.001
      },
      {
        "clf__alpha": 0.0031622776601683794
      },
      {
        "clf__alpha": 0.01
      },
      {
        "clf__alpha": 0.03162277660168379
      },
      {
        "clf__alpha": 0.1
      },
      {
        "clf__alpha": 0.31622776601683794
      },
      {
        "clf__alpha": 1.0
      },
      {
        "clf__alpha": 3.1622776601683795
      },
      {
        "clf__alpha": 10.0
      },
      {
        "clf__alpha": 31.622776601683793
      },
      {
        "clf__alpha": 100.0
      },
      {
        "clf__alpha": 316.22776601683796
      },
      {
        "clf__alpha": 1000.0
      },
      {
        "clf__alpha": 3162.2776601683795
      },
      {
        "clf__alpha": 10000.0
      },
      {
        "clf__alpha": 31622.776601683792
      },
      {
        "clf__alpha": 100000.0
      }
    ],
    "rank_test_score": [
      17,
      11,
      16,
      21,
      13,
      13,
      20,
      13,
      5,
      12,
      10,
      18,
      18,
      6,
      7,
      9,
      4,
      2,
      1,
      3,
      8,
      22,
      23,
      24,
      25,
      26,
      27,
      27,
      27,
      27,
      27
    ],
    "split0_test_score": [
      0.7925925925925926,
      0.8197530864197531,
      0.8308641975308642,
      0.8037037037037037,
      0.8049382716049382,
      0.8358024691358025,
      0.8148148148148148,
      0.825925925925926,
      0.8345679012345679,
      0.8209876543209876,
      0.8395061728395061,
      0.8160493827160494,
      0.8061728395061728,
      0.8382716049382716,
      0.8382716049382716,
      0.817283950617284,
      0.8407407407407408,
      0.8728395061728395,
      0.8555555555555555,
      0.8493827160493828,
      0.8271604938271605,
      0.8160493827160494,
      0.7753086419753087,
      0.7197530864197531,
      0.6938271604938272,
      0.5493827160493827,
      0.5,
      0.5,
      0.5,
      0.5,
      0.5
    ],
    "split0_train_score": [
      0.9738589211618257,
      0.9568464730290457,
      0.9850622406639005,
      0.9410788381742738,
      0.9145228215767635,
      0.9775933609958506,
      0.9543568464730291,
      0.9510373443983402,
      0.9701244813278008,
      0.9788381742738589,
      0.9846473029045644,
      0.9734439834024896,
      0.9734439834024896,
      0.9809128630705394,
      0.9925311203319502,
      0.9825726141078838,
      0.9763485477178423,
      0.962240663900415,
      0.9365145228215768,
      0.9074688796680498,
      0.8759336099585062,
      0.8481327800829875,
      0.816597510373444,
      0.7489626556016598,
      0.678838174273859,
      0.5236514522821577,
      0.5,
      0.5,
      0.5,
      0.5,
      0.5
    ],
    "split1_test_score": [
      0.8469135802469135,
      0.8617283950617284,
      0.8469135802469135,
      0.8493827160493828,
      0.8716049382716049,
      0.8567901234567902,
      0.8395061728395061,
      0.8592592592592593,
      0.8567901234567902,
      0.8567901234567902,
      0.8308641975308642,
      0.8530864197530864,
      0.8506172839506173,
      0.8604938271604938,
      0.8703703703703703,
      0.8716049382716049,
      0.8592592592592593,
      0.8580246913580247,
      0.8629629629629629,
      0.8481481481481481,
      0.8271604938271605,
      0.8061728395061728,
      0.8024691358024691,
      0.8012345679012346,
      0.6209876543209877,
      0.5246913580246914,
      0.5,
      0.5,
      0.5,
      0.5,
      0.5
    ],
    "split1_train_score": [
      0.9775933609958506,
      0.9850622406639005,
      0.9568464730290457,
      0.9634854771784233,
      0.9738589211618257,
      0.9784232365145228,
      0.9721991701244813,
      0.9605809128630706,
      0.9804979253112033,
      0.9705394190871369,
      0.9659751037344398,
      0.9767634854771784,
      0.9597510373443984,
      0.9817427385892116,
      0.9892116182572614,
      0.9867219917012449,
      0.9813278008298755,
      0.9647302904564315,
      0.9344398340248963,
      0.8937759336099586,
      0.8742738589211618,
      0.8481327800829875,
      0.8020746887966805,
      0.7854771784232365,
      0.6443983402489627,
      0.5348547717842324,
      0.5,
      0.5,
      0.5,
      0.5,
      0.5
    ],
    "split2_test_score": [
      0.84875,
      0.83375,
      0.82125,
      0.84,
      0.82875,
      0.81,
      0.85625,
      0.83875,
      0.84125,
      0.825,
      0.83,
      0.8375,
      0.8375,
      0.83625,
      0.8275,
      0.84375,
      0.86625,
      0.8675,
      0.8725,
      0.875,
      0.87625,
      0.8575,
      0.85125,
      0.81625,
      0.64625,
      0.5025,
      0.5,
      0.5,
      0.5,
      0.5,
      0.5
    ],
    "split2_train_score": [
      0.9462809917355371,
      0.9619834710743802,
      0.9578512396694215,
      0.9880165289256199,
      0.9553719008264463,
      0.9537190082644628,
      0.9640495867768595,
      0.9706611570247934,
      0.9818181818181818,
      0.9611570247933884,
      0.9731404958677686,
      0.9450413223140496,
      0.9805785123966942,
      0.9822314049586777,
      0.984297520661157,
      0.9933884297520661,
      0.9834710743801653,
      0.9619834710743802,
      0.9371900826446281,
      0.9132231404958677,
      0.8710743801652893,
      0.8214876033057851,
      0.802892561983471,
      0.7665289256198347,
      0.6309917355371901,
      0.5028925619834711,
      0.5,
      0.5,
      0.5,
      0.5,
      0.5
    ],
    "split3_test_score": [
      0.82875,
      0.82,
      0.81875,
      0.80625,
      0.8175,
      0.82,
      0.7975,
      0.79875,
      0.8275,
      0.825,
      0.83625,
      0.80375,
      0.81625,
      0.82,
      0.81625,
      0.8125,
      0.80125,
      0.8325,
      0.8425,
      0.82,
      0.82125,
      0.79125,
      0.77,
      0.71375,
      0.63875,
      0.515,
      0.5,
      0.5,
      0.5,
      0.5,
      0.5
    ],
    "split3_train_score": [
      0.9871900826446282,
      0.9714876033057851,
      0.9789256198347107,
      0.9764462809917356,
      0.9752066115702479,
      0.971900826446281,
      0.9541322314049587,
      0.96900826446281,
      0.9760330578512396,
      0.9925619834710744,
      0.9826446280991735,
      0.9570247933884297,
      0.9822314049586777,
      0.9772727272727273,
      0.9917355371900827,
      0.9954545454545455,
      0.9768595041322314,
      0.9673553719008264,
      0.9454545454545454,
      0.9095041322314049,
      0.8847107438016529,
      0.8623966942148761,
      0.8082644628099174,
      0.8066115702479338,
      0.6913223140495868,
      0.5442148760330578,
      0.5,
      0.5,
      0.5,
      0.5,
      0.5
    ],
    "std_fit_time": [
      0.0406841077178689,
      0.013674101847911952,
      0.025546964250297958,
      0.02782274874530876,
      0.017406792205571855,
      0.02023397538715383,
      0.04486226044309171,
      0.03198558540821809,
      0.13378026678925728,
      0.009036475011785864,
      0.007267261425456278,
      0.041840595098617,
      0.1981380121580065,
      0.16427404020352748,
      0.5680473465334934,
      0.10980040290436958,
      0.015975844156794643,
      0.0696545846133871,
      0.08680852350526687,
      0.11947323658838035,
      0.018109348893656653,
      0.032132158717691005,
      0.011443027273445965,
      0.009114291384409721,
      0.010669662816500433,
      0.004423990547319719,
      0.008542411164396257,
      0.011310387048587932,
      0.009198951053853929,
      0.04100426964666902,
      0.09948230507065109
    ],
    "std_score_time": [
      0.001197997526034967,
      0.0010284668325721122,
      0.00020254506388921013,
      0.000880046236617613,
      0.0020010485014779556,
      0.0020652566426137796,
      0.0023990314044800565,
      0.003141412211192535,
      0.046139135201430266,
      0.0026712999883937117,
      0.0017983601636379389,
      0.009182349944064534,
      0.004567893978331046,
      0.03321831601222828,
      0.002450409997644098,
      0.0017720336018249684,
      0.0010348826732585966,
      0.003949264445522548,
      0.0013976393131558188,
      0.0038108935260668868,
      0.0014867275082007577,
      0.001127630271726222,
      0.00200236463230685,
      0.0004909129006449456,
      0.0012043886896496306,
      0.0003571832346547061,
      0.002212213173069678,
      0.0011609344686637879,
      0.0005177320620906382,
      0.00771394241781051,
      0.003068359346026553
    ],
    "std_test_score": [
      0.022606278431381258,
      0.017121846701637057,
      0.011062021040597177,
      0.020170793359766025,
      0.025141220306050146,
      0.01768274999054762,
      0.022482596379134363,
      0.021923073220811603,
      0.010841668112409048,
      0.014472240568512441,
      0.003912414306823476,
      0.01904285895477922,
      0.01746767157051767,
      0.014418143460196181,
      0.020211103731517095,
      0.023643768579935755,
      0.02517917778647956,
      0.015469786011346897,
      0.010930520203550993,
      0.019400216874063805,
      0.0221878028713322,
      0.02452499018088447,
      0.03210863195936621,
      0.04631694168791621,
      0.027015950665650042,
      0.017208212365398226,
      0.0,
      0.0,
      0.0,
      0.0,
      0.0
    ],
    "std_train_score": [
      0.015203460446766862,
      0.01073577518907252,
      0.012517123303113997,
      0.017427861796094013,
      0.024506305691210095,
      0.009957715602245707,
      0.00751470267549248,
      0.007804210883273763,
      0.004571706640857764,
      0.011535622593071929,
      0.007519195239725823,
      0.01281316518214653,
      0.008865310740019587,
      0.0019443204966174332,
      0.003214098065033522,
      0.005154555528347508,
      0.0030005893389831954,
      0.0021754024665586714,
      0.004197274415028699,
      0.007349114115112631,
      0.00505297319487998,
      0.014791051143150692,
      0.005788011186885093,
      0.02147323738636105,
      0.024561927708554285,
      0.015402979289667855,
      0.0,
      0.0,
      0.0,
      0.0,
      0.0
    ]
  },
  "xval_grid": {
    "clf__alpha": [
      1e-10,
      3.1622776601683795e-10,
      1e-09,
      3.1622776601683795e-09,
      1e-08,
      3.162277660168379e-08,
      1e-07,
      3.162277660168379e-07,
      1e-06,
      3.162277660168379e-06,
      1e-05,
      3.1622776601683795e-05,
      0.0001,
      0.00031622776601683794,
      0.001,
      0.0031622776601683794,
      0.01,
      0.03162277660168379,
      0.1,
      0.31622776601683794,
      1.0,
      3.1622776601683795,
      10.0,
      31.622776601683793,
      100.0,
      316.22776601683796,
      1000.0,
      3162.2776601683795,
      10000.0,
      31622.776601683792,
      100000.0
    ]
  }
}