{
  "fold_id": 0,
  "test": {
    "accuracy": 0.8691358024691358,
    "confusion_matrix": [
      [
        350,
        55
      ],
      [
        51,
        354
      ]
    ],
    "f1_macro": 0.869132611068095,
    "f1_micro": 0.8691358024691358,
    "f1_weighted": 0.8691326110680949,
    "per_class": {
      "y=0": {
        "accuracy": 0.8691358024691358,
        "confusion_matrix": [
          [
            354,
            51
          ],
          [
            55,
            350
          ]
        ],
        "f1": 0.8684863523573202,
        "precision": 0.8728179551122195,
        "recall": 0.8641975308641975
      },
      "y=1": {
        "accuracy": 0.8691358024691358,
        "confusion_matrix": [
          [
            350,
            55
          ],
          [
            51,
            354
          ]
        ],
        "f1": 0.8697788697788698,
        "precision": 0.8655256723716381,
        "recall": 0.8740740740740741
      }
    },
    "precision_macro": 0.8691718137419289,
    "precision_micro": 0.8691358024691358,
    "precision_weighted": 0.8691718137419289,
    "recall_macro": 0.8691358024691358,
    "recall_micro": 0.8691358024691358,
    "recall_weighted": 0.8691358024691358
  },
  "train": {
    "accuracy": 0.9233644859813084,
    "confusion_matrix": [
      [
        1475,
        130
      ],
      [
        116,
        1489
      ]
    ],
    "f1_macro": 0.923363028226971,
    "f1_micro": 0.9233644859813084,
    "f1_weighted": 0.923363028226971,
    "per_class": {
      "y=0": {
        "accuracy": 0.9233644859813084,
        "confusion_matrix": [
          [
            1489,
            116
          ],
          [
            130,
            1475
          ]
        ],
        "f1": 0.9230287859824781,
        "precision": 0.9270898805782527,
        "recall": 0.9190031152647975
      },
      "y=1": {
        "accuracy": 0.9233644859813084,
        "confusion_matrix": [
          [
            1475,
            130
          ],
          [
            116,
            1489
          ]
        ],
        "f1": 0.923697270471464,
        "precision": 0.9197035206917851,
        "recall": 0.9277258566978193
      }
    },
    "precision_macro": 0.9233967006350189,
    "precision_micro": 0.9233644859813084,
    "precision_weighted": 0.9233967006350189,
    "recall_macro": 0.9233644859813084,
    "recall_micro": 0.9233644859813084,
    "recall_weighted": 0.9233644859813084
  },
  "xval": {
    "mean_fit_time": [
      0.42492759227752686,
      0.38978302478790283,
      0.4186449646949768,
      0.41527801752090454,
      0.45529675483703613,
      0.41695094108581543,
      0.47202569246292114,
      0.3941558599472046,
      0.3999139070510864,
      0.4142414331436157,
      0.45518410205841064,
      0.5208141207695007,
      0.44857269525527954,
      0.5032660961151123,
      0.6708179712295532,
      0.5379629731178284,
      0.5547032952308655,
      0.7168952822685242,
      0.8093458414077759,
      0.5693897604942322,
      0.4468611478805542,
      0.4799979329109192,
      0.6714786291122437,
      0.6272342801094055,
      0.4339030385017395,
      0.3676697611808777,
      0.46771228313446045,
      0.4531514644622803,
      0.40124619007110596,
      0.4904559254646301,
      0.6380496621131897,
      0.4084104895591736,
      0.4075550436973572,
      0.41576677560806274,
      0.410491406917572,
      0.40548062324523926,
      0.4096832871437073,
      0.41054701805114746,
      0.40549564361572266,
      0.42385202646255493,
      0.44366252422332764,
      0.48183172941207886,
      0.5746245980262756,
      0.47000056505203247,
      0.41337257623672485,
      0.3934568166732788,
      0.41206514835357666,
      0.4077237844467163
    ],
    "mean_score_time": [
      0.005806446075439453,
      0.004612445831298828,
      0.005251586437225342,
      0.0056236982345581055,
      0.013492703437805176,
      0.01178884506225586,
      0.005116581916809082,
      0.004723668098449707,
      0.005113363265991211,
      0.006004989147186279,
      0.006576061248779297,
      0.013105332851409912,
      0.004802346229553223,
      0.005861520767211914,
      0.006419718265533447,
      0.006793320178985596,
      0.009462952613830566,
      0.019492506980895996,
      0.006276428699493408,
      0.005093932151794434,
      0.005180001258850098,
      0.00661998987197876,
      0.010437726974487305,
      0.012740373611450195,
      0.005203306674957275,
      0.004828691482543945,
      0.005844295024871826,
      0.014749526977539062,
      0.006807565689086914,
      0.013963401317596436,
      0.009508311748504639,
      0.004969239234924316,
      0.00531381368637085,
      0.00589674711227417,
      0.007108509540557861,
      0.010583162307739258,
      0.005044162273406982,
      0.004859030246734619,
      0.005387604236602783,
      0.005802512168884277,
      0.006783246994018555,
      0.010843276977539062,
      0.00535273551940918,
      0.011610031127929688,
      0.0052841901779174805,
      0.00575023889541626,
      0.007442831993103027,
      0.01055908203125
    ],
    "mean_test_score": [
      0.8205607476635514,
      0.8289719626168224,
      0.8227414330218068,
      0.8277258566978193,
      0.8149532710280374,
      0.8205607476635514,
      0.8404984423676013,
      0.8414330218068535,
      0.8320872274143302,
      0.8364485981308412,
      0.8345794392523365,
      0.8436137071651091,
      0.8364485981308412,
      0.8429906542056075,
      0.8423676012461059,
      0.8370716510903426,
      0.8433021806853582,
      0.8501557632398754,
      0.8299065420560747,
      0.8317757009345794,
      0.8411214953271028,
      0.8473520249221184,
      0.8482866043613707,
      0.8489096573208723,
      0.8289719626168224,
      0.832398753894081,
      0.8345794392523365,
      0.8314641744548287,
      0.8417445482866044,
      0.8417445482866044,
      0.8065420560747664,
      0.795638629283489,
      0.8190031152647975,
      0.8205607476635514,
      0.8233644859813084,
      0.8193146417445483,
      0.8093457943925234,
      0.795638629283489,
      0.8,
      0.8109034267912772,
      0.8124610591900312,
      0.8018691588785046,
      0.7700934579439253,
      0.7912772585669782,
      0.7470404984423676,
      0.7766355140186916,
      0.7654205607476635,
      0.787227414330218
    ],
    "mean_train_score": [
      0.8425682918395574,
      0.8560809993084371,
      0.8687495677731674,
      0.8966809301521438,
      0.9244013658367911,
      0.9687487033195021,
      0.856388744813278,
      0.8656379668049793,
      0.8738355809128631,
      0.9049870331950207,
      0.9336492911479946,
      0.9601249135546336,
      0.860115836791148,
      0.8729015387275242,
      0.8773690352697096,
      0.8991740145228215,
      0.9201547372060856,
      0.9381128976486861,
      0.8518179460580914,
      0.8653194156293222,
      0.8766403008298755,
      0.8895154737206086,
      0.8995863589211618,
      0.9099770919778699,
      0.8533774204702628,
      0.8567047026279392,
      0.866464816735823,
      0.8696779910096819,
      0.8803812240663901,
      0.8772601141078838,
      0.8361376210235131,
      0.8287655601659751,
      0.8513035961272476,
      0.8534828838174274,
      0.8475596473029046,
      0.8483830394190872,
      0.818789764868603,
      0.8199399204702628,
      0.8104931708160443,
      0.8216895746887968,
      0.8206643326417705,
      0.8232572614107884,
      0.7828721473029046,
      0.7743464730290456,
      0.7807849239280775,
      0.7783030774550483,
      0.7830627593360995,
      0.787638744813278
    ],
    "param_clf__alpha": [
      0.01,
      0.01,
      0.01,
      0.01,
      0.01,
      0.01,
      0.03162277660168379,
      0.03162277660168379,
      0.03162277660168379,
      0.03162277660168379,
      0.03162277660168379,
      0.03162277660168379,
      0.1,
      0.1,
      0.1,
      0.1,
      0.1,
      0.1,
      0.31622776601683794,
      0.31622776601683794,
      0.31622776601683794,
      0.31622776601683794,
      0.31622776601683794,
      0.31622776601683794,
      1.0,
      1.0,
      1.0,
      1.0,
      1.0,
      1.0,
      3.1622776601683795,
      3.1622776601683795,
      3.1622776601683795,
      3.1622776601683795,
      3.1622776601683795,
      3.1622776601683795,
      10.0,
      10.0,
      10.0,
      10.0,
      10.0,
      10.0,
      31.622776601683793,
      31.622776601683793,
      31.622776601683793,
      31.622776601683793,
      31.622776601683793,
      31.622776601683793
    ],
    "param_pca__n_components": [
      0.75,
      0.8,
      0.85,
      0.9,
      0.95,
      0.99,
      0.75,
      0.8,
      0.85,
      0.9,
      0.95,
      0.99,
      0.75,
      0.8,
      0.85,
      0.9,
      0.95,
      0.99,
      0.75,
      0.8,
      0.85,
      0.9,
      0.95,
      0.99,
      0.75,
      0.8,
      0.85,
      0.9,
      0.95,
      0.99,
      0.75,
      0.8,
      0.85,
      0.9,
      0.95,
      0.99,
      0.75,
      0.8,
      0.85,
      0.9,
      0.95,
      0.99,
      0.75,
      0.8,
      0.85,
      0.9,
      0.95,
      0.99
    ],
    "params": [
      {
        "clf__alpha": 0.01,
        "pca__n_components": 0.75
      },
      {
        "clf__alpha": 0.01,
        "pca__n_components": 0.8
      },
      {
        "clf__alpha": 0.01,
        "pca__n_components": 0.85
      },
      {
        "clf__alpha": 0.01,
        "pca__n_components": 0.9
      },
      {
        "clf__alpha": 0.01,
        "pca__n_components": 0.95
      },
      {
        "clf__alpha": 0.01,
        "pca__n_components": 0.99
      },
      {
        "clf__alpha": 0.03162277660168379,
        "pca__n_components": 0.75
      },
      {
        "clf__alpha": 0.03162277660168379,
        "pca__n_components": 0.8
      },
      {
        "clf__alpha": 0.03162277660168379,
        "pca__n_components": 0.85
      },
      {
        "clf__alpha": 0.03162277660168379,
        "pca__n_components": 0.9
      },
      {
        "clf__alpha": 0.03162277660168379,
        "pca__n_components": 0.95
      },
      {
        "clf__alpha": 0.03162277660168379,
        "pca__n_components": 0.99
      },
      {
        "clf__alpha": 0.1,
        "pca__n_components": 0.75
      },
      {
        "clf__alpha": 0.1,
        "pca__n_components": 0.8
      },
      {
        "clf__alpha": 0.1,
        "pca__n_components": 0.85
      },
      {
        "clf__alpha": 0.1,
        "pca__n_components": 0.9
      },
      {
        "clf__alpha": 0.1,
        "pca__n_components": 0.95
      },
      {
        "clf__alpha": 0.1,
        "pca__n_components": 0.99
      },
      {
        "clf__alpha": 0.31622776601683794,
        "pca__n_components": 0.75
      },
      {
        "clf__alpha": 0.31622776601683794,
        "pca__n_components": 0.8
      },
      {
        "clf__alpha": 0.31622776601683794,
        "pca__n_components": 0.85
      },
      {
        "clf__alpha": 0.31622776601683794,
        "pca__n_components": 0.9
      },
      {
        "clf__alpha": 0.31622776601683794,
        "pca__n_components": 0.95
      },
      {
        "clf__alpha": 0.31622776601683794,
        "pca__n_components": 0.99
      },
      {
        "clf__alpha": 1.0,
        "pca__n_components": 0.75
      },
      {
        "clf__alpha": 1.0,
        "pca__n_components": 0.8
      },
      {
        "clf__alpha": 1.0,
        "pca__n_components": 0.85
      },
      {
        "clf__alpha": 1.0,
        "pca__n_components": 0.9
      },
      {
        "clf__alpha": 1.0,
        "pca__n_components": 0.95
      },
      {
        "clf__alpha": 1.0,
        "pca__n_components": 0.99
      },
      {
        "clf__alpha": 3.1622776601683795,
        "pca__n_components": 0.75
      },
      {
        "clf__alpha": 3.1622776601683795,
        "pca__n_components": 0.8
      },
      {
        "clf__alpha": 3.1622776601683795,
        "pca__n_components": 0.85
      },
      {
        "clf__alpha": 3.1622776601683795,
        "pca__n_components": 0.9
      },
      {
        "clf__alpha": 3.1622776601683795,
        "pca__n_components": 0.95
      },
      {
        "clf__alpha": 3.1622776601683795,
        "pca__n_components": 0.99
      },
      {
        "clf__alpha": 10.0,
        "pca__n_components": 0.75
      },
      {
        "clf__alpha": 10.0,
        "pca__n_components": 0.8
      },
      {
        "clf__alpha": 10.0,
        "pca__n_components": 0.85
      },
      {
        "clf__alpha": 10.0,
        "pca__n_components": 0.9
      },
      {
        "clf__alpha": 10.0,
        "pca__n_components": 0.95
      },
      {
        "clf__alpha": 10.0,
        "pca__n_components": 0.99
      },
      {
        "clf__alpha": 31.622776601683793,
        "pca__n_components": 0.75
      },
      {
        "clf__alpha": 31.622776601683793,
        "pca__n_components": 0.8
      },
      {
        "clf__alpha": 31.622776601683793,
        "pca__n_components": 0.85
      },
      {
        "clf__alpha": 31.622776601683793,
        "pca__n_components": 0.9
      },
      {
        "clf__alpha": 31.622776601683793,
        "pca__n_components": 0.95
      },
      {
        "clf__alpha": 31.622776601683793,
        "pca__n_components": 0.99
      }
    ],
    "rank_test_score": [
      29,
      24,
      28,
      26,
      34,
      29,
      13,
      11,
      20,
      15,
      17,
      5,
      15,
      7,
      8,
      14,
      6,
      1,
      23,
      21,
      12,
      4,
      3,
      2,
      24,
      19,
      17,
      22,
      9,
      9,
      38,
      41,
      33,
      29,
      27,
      32,
      37,
      41,
      40,
      36,
      35,
      39,
      46,
      43,
      48,
      45,
      47,
      44
    ],
    "split0_test_score": [
      0.7851851851851852,
      0.8111111111111111,
      0.8197530864197531,
      0.8382716049382716,
      0.8382716049382716,
      0.8308641975308642,
      0.8493827160493828,
      0.828395061728395,
      0.817283950617284,
      0.8407407407407408,
      0.8506172839506173,
      0.8518518518518519,
      0.8185185185185185,
      0.8222222222222222,
      0.828395061728395,
      0.825925925925926,
      0.8444444444444444,
      0.8469135802469135,
      0.8098765432098766,
      0.8111111111111111,
      0.8358024691358025,
      0.8345679012345679,
      0.845679012345679,
      0.8407407407407408,
      0.8271604938271605,
      0.8111111111111111,
      0.8234567901234567,
      0.8135802469135802,
      0.828395061728395,
      0.8197530864197531,
      0.7913580246913581,
      0.7876543209876543,
      0.8024691358024691,
      0.8037037037037037,
      0.7975308641975308,
      0.8209876543209876,
      0.7703703703703704,
      0.7802469135802469,
      0.7703703703703704,
      0.8098765432098766,
      0.7777777777777778,
      0.8135802469135802,
      0.8037037037037037,
      0.8024691358024691,
      0.7345679012345679,
      0.8061728395061728,
      0.7246913580246913,
      0.8061728395061728
    ],
    "split0_train_score": [
      0.8358333333333333,
      0.8620833333333333,
      0.8745833333333334,
      0.9004166666666666,
      0.9229166666666667,
      0.97375,
      0.85875,
      0.875,
      0.8775,
      0.9075,
      0.9379166666666666,
      0.9604166666666667,
      0.8516666666666667,
      0.8770833333333333,
      0.88375,
      0.90375,
      0.9291666666666667,
      0.9408333333333333,
      0.8525,
      0.8679166666666667,
      0.88125,
      0.8929166666666667,
      0.90125,
      0.9179166666666667,
      0.8558333333333333,
      0.8633333333333333,
      0.8720833333333333,
      0.8695833333333334,
      0.8875,
      0.87875,
      0.8366666666666667,
      0.83,
      0.8566666666666667,
      0.8575,
      0.8475,
      0.84125,
      0.8133333333333334,
      0.8220833333333334,
      0.8154166666666667,
      0.80875,
      0.8204166666666667,
      0.82,
      0.78875,
      0.77,
      0.7766666666666666,
      0.7841666666666667,
      0.7725,
      0.78375
    ],
    "split1_test_score": [
      0.8475,
      0.82875,
      0.80625,
      0.82875,
      0.78125,
      0.83875,
      0.8525,
      0.8675,
      0.84625,
      0.84625,
      0.8375,
      0.85375,
      0.86625,
      0.8725,
      0.855,
      0.84875,
      0.85125,
      0.85875,
      0.85375,
      0.85,
      0.84875,
      0.86375,
      0.8525,
      0.86,
      0.83,
      0.85125,
      0.84375,
      0.84,
      0.8525,
      0.85125,
      0.835,
      0.825,
      0.83125,
      0.83875,
      0.83,
      0.83,
      0.835,
      0.82125,
      0.81875,
      0.825,
      0.8225,
      0.82,
      0.745,
      0.795,
      0.73,
      0.77875,
      0.78375,
      0.78875
    ],
    "split1_train_score": [
      0.8365145228215768,
      0.8360995850622407,
      0.8643153526970955,
      0.9024896265560166,
      0.908298755186722,
      0.9639004149377594,
      0.8547717842323651,
      0.8630705394190872,
      0.8697095435684647,
      0.904149377593361,
      0.9257261410788382,
      0.9543568464730291,
      0.8535269709543568,
      0.8676348547717843,
      0.8734439834024896,
      0.8991701244813278,
      0.9116182572614108,
      0.9311203319502075,
      0.8489626556016597,
      0.8589211618257261,
      0.8659751037344399,
      0.8863070539419087,
      0.8908713692946059,
      0.9029045643153527,
      0.8452282157676348,
      0.8489626556016597,
      0.8589211618257261,
      0.862240663900415,
      0.8730290456431535,
      0.8759336099585062,
      0.8402489626556017,
      0.8311203319502075,
      0.8443983402489627,
      0.8481327800829875,
      0.8340248962655602,
      0.8535269709543568,
      0.8240663900414937,
      0.8091286307053942,
      0.8033195020746888,
      0.8215767634854771,
      0.8128630705394191,
      0.8161825726141079,
      0.7871369294605809,
      0.7709543568464731,
      0.7775933609958506,
      0.7576763485477178,
      0.7622406639004149,
      0.7676348547717843
    ],
    "split2_test_score": [
      0.84375,
      0.86625,
      0.8575,
      0.84875,
      0.835,
      0.8225,
      0.85375,
      0.84875,
      0.8475,
      0.845,
      0.83875,
      0.8525,
      0.8525,
      0.86125,
      0.8625,
      0.85625,
      0.85375,
      0.87125,
      0.8575,
      0.865,
      0.8575,
      0.86875,
      0.87125,
      0.87125,
      0.85875,
      0.85375,
      0.86625,
      0.8575,
      0.87125,
      0.87625,
      0.82375,
      0.81625,
      0.845,
      0.84125,
      0.865,
      0.82125,
      0.8375,
      0.84,
      0.83375,
      0.8625,
      0.855,
      0.82125,
      0.78125,
      0.81125,
      0.81125,
      0.76125,
      0.82875,
      0.82875
    ],
    "split2_train_score": [
      0.8344398340248963,
      0.8572614107883817,
      0.8684647302904565,
      0.9008298755186722,
      0.9323651452282158,
      0.9672199170124481,
      0.8423236514522822,
      0.8510373443983402,
      0.8692946058091287,
      0.904149377593361,
      0.9323651452282158,
      0.9630705394190872,
      0.8560165975103734,
      0.8643153526970955,
      0.8726141078838174,
      0.8954356846473029,
      0.91701244813278,
      0.9369294605809129,
      0.8394190871369295,
      0.8626556016597511,
      0.8734439834024896,
      0.8863070539419087,
      0.9,
      0.9012448132780083,
      0.8477178423236514,
      0.8539419087136929,
      0.8605809128630706,
      0.8684647302904565,
      0.8746887966804979,
      0.8717842323651452,
      0.8195020746887967,
      0.8112033195020747,
      0.84149377593361,
      0.845643153526971,
      0.84149377593361,
      0.8319502074688797,
      0.8024896265560166,
      0.8145228215767635,
      0.8120331950207469,
      0.8195020746887967,
      0.8182572614107884,
      0.8145228215767635,
      0.7651452282157676,
      0.7668049792531121,
      0.7672199170124482,
      0.7601659751037344,
      0.7817427385892116,
      0.7842323651452282
    ],
    "split3_test_score": [
      0.80625,
      0.81,
      0.8075,
      0.795,
      0.805,
      0.79,
      0.80625,
      0.82125,
      0.8175,
      0.81375,
      0.81125,
      0.81625,
      0.80875,
      0.81625,
      0.82375,
      0.8175,
      0.82375,
      0.82375,
      0.79875,
      0.80125,
      0.8225,
      0.8225,
      0.82375,
      0.82375,
      0.8,
      0.81375,
      0.805,
      0.815,
      0.815,
      0.82,
      0.77625,
      0.75375,
      0.7975,
      0.79875,
      0.80125,
      0.805,
      0.795,
      0.74125,
      0.7775,
      0.74625,
      0.795,
      0.7525,
      0.75,
      0.75625,
      0.7125,
      0.76,
      0.725,
      0.725
    ],
    "split3_train_score": [
      0.8634854771784233,
      0.8688796680497926,
      0.8676348547717843,
      0.8829875518672199,
      0.9340248962655602,
      0.9701244813278008,
      0.8697095435684647,
      0.8734439834024896,
      0.8788381742738589,
      0.904149377593361,
      0.9385892116182573,
      0.9626556016597511,
      0.879253112033195,
      0.8825726141078838,
      0.8796680497925311,
      0.8983402489626556,
      0.9228215767634855,
      0.9435684647302904,
      0.866390041493776,
      0.8717842323651452,
      0.8858921161825726,
      0.8925311203319503,
      0.9062240663900415,
      0.9178423236514522,
      0.8647302904564316,
      0.8605809128630706,
      0.8742738589211618,
      0.8784232365145228,
      0.8863070539419087,
      0.8825726141078838,
      0.8481327800829875,
      0.8427385892116183,
      0.8626556016597511,
      0.8626556016597511,
      0.8672199170124482,
      0.8668049792531121,
      0.8352697095435685,
      0.8340248962655602,
      0.8112033195020747,
      0.8369294605809129,
      0.8311203319502075,
      0.8423236514522822,
      0.7904564315352697,
      0.7896265560165975,
      0.8016597510373444,
      0.8112033195020747,
      0.8157676348547718,
      0.8149377593360996
    ],
    "std_fit_time": [
      0.044401734742585,
      0.01426475840810417,
      0.027732612116996954,
      0.015879569163187245,
      0.1258315806665742,
      0.06013638425724224,
      0.11098805147298872,
      0.010950410270875146,
      0.013318662992336873,
      0.02111420474573911,
      0.05268381225955759,
      0.012538883534005963,
      0.032988365049447854,
      0.05873198219901499,
      0.24354420247130013,
      0.0674434115561702,
      0.08843613665338217,
      0.060219132254423026,
      0.0687394425951698,
      0.16635726044958682,
      0.0364925958524158,
      0.06108309075088871,
      0.13461420475864536,
      0.16389034817599427,
      0.07211045729267694,
      0.003178522434198519,
      0.09461554770539793,
      0.05138740823181565,
      0.021889012466477457,
      0.08430787818583307,
      0.170618600864835,
      0.017160512384438203,
      0.005366118777070441,
      0.015400081537596816,
      0.021729042797786847,
      0.013461443872798441,
      0.009407649229815756,
      0.022771041698242254,
      0.009281993675502585,
      0.02472914632970068,
      0.04807451616952885,
      0.044170343796331224,
      0.18058478018426846,
      0.05820438660643104,
      0.014368077936510135,
      0.014588955988121205,
      0.017727394310189548,
      0.023002896156985978
    ],
    "std_score_time": [
      0.0010364134749599138,
      6.341284345731431e-05,
      0.0005584284161696986,
      0.00018777763891785629,
      0.011605294811126885,
      0.0019203719459125238,
      0.0004251921973545102,
      3.6577054517315804e-05,
      0.00010816231388191568,
      0.00015987475775117743,
      6.28482861189579e-05,
      0.003959422724584432,
      0.0004091301893667863,
      0.0012205923624376996,
      0.0009805884343442879,
      0.0006594923888548057,
      0.0016083605001734663,
      0.006417143794635885,
      0.001031819328356524,
      0.00010652462338718329,
      0.0001471390849127172,
      0.0007917910334127327,
      0.0018371204724157194,
      0.0026438173401409004,
      0.0007286341392678667,
      3.945521345680553e-05,
      0.0007149470452915526,
      0.01507803972267499,
      0.00014294053808243078,
      0.0035058018329141042,
      0.006509489670197584,
      0.00033446687414839804,
      0.0002602824142597099,
      3.338386928332362e-05,
      0.00042921858448768106,
      0.0001414631078234737,
      0.00039203077770284345,
      7.427616492305428e-05,
      0.00031066637875802405,
      0.0001653647701052647,
      9.734064448214147e-05,
      4.528352806147307e-05,
      0.0004979847326418623,
      0.011841225792124837,
      6.425469173183327e-05,
      0.00010736520650995039,
      0.001430441025151566,
      0.0002515496794364258
    ],
    "std_test_score": [
      0.02610945348653511,
      0.02272761283647509,
      0.020712952680905193,
      0.020134427568574528,
      0.023348322357902778,
      0.018518708166974974,
      0.01979655980519359,
      0.018085936425832096,
      0.014748577047007431,
      0.01323709579276367,
      0.014387720674934096,
      0.01578041270463192,
      0.02361946367555104,
      0.02423142394548034,
      0.016626206187079804,
      0.015889199340048826,
      0.011770744725024115,
      0.017485090825391934,
      0.02597317276573951,
      0.02641702760058601,
      0.013225626754173778,
      0.019398216239460486,
      0.01695880826627732,
      0.018155852150498097,
      0.020767128507035812,
      0.020079899552748415,
      0.022808024871679336,
      0.01831279871891596,
      0.021656961277139824,
      0.023645749470246814,
      0.023716988203973402,
      0.027822857543715978,
      0.019749192502537188,
      0.019478015127506958,
      0.027079275697039315,
      0.009009035535263304,
      0.028216658870234668,
      0.03809109507747058,
      0.026817783140259347,
      0.041893063716253245,
      0.02925107571789141,
      0.028593279403275107,
      0.02395044906692032,
      0.020982127919969108,
      0.037900657034763786,
      0.018687691894077072,
      0.04369253022368001,
      0.03854716811652547
    ],
    "std_train_score": [
      0.012099672044613574,
      0.01225238978564449,
      0.0037087329850924817,
      0.007943850415994241,
      0.010216806270579522,
      0.00363141919294837,
      0.00979107525130363,
      0.009596241695428949,
      0.004361724046800705,
      0.0014508620613193507,
      0.005172974140461624,
      0.0034798280041904097,
      0.01115617200452929,
      0.007288306654781851,
      0.004583054256465576,
      0.002983702963068088,
      0.006539731957302486,
      0.004676015420128179,
      0.009678527123274471,
      0.004913581305384061,
      0.007596187990376273,
      0.003211314096032865,
      0.005544118622799733,
      0.007924204287296501,
      0.007638054840677393,
      0.00562441270678881,
      0.006783729114493747,
      0.005772220437550091,
      0.006562215472256528,
      0.0039429465612756,
      0.01046193411880511,
      0.011299852097558499,
      0.008682535433225481,
      0.006898567895504435,
      0.012313752920662158,
      0.013102920630015892,
      0.012195270638793125,
      0.009343576786455952,
      0.004432220671095272,
      0.010055901224520675,
      0.006634058755276925,
      0.01118568998650354,
      0.010301729791889192,
      0.00895479402983686,
      0.012717251435396575,
      0.021628823548184895,
      0.02010275404384421,
      0.017118101306622
    ]
  },
  "xval_grid": {
    "clf__alpha": [
      0.01,
      0.03162277660168379,
      0.1,
      0.31622776601683794,
      1.0,
      3.1622776601683795,
      10.0,
      31.622776601683793
    ],
    "pca__n_components": [
      0.75,
      0.8,
      0.85,
      0.9,
      0.95,
      0.99
    ]
  }
}