{
  "fold_id": 2,
  "test": {
    "accuracy": 0.8675,
    "confusion_matrix": [
      [
        350,
        50
      ],
      [
        56,
        344
      ]
    ],
    "f1_macro": 0.8674925464557381,
    "f1_micro": 0.8675,
    "f1_weighted": 0.8674925464557381,
    "per_class": {
      "y=0": {
        "accuracy": 0.8675,
        "confusion_matrix": [
          [
            344,
            56
          ],
          [
            50,
            350
          ]
        ],
        "f1": 0.8684863523573201,
        "precision": 0.8620689655172413,
        "recall": 0.875
      },
      "y=1": {
        "accuracy": 0.8675,
        "confusion_matrix": [
          [
            350,
            50
          ],
          [
            56,
            344
          ]
        ],
        "f1": 0.8664987405541562,
        "precision": 0.8730964467005076,
        "recall": 0.86
      }
    },
    "precision_macro": 0.8675827061088744,
    "precision_micro": 0.8675,
    "precision_weighted": 0.8675827061088746,
    "recall_macro": 0.8674999999999999,
    "recall_micro": 0.8675,
    "recall_weighted": 0.8675
  },
  "train": {
    "accuracy": 0.9180124223602485,
    "confusion_matrix": [
      [
        1483,
        127
      ],
      [
        137,
        1473
      ]
    ],
    "f1_macro": 0.9180116316078817,
    "f1_micro": 0.9180124223602485,
    "f1_weighted": 0.9180116316078817,
    "per_class": {
      "y=0": {
        "accuracy": 0.9180124223602485,
        "confusion_matrix": [
          [
            1473,
            137
          ],
          [
            127,
            1483
          ]
        ],
        "f1": 0.9182662538699691,
        "precision": 0.9154320987654321,
        "recall": 0.9211180124223602
      },
      "y=1": {
        "accuracy": 0.9180124223602485,
        "confusion_matrix": [
          [
            1483,
            127
          ],
          [
            137,
            1473
          ]
        ],
        "f1": 0.9177570093457944,
        "precision": 0.920625,
        "recall": 0.9149068322981366
      }
    },
    "precision_macro": 0.918028549382716,
    "precision_micro": 0.9180124223602485,
    "precision_weighted": 0.918028549382716,
    "recall_macro": 0.9180124223602484,
    "recall_micro": 0.9180124223602485,
    "recall_weighted": 0.9180124223602485
  },
  "xval": {
    "mean_fit_time": [
      0.3796107769012451,
      0.41455793380737305,
      0.3785651922225952,
      0.41047924757003784,
      0.4025611877441406,
      0.4135274887084961,
      0.39879846572875977,
      0.3924504518508911,
      0.3814765214920044,
      0.4985526204109192,
      0.420745313167572,
      0.3749350905418396,
      0.36219167709350586,
      0.3763282895088196,
      0.41751009225845337,
      0.4217984676361084,
      0.44612663984298706,
      0.3777068853378296,
      0.4064714312553406,
      0.41764402389526367,
      0.44978243112564087,
      0.408128023147583,
      1.4856868982315063,
      0.4330832362174988,
      0.5002128481864929,
      0.39371252059936523,
      0.6061859726905823,
      0.40563809871673584,
      0.41745561361312866,
      0.41519707441329956,
      0.40637683868408203,
      0.3550913333892822,
      0.3561338186264038,
      0.34892207384109497,
      0.3540118932723999,
      0.38262099027633667,
      0.351905882358551,
      0.4028276801109314,
      0.40167367458343506,
      0.3457942605018616,
      0.3641597032546997,
      0.5209588408470154,
      0.3816606402397156,
      0.38725996017456055,
      0.3739287853240967,
      0.42253488302230835,
      0.42802929878234863,
      0.4031509757041931
    ],
    "mean_score_time": [
      0.005688309669494629,
      0.005050718784332275,
      0.004867613315582275,
      0.005371749401092529,
      0.007456839084625244,
      0.01080554723739624,
      0.004609286785125732,
      0.004624485969543457,
      0.010747313499450684,
      0.007842183113098145,
      0.008933961391448975,
      0.010471701622009277,
      0.004534780979156494,
      0.004563510417938232,
      0.005110025405883789,
      0.0058574676513671875,
      0.006821632385253906,
      0.010176777839660645,
      0.004638493061065674,
      0.005467832088470459,
      0.005221068859100342,
      0.005418658256530762,
      0.012083470821380615,
      0.010645687580108643,
      0.005365610122680664,
      0.004704475402832031,
      0.006035864353179932,
      0.005871593952178955,
      0.006502866744995117,
      0.010266721248626709,
      0.004634499549865723,
      0.004600405693054199,
      0.004792988300323486,
      0.0054013729095458984,
      0.006403207778930664,
      0.010813713073730469,
      0.004552960395812988,
      0.004955470561981201,
      0.004863858222961426,
      0.005409896373748779,
      0.0064601898193359375,
      0.013850212097167969,
      0.005085110664367676,
      0.004999637603759766,
      0.004917740821838379,
      0.005770087242126465,
      0.007234454154968262,
      0.012757301330566406
    ],
    "mean_test_score": [
      0.8012422360248447,
      0.820807453416149,
      0.8285714285714286,
      0.8335403726708075,
      0.8341614906832299,
      0.8428571428571429,
      0.8021739130434783,
      0.8170807453416149,
      0.8375776397515527,
      0.8475155279503106,
      0.8503105590062112,
      0.8524844720496895,
      0.825776397515528,
      0.8273291925465839,
      0.8360248447204969,
      0.8472049689440994,
      0.8593167701863355,
      0.8571428571428571,
      0.8270186335403726,
      0.8267080745341615,
      0.8400621118012422,
      0.8437888198757764,
      0.8416149068322981,
      0.8503105590062112,
      0.8040372670807453,
      0.8164596273291925,
      0.8322981366459627,
      0.8239130434782609,
      0.8263975155279503,
      0.8416149068322981,
      0.8093167701863354,
      0.8217391304347826,
      0.8139751552795031,
      0.8158385093167702,
      0.8186335403726708,
      0.8201863354037268,
      0.8059006211180124,
      0.7937888198757764,
      0.796583850931677,
      0.7916149068322982,
      0.8043478260869565,
      0.7807453416149068,
      0.7593167701863354,
      0.7478260869565218,
      0.7760869565217391,
      0.7484472049689441,
      0.7664596273291926,
      0.7555900621118012
    ],
    "mean_train_score": [
      0.8389218476732622,
      0.8462767051884366,
      0.873705462775625,
      0.8949294434347245,
      0.9316732965261822,
      0.9725682418298411,
      0.8460628064881176,
      0.8593073797194885,
      0.8774334727889991,
      0.9029988683515655,
      0.9331131476972669,
      0.9593095229930386,
      0.8526876650320633,
      0.8633603100030863,
      0.8788733239600837,
      0.9027922567813175,
      0.9198582867528549,
      0.9379822365488153,
      0.8507188539487672,
      0.8595088474332155,
      0.876286392784884,
      0.8883980316175714,
      0.9009250368643051,
      0.9060993278694146,
      0.8354930386475086,
      0.8466749254140804,
      0.8625175748431124,
      0.8602461335345153,
      0.8685260279139947,
      0.8774304722060287,
      0.8169910153972771,
      0.8363293439868318,
      0.8384970508555948,
      0.8482416583793423,
      0.8377820547992181,
      0.8509276087925655,
      0.8036294194300606,
      0.8147993038647509,
      0.8076497719556942,
      0.8132501457426013,
      0.8156296080381331,
      0.8136646548472275,
      0.7691390041493775,
      0.768306985357155,
      0.7778646994273173,
      0.7766254586605398,
      0.7739227907136242,
      0.7797987894790988
    ],
    "param_clf__alpha": [
      0.01,
      0.01,
      0.01,
      0.01,
      0.01,
      0.01,
      0.03162277660168379,
      0.03162277660168379,
      0.03162277660168379,
      0.03162277660168379,
      0.03162277660168379,
      0.03162277660168379,
      0.1,
      0.1,
      0.1,
      0.1,
      0.1,
      0.1,
      0.31622776601683794,
      0.31622776601683794,
      0.31622776601683794,
      0.31622776601683794,
      0.31622776601683794,
      0.31622776601683794,
      1.0,
      1.0,
      1.0,
      1.0,
      1.0,
      1.0,
      3.1622776601683795,
      3.1622776601683795,
      3.1622776601683795,
      3.1622776601683795,
      3.1622776601683795,
      3.1622776601683795,
      10.0,
      10.0,
      10.0,
      10.0,
      10.0,
      10.0,
      31.622776601683793,
      31.622776601683793,
      31.622776601683793,
      31.622776601683793,
      31.622776601683793,
      31.622776601683793
    ],
    "param_pca__n_components": [
      0.75,
      0.8,
      0.85,
      0.9,
      0.95,
      0.99,
      0.75,
      0.8,
      0.85,
      0.9,
      0.95,
      0.99,
      0.75,
      0.8,
      0.85,
      0.9,
      0.95,
      0.99,
      0.75,
      0.8,
      0.85,
      0.9,
      0.95,
      0.99,
      0.75,
      0.8,
      0.85,
      0.9,
      0.95,
      0.99,
      0.75,
      0.8,
      0.85,
      0.9,
      0.95,
      0.99,
      0.75,
      0.8,
      0.85,
      0.9,
      0.95,
      0.99,
      0.75,
      0.8,
      0.85,
      0.9,
      0.95,
      0.99
    ],
    "params": [
      {
        "clf__alpha": 0.01,
        "pca__n_components": 0.75
      },
      {
        "clf__alpha": 0.01,
        "pca__n_components": 0.8
      },
      {
        "clf__alpha": 0.01,
        "pca__n_components": 0.85
      },
      {
        "clf__alpha": 0.01,
        "pca__n_components": 0.9
      },
      {
        "clf__alpha": 0.01,
        "pca__n_components": 0.95
      },
      {
        "clf__alpha": 0.01,
        "pca__n_components": 0.99
      },
      {
        "clf__alpha": 0.03162277660168379,
        "pca__n_components": 0.75
      },
      {
        "clf__alpha": 0.03162277660168379,
        "pca__n_components": 0.8
      },
      {
        "clf__alpha": 0.03162277660168379,
        "pca__n_components": 0.85
      },
      {
        "clf__alpha": 0.03162277660168379,
        "pca__n_components": 0.9
      },
      {
        "clf__alpha": 0.03162277660168379,
        "pca__n_components": 0.95
      },
      {
        "clf__alpha": 0.03162277660168379,
        "pca__n_components": 0.99
      },
      {
        "clf__alpha": 0.1,
        "pca__n_components": 0.75
      },
      {
        "clf__alpha": 0.1,
        "pca__n_components": 0.8
      },
      {
        "clf__alpha": 0.1,
        "pca__n_components": 0.85
      },
      {
        "clf__alpha": 0.1,
        "pca__n_components": 0.9
      },
      {
        "clf__alpha": 0.1,
        "pca__n_components": 0.95
      },
      {
        "clf__alpha": 0.1,
        "pca__n_components": 0.99
      },
      {
        "clf__alpha": 0.31622776601683794,
        "pca__n_components": 0.75
      },
      {
        "clf__alpha": 0.31622776601683794,
        "pca__n_components": 0.8
      },
      {
        "clf__alpha": 0.31622776601683794,
        "pca__n_components": 0.85
      },
      {
        "clf__alpha": 0.31622776601683794,
        "pca__n_components": 0.9
      },
      {
        "clf__alpha": 0.31622776601683794,
        "pca__n_components": 0.95
      },
      {
        "clf__alpha": 0.31622776601683794,
        "pca__n_components": 0.99
      },
      {
        "clf__alpha": 1.0,
        "pca__n_components": 0.75
      },
      {
        "clf__alpha": 1.0,
        "pca__n_components": 0.8
      },
      {
        "clf__alpha": 1.0,
        "pca__n_components": 0.85
      },
      {
        "clf__alpha": 1.0,
        "pca__n_components": 0.9
      },
      {
        "clf__alpha": 1.0,
        "pca__n_components": 0.95
      },
      {
        "clf__alpha": 1.0,
        "pca__n_components": 0.99
      },
      {
        "clf__alpha": 3.1622776601683795,
        "pca__n_components": 0.75
      },
      {
        "clf__alpha": 3.1622776601683795,
        "pca__n_components": 0.8
      },
      {
        "clf__alpha": 3.1622776601683795,
        "pca__n_components": 0.85
      },
      {
        "clf__alpha": 3.1622776601683795,
        "pca__n_components": 0.9
      },
      {
        "clf__alpha": 3.1622776601683795,
        "pca__n_components": 0.95
      },
      {
        "clf__alpha": 3.1622776601683795,
        "pca__n_components": 0.99
      },
      {
        "clf__alpha": 10.0,
        "pca__n_components": 0.75
      },
      {
        "clf__alpha": 10.0,
        "pca__n_components": 0.8
      },
      {
        "clf__alpha": 10.0,
        "pca__n_components": 0.85
      },
      {
        "clf__alpha": 10.0,
        "pca__n_components": 0.9
      },
      {
        "clf__alpha": 10.0,
        "pca__n_components": 0.95
      },
      {
        "clf__alpha": 10.0,
        "pca__n_components": 0.99
      },
      {
        "clf__alpha": 31.622776601683793,
        "pca__n_components": 0.75
      },
      {
        "clf__alpha": 31.622776601683793,
        "pca__n_components": 0.8
      },
      {
        "clf__alpha": 31.622776601683793,
        "pca__n_components": 0.85
      },
      {
        "clf__alpha": 31.622776601683793,
        "pca__n_components": 0.9
      },
      {
        "clf__alpha": 31.622776601683793,
        "pca__n_components": 0.95
      },
      {
        "clf__alpha": 31.622776601683793,
        "pca__n_components": 0.99
      }
    ],
    "rank_test_score": [
      38,
      26,
      18,
      16,
      15,
      9,
      37,
      29,
      13,
      6,
      4,
      3,
      23,
      19,
      14,
      7,
      1,
      2,
      20,
      21,
      12,
      8,
      10,
      4,
      36,
      30,
      17,
      24,
      22,
      10,
      33,
      25,
      32,
      31,
      28,
      27,
      34,
      40,
      39,
      41,
      35,
      42,
      45,
      48,
      43,
      47,
      44,
      46
    ],
    "split0_test_score": [
      0.782716049382716,
      0.8333333333333334,
      0.817283950617284,
      0.8358024691358025,
      0.8395061728395061,
      0.8382716049382716,
      0.8012345679012346,
      0.808641975308642,
      0.825925925925926,
      0.8493827160493828,
      0.8469135802469135,
      0.8567901234567902,
      0.8358024691358025,
      0.8185185185185185,
      0.8135802469135802,
      0.8432098765432099,
      0.8617283950617284,
      0.8617283950617284,
      0.8271604938271605,
      0.8148148148148148,
      0.825925925925926,
      0.8358024691358025,
      0.8407407407407408,
      0.8382716049382716,
      0.7790123456790123,
      0.7876543209876543,
      0.8209876543209876,
      0.8234567901234567,
      0.8185185185185185,
      0.8395061728395061,
      0.808641975308642,
      0.8074074074074075,
      0.8037037037037037,
      0.8148148148148148,
      0.8074074074074075,
      0.8049382716049382,
      0.7901234567901234,
      0.7938271604938272,
      0.7925925925925926,
      0.7913580246913581,
      0.7938271604938272,
      0.7728395061728395,
      0.7419753086419754,
      0.7271604938271605,
      0.774074074074074,
      0.7765432098765432,
      0.7716049382716049,
      0.7641975308641975
    ],
    "split0_train_score": [
      0.8385892116182573,
      0.8564315352697095,
      0.8767634854771784,
      0.9,
      0.9323651452282158,
      0.9730290456431535,
      0.8448132780082988,
      0.8639004149377594,
      0.8746887966804979,
      0.8925311203319503,
      0.9203319502074688,
      0.9564315352697096,
      0.8556016597510373,
      0.8676348547717843,
      0.8738589211618257,
      0.9012448132780083,
      0.9116182572614108,
      0.9315352697095436,
      0.8485477178423236,
      0.8551867219917012,
      0.8738589211618257,
      0.8809128630705394,
      0.8962655601659751,
      0.9004149377593361,
      0.8199170124481328,
      0.8365145228215768,
      0.8589211618257261,
      0.8576763485477178,
      0.8601659751037345,
      0.8755186721991701,
      0.8381742738589212,
      0.8311203319502075,
      0.8215767634854771,
      0.8497925311203319,
      0.8369294605809129,
      0.846058091286307,
      0.8095435684647303,
      0.8128630705394191,
      0.8078838174273859,
      0.8107883817427386,
      0.8141078838174274,
      0.8128630705394191,
      0.7618257261410788,
      0.754356846473029,
      0.7925311203319502,
      0.7946058091286307,
      0.7937759336099585,
      0.7912863070539419
    ],
    "split1_test_score": [
      0.7839506172839507,
      0.8049382716049382,
      0.8469135802469135,
      0.8382716049382716,
      0.8518518518518519,
      0.8592592592592593,
      0.7851851851851852,
      0.8271604938271605,
      0.8432098765432099,
      0.8518518518518519,
      0.8641975308641975,
      0.8629629629629629,
      0.7987654320987654,
      0.8296296296296296,
      0.8493827160493828,
      0.8432098765432099,
      0.8580246913580247,
      0.8481481481481481,
      0.8135802469135802,
      0.8209876543209876,
      0.845679012345679,
      0.8444444444444444,
      0.8271604938271605,
      0.8530864197530864,
      0.8012345679012346,
      0.8160493827160494,
      0.8271604938271605,
      0.8222222222222222,
      0.8345679012345679,
      0.837037037037037,
      0.8,
      0.8098765432098766,
      0.8185185185185185,
      0.8209876543209876,
      0.7975308641975308,
      0.8222222222222222,
      0.8024691358024691,
      0.7888888888888889,
      0.7641975308641975,
      0.782716049382716,
      0.7839506172839507,
      0.782716049382716,
      0.7358024691358025,
      0.737037037037037,
      0.7987654320987654,
      0.745679012345679,
      0.725925925925926,
      0.7209876543209877
    ],
    "split1_train_score": [
      0.8377593360995851,
      0.8394190871369295,
      0.8701244813278008,
      0.8917012448132781,
      0.9273858921161826,
      0.9730290456431535,
      0.8439834024896266,
      0.845643153526971,
      0.8809128630705394,
      0.9103734439834025,
      0.933195020746888,
      0.9551867219917013,
      0.846058091286307,
      0.8651452282157677,
      0.8755186721991701,
      0.9016597510373444,
      0.9112033195020747,
      0.9352697095435685,
      0.8473029045643153,
      0.8493775933609958,
      0.8713692946058091,
      0.8883817427385892,
      0.8991701244813278,
      0.9037344398340249,
      0.837344398340249,
      0.8448132780082988,
      0.8580912863070539,
      0.8605809128630706,
      0.8730290456431535,
      0.8771784232365145,
      0.8091286307053942,
      0.8356846473029046,
      0.8435684647302905,
      0.8481327800829875,
      0.8360995850622407,
      0.8518672199170124,
      0.8037344398340249,
      0.8128630705394191,
      0.7970954356846474,
      0.8153526970954357,
      0.8153526970954357,
      0.8145228215767635,
      0.7647302904564315,
      0.7668049792531121,
      0.7804979253112033,
      0.7788381742738589,
      0.7634854771784232,
      0.7539419087136929
    ],
    "split2_test_score": [
      0.8575,
      0.84375,
      0.8425,
      0.84,
      0.83,
      0.86625,
      0.82875,
      0.85625,
      0.86375,
      0.86125,
      0.865,
      0.86875,
      0.8675,
      0.85625,
      0.865,
      0.86625,
      0.88,
      0.88375,
      0.86375,
      0.86625,
      0.865,
      0.87125,
      0.8725,
      0.88,
      0.85375,
      0.87875,
      0.86875,
      0.8775,
      0.87,
      0.875,
      0.85875,
      0.875,
      0.87,
      0.84875,
      0.8675,
      0.85625,
      0.85875,
      0.85625,
      0.8525,
      0.84125,
      0.85875,
      0.8275,
      0.805,
      0.82375,
      0.78125,
      0.7675,
      0.82375,
      0.83
    ],
    "split2_train_score": [
      0.8380165289256198,
      0.8326446280991735,
      0.8665289256198347,
      0.8892561983471075,
      0.9173553719008265,
      0.9714876033057851,
      0.8252066115702479,
      0.8607438016528925,
      0.8772727272727273,
      0.903305785123967,
      0.9363636363636364,
      0.9615702479338843,
      0.8396694214876033,
      0.8504132231404958,
      0.8785123966942149,
      0.8987603305785123,
      0.9223140495867769,
      0.9380165289256198,
      0.8392561983471074,
      0.8590909090909091,
      0.8735537190082645,
      0.8859504132231405,
      0.9020661157024793,
      0.9041322314049587,
      0.8293388429752067,
      0.8446280991735537,
      0.8574380165289256,
      0.8603305785123967,
      0.8698347107438017,
      0.8648760330578512,
      0.8227272727272728,
      0.8285123966942148,
      0.837603305785124,
      0.8367768595041323,
      0.8334710743801653,
      0.843801652892562,
      0.8012396694214876,
      0.8057851239669421,
      0.7979338842975207,
      0.7876033057851239,
      0.802892561983471,
      0.7900826446280992,
      0.7574380165289256,
      0.7673553719008265,
      0.7483471074380166,
      0.7359504132231405,
      0.7702479338842976,
      0.7747933884297521
    ],
    "split3_test_score": [
      0.78125,
      0.80125,
      0.8075,
      0.82,
      0.815,
      0.8075,
      0.79375,
      0.77625,
      0.8175,
      0.8275,
      0.825,
      0.82125,
      0.80125,
      0.805,
      0.81625,
      0.83625,
      0.8375,
      0.835,
      0.80375,
      0.805,
      0.82375,
      0.82375,
      0.82625,
      0.83,
      0.7825,
      0.78375,
      0.8125,
      0.7725,
      0.7825,
      0.815,
      0.77,
      0.795,
      0.76375,
      0.77875,
      0.8025,
      0.7975,
      0.7725,
      0.73625,
      0.7775,
      0.75125,
      0.78125,
      0.74,
      0.755,
      0.70375,
      0.75,
      0.70375,
      0.745,
      0.7075
    ],
    "split3_train_score": [
      0.8413223140495868,
      0.8566115702479339,
      0.881404958677686,
      0.8987603305785123,
      0.9495867768595041,
      0.9727272727272728,
      0.8702479338842976,
      0.8669421487603306,
      0.8768595041322315,
      0.9057851239669421,
      0.9425619834710743,
      0.9640495867768595,
      0.8694214876033057,
      0.8702479338842976,
      0.8876033057851239,
      0.9095041322314049,
      0.934297520661157,
      0.947107438016529,
      0.8677685950413223,
      0.8743801652892562,
      0.8863636363636364,
      0.8983471074380165,
      0.906198347107438,
      0.9161157024793388,
      0.8553719008264463,
      0.8607438016528925,
      0.8756198347107438,
      0.8623966942148761,
      0.8710743801652893,
      0.8921487603305785,
      0.7979338842975207,
      0.85,
      0.8512396694214877,
      0.8582644628099173,
      0.8446280991735537,
      0.8619834710743801,
      0.8,
      0.8276859504132231,
      0.8276859504132231,
      0.8392561983471074,
      0.8301652892561984,
      0.8371900826446281,
      0.7925619834710744,
      0.7847107438016528,
      0.7900826446280992,
      0.797107438016529,
      0.7681818181818182,
      0.7991735537190082
    ],
    "std_fit_time": [
      0.02216629930150008,
      0.03107433987412724,
      0.02200716688496785,
      0.029430345529555074,
      0.02872370590838959,
      0.015627888279128883,
      0.05314390542242262,
      0.02343036612600758,
      0.01818161509814716,
      0.0930171620887663,
      0.051928102834728006,
      0.012560253374519886,
      0.02276191676505984,
      0.04677010452013387,
      0.05109985294561241,
      0.04335399379208583,
      0.055481823061090445,
      0.0037865848992383287,
      0.04853127672021707,
      0.05336098039560678,
      0.039613922319721113,
      0.05214034927609872,
      1.242637977727785,
      0.03256765172153036,
      0.012373019884774437,
      0.02947270316894553,
      0.26304237746828635,
      0.03040995709506645,
      0.03781661486635581,
      0.025492044922931934,
      0.06520304833024203,
      0.01241457768343954,
      0.01078649981635558,
      0.01015486838113119,
      0.012914277560805936,
      0.035101725602810004,
      0.013170348296620124,
      0.031836595028666,
      0.0294071604832084,
      0.005150406490696877,
      0.012346147862440385,
      0.22477973816528815,
      0.00390958820314853,
      0.05347699456590791,
      0.02759080154008832,
      0.05127518257239192,
      0.06145792068572143,
      0.025278730685755278
    ],
    "std_score_time": [
      0.001482952144132675,
      0.0005946835044862146,
      0.00016401633329026852,
      0.00010071941657336263,
      0.0009955671784809678,
      0.001411101185629342,
      0.0003007298290462151,
      0.00011380267234931098,
      0.010096584028732472,
      0.002380636986419697,
      0.004095771603465337,
      0.000650239491695924,
      0.00021551393601931527,
      0.0001720889527397053,
      0.00048522957770516284,
      0.00044009166866676685,
      0.0006465299745789232,
      0.0004957024860686715,
      0.0002388498087019008,
      0.0012878650384049663,
      0.00036526657629060995,
      0.00015720903307460144,
      0.005224859869893303,
      0.0006886251578509711,
      0.00041386687579970987,
      0.00028355662975726036,
      0.0006914158396651992,
      0.00046831506709746806,
      5.9692080263310135e-05,
      0.0003765429685521605,
      0.0002708417481462771,
      0.0002483763524541678,
      9.789490882646166e-05,
      9.224257377864268e-05,
      6.794699447485074e-05,
      0.0008932920889266657,
      0.0001917388316856463,
      0.0002282373458492412,
      1.2766530175762394e-05,
      7.27706807782045e-05,
      8.584674711470126e-05,
      0.00662027049193289,
      0.0006016581181149208,
      0.0006664505973972535,
      0.00019366821308620645,
      0.0002840794388165282,
      0.0008017572027778523,
      0.0025236644494826053
    ],
    "std_test_score": [
      0.03236005867530728,
      0.018127856018614125,
      0.016588927773515866,
      0.007926900296836696,
      0.01346967301551664,
      0.02279280481464204,
      0.016307363675782897,
      0.028962835993913152,
      0.01767675346023893,
      0.012329088002767708,
      0.016253782123788005,
      0.018449873450776588,
      0.028120830562172693,
      0.01877597533910367,
      0.021848286673641453,
      0.011312007561384266,
      0.015047307814380607,
      0.017981717911858194,
      0.02269698082525826,
      0.023438325911222992,
      0.01669795129020806,
      0.017414814875833875,
      0.01866530804914758,
      0.018970598724928935,
      0.02981198964331754,
      0.03792866185838859,
      0.02159454710670126,
      0.0370259882900783,
      0.031360903541725105,
      0.021431032866013465,
      0.0318295183204609,
      0.03113643418994546,
      0.03792464292224635,
      0.024855507444733083,
      0.028313738592265787,
      0.02259480568281013,
      0.03219741519679136,
      0.042401294202116135,
      0.033691781669412633,
      0.032199743548005255,
      0.03162835727213122,
      0.031181283967542342,
      0.027163691703243745,
      0.04529381165142073,
      0.017495559902741948,
      0.02805434219765311,
      0.036739897482208704,
      0.047644649352472646
    ],
    "std_train_score": [
      0.0014180903323413624,
      0.010521293419602827,
      0.00576541094951541,
      0.004555030635291528,
      0.01167000679553216,
      0.0006359541561186586,
      0.016013950918124856,
      0.008187796654691732,
      0.002235770717884962,
      0.006553921204348615,
      0.008111903083125047,
      0.003635222942444959,
      0.011201987503355455,
      0.007689669806988772,
      0.005308972947213001,
      0.004030597090333477,
      0.009451571180061562,
      0.005748731642161012,
      0.010469821953539432,
      0.009255455751088356,
      0.005896796102510749,
      0.0063443470702424795,
      0.0036708412662993816,
      0.005960331684778476,
      0.013029614449185814,
      0.008786670134173826,
      0.007582831646262446,
      0.0016843332710156419,
      0.004959193523274931,
      0.009720602548091017,
      0.015055118946766937,
      0.008299712962173546,
      0.01089940906130519,
      0.007653680203744027,
      0.0041536278439985915,
      0.007028627321394042,
      0.0036698698407542016,
      0.007981527069984192,
      0.01232168527001633,
      0.018334095123942726,
      0.009694208257329038,
      0.016665352880782254,
      0.013770165787415608,
      0.010803370498352416,
      0.01762529575981321,
      0.024505917208984786,
      0.011721221512937094,
      0.017327556607652582
    ]
  },
  "xval_grid": {
    "clf__alpha": [
      0.01,
      0.03162277660168379,
      0.1,
      0.31622776601683794,
      1.0,
      3.1622776601683795,
      10.0,
      31.622776601683793
    ],
    "pca__n_components": [
      0.75,
      0.8,
      0.85,
      0.9,
      0.95,
      0.99
    ]
  }
}